 at three o’clock.
Prayers
The SPEAKER announced the names of members appointed to serve as the General Committee of Elections for the present session; and some petitions were read and referred.
* * *
NEW BILLS
Mr. SAVARY moved for leave to introduce a Bill to amend section 2 of the Insolvent Act of 1869.—Carried.
Mr. BROWN moved for leave to introduce a Bill to authorize the village of Trenton to impose and collect harbour dues and for other purposes.—Carried.
* * *
REPORTS
Hon. Mr. DUNKIN presented the report of the Minister of Agriculture under the Census Act.
* * *
MESSAGES
Hon. Sir GEORGE-E. CARTIER presented a message from His Excellency containing a copy of the agreement between the Imperial and Canadian Governments relative to the Manitoba Act, with copies, in draft, of the Bill presented to the Imperial Parliament on the subject. Also copies of the agreement between the Dominion Governments and Governments of Ontario and Quebec, with other documents respecting the award of the arbitrators.
Hon. Mr. HOLTON thought the Minister of Militia the other day promised to announce the action proposed to be taken by the Government on this subject.
Hon. Sir GEORGE-E. CARTIER said if the hon. gentleman looked at the papers he would discover the action of the Government with regard to the Arbitration. There was an Order in
Council by His Excellency which formed part of the documents now submitted.
Hon. Mr. HOLTON suggested the reading of the Order in Council, because it was the essence of the communications.
Hon. Sir GEORGE-E. CARTIER: No objection whatever. (Cheers and laughter.)
The Clerk then read an Order of Council of date 27th February, concurring with the following report of the Hon. Minister of Justice in reference to the Arbitration between the Provinces of Ontario and Quebec:
In the matter of the arbitration under the British North America Act, 1867, between the Provinces of Ontario and Quebec referred to the undersigned, he has the honour to report that under the 142nd section of the said Act the following arbitrators were appointed, viz: The Hon. David Lewis Macpherson by the Government of Ontario, the Hon. Charles Dewey Day by the Government of Quebec, and the Hon. John Hamilton Gray, (of St. John, New Brunswick), by the Government of Canada, his appointment dating from March 21st, 1868. That by a despatch from the Lieutenant-Governor of Quebec to the Secretary of State for the Provinces, bearing date the 11th July last, an order of the Executive Council of that province was transmitted for the consideration of His Excellency the Governor General which Order in Council sets forth that: Whereas the Hon. Mr. Gray has resided for more than one year, and has become a resident in the Province of Ontario, and has become thereby disqualified to act as such arbitrator, it has become the duty of this province to object to the said Hon. Mr. Gray acting as such arbitrator. That by a despatch of the same date, the Lieutenant-Governor transmitted two letters dated 9th July from the Hon. Charles Dewey Day addressed to the Provincial Secretary of Quebec resigning his appointment as Arbitrator under the section above cited.
That by a subsequent despatch of the 19th July the Lieutenant-Governor submitted a copy of an order of his Council accepting the resignation of Mr. Day as the Arbitrator named for the Province of Quebec. That by a letter dated the 5th September, Messrs. Gray and Macpherson, the other two Arbitrators, transmitted a copy of the award made by them under the said Act, stating that such an award had been made in duplicate, and sent also to the Governments of Ontario and Quebec, that the award is signed only by Messrs. Gray and Macpherson, and after reciting that the three Arbitrators were appointed by the several Governments as above mentioned, proceeds to state that ‘‘the said Arbitrators having taken upon themselves the burthen of this said Arbitration, the said John Hamilton Gray and David Lewis Macpherson being a majority of
COMMONS DEBATES
82
March 1, 1871
the said Arbitrators, do hereby award, order, and adjudge of and upon the premises as follows, that is to say, &c., &c., &c., that by a despatch from the Lieutenant-Governor of Quebec, dated the 14th September, a copy of an order of the Executive Council of Quebec was transmitted, protesting for the reasons therein given against any force or validity being given to the pretended judgment or award of the said two Arbitrators by the Federal Authority, and advising of the intention of the Government to appeal for redress and justice in every constitutional mode, which it is the privilege of the British subjects under the Crown to exercise when suffering under injustice or wrong from the hands of any.’’
That by a subsequent despatch, dated 22nd December last, from the Lieutenant-Governor he transmitted an address from the Legislative Council and Legislative Assembly of the Province of Quebec, to His Excellency the Governor General, setting out that the Hon. Mr. Gray having taken up his residence at Ottawa, the Government of Quebec had deemed it incumbent to protest against his continuing in office, and to express their conviction that the decision of the Arbitrators should be unanimous; that the Arbitrator appointed by the Province of Quebec resigned his office; that such resignation was accepted, and that the Government of Quebec at the same time protested against any ulterior action on the part of the Commission which was thus rendered incomplete; that Messrs. Gray and Macpherson notwithstanding such representation, entered upon the examination of the questions submitted by the two provinces without the Province of Quebec being in any way represented, and made their award against which the Lieutenant-Governor of Quebec protested as unjust and illegal; that the injustice of the pretended award is evident from the facts stated in the address; that the pretended award is absolutely illegal, null and void, for the reason therein set forth, and as having been rendered by two Arbitrators, who, by the resignation of their colleagues, remained without power or jurisdiction: That, therefore, the intention of the ‘‘British North America Act’’ had not been carried out, and no title has been conferred upon either Province in relation to the credits, properties, and assets, which it was the duty of the said Arbitrators to apportion and divide between the two Provinces. That the Province of Quebec can neither submit to its property being disposed of, or to any sum whatever being exacted from it, nor can it accept any property credits or assets in virtue of the pretended award, and will resist by all the means within its power the execution of the said pretended award, claiming as it does, that justice be done, and that its rights as represented by the British North America Act be maintained, they therefore pray that His Excellency the Governor General will be pleased to adopt such measures as are best calculated to ensure justice to that Province.
* * *
THE CASE STANDS THUS
The Government of Ontario maintains the validity of the award. The Government of Quebec contends that it is altogether illegal and void, and declares its intention of appealing for redress and justice in every constitutional mode, and the Legislature of Quebec also
protesting against its validity asks the Governor General to adopt measures to protect the rights of that Province. Now the Government of Canada has no power or means of interfering between the parties, or of enforcing the award as valid or setting it aside as invalid, or of granting the means of redress or the measure of protection sought for by the Legislature of Quebec. It is for the Government of Ontario if it desires to enforce the award to take such steps as it may be advised that the law allows for that purpose, and it is for the Province of Quebec to take the necessary legal steps to resist any action on the part of that of Ontario. If the question of the validity of the award becomes a matter of litigation either Province will have the power of carrying it by appeal from the decision of any interior tribunal to the Judicial Committee of the Privy Council, as the Court of last resort. If the Governments of the two Provinces were to agree in a statement of special case with the view of submitting the question of the validity of the award to the Judicial Committee, it would be the duty of His Excellency the Governor General in being prayed so to do to transmit such special case to the Secretary of State for the Colonies with a request that it should be submitted to such Judicial Committee for their opinion under the fourth clause of the Imperial Act, 3 and 4 William, 4th, chapter 41.
If the two Governments do not agree upon a joint submission of the case it will be in the power of either Government to pray Her Majesty to refer the case as stated by it for the opinion of the Judicial Committee. As it is obvious that if the Governor in Council were to assume to decide the questions in dispute the Province against whom such decision would be given would not accept or submit to it, and as such decision would have no legal force whatever, the undersigned recommends that no expression of opinion be given by His Excellency in Council; and for the same reasons the undersigned refrains from making any report on the legal questions under present circumstances, and until the questions raised respecting the award are settled by judicial decision the undersigned is of opinion that no action with respect to it can properly be taken by the Governor in Council.
(SIGNED,)
JOHN A. MACDONALD
Hon. Mr. HOLTON reminded the Hon. Minister of Militia that he had been kind enough to volunteer any information the House might want on the subject.
SEVERAL MEMBERS: En frangais!
The papers having been read in French,
Hon. Mr. HOLTON said at least one important paper relating to this subject was not included. This Order in Council bore the date February 27.
COMMONS DEBATES
March 1, 1871
83
The report of the Minister of Justice on which it was founded was dated 25th February. A payment to the Provinces became due in January. He assumed it was made in some form, and that the Government being in possession of the award, some decision must have been come to prior to that payment. The order upon which it was made must be an Order in Council, without which the papers were not complete.
Hon. Sir GEORGE-E. CARTIER said he had much pleasure in informing the hon. gentleman there was no such paper. The Government had taken no action on the award. The payments were made to the Provinces on the same footing as formerly.
Hon. Mr. HOLTON: How could they have been made in the face of the award without the Government deciding to act on it or disregard it?
Hon. Sir GEORGE-E. CARTIER: That was the fact. In January the award was in possession of the Government, as also the protest from the Quebec Government. The Canadian Government thought proper irrespective of the award to make the payments as before.
Hon. Mr. HOLTON: There is no record of such decision.
Hon. Sir GEORGE-E. CARTIER: The fact of the payment was as good.
Hon. Sir FRANCIS HINCKS repeated this statement adding that the old payments had to be made till an order was given to the contrary.
* * *
MOTIONS
Mr. BROUSSEAU moved that the correspondence between the Imperial and Canadian Governments relative to the Manitoba Bill,—and the correspondence between the Dominion Government and the Governments of Ontario and Quebec, with other documents respecting the award of the Arbitrators, be referred to the Joint Committee of both Houses on the Printing of Parliament.—Carried.
Mr. CAMERON (Huron South) moved that a Return be laid before this House shewing the number of insurance companies which have made the deposits required by 31 Vic., Cap. 47, up to the date of said Return; distinguishing between Canadian and foreign companies, and between fire, marine, life and accidents companies; specifying the name of the Company, when incorporated, where the head office in Canada is located, the amount deposited under the provisions in the above, or any other Act, when deposited, whether for the benefit of Canadian Policy holders or for that of Policy holders generally; also the numbers and
names of Companies that have ceased to do business in Canada and have withdrawn such deposits, if any.—Carried.
* * *
QUESTIONS
Mr. RENAUD asked whether it is the intention of the Government to make, during the present session, any change in the Tariff under which the consumers of flour in the Maritime Provinces are the principal sufferers.
Hon. Sir FRANCIS HINCKS: I hope at an early day to state the intentions of the Government.
Hon. Sir A.T. GALT: To make a flowery statement. (Laughter.)
Hon. Mr. SMITH (Westmorland) asked whether it is the intention of the Government to make provision for the uniformity of the laws relative to property and civil rights under the authority of the 94th clause of the British North America Act.
Hon. Sir GEORGE-E. CARTIER replied Government did not intend to do more than was done the other day, namely, submit to the consideration of the House the preliminary report of Hon. Mr. Gray.
Hon. Mr. CONNELL asked whether in the account transmitted to the British Government for the expenses incurred by Canada, in consequence of Fenian raids, the expense incurred by New Brunswick for like services previous to Confederation was included.
Hon. Sir GEORGE-E. CARTIER replied the Government has transmitted to the Imperial Government the claims for indemnity for any losses that may have been incurred either by the Dominion Government, any of the Provinces, or any inhabitant in any part.
Mr. THOMPSON (Haldimand) asked whether it is the intention of the Government to re-establish the money order office at the Indiana Post Office, Province of Ontario; if so, when; if not, why not?
Hon. Mr. TUPPER: The office was suspended in consequence of the inability of the Postmaster to carry on the business correctly. The Government, unhappily, were not more fortunate in the appointment of a successor, for the same difficulty arose. A new appointment had been made, and measures were now in progress to re-establish the money order office at that place.
Mr. FORTIN asked whether the government have received any communications from the Governments of Ontario or Quebec,
COMMONS DEBATES
84
March 1, 1871
respecting a proposed settlement of the surplus debts and assets of the late Province of Canada.
Hon. Sir GEORGE-E. CARTIER replied that neither the Government nor any of the members of the Government had received any communication on the subject from the Government of Ontario, but some of the members of the Dominion Government had received communications from members of the Quebec Cabinet, suggesting a mode of settling the difficulty. It was this: that the Dominion Government should assume the surplus. (Hear, hear.)
Hon. Mr. HOLTON: Is the record of this application among the papers submitted?
Hon. Sir GEORGE-E. CARTIER: No, there is no record; it is simply a fact.
* * *
INSURANCE RETURNS
Mr. CAMERON (Huron South) moved for an order of the House for a return of Insurance Companies which had made deposits required by the law enacted last year. He said that there was a great deal of doubt in the minds of policy holders, especially in the constituency he represented, as to whether they were sufficiently protected by that Act. Within the last year or so, a large number of foreign insurance companies had failed, and policy holders were victimized. He asked for these returns because he understood that the Government proposed to introduce a measure affecting insurance companies. He hoped it would be such a one as would more effectually protect policy holders than the one now in operation. The list of companies which had complied with the Act and deposited the amounts required with the Government, he understood had been published in the Canada Gazette. It might as well have been published in the court journal of Madagascar, if such a journal was ever issued, as in the Canada Gazette. It would be much better to publish that list in some influential newspaper— the Globe for instance—and then the public might know which companies had complied with the requirements of the Act.
Hon. Sir FRANCIS HINCKS said there could be no objection to furnishing the information required. He took the opportunity of saying that, notwithstanding the very great abuse which had been heaped upon the Government for introducing and passing that Act, he had reason to belileve that it gave the public substantial protection. The Government would not be turned from increasing that protection to the public, notwithstanding this abuse. Those who made a business of denouncing the administration had assailed the measure as one for increasing the funds in the Treasury. (Hear, hear.) He was in a position to say that during the past year the Government had been embarrassed by the operations of that Act— that they did not want money, and money was sometimes paid them which they did not want and would rather not be embarrassed with.
When reference was made to the Act now in operation, and complaint was made that it did not give sufficient protection, his hon. friend must remember that the Opposition assailed it when it was introduced for containing a provision which afforded that very protection.
Mr. GIBBS thought that if the Act was intended to be for the benefit of Canadian policy holders, the funds in the hands of the Government should be held solely for their benefit.
Hon. Mr. HOLTON said that if the object of the Bill were to bring money into the treasury it had been exceedingly well contrived to attain that object, and his own impression was that had really been the primary object. If, on the other hand, the protection of Canadian policy holders had been the object in view, it had been most unfortunately framed.
Hon. Sir FRANCIS HINCKS would postpone the discussion of the merits of the case until a future occasion when the Bill proposed to be submitted had been brought down. If the hon. gentleman then found that he could in any way improve what was proposed by the Government he would have full opportunity of endeavouring to do so. He admitted that there was a distinction between companies as it had been found impossible to treat mutual companies as other companies were treated, and the point was one deserving of the greatest consideration. The deposits made by mutual companies were not entirely for the benefit of Canadian policy holders, but those made by other companies were, and in a recent case in which the position of an insurance company had caused some alarm, the deposit was held entirely for the benefit and protection of Canadian insurers.
The motion was carried.
* * *
NORTH WEST
The next motion before the House was one which had been made by Mr. Blake, that the House should resolve itself into a Committee of the Whole to consider certain resolutions on the subject of the admission of Rupert’s Land and the North Western Territory into the Union, and the Legislation in reference to the same.
Mr. BLAKE said that the matter to which the motion he had made had reference, being affected by the paper which had been brought down that day he thought it would not be advisable to proceed with the matter until those papers had been printed and placed in the hands of the members, and he proposed therefore to let the matter stand over.
Motion allowed to stand.
* * *
LIQUOR INSPECTION FUND
Mr. BOURASSA moved that on Monday next the House should go into Committee of the Whole to consider certain resolutions for
COMMONS DEBATES
March 1, 1871
85
the creation of a fund to be denominated ‘‘The Liquor Inspection Fund,’’ &c.
Hon. Mr. MORRIS said that in the interval preceding the day named, he would consider the resolutions and be prepared to state his opinion of the subject.
Motion carried.
* * *
HARBOUR OF REFUGE AT RIMOUSKI
Mr. FOURNIER moved an address for copies of all correspondence, Orders in Council, and reports in connection with a survey, made with a view to the construction of a Harbour of Refuge at Rimouski, with an estimated cost of the harbor. He then addressed the House in French on the subject, pointing out how important it was that such a harbour should be constructed, as steamers of the Allan line and others would be able to go in there all the year round, and also showing that it was absolutely necessary in the interest of the safe navigation of the St. Lawrence.
Hon. Mr. LANGEVIN replied in French, explaining the steps which the Government had taken in the matter.
Mr. FORTIN said he considered the matter was one of very great importance. He had seen, with pleasure, the intention of the Government to construct a Harbour of Refuge in some part of the Lower St. Lawrence. From what the Minister of Public Works has stated, it seems that on the recommendation of the Chief Engineer of the Intercolonial Railway, a survey had been made about Rimouski, and no one could doubt the great necessity for such a work when it was remembered that from the entrance into the River up to Quebec there was not a single harbour (except one on the North shore called the Seven Islands, which was altogether out of the way) where a vessel could be safely anchored. When the Intercolonial Railway should be in operation, connecting the Provinces of Nova Scotia and New Brunswick with the centre of Canada, such a harbour would be especially important and he thought it was their duty to see whether they could not assist nature and find some place where the vessels could stop in safety, some 12 or 20 hours before they could reach Quebec, where they could put mails and passengers ashore and send them to the South and to the West. This Harbour of Refuge at Rimouski or the neighbourhood, he did not care where, would not only be useful as establishing a Port on the Lower St. Lawrence, but would also be of great benefit to the Northern parts of New Brunswick, as the people of that part of the country would thereby be brought nearer, not only to Europe, but also to Ontario and Quebec.
Persons or goods from Europe destined for New Brunswick could be landed at this harbour and at once transported to their destinations by means of the Intercolonial Railway at a less cost,
and very much more speedily than by any other route. It was well known that it was difficult to get any of the steamers plying between New York and England to call at St. John, N.B., as although it was a fine port it was somewhat out of the way of the track of those steamers. Halifax was not so situated, and no doubt when it became the terminus of the Intercolonial Railway steamers would call there more frequently than at present, but St. John could scarcely ever get a mail steamer to call there. The whole Northern part of New Brunswick was without a steamer, while if there were a harbour where vessels could call safely at all times of the day or night, that want would be supplied. He thought the Government could certainly not be blamed for having had an exploration to ascertain whether a Harbour of Refuge could be constructed in the neighbourhood in question.
Mr. ROBITAILLE: The Government were right in getting a survey or exploration made of the harbour and vicinity of Rimouski, with the view of building a Harbour of Refuge. The want of such accommodation has been felt at all times for steamers as well as for sailing vessels; for schooners as well as for ships sailing on the gulf and river St. Lawrence. Also, there is no doubt, as the Hon. Minister of Public Works has said, that a harbour in that vicinity, in connection with the Intercolonial Railway, would shorten the distance by several hours between Europe and Canada; but if the Government is in earnest on this point, they should extend the explorations further down. I am sure that when such an important subject is in question local interest will not be allowed to come into play, and that the Government well understand that the public interest will be better served by widening their sphere of information. A survey of the north shore of Baie des Chaleurs will show that the coast is free of ice, free of fog, and offers easy access to steamers for the twelve months of the year in the harbour between New Carlisle and Paspebiac points—that mails and passengers from Europe landed there in winter as well as in summer will reach, by the Intercolonial Railway, Montreal or Toronto in less time than if landed at Rimouski or Halifax.
You remember, Mr. Speaker, that the Chief Engineer of the Intercolonial Railway, in his report, recommended that the harbour of Shippigan should be selected for a winter as well as a summer harbour, because it was the shortest route from Europe. At the time of this recommendation people in the vicinity knew well that Shippigan was an impossibility as a winter harbour, because it lies on the south shore of Baie des Chaleurs, and the North winds, always prevalent in winter time, keep the shore blocked with ice and inaccessible. For the same reason the South Shore of the St. Lawrence River is inaccessible in winter, while from the same cause the North Shore of Baie des Chaleurs is free from ice and quite accessible at all times. I have lived in Baie des Chaleurs for the last thirteen years, and have never seen ice to prevent a steamer from coming to Paspebiac or New Carlisle in the coldest months of winter, and I seize this opportunity of calling the attention of the Government to this fact. I commend the Hon. Minister of Public Works for the lively interest he has taken to obtain all information possible with a view to establish a Harbour of Refuge at Rimouski or its vicinity, and I am very anxious to enlist his solicitude for Baie
COMMONS DEBATES
86
March 1, 1871
des Chaleurs, considering that it offers a harbour accessible at all seasons. Therefore, I trust that, keeping in view the general interests of the Dominion, the Government will order the necessary exploration and survey of the Harbour of Paspebiac and New Carlisle as soon as possible.
Mr. WORKMAN while admitting the importance of the subject, and hoping it would have all the consideration it deserved, trusted that the Government would not expend a large amount of money merely to increase the value of the property of individuals, which was certainly supposed to be the case in the matter under discussion. Nothing but a very heavy expenditure would result in constructing a Harbour at Rimouski, as there was no depth of water, and it would be most absurd to attempt to construct a harbour there at all. He hoped that before any expenditure was incurred, a reliable survey would be made, and full particulars obtained, and that favour would have no weight in the selection of the locality.
Hon. Mr. McDOUGALL (Lanark North) said that he always listened with some apprehension, when he found the Hon. Minister of Public Works, and the member for Gaspe and Bonaventure agreeing on projects for improvements in the part of the country in question.
Hon. Mr. LANGEVIN said that he had already explained the matter fully to the House in French, but as the hon. gentleman, the member for Lanark, might not have fully understood him, he would be glad to repeat his statement in English, although he might not speak so clearly in a language which was not his own. In replying to the hon. member for Bellechasse, he had told him he was mistaken in supposing that the Government had undertaken the survey for the purpose of making a Harbour of Refuge at Rimouski, a harbour which could receive vessels during the winter. That was not the intention of the Government. A survey had been undertaken on a report of the Chief Engineer of the Intercolonial Railway that the railway approached the St. Lawrence at Rimouski for the last time before taking its course into the interior of New Brunswick. Another reason for selecting Rimouski was that Father Point, the point where steamers between Quebec and Europe received or landed their pilots, was only a few miles further down. A survey had, therefore, been ordered, the engineers had worked during the summer and had returned a short time ago, and were then preparing their plans and a report would be made to the Department in due time. The object, however, was not to make a Port of Refuge, but to provide a place where vessels could discharge their cargoes onto the railway and receive cargoes from the railway, and where the European steamers could land their passengers, baggage, and mails, so that a train could be in readiness for the East and West, by which means they could reach Quebec twelve hours, Montreal eighteen or twenty hours and Toronto many hours earlier than they would if the steamers had to go to Quebec, and so that steamers would not be delayed by fog as they were now. That was a very important object, and the Government had thought it right to order a survey.
As to the amount which the hon. member for Bellechasse had spoken of it was out of the question. He (Hon. Mr. Langevin) had
spoken to one of the Engineers on the subject, who had told him that no estimate had been made, but that that sum was out of all proportion. The hon. member for Bonaventure had raised another question in suggesting the Baie des Chaleurs as a landing place which would be available in winter. The survey that had been made had not been for the purpose of finding a Winter Harbour. That was another question altogether, and the hon. gentleman must see that a harbour in the Baie des Chaleurs would not prevent mariners from navigating the St. Lawrence as they did now, and therefore a harbour at Rimouski would still be necessary. If it could be shown to the Government that at any particular place a harbour could be constructed which would be available all the year round, the Government would then consider the matter and decide whether a survey should be made, but that should not interfere with the Rimouski survey, as the objects were entirely different.
Hon. Mr. McDOUGALL (Lanark North) in resuming, said the explanation the hon. gentleman had made was so far satisfactory, in that it showed that nothing had as yet been done beyond the making of an investigation as to the practicability of the construction of the harbour at the place mentioned. The construction of a Harbour of Refuge involved a very large expenditure, and certainly no complaints or demands had ever been heard from the people in the neighbourhood concerned as to the want of such a work, and he thought that when vessels had reached that point it might be considered that their voyages were approaching completion, and that they did not need a Harbour of Refuge. When the matter was first spoken of he thought on the face of it, it looked as if an affair which had occurred some time ago and which was well known was about to be repeated. He referred to what had been known as ‘‘the Baby Jobs.’’ Large sums of money had then been expended in the construction of works from which no benefit had ever been derived, and which were now worthless, and no doubt the arguments urged in favour of the construction of those works had been equally strong with those now adduced.
It seemed to him, however, that the Minister of Public Works had presented the matter in a new light. It appeared now that the intention was that on the completion of the Intercolonial Railway steamers would land their contents and transfer them to that Railway at Rimouski or some other point in the St. Lawrence. His impression hitherto had always been that it was intended to have a Railway to Halifax and that there the transfer from the Ocean steamers would take place. It would almost seem that the Minister of Public Works despaired of the completion of the Railway for a number of years, or of its practicability, or else of its being used when it was completed. He did not object to surveys being made in order that Government might ascertain the practicability of projects recommended for their consideration, but he thought it was as yet altogether too soon to decide what particular point on the Intercolonial Railway ought to be the point at which ships and rail should meet, and he trusted the House would not allow the Government to incur any expenditure in the matter until something more was known in regard to the Intercolonial Railway, and when that road was almost built it would be quite time enough to decide
COMMONS DEBATES
March 1, 1871
87
at what point mails and passengers would be most beneficially landed.
Mr. FORTIN asked to be allowed to add a few words with reference to remarks made by the hon. gentleman who had last spoken. From what had been said the House might think that he (Mr. Fortin) was peculiarly interested in the construction of the Harbour at Rimouski, and he desired to state that Gaspe would not profit by that harbour, as their vessels were only small fishing vessels, and they had already shelter for them at the Island of St. Barnaby. He had not spoken in favour of the harbour in the interests of his constituents, but as a member of that House, and for the general good of the Dominion, and he might add that the harbour would be a much greater advantage to the people of Ontario than to the people of Gaspe. He had not objected to appropriations of money for the construction of Harbours of Refuge in the upper lakes, because he considered those harbours necessary for the safe navigation of the lakes, and he was in favor of the harbour at Rimouski on similar grounds.
The motion was carried.
* * *
REMUNERATION OF POSTMASTERS
Mr. STEPHENSON moved an address for copies of correspondence with reference to the change made since Confederation, in the rates of remuneration of Postmasters throughout the Dominion, and in the mode of that remuneration.
Hon. Mr. TUPPER stated that he was instructed by the Postmaster General that the effect of the Act reducing the rates of postage had been a considerable decrease of revenue, but that the largely increased number of letters transmitted, was rapidly increasing the Revenue on which the remuneration of Postmasters was made, and in order to meet the decrease in remunerations which had resulted from the reduced rates of postage, a commission of 40 per cent was allowed to Postmasters instead of 30 per cent, the previous rate, and by that means the Postmaster General expected to prevent any reduction in the remuneration given to Postmasters. He further said that there was no correspondence that could be brought down which would give any information further than was contained in the report of the Postmaster General already before the House, and he asked therefore that the motion should not be pressed.
Mr. STEPHENSON said that his object had been to ascertain what reasons there had been for passing the Order in Council. A year ago it was understood that the Postmasters did not receive a sufficient amount of remuneration, and it was then understood that under the new regulations they would receive more, but the fact was that they actually received less. In his own town the Postmaster had
received in 1867 a salary of $1,600, whereas he now received only about $1,300, and the same was the case throughout the Dominion. He believed that Postmasters in country places had been benefitted, but the reverse was the case with Town Postmasters, and he hoped the Government would see the necessity of looking into the matter, and if necessary, giving Town Postmasters a special rate. He did not desire to press his motion.
Motion accordingly withdrawn.
* * *
SEIZURES IN LAKE ST. CLAIR
Mr. STEPHENSON moved an address for all correspondence respecting a seizure by United States Customs officials of a steam tug and barge, the property of Hiram Little, Esq., a British subject, while engaged in legitimate trade in Canadian waters. He stated that for a number of years a large trade had been carried on in wood on the River St. Clair and Lake St. Clair by Canadians, that in 1866 the American Government had given a contract for the construction of a ship canal across the Flats in Lake St. Clair, on the Eastern side of what was known as the St. Clair Flats Canal, which canal was without doubt within Canadian jurisdiction. During the construction of that canal Canadians had been in the habit of delivering wood and other supplies necessary for the carrying on of the work, and on the occasion in question Mr. Little arrived with a steam tug and a barge loaded with wood for the contractor. At the time three American officials from Detroit chanced to be fishing on the spot, and they took upon themselves to seize Mr. Little’s vessels and their loads and took them all to Detroit, and, as it were, confiscated them. After much trouble and expense Mr. Little was allowed to take the vessels away on entering into bonds for $3,000, the wood being retained, and he expected that the Government would take action to relieve him from his position and obtain compensation for him. He (Mr. Stephenson) had reported the case to the Government at the time it occurred, but had received no answer, and did not know what steps had been taken in the matter. He thought, therefore, that the matter should be laid before the House and justice done in the matter without further unnecessary delay.
Hon. Mr. TILLEY said that correspondence was now going on between the Canadian and American Governments, but it was not complete, and he therefore asked that the motion be allowed to stand over for the present.
Motion allowed to stand over.
* * *
CANAL ENLARGEMENT
Mr. MAGILL moved an address for copies of correspondence and instructions to Commissioners on the subject of canal enlargement, and of all other papers connected therewith.
COMMONS DEBATES
88
March 1, 1871
He said that the subject was one in which the country awaited with very great anxiety an announcement of the policy of the Government. It was of such importance that it had occupied a very prominent place at the Quebec Conference in 1864, and had been a strong argument in favour of Confederation, as it was urged that the country joined together would be better able to deal with the matter than otherwise; and although much had been done, and many improvements effected, the great work of opening up the St. Lawrence still remained untouched. Referring to the rival project by the French River and the Ottawa, he dwelt on the many advantages possessed by the St. Lawrence route, which he thought more than counterbalanced the difference in distance. If the St. Lawrence and Welland Canals were deepened to 15 feet, the trade between the different provinces would be wonderfully increased, and no one would object to any import duty on foreign coal. He trusted the matter would engross the attention of the ministers, and that they would soon be able to announce their policy on that great question.
Hon. Mr. LANGEVIN said he had no objection to the address, but there was really no correspondence yet, and he would suggest that that portion of the hon. member’s address be dropped, and he could afterwards give notice when the report of the Canal Commissioners was submitted to the House.
Hon. Mr. HOLTON saw no necessity for delay. He understood that the Commissioners had furnished the report, and had dispersed.
Hon. Mr. LANGEVIN said the hon. gentleman was mistaken. The Commissioners had not dispersed and had not yet completed their labours.
Hon. Mr. HOLTON said it was very desirable that the House should have the report before it soon. The Government, from some form of discord, incapacity or feebleness of purpose, being unable to devise policy of their own, and having devolved this duty on private gentlemen, who were utterly unknown to public life, should at least put the House in possession of such information as would enable them to furnish the Government with a policy if the Commission should be unable to do it. (Hear, hear.)
Hon. Sir FRANCIS HINCKS was surprised to hear the hon. gentleman, who had so large a parliamentary experience, blaming the Government for appointing this Commission. He had the practice of the British Government for a precedent. In England there was hardly a subject of importance that was not initiated by a Commission. The Canal Commission had been appointed at the request of influential persons who were interested in having these improvements made, and it certainly was not a matter in which the Government were open to attack. He did not think it was too much to expect that the Government should be allowed time to examine papers before they were submitted to the House. He confessed that for himself the only papers relative to the matter he had read was a copy of the instructions issued to the Commission. He believed it
would be in the power of the Government in a very few days to produce the papers, but at present it was not.
Mr. MAGILL said he would let his motion stand for a few days.
Hon. Mr. McDOUGALL (Lanark North) quite agreed with the hon. member for Chateaugay that there was a growing practice in the country, which would not be easily got rid of if allowed to continue unchecked. He referred to this practice of the Government of handing over important measures to irresponsible persons in order to get rid of the difficulty of preparing a scheme. He could not remember any precedent in the British House for this course of the hon. gentleman opposite. It might be justifiable, but if so, what were the thirteen hon. gentlemen opposite placed there for, if it was not to act as a standing Commission, whose business was to deal with great public measures of this kind. He apprehended that the true reason for the appointment of this Canal Commission was that there were various projects which the Government did not approve of, and this Commission was the easiest and most deceptive way of getting rid of them. What was the result? They had seen some notice in the newspapers, and had heard in the lobbies mysterious whispers about this Commission. They heard, and had read, in fact, that the Bay Verte Canal was to be constructed, and as a set-off to the Western people, a canal was to be constructed at Sault Ste. Marie, and the St. Lawrence canals were to be deepened. They could have had all that done by a Committee of the House. Committees could have been formed to ascertain the practicability of constructing works of this kind, and this House was the proper body to deal with them. This appointment of the Commission was an invasion of the functions, duties, and privileges of this House, and it handed over to gentlemen whose names had never been heard of in connection with works of this kind these important interests. He had travelled with one of the Commissioners, Mr. Shannon, a very entertaining gentleman, recently from the east. The gentleman had come here probably after the report had been agreed on; but even admitting that Mr. Shannon had been present at the meetings of the Commission, what special knowledge had he, as a legal practitioner at Halifax, of public works of this kind. The whole system was a sham, and the hon. gentlemen opposite were bringing a responsible Government into contempt by abdicating their functions, handing over their duties to private gentlemen, and shielding themselves under this Commission. What member of this House was to be influenced or induced to vote for or against this proposition because certain gentlemen had said yes or no. The opinions of this Commission were just worth so much and no more, as those of five or six other ordinary intelligent gentlemen. Yet the hon. gentleman opposite stated that this sort of thing was done in England, and consequently should be done here.
Hon. Mr. HOLTON: It is not done in England.
Hon. Mr. McDOUGALL (Lanark North): No, it was not done in England. The hon. gentlemen were practical men and were sent to this Parliament for that reason, and they were the great
COMMONS DEBATES
March 1, 1871
89
Commission who were to decide this matter. The Ministry were the standing Commission, and it was for them to deal with these measures with the information they had, and to obtain for their measures the assent of the House. Now what did they see in this case? The Commission met in Ottawa to determine what canals should be undertaken. They knew very little about the matter and had to send for persons to instruct them as to what they should do. They had to visit the Public Works Department, and to interrogate the officials there as to facts on which they should base their conclusions. That might be the interpretation of Responsible Government by the hon. gentlemen opposite, but he was sorry to hear the great apostle of that principle recommend that the Government should hand over their prerogative in this manner.
Hon. Sir GEORGE-E. CARTIER said the Government intended to take the responsibility of these works on themselves (hear, hear) but they had not had time yet to come before the House with any proposition, besides the Government was like a private individual in such matters: they were interested in obtaining all information necessary before entering into large expenditures. There was no better means of obtaining information on matters in which legislation was to take place than to refer it to a Commission. The hon. gentlemen opposite had asserted that there was no such practice in England. It was a well known fact that with the exception of fortifications most public works were undertaken by private corporations. When it was proposed to construct fortifications in Canada, Commissioners were sent here to enquire where were the proper places for them. In every Government Commissions were employed for such purposes. In the enlargement of canals were two great questions, the engineering question and the commercial question. Who was better acquainted with the commercial interests of this country than Mr. Hugh Allan? And where was an engineer of greater experience than Mr. Gzowski to be secured? Was not the member for North Lanark a Commissioner appointed to proceed to the West Indies, to enquire as to the best mode of extending our trade with them? (Cheers and laughter.) The Government would form its policy on the recommendations of the Canal Commissioners, and assume all responsibility for action thereon and for such appropriations as they might occasion. They would meet Parliament on the question of the acceptance or the rejection of the Commissioners’ recommendations. He hoped and was sure the Government would be able out of that report to frame a policy that would meet the wants of the country.
Mr. BLANCHET was surprised the member for North Lanark should reflect upon the appointment of Commissions. He belonged to a Government from 1862 till 1864 that had managed the affairs of the country by Commissions. He had also been concerned in a North West Commission, which did not turn out successful. He was unable to carry the commission in his pocket on that occasion. (Laughter.) The fact was the appointment of a Commission in this instance was the best step the Government could have taken to procure the information needed; and the qualifications and high standing of its members were a guarantee that both their statements and recommendations were entitled to respect. (Hear, hear.)
Hon. Sir A.T. GALT did not believe that any advantage was likely to flow from the Canal Commission. He agreed with the member for Lanark North that as to the improvement of our internal navigation generally this House was as well informed as it could be by the Commission. The Government had the able reports of the Public Works Department, and those of their own engineers, and were in as good a position to arrive at a sound opinion as to what ought to be done as were these Commissioners, and far better. True, they were men of high standing but he did not believe they possessed any speciality beyond the Government and the House to enable them to arrive at a conclusion. Further, as their appointment, giving them so wide a scope, obliged them to go into a great many questions which the Government could not have found it necessary to take up, the Government were better able to judge of the resources of the country at their disposal, and of its necessities, than any Commissioners. (Cheers.) He therefore regretted their appointment. The comparison of this Commission with that to the West Indies was what called him to his feet, because he did think no possible analogy could be established between them. The latter had to visit the West Indies, which the Government could not have done, they having such a disposition to keep their places. (Hear, hear.)
Hon. Sir GEORGE-E. CARTIER: It establishes my position as to the principle of the Commission.
Hon. Sir A.T. GALT: This principle ought to be laid down— That the Government should appoint a Commission where they required the aid of skill, where persons possessed a specialty pertaining to certain subjects. That was not the case with the question of the canals, and if it was, the proper parties had not been appointed. He did not deny the report might be an able one; but he would be much surprised if they found in it anything not already in the knowledge of the Government.
Hon. Mr. TUPPER said he would not have risen if hon. member for North Lanark had not selected the Nova Scotia member of the Commission for his criticism. Did he consider that holding a high and distinguished position at the bar was any reason why a gentleman should not be able to give his attention to public matters? He was the last member who should treat that fact as a reason of the sort. It would have been but fair to state that such were his abilities, social qualities, and talents for public business that the county and city of Halifax, the capital of Nova Scotia, had again and again elected him as their representative; and that he was for years a member of the Government. This discussion was ill timed. If members believed it improper for the Government to avail itself of the first commercial talent, and the ablest suggestions with reference to this business, the time to make their objections was a year ago, when the intention was first announced. The House then having made no opposition it was a little late in the day for hon. gentlemen to do it now.
Hon. Mr. HOLTON: No, no. I opposed it.
COMMONS DEBATES
90
March 1, 1871
Hon. Mr. TUPPER was surprised to hear the member for Chateauguay denouncing this Commission, for he held in his hand a vote given by him for a similar commercial commission requiring special talent.
Hon. Mr. HOLTON: No.
Hon. Mr. TUPPER: But when a vote was proposed for the expenditure of a million and a half, on fortifications, he placed his opinion on record that it was due to the public interest the Government should be relieved of the responsibility by the appointment of Commissioners to consider where they should be constructed; and having thus sanctioned the principle in a matter where it was not relevant, he thought that hon. member was precluded from raising his present objections.
Hon. Mr. HOLTON: I did raise that objection.
Hon. Mr. TUPPER: The suggestion of the Canal Commission came from the House and not the Government. He had headed a deputation which solicited this step, and the House having at the time sanctioned the Government’s course, it was too late now to try to elicit its censure. The Commissioners having consented to serve, having withdrawn their talents and labours from their own business, and cheerfully worked for the public he thought gentlemen opposite, in reference to them, should have awaited their report without prejudging their labours and endeavouring to destroy confidence in them.
Hon. Mr. McDOUGALL (Lanark North) could understand now how it was that the hon. gentleman who had just spoken founded the reputation he bore in his own province as a great stump speaker, and as the accomplished and wily conqueror of its other Minister in the Cabinet here. (Laughter.) Had he (Hon. Mr. McDougall) not spoken of the Nova Scotia Commissioner as an able lawyer and a gentleman of talent and respectability? His
argument was not in depreciation of Mr. Shannon, but that his being a distinguished and hard-worked lawyer, he was not in a position to come here and inform hon. members as to where canals should be constructed. With regard to the Commission spoken of by the Minister of Militia, it was appointed partly from the Government, which was responsible for its report through him (Hon. Mr. McDougall). A member of Nova Scotia Government, also, was on that Commission.
The case was unfortunate as an illustration in another point of view: it was unfortunate as an example of the benefits of a Commission, that after the travels of its members and the exposure of their lives on the high seas and in foreign parts, and after a report which, he thought, would be admitted displayed a good deal of industry, that Commission fell still-born. Its work was never acted on either by the Government or this House. The carrying out of its recommendations would have developed the resources of the country in an important direction. Even hon. gentlemen opposite must admit that neither the Government nor the House had acted as promptly and judiciously, as they ought, on that occasion. As Mr. Smith wrote on one occasion as regards England, Government Commissions were generally devised for the purpose of concealing and distorting information already accessible, and which should be put to a proper use. As to Mr. Allan, he stood at the head of the commercial element, and was, no doubt well schooled in all the subjects connected with the navigation of the St. Lawrence, and the transportation of the products of this country to the old world. He (Hon. Mr. McDougall) would have summoned him before this House on a special Committee on this subject. As a witness he would have been useful; but as a Commissioner to occupy the place of the Government, the fact of his being a merchant in such circumstances, disqualified him from giving an intelligent, reliable opinion upon this great subject. (Hear, hear.)
It being six o’clock, the Hon. Sir GEORGE-E. CARTIER
moved the House adjourn till tomorrow, as there was very little business on the paper. After some obstructions from the leaders of the Opposition the motion was carried.
COMMONS DEBATES
March 2, 1871
91
HOUSE OF COMMONS
Thursday, March 2, 1871
