 at 11 a.m.
[English]
HOUSE OF COMMONS
APPOINTMENT OF INTERNAL ECONOMY COMMISSIONER
Mr. Speaker: I have the honour to inform the House that Nelson Riis, Esquire, Member for the Electoral District of Kamloops—Shuswap, has been appointed as a Member of the Board of Internal Economy for the purposes and under the provisions of Chapter 39 of the Statutes of Canada, 1985, entitled: An Act to amend the House of Commons Act.
Some Hon. Members: Hear, hear!
ROUTINE PROCEEDINGS
[English]
WAYS AND MEANS TABLING OF NOTICE OF MOTION
Hon. Tom Hockin (Minister of State (Finance)): Mr.
Speaker, I have the honour to lay upon the Table, pursuant to the provisions of Standing Order 84(1), Notices of Ways and Means Motions, and pursuant to the provisions of Standing Order 84(2) I ask, Mr. Speaker, that you designate an Order of the Day for the consideration of the Ways and Means Motions to amend the Income Tax Act pertaining to the prepayment of the child tax credit and the Ways and Means Motions to amend the Excise Tax Act and the Excise Act.
* * *
[Translation]
PETITIONS
GOVERNMENT RESPONSE
Mr. Doug Lewis (Parliamentary Secretary to President of the Privy Council): Mr. Speaker, pursuant to Standing Order 106(8), I have the honour to table, in both official languages, the Government response to the last 214 petitions presented during the first session: 331-551, 331-553, 331-554, 331-557, 331-560, 331-562, 331-584, 331-588 to 331-593 inclusive, 331603 to 331-611 inclusive, 331-614, 331-615, 331-619, 331-622,
331-624 to 331-640 inclusive, 331-642 to 331-706 inclusive, 331-709, 331-71 1 to 331-738 inclusive, 331-740 to 331-748 inclusive, and 331-750 to 331-817 inclusive.
* * *
[English]
INTERPARLIAMENTARY DELEGATION
PRESENTATION OF NINTH REPORT OF THE CANADIAN NATO PARLIAMENTARY ASSOCIATION
Hon. Allan B. McKinnon (Victoria): Mr. Speaker, pursuant to Standing Order 101, I have the honour to present to the House the Ninth Report, in both official languages, of the Canadian NATO Parliamentary Association prepared by the Hon. Member for Okanagan—Similkameen (Mr. King).
* * *
BUSINESS OF THE HOUSE
Hon. Don Mazankowski (Deputy Prime Minister and President of the Privy Council): Mr. Speaker, there have been some discussions with the House Leaders of the other two Parties with respect to the proceedings for tomorrow and I think that you would find that there would be unanimous agreement to the following:
That on Friday, October 3, 1986, the House shall continue to sit between 1
p.m. and 2 o’clock p.m. for the purpose of continuing the debate on the
Address in Reply to Her Excellency’s Speech from the Throne.
Mr. Riis: Mr. Speaker, we in the New Democratic Party certainly agree with this provision in the spirit of providing for more comprehensive and cohesive speeches from our three Leaders.
Mr. Gauthier: Mr. Speaker, I would confirm that there has been negotiations and we agree.
Mr. Speaker: The House has heard the terms of the motion. It is the please of the House to adopt the motion?
Some Hon. Members: Agreed.
Mr. Speaker: Carried and so ordered.
18
COMMONS DEBATES
October 2, 1986
The Address—Mrs. Collins
• (UlO)
GOVERNMENT ORDERS
[Translation]
SPEECH FROM THE THRONE
ADDRESS IN REPLY, MOVED BY MRS. MARY COLLINS AND
SECONDED BY MR. ALBERT GIRARD
The House proceeded to the consideration of the speech delivered by Her Excellency the Governor General at the opening of the session.
Mrs. Mary Collins (Capilano): Mr. Speaker, I have the great honour to move the motion on the Address in Reply to the Speech from the Throne. First I should like to pay my deepest respects to Her Excellency the Governor General, the Right Hon. Jeanne Sauve, and to congratulate you for having been elected Speaker of the House of Commons. All our fellow Canadians in British Columbia are particulaly honoured by the fact that you were chosen by your peers to assume this heavy responsibility. We are very proud indeed that you should be the first representative of our province to hold this prestigious position.
Over the coming months it will be your duty to ensure respect for the rules and traditions of this House. You will also be expected to make sure that Hon. Members so conduct the nation’s business as to make Canadians proud of this institution. 1 know that all Members of my Party intend to give you their full support in the discharge of your duties, and I should hope that all Members of the House share this commitment.
[English]
Before I comment on the Speech from the Throne, Mr. Speaker, I should like to acknowledge my British Columbia roots. As a Canadian and as a native of British Columbia, this summer has filled me with a sense of pride and accomplishment, unequalled since 1967. This summer we threw a party called “Expo 86”. The whole world came and is still coming in record numbers. We have showcased more than transportation and communications at Expo; we have showcased Canada, and the world loves it. In record numbers people of the world have concluded what we have known all along—this country is the best in the world.
Some Hon. Members: Hear, hear!
Mrs. Collins: Our people, our resources, our spirit, and our achievements are second to none. I am sure that all Hon. Members of the House join with me in saying to all involved in the Expo 86 success: “good job, well done, merci bieri".
Today I am especially pleased and wish to acknowledge the honour extended to the residents of Capilano and of British Columbia by the invitation of the Prime Minister (Mr. Mulroney) to me to move the Address in Reply to the Speech from the Throne. The last time a British Columbia Member was so honoured was in 1896—90 years ago. At that time the Hon. Member for Nanaimo, Mr. Mclnnes, complained that
while British Columbia contributed $2 million annually to the Dominion Treasury, on average the largest amount the province had ever received back to cover all public expenditures was $1.2 million. He said he hoped that the selection of a Member from British Columbia to open the Throne Speech debate was evidence that “at last we have a Government in power in this country that recognizes the importance of, and is prepared to pursue a policy of, generous treatment toward that great far West”.
Some Hon. Members: Hear, hear!
[Translation]
Mrs. Collins: The more things change, the more they remain the same.
[English]
These comments parallel the message of the Speech from the Throne and my comments today in that we want to see all regions, all corners of the country, and all Canadians share in this nation’s prosperity.
Canada will only be as strong as its most far-reaching parts. One of the greatest challenges of our Government is to ensure that it has in place policies and programs which will be fair and provide opportunities to all Canadians, whether they live in downtown Toronto or in far distant Tuktoyaktuk, whether their home is in Come-by-Chance, Newfoundland or in Ucluelet on Vancouver Island.
Almost two years ago, on November 5, 1984, the Government of Canada set forth in a Speech from the Throne a new agenda for our country. It was an agenda which called, very simply, for a new beginning. Just two months prior, Canadians, through the expression of their democratic rights, had overwhelmingly endorsed such an agenda. Canadians wanted a fresh start. They were tired of confrontation. They were scarred by recession. They were hurt by unemployment, high interest rates, and inflation. They knew fundamentally that there was nothing wrong with them or their country. What was needed was new management, different ideas and approaches, new solutions, and a new beginning.
In that speech the Government committed itself to a new beginning in four broad areas of our national life—economic renewal, national reconciliation, constructive internationalism, and social justice. In the two years since, progress has been made in all four areas, although much remains to be done. Yesterday Canadians heard that their Government is committed to finishing the job it started, to making good its pledge of a new beginning.
Today I want to talk about the fundamentals of our agenda, fundamentals which are essential to our vision of Canada as a modern, tolerant, caring nation whose citizens are secure and prosperous. Let me start with economic renewal. On November 5, 1984, we made it our No. 1 priority. Our objective that all Canadians can lead prosperous productive lives requires that they have the opportunity for employment. Over half a million people are working today who were not working two
October 2, 1986
COMMONS DEBATES
19
years ago, and more than 80 per cent of them are employed on a full-time basis. In British Columbia, 70,000 new jobs have been created since September, 1984. However, I know that these statistics are cold comfort for the man or woman, young or old, who seeks and yet cannot find a job.
While we are justly proud of the accomplishments of the past two years, we recognize that the job is not finished and that our attention must continue to focus on five essential components required to achieve economic renewal and to meet our objective. The first of these is management of Government itself. We are showing Canadians, for the first time in many years, that it is possible to manage Government effectively and efficiently and to bring government expenditures under control. In fact, last year total government program spending was down for the first time in 40 years. The deficit has declined for the first time in six years, primarily through reductions in expenditures. By 1990 the deficit will be S26.7 billion less than it would have been had the Government not acted.
Some Hon. Members: Hear, hear!
Mrs. Collins: I will use an analogy. We have taken a ship which was floundering out of control and, with a great deal of effort and some sacrifice, we have turned it around and set it on a course straight and true. However, having instituted these measures internally, what else needs to be done to stimulate growth and job creation in the country?
Our philosophy as a Government has been that our role should be primarily to encourage and make it worth while for individual Canadians to make investments and to create new businesses and jobs. Critical to the success of this approach are consistently low interest rates, which are now at their lowest level since 1978. This means that Canadians are now able to take the risk of borrowing money to make new investments. These low interest rates have also been a tremendous spur to the building industry. Instead of walking away from their homes, as so many Canadian families were forced to do only a few short years ago, Canadians are now building and buying homes at a near record pace. The payment which a Canadian family makes today on a $50,000 mortgage is $108 less per month than it would have been two years ago.
Twinned with low interest rates is the need to keep inflation under control. Inflation, if rampant, can rob Canadians of their buying power and adversely affect consumer demand. It also threatens the retirement savings of hundreds of thousands of our elderly citizens. Under this Government, inflation has been holding steady at about 4 per cent for the past two years, a rate not seen since 1971 and almost unimaginable a few short years ago.
• (1120)
In encouraging an environment for investment and expansion we have already and will continue to address a second issue, that of government regulation and its direct involvement in the market-place. We have determined that the Government
The Address—Mrs. Collins
no longer needs to own or operate companies which do not play an important public policy role and could be operated just as well by the private sector. We have already had success in selling de Havilland, Canadair and Canadian Arsenals. I know we will continue to examine other Crown corporations to see if, when and how they can be divested from government ownership.
Proliferating government regulation has frustrated individual Canadians and businesses. I am delighted that we will be bringing forward measures to get rid of unecessary red tape and paperwork. We will also be providing new regulatory frameworks for the transportation and financial service industries, frameworks which ensure required protection for the public, but promote competition, efficiency and international competitiveness.
The third component of economic renewal is the taxation system and, as indicated in the Throne Speech, we will be implementing significant tax reforms which will result in a simpler, fairer and less burdensome system. Nobody likes paying taxes and yet we all recognize they are here to stay. What I think most Canadians desire is that the system is fair and that it is fairly administered. I know that we are all looking to the details of the initiatives of the Minister of Finance (Mr. Wilson) in this area, and particularly welcome his commitment to shift the tax burden away from personal income tax.
Fourth, while we are putting in place measures to expand the economy, we recognize there continue to be disparities within the country, disparities which I mentioned earlier. Here is where Government must play a role to assist those regions, those communities that are now enduring difficult times.
Special programs in Atlantic Canada, recent initiatives in the west for our farmers and our energy industry are evidence of this Government’s commitment and capability to deal with these difficult issues.
I am happy to see, to assist in British Columbia’s development, that special attention will be given to the diversification of its economic base.
Government procurement too can be a tool to promote regional equity. An example of this would be the awarding of the contract for the Polar 8 Icebreaker reaffirmed in the Speech from the Throne to the West Coast. Construction of this ship would provide a significant boost to the economy of British Columbia and would have a major beneficial impact on the West Coast shipbuilding industry, the shipyard workers and their families. I am sure no one will be surprised, here or in Capilano, by my continuing commitment to, and call for, such a decision by the Government.
The fifth component of economic renewal is trade enhancement. Canada started out as a nation based on trade. Furs and metals were among our first commodities traded. Now 34 per cent of British Columbia’s gross domestic product is exported. We anticipate and see the need to increase Canada’s external trade. We recognize as well that we must work with the
20
COMMONS DEBATES
October 2, 1986
The Address—Mrs. Collins
provinces to remove interprovincial barriers to trade. The negotiation of a new trade agreement with the United States would ensure access of Canadian goods and services to our largest market. This is vital to Canada and particularly to British Columbia. Only with such an agreement in place can we hope to avoid the protectionist intrusions which we now face as exemplified by the softwood lumber issue.
At the same time I am pleased to see the Government is committed to supporting the new multilateral trade negotiations under the auspices of GATT and will, as well, focus on expanding our trade in the Pacific Rim. As I know from my own experience and involvment in that region, there are many opportunities awaiting us in the export of everything from our resources to our special skills in engineering and municipal infrastructure, health care and education services. Joint ventures, special licensing agreements and trading companies must be established if we wish to compete in the growing markets of Japan and Korea, China and the ASEAN countries. The public and private sectors need to work effectively together to pursue aggressively and take advantage of these opportunities.
Unfortunately, Mr. Speaker, time does not allow me to detail all our accomplishments and our future plans with respect to the other three aspects of our agenda. Let me just say that national reconciliation is happening. I have talked to politicians and senior government officials in various parts of the country who have confirmed that the attitude and atmosphere of federal-provincial relations have changed dramatically in just two years from confrontation to co-operation. That is not to say that we all necessarily agree with one another, but at least now there are regular consultations and forums, including the annual First Ministers’ Conference which will be held next in Vancouver this November.
I know that some of our Ministers are in touch regularly with their provincial counterparts as we try to work together as a team to unite this country and make it work.
We can be rightly proud of our role on the international front, and particularly proud of the reputation the Prime Minister and the Secretary of State for External Affairs (Mr. Clark) have established in their visits abroad and to international organizations. Many Members of Parliament have had the opportunity of taking part in these visits and are aware of the high regard Canada is held in the international sphere. Perhaps the most recent example is our participation in the GATT meetings in Uruguay two weeks ago where many other countries’ delegations acknowledged the outstanding contribution of the Secretary of State for External Affairs and the Canadian delegation in helping to move the multilateral trade negotiations forward. Our role in supporting the Commonwealth and La Francophonie gives us a tremendous opportunity to have a positive influence with many nations around the world as we work toward the elimination of terrorism, reduction in nuclear arms and the pursuit of peace.
Finally, I would like to touch on some of the highlights of our accomplishments and initiatives in the field of social
justice. Fairness and equity must be the hallmark of any social justice system. Over the past two years I have personally enjoyed working on the legislative initiatives undertaken by this Government on employment equity; amendments to the Criminal Code to deal harshly with drinking and driving; a new and more humane Divorce Act; proposals to deal with child sexual abuse and pornography and actions to assist in finding missing children. These measures have been heartily welcomed across the land and particularly by women who see them as part of the measures needed to achieve equality and justice and eliminate the vestiges of discrimination which still linger in some corners of our country.
An issue which has always been of concern to me as a politician, but particularly as a parent, is the kind of future we are creating for our children. Family life is changing in our society. These changes in many cases create additional stress for parents and children alike. I am pleased to see that the Throne Speech recognizes these changes and we will develop policies and programs to meet the needs of the evolving and varied nature of the Canadian family.
I have always believed that as a society we must emphasize to our young people the importance of accepting responsibility for themselves and their lives as well as to others and their country. I believe we need to send clear messages to young Canadians about their responsibilities but, as well, alert them to the dangers of alcohol and drug abuse and the havoc they can create both for themselves and for their families.
The federal Government must be a partner in the development of opportunities for young Canadians to help them meet the challenge of the future.
Although we do not know the exact nature of our future, I think we do know that in the future the pace of change will continue to accelerate, technological advances will dramatically affect the way in which we conduct our lives and the information explosion will reveal to us new frontiers. We as Canadians must be ready to face the challenges of that future society and we must prepare our children by giving them the skills, the confidence and the spirit to survive and to stand tall in their communities and the world.
Our achievements of the past two years, our plans as set forward in the Throne Speech for the next two years all support that common goal I referred to earlier: Canada as a modern, tolerant, caring nation whose citizens are secure and prosperous. We as politicians and we as a Government must have the wisdom and the understanding of the people of Canada to lead us toward that goal.
• (1130)
Therefore, Mr. Speaker, I move, seconded by the Hon. Member for Restigouche (Mr. Girard), that the following address be presented to Her Excellency the Governor General of Canada:
October 2, 1986
COMMONS DEBATES
21
[Translation]
To Her Excellency the Right Honourable Jeanne Sauve, a member of the Queen’s Privy Council for Canada, Chancellor and Principal Companion of the Order of Canada, Chancellor and Commander of the Order of Military Merit, upon whom has been conferred the Canadian Forces’ Decoration, Governor General and Commander-in-Chief of Canada.
May it please Your Excellency:
We, Her Majesty’s most loyal and dutiful subjects, the House of Commons of Canada, in Parliament assembled, beg leave to offer our humble thanks to Your Excellency for the gracious speech which Your Excellency has addressed to both House of Parliament.
[English]
Mr. Riis: Mr. Speaker, I listened with interest to the eloquent speech of the Hon. Member for Capilano (Mrs. Collins) and 1 have some questions for her which I would like to present at this time. I would like some clarification—
Mr. Speaker: Order, please. I would point out to the Hon. Member that under these circumstances it is unusual to make a comment or ask a question. Will the Hon. Member very quickly consider whether or not he wishes to proceed?
Mr. Riis: Mr. Speaker, I wish to ask my question in the spirit of the Standing Orders. Tradition has it that we do not ask questions or make statements on an occasion such as this since the Member offering the Address in Reply to the Speech from the Throne is normally a new Member. I would point out that the Hon. Member is now an experienced Member. I hope that she will entertain some questions at this point in time. If she is not prepared to do so, then I am prepared to resume my seat.
Mr. Speaker: What I wished to convey to the House and to the Hon. Member is that it has not been the practice at this stage in these proceedings to ask questions. In view of that, does the Hon. Member wish to reconsider his request?
Mr. Riis: Mr. Speaker, I sense that the mood of the House is that my question at this point in time would not be appropriate. However, I remind Members of the House that this is a unique opportunity in that this was not a traditional type of Speech from the Throne. However, in the spirit of the request I will sit down and save my question for another time.
Some Hon. Members: Hear, hear!
Mr. Speaker: I most graciously thank the Hon. Member for his consideration of the spirit of this place. I notice that other Hon. Members are indicating that they have made their views more pointedly plain to the Hon. Member than have I.
Mr. Albert Girard (Restigouche): Mr. Speaker, on behalf of the Members of this House I would like to congratulate you, Sir, on your election to the Chair. To add to this historic event the Right Hon. Leader of the Opposition (Mr. Turner) revealed that he voted four times for Tories. The Leader of the New Democratic Party (Mr. Broadbent) said that he voted 11 times for Tories. He also mentioned that his father had been a Tory. Thus, Mr. Speaker, we have already witnessed the
The Address—Mr. Girard
wonderful and positive effect that you have on these two gentlemen.
Some Hon. Members: Hear, hear!
Mr. Girard: May your magic, Sir, be applied to all Members of this House throughout your tenure as Speaker.
Some Hon. Members: Hear, hear!
[Translation]
Mr. Girard: Today, Mr. Speaker, a great honour has been bestowed on the federal riding of Restigouche. This is the first time a Member for this riding has been given the privilege of seconding the Address in Reply to the Speech from the Throne, and I am deeply moved by this show of trust.
The Speech from the Throne demonstrates that the Progressive Conservative Government is fully aware of regional disparities and that it is ready to take whatever action is necessary to remedy the situation and improve the lot of the regions concerned.
Personally, the greatest honour I ever received was to be elected by the people of Restigouche in September 1984.
[English]
The Speech from the Throne that opened the first session of Parliament two years ago paid particular attention to the subject of national reconciliation. The premium that the Government has put on national reconciliation results from our very firm conviction that the problems Canada faces cannot be solved by the federal Government acting unilaterally.
in 1984, Canadians told us that they were tired of confrontation and fed up with bickering. They wanted their federal Government to consult with provincial governments, with business and with labour. They wanted a co-operative approach to problem solving, not declarations that co-operative federalism was dead.
• (1140)
[Translation]
As a Francophone and a Canadian, I am pleased with our Government’s efforts to obtain Quebec’s approval of the Canadian Constitution and to bring the Official Languages Act in line with the Canadian Charter of Rights and Freedoms. Mr. Speaker, my constituents support the Prime Minister (Mr. Mulroney) and the Government in their efforts to make Quebec and French Canada essential partners in this new Canadian federation.
Mr. Speaker, the Government of which I am privileged to be a member has launched a number of impressive initiatives as part of its efforts to discuss the major economic issues of the day. While the previous Government was no longer successful in bringing together representatives of the provincial governments during federal-provincial conferences, the Progressive
22
COMMONS DEBATES
October 2, 1986
The Address—Mr. Girard
Conservative Government has been able to restore an atmosphere of cordiality and co-operation to the relations between the provinces and Ottawa.
Petty quarrels have given way to serious attempts at cooperation between the two most important levels of government, and as a result, a host of agreements will be signed.
Mr. Speaker, the present Government wishes to continue its efforts to stimulate economic recovery. In Canada, the bank rate is the lowest it has been since 1978.
Since we were elected, we have created over 600,000 jobs in Canada. The federal deficit was down for the first time in six years, and in 1985-86, the Government will have spent about $ 1.5 billion less than was forecast.
In Quebec as in the rest of Canada, the general economic situation has improved. A comprehensive agreement has been signed as well as a large number of subsidiary agreements which are expected to have a positive impact on mining, forestry and tourism.
My colleagues from La Belle Province appreciate this Government’s efforts to help their economy recover from a difficult recessionary period. Various economic sectors in Quebec have benefitted from this Government’s initiatives. After waiting several years, dairy producers have finally obtained a guarantee of long-term production. Major agreements have been signed with Quebec to develop francophone television.
In addition, the Canadian Government has signed an $89 million agreement with the SPAR Aerospace company.
The 9 per cent federal sales tax on fuel used by fishermen has been abolished. The previous Government had rejected the claims of expropriated land-owners in Mirabel, but our government has tried to negotiate and has now signed an agreement favourable to these people. This is another telling example of the commitment of our Government to give Quebec and French-Canadians a meaningful place in our Canadian federal system.
Mr. Speaker, as announced in the Speech from the Throne, our Government intends to further our economic renewal by continuing to restore fiscal health to Canada, by taking new trade initiatives and by going forward with the long awaited tax reform.
As far as social justice is concerned, the Government will pursue its objectives of attempting to meet the changing needs of Canadian families, improving the status of women, conserving our natural environment and promoting the full and active participation of all citizens. Because of its history, geography and growing interest in all matters related to international affairs, Canada has a unique opportunity to play a major role in world affairs. The Government is therefore committed to the pursuit of its efforts to advance human rights, preserve world peace while asserting our national sovereignty, and promote a stable and growing world economy.
[English]
The Throne Speech reiterates our Government’s sincere commitment to economic renewal, social justice and national reconciliation. The best evidence of these three goals is embodied in the steps we have taken to treat the problems of regional disparity that exist in this country. For example, we in Atlantic Canada, particularly in Newfoundland, Cape Breton and northern New Brunswick, have not shared in the recovery that other parts of this great nation have experienced.
Recognizing this problem, special programs have been designed to bring these economically deprived areas back into the mainstream of a prosperous Canada. The Atlantic Enterprise Program guarantees up to a billion dollars in loans to the private sector in the Atlantic region. The Atlantic Enterprise Program will provide Atlantic Canada with a greater share of federal government purchases. This program will increase the level of government purchases in Atlantic Canada by 40 per cent over the next four years. It will certainly generate new investment and job opportunities for Maritimers and Newfoundlanders alike.
Our Government has taken on the responsibility of ensuring equitable regional distribution of national prosperity.
Enterprise Cape Breton is another fine example of the profound care this Government has for those areas where low growth and high unemployment have now been the norm for so long. Since these incentives were put into motion, more than $173 million has gone to support private companies that have invested in Cape Breton and full-time employment opportunities have been created for some 770 people.
The Northern Benefits Program is working to lessen the apparent disparities which exist for those who live in the North and isolated posts.
Another program that will have beneficial effects on those areas of Canada that face mass lay-offs, plant closures or chronic unemployment is the Community Futures Program, which is part of the Canadian Jobs Strategy. So far, 22 locations have been selected to participate in this $125 million program. This is a completely new approach and will ultimately result in the decision-making process being carried out at the local level where it counts the most. I am pleased to note that Restigouche has been selected for assistance under Community Futures.
These programs are but a few of the many which indicate that the Government is keenly aware of regional disparities. The Atlantic Accord recognized Newfoundland as a full and equal partner in the management of offshore oil resources. An energy accord was also signed with Nova Scotia. The Fisheries Improvement Loans Act has been extended to aid small independent fishermen, and an Atlantic regional council of representatives from various fishery organizations has been formed to advise the Minister on Atlantic fishery management policy. Federal-provincial agreements have been signed in such areas as aquaculture, fisheries research and co-operative
October 2, 1986
COMMONS DEBATES
23
management. Our Government has also signed important forestry sub-agreements with each of the Atlantic provinces.
The Government is pushing onward toward a better future for Atlantic Canada. The Speech from the Throne presents new initiatives in the Government’s efforts to ensure that we in Atlantic Canada are protected and supported. The creation of an Atlantic Canada Opportunities Agency is good news. No longer will we have umpteen different programs being administered by umpteen different bureaucratic agencies. This totally new agency will facilitate and co-ordinate all federal development initiatives in the entire Atlantic region. As a result, our region will be supported more effectively and with greater sensitivity to local conditions and opportunities. This revised approach clearly recognizes that solutions cannot be arbitrarily imposed from Ottawa as they have been in the past.
The contribution of Atlantic Ministers and local entrepreneurs to policy and program development will be acknowledged and developed.
Our Government, led by the Right Hon. Prime Minister (Mr. Mulroney), set out in September, 1984 to accomplish some very serious challenges. We are now at the halfway point of our first term, and when I look at how far we have come in those two short years, I can stand in this House and say with honesty and pride that this is truly a Government that is promoting national reconciliation and unity. It is working hard to achieve a sustained economic recovery, it adheres to and actively promotes social justice, and it has gone far in maintaining the excellent regard held for Canada throughout the entire world. These were the four main targets outlined in the first Throne Speech. Today, we are closer to achieving these goals than we have ever been before.
The Speech from the Throne that we heard yesterday reconfirms our determination to pursue these national objectives with the confidence that they will result in a better Canada for us all.
I would be somewhat remiss if I failed to describe to this House one of the most beautiful parts of Canada, especially at this time of year, the northernmost riding in New Brunswick. Restigouche covers over 8,000 square kilometres and stretches along the Quebec border from St. Quentin to Beresford. The largest population centres are the City of Campbellton and the town of Dalhousie and our major industries include forestry, mining, tourism, fishing and small business. The Restigouche River, from which the riding derives its name, is known the world over for its great Atlantic salmon angling.
In preparing for this speech, I went to the library and looked up some old statistics on Restigouche. I discovered that the issues which pertain to my riding today were very much alive back then, too. High levels of unemployment have plagued northern New Brunswick for so long now that we think of it as a way of life. Many people in Restigouche have been conditioned over the years to expect no more than 10 weeks of work a year so that they can collect their UI benefits. We have no choice but to break this never-ending downward spiral if we
The Address—Mr. Girard
are ever going to see new economic life for the north shore of New Brunswick. The most recent statistics show that northeastern New Brunswick not only has the highest rate of unemployment in the province, it has the seventh highest of the 70 regions that make up Canada. Clearly, more has to be done for the good people of Restigouche, and more will be done by a Progressive Conservative Government.
[Translation]
The Cabinet now includes two Ministers from New Brunswick who are responsible for four portfolios: Forests and Mines, as well as Small Businesses and Tourism. These portfolios play an extremely important role in the economy of Restigouche. I am certain that these two Ministers will do everything in their power to meet the needs of my region, which was neglected for a long time in the past.
[English]
With the new incentives that are already on line and those mentioned in the Throne Speech, there is no reason why Restigouche cannot share in the prosperity that rightfully belongs there as well as anywhere in this great nation. We have all the basic components of a real success story for Restigouche. The necessary infrastructure is already in place just waiting to be used to full capacity. Transport Canada says that we have one of the best regionally operated airports in Canada located at Charlo in the centre of the constituency. At present, Canadian Pacific has a direct flight from Toronto with a short stop in Montreal six times a week and Air Bras d’Or connects Charlo to many other points throughout the Maritimes.
• (1150)
There are two excellent deep-water ports in Restigouche, one of which is open year-round. The ports of Dalhousie and Belledune are ready and able to handle increased cargo movement. In fact, over $4.1 million has just gone into the repairs of the port at Dalhousie.
The constituency is supported by a railroad with Campbellton as the centre of operations for the entire region. Ten years ago we had approximately 1,100 people working for CN out of Campbellton. Today, Mr. Speaker, we only have 340. This, needless to say, has not helped my region.
Along with the bountiful resources which exist in Restigouche we have human resources as well. With only 50 per cent of the work force employed, we have an abundance of people ready to work. The residents of Restigouche are proud and hard-working people. The largest export in northern New Brunswick has been its young people. Mr. Speaker, my constituents do not want to move to central Canada in search of jobs. They want an opportunity to earn a living in their own area. Most people in Restigouche simply want to earn an honest day’s wage for an honest day’s work. If any progress is going to be made in such an economically depressed area, drastic measures are required.
24
COMMONS DEBATES
October 2, 1986
The Address—Mr. Girard
[Translation]
We immediately need at least 500 new jobs. This objective can be reached if we succeed in having a new industry locate in our region; otherwise, we would gladly accept the transfer of a Government service to Restigouche.
Moreover, I am convinced that the 1991 winter games should be awarded to the Restigouche county. Such a decision would create not only jobs for the next four years, but would also make my constituents proud to show all Canadians that we, in Northern New Brunswick, have done something for the greater welfare of our fellow citizens.
What we really need in Restigouche are entrepreneurs who want to invest and thrive in our area. Recently, with help from this Government, people in Kedgwick were encouraged to start a co-operative for manufacturing hardwood flooring. In view of the strong demand for that product, they did not hesitate to put all their energy behind the project. As a result of another federal grant, a small company in Petit-Rocher is now manufacturing leather gloves. I wish to extend my very warm congratulations to the owner of that industry for his initiative and perseverance. We would also need a special sectorial agreement that would provide companies with incentives to locate and develop in northeastern New Brunswick.
[English]
The Speech from the Throne has emphasized the Government’s seriousness about solving inequities such as those which exist in areas such as northeastern New Brunswick. Over the coming weeks and months I am sure that new initiatives will be forthcoming as a result of this Throne Speech. They will certainly be welcome in such regions as Restigouche. The stage has already been set by the contents of this Throne Speech and by the consultation process which began with the Atlantic Conference in early September.
[Translation]
Finally, I would like to take this opportunity to pay tribute to one of our former colleagues who chaired the parliamentary Committee responsible for evolving the new rules for electing
the Speaker of this House. The Hon. James McGrath deserves the respect of all Members of the House, and we wish him every success as Lieutenant Governor of his Province.
I would also like to thank the Prime Minister and the Cabinet for their confidence, for it is indeed a privilege, as the Member for the constituency of Restigouche, to move the Address in reply to the Speech from the Throne. The Prime Minister’s choice once more has shown his awareness of the importance of northern New Brunswick and other rural areas of Canada in the eyes of the Canadian Government.
Some Hon. Members: Hear, hear!
Right Hon. John N. Turner (Leader of the Opposition): Mr.
Speaker, I move, seconded by the Hon. Member for Ottawa— Vanier (Mr. Gauthier), that this debate be now adjourned.
Mr. Speaker: Is it the pleasure of the House to adopt the motion?
Some Hon. Members: Agreed.
Motion agreed to.
[English]
Hon. Don Mazankowski (Deputy Prime Minister and President of the Privy Council): Mr. Speaker, I move that the House do now adjourn.
Mr. Speaker: Is it the pleasure of the House to adopt the motion?
Some Hon. Members: Agreed.
Motion agreed to.
Mr. Speaker: Therefore, this House stands adjourned until tomorrow at 11.00 o’clock a.m. pursuant to Standing Order 3(1).
The House adjourned at 11.57 a.m.
25
HOUSE OF COMMONS
Friday, October 3, 1986
