OFFICIAL REPORT
OF THB
DEBATES
OF THE
HOUSE OF COMMONS
OF THE
DOMINION OF CANADA
FIFTH SESSION-TWELFTH PARLIAMENT
5 GEORGE V., 1915
VOL. CXX.
COMPRISING THE PERIOD FROM THE TWELFTH DAY OF MARCH TO THE THIRTIETH DAY OF MARCH, INCLUSIVE.
OTTAWA
PRINTED 15Y J. ok L. TACHlj, PRINTER TO THE KING’S MOST EXCELLENT MAJESTY 1915
)
\
'
CANADA
Douse of Commons Debates
OFFICIAL REPORT—REVISED EDITION.
HOUSE OF COMMONS.
Speaker: Hon. Thomas Simpson Spiioule.
Friday, March 12, 1915.
