 at 3 p.m.
Prayers
REPORTS
The Select Standing Committee on Railways and Canals and Telegraph Lines presented, through Hon. Mr. BLANCHET, their second report.
Mr. PALMER presented the first report of the Peterborough West Election Committee, requesting that time for forwarding the list of voters intended to be objected by the parties be extended to the first of May.
Hon. Mr. CAMPBELL presented the report of the General Committee on Elections.
* * *
ELECTION COMMITTEES
Messrs. SAVARY and JETTE were added to the panel of Election Committees. The striking of Committees to try the following election cases was fixed for the 5 th of May: Leeds South, Jacques-Cartier, Northumberland, Rimouski and Perth North.
Mr. RYMAL (Wentworth South) presented a report of the committee on Standing Orders.
* * *
BILLS INTRODUCED
The following bills were introduced:—
Mr. MORRISON to amend the Railway Act of 1868, so as to ensure equal facilities to Express Companies on Railways heretofore constituted, and to those hereafter to be constituted.
Mr. COLBY to amend chapter 58 of the Consolidated Statues of the old Province of Canada.
* * *
MERCANTILE AGENCIES
Mr. DOMVILLE moved that the matter of the petition of Thomas Hicks and others on the subject of Mercantile and Marine Agencies, be referred to a Select Committee with power to send for persons, papers and reports, and that such Committee should be
composed of the Hon. Mr. Mitchell, Messrs. Burpee, Brouse, Savary, Hagar, and the mover.
After some discussion it was allowed to stand as a notice of motion.
* * *
SPECIAL RAILWAY ACT
Hon. Mr. GIBBS (Ontario South) introduced a Bill entitled An Act respecting Railways. He explained that it was its purpose to enable Railway Companies to make sidings which they were not empowered to do under the General Railway Act; for instance, the Grand Trunk Railway could only make branch lines in the direction of navigable lakes and the river St. Lawrence, and had no power to make a siding in any other direction. This Bill was intended to take away this disability.
Hon. Mr. MACKENZIE suggested that the hon. gentleman should call his Bill, An Act to amend the General Railway Act.
Hon. Mr. GIBBS (Ontario South) said he had no objection and the motion as amended was carried.
* * *
RETURNS BROUGHT DOWN
Hon. Mr. LANGEVIN brought down a return of the correspondence, reports of engineers, et cetera, relative to Port Stanley as a harbour of refuge.
* * *
RIGHT OF NAVIGATION
Mr. De COSMOS asked whether foreign vessels have the right to navigate the inland coast waters of British Columbia, and particularly to navigate Johnstone Strait and the inland water route along the northwest coast of the said Province, between Queen Charlotte County and 51 degrees 40 minutes north latitude.
Hon. Sir JOHN A. MACDONALD said that question could not be answered, except by reference to Her Majesty’s Government.
* * *
INTERCOLONIAL RAILWAY
Mr. TOBIN asked whether it is the intention of the Government to lay a double track on the line of railway between Pictou and Halifax, to meet the largely increased coal trade between the mining
COMMONS DEBATES
332
April 23, 1873
districts and Halifax, and the increasing passenger traffic from Truro.
Hon. Mr. LANGEVIN said it was not the intention of the Government to do so.
* * *
MAILS TO WEST INDIAN ISLANDS
Mr. FORBES asked whether the Government intends to establish mail communication during the present year between the Dominion and the West Indian Islands.
Hon. Mr. TUPPER said that subject had engaged the attention of the Government during the past year. They had made every effort to accomplish such a result, and were still persevering in their efforts.
* * *
WHARFAGE TOLLS
Mr. MAILLOUX asked whether it is the intention of the Government to abolish the tolls levied on certain wharves belonging to the Government on the River St. Lawrence, below Quebec.
Hon. Mr. LANGEVIN said it was not the intention of the Government to abolish their tolls, but should they bear too heavily upon certain classes there might be revision. If complaints were made they would, of course, be considered.
* * *
INTERCOLONIAL RAILWAY CONNECTION
Mr. MAILLOUX asked whether it is the intention of the Government to connect the seaport of Riviere du Loup, with the line of the Intercolonial Railway, in accordance with the provisions of section 1 of the Act 31 Vic., Cap. 13, entitled “An Act respecting the construction of the Intercolonial Railway”.
Hon. Mr. LANGEVIN said that question was receiving the attention of the Government.
* * *
NAVAL RESERVE LANDS
Mr. EDGAR asked whether the naval reserve lands in the Province of Ontario set out in the schedule to Cap. 37 of the Consolidated Statutes of Canada, containing over 4,500 acres, or any of them, or any of the naval reserve lands in the Province of Ontario have been handed over by the Commissioners or Admiralty to the Government of Canada, and if so, are there any conditions attached in such transfer to prevent the rental of such lands by the Government.
Hon. Mr. LANGEVIN said these navel reserves were transferred to the Government on condition that they would be kept as reserves for that purpose. There was no condition attached to the transfer that these lands should not be rented.
* * *
MASTERS AND MATES CERTIFICATES
Mr. De COSMOS asked what provision did the Government intend to make for masters and mates of vessels within British Columbia, and for granting certificates of competency to the same.
Hon. Mr. MITCHELL said the Government had not had their attention called to the necessity for this step. He was under the impression that there was not a sufficient necessity to warrant the expenditure that would be required, but when the necessity arose the Government would take steps to extend the Act to British Columbia.
Hon. Mr. MITCHELL said the matter would receive the consideration of the Government.
* * *
THE THOUSAND ISLANDS
Mr. BROUSE asked whether a full survey of these lands belonging to the Dominion, and known as the Thousand Islands, had been made by the Government; and, if so, what progress had been made, when surveyed will they be offered for sale, and under what conditions will such a sale take place.
Hon. Sir JOHN A. MACDONALD said this matter was under the consideration of the Secretary of State for the Provinces, who was absent, and his (Hon. Sir John A. Macdonald’s) attention had not been called to it. He would give an answer to the question tomorrow.
* * *
DAILY MAIL BETWEEN METIS AND MATANE
Mr. FISET asked whether it is the intention of the Government to establish a daily mail between Metis and Matane, in accordance with the prayer of the petition by the merchants and other interested parties by the parishes of Candy Bay, Riviere Blanche, and Matane.
Hon. Mr. TUPPER: That subject is now under the consideration of the Government.
* * *
PERCENTAGE OF MONEY ORDERS
Mr. LANDERKIN asked whether it was the intention of the government this session to reduce the percentage now charged on money orders.
COMMONS DEBATES
April 23, 1873
333
Hon. Mr. TUPPER replied in the negative.
* * *
TEA IMPORTED
Mr. ROSS (Durham East) asked what amount of tea had been imported into this country from the United States since levying the 10 per cent duty; at what ports; and the amount of duties.
Hon. Mr. TILLEY said that information should have been asked for by motion for a return, but speaking from memory, he believed that up to the 31st of December last the amount of duty charged on teas under the 10 percent tariff was about $40.
* * *
MUTILATED NOTES
Mr. CARTWRIGHT asked whether the intention of the Government had been called to the inconvenience arising from the torn and dirty condition of many of the small Provincial Notes now in circulation, and whether the Government would be prepared to allow the various banks of the Dominion the cost of transmitting said mutilated notes for exchange or redemption.
Hon. Mr. TILLEY said the hon. gentleman himself was the only person who had called his attention to this matter. The Government had made provisions for the redemption of these notes by Deputy Receiver General at Halifax, St. John, Montreal, Toronto, and Winnipeg, but there was no provision for payment of the expense of transmitting each note from the bank to the Receiver General.
* * *
STEAM DREDGE
Mr. FORBES moved for a return of the work done during 1872 by the Dominion steam dredge Canada & Co.— Carried.
* * *
THE INSOLVENCY LAW
Mr. COLBY’s motion for a Special Committee on the insolvency law was dropped out of the order paper at his (Mr. Colby’s) request.
* * *
SURVEY OF THE NORTHWEST
Mr. CHARLTON moved that the House go into Committee to consider the following resolution:—“That in the opinion of this House a geographical exploration and geological survey of the fertile belt of the Northwest Territory should be undertaken during the present year and efficiently prosecuted, and that the information thus obtained concerning the climate, the agricultural capabilities and the mineral resources of that region should be placed before the
people of Canada and Great Britain in reports printed and circulated at the public expense and that emigration to that region should be further promoted through the translation of such reports and information into the German and Scandinavian language and the free circulation of the same in the States of the German Empire and in Denmark, Sweden, and Norway.”
In making this motion he observed that if he could in some degree promote the cause of immigration and the consequent prosperity of the country by calling attention to this subject, his object would be served. We had vast resources undeveloped, and these could only be developed and made productive of national wealth by a large immigration to this country. By reference to our immigration statistics, he found that the number of immigrants to this country during the last seven years, ending the first of June last, was 145,100, or about an average of20,744 for each year.
This was probably more than counter balanced by the loss of population caused by immigration from this country to the United States. This view of the case could be borne out by the examination of our owners returns. The increase of population of the Dominion for the ten years ending 1871 was 12-15 per cent. He found by reference to the United States statistics that in 1870 there were
493.000	natives of Canada in the United States, and to this we might add the number of persons there who were natives of foreign countries, but who had come to Canada and afterwards went to the United States, so it was fair to conclude that we had lost over half a million inhabitants by emigration to the United States. He referred to the experience of the United States because their immigration policy had been very successful. He found upon examination of their census returns that their population had increased during the last decade 22-25 per cent, almost double our percentage of increase, and if we took into consideration the fact that during that period the United States passed through an exhaustive civil war, during which they had buried 850,000 of their sons, the rate of increase was all the results of these explorations were given to the public and spread broadcast throughout Europe.
Reports were also spread far and wide of the wages in the various States, the nature of the soil and climate, provisions of the homestead laws, and all matters that would be of interest to intending emigrants. They had emigration agencies in all the principal cities in Europe, and most complete machinery for spreading information amongst all classes respecting the United States. They had within the last few years received an addition of
2.300.000	to their population. Perhaps the most important measure adopted by them for the promotion of emigration was their homestead law, which had been in operation since 1853. By reference to the statistics in the American Land Office, he found that in 1872 there were 4,671,000 acres granted to homestead settlers. These furnished homes for about 40,000 families, or about
200.000	souls. Such was the experience of the United States, and he held that their example should be followed by us. If we wished to succeed in promoting emigration as the Americans had succeeded, we would have to adopt a similar policy and adapt it to our circumstances. We would have to advertise our advantages, and let
COMMONS DEBATES
334
April 23, 1873
the people of Europe know that we had three regions of fertile lands still unsettled; that in Canada there was room for a vast number of emigrants, and that they might have comfortable homes there; that we had good laws and a good system of government; that emigrants could have a home here inferior to no other part of the world. In this respect we had been remiss in the past.
All our efforts to procure emigration would be in a measure futile, unless we adopted the policy which had been as successful in the United States, of granting free land to settlers. Unless we adopt the free grant system, we would utterly fail in securing a fair proportion of emigrants coming to this side of the Atlantic. He pointed out the vast tracts of land waiting settlement in the United States, which were offered to the emigrant free of charge. We could not compete with these unless we also threw our lands open for settlement. Looking at the Pacific Railway Act, he found the Government had adopted a policy which would practically close more than 100,000,000 acres of Northwest territory to settlement. He found that fifty million acres were to be given to the main line; twenty-five thousand acres per mile to the Lake Superior branch, which would make about seven million of acres; and twenty thousand acres per mile for the Manitoba Branch, which would make over a million acres; so that altogether the Pacific Railway would absorb the enormous grant of fifty-nine millions of acres.
Further, he found that the Company were requested to take not more than a strip one mile wide along the side of the line where the country was barren, mountainous, or rocky. Supposing that eighteen hundred miles were of this character, this would take only eighteen hundred square miles of land, which would leave the balance to be allotted in the Fertile Belt, and this would take a belt eight hundred miles long by one hundred and ten miles wide. The Government were bound to lay out an equal amount on alternate blocks, and place it in the market at an average price of $2.50 per acre. We would therefore have this strip one hundred and ten miles wide along this railway closed to settlement, except at the price of $2.50 per acre. He asked if there was the remotest probability of immigrants going into that territory and paying that price while over the lines, they could get land just as fertile and with a milder climate. There were no hopes of settling that territory within anything like a reasonable time, unless settlers were offered land free.
There was another feature of the Government policy in reference to these lands that he considered radically wrong. It was with reference to selecting blocks. These blocks were six or twelve miles long by twenty deep. In the United States, the alternate blocks, in such cases, were only a mile square, and as the Government portions which were given away were settled, the portions owned by the railway companies increased in value and could be sold at a fair price, but in our territory the blocks were so large that even if the Government could give away their share it would still leave large blocks unsettled. The whole experience of the United States was that unless the lands were given away to settlers, it was difficult to settle a new country.
There was another feature of the Government policy that he wished to bring to the attention of the House, and that was the mode of giving these lands to the Railway Company. The charter provided that the lands appropriated to the Company should be granted from time to time, as the railway is proceeded with. There was a door left wide open for gross irregularities. The provisions of the grant to the Union Pacific Railway Company were that the Company should be compelled to finish twenty mile sections of the road, so as to satisfy the United States inspectors before they were entitled to their lands, but under our Act the Company might draw their lands and the work was proceeded with. What might be considered proceeding with the work? They might run a survey and excavate a few handfuls of earth and spend say $10 a mile, and they might be in a position to acquire 25,000 to 30,000 acres per mile. Here certainly was a wide door for very grave irregularities. He considered by moving his resolution.
Mr. GRANT after remarking on the importance of the subject of the resolution, said there was no period in the history of the Dominion when the spirit of railway enterprise was so active as at present, and he thought explorations and surveys in the Northwest Territory were most desirable. There were great mineral resources in that country, especially of coal, which ought to receive the attention of the Government and the country. He also dwelt on the mineral resources of the Maritime Provinces and the valley of the Ottawa. He quite agreed with the hon. member for Norfolk North (Mr. Charlton) that it was desirable that while money was plentifully expended upon our various public works, it was also the interest of the Dominion that the natural production of the country should be cultivated. Nothing was more likely to promote immigration than this, for therein we were creating work for artisans and labourers. This class of men who most needed the benefits of the extended demand for labour, such as this country could afford them, were just the men who would tend to make the country great and prosperous, if we could induce them to come. Geological surveys ought to be made, and the world enlightened as to the minerals which the country was capable of producing.
Mr. SMITH (Selkirk) said the Northwest Canadian territories were much superior to those of the United States, the country not being subject to the ravages of such storms and blights as sometimes visited their neighbours on the other side of the line. In the great and fertile valley of the Saskatchewan there was plenty of room, with good communication into the country through the lakes and rivers, and the communication was continually being extended.
He said there was unquestionably coal to be found within 200 miles of Fort Garry and further west, besides large deposits of iron. In the Northwest territory they had greater advantages to offer to emigrants than they had on the other side of the line. They had a better climate, better land, and more wood, than existed in the neighbouring State of Minnesota. He had reason to believe that the railway from Pembina to Fort Garry would be completed by the end of the present year, and the impulse it would give to the settlement of the country would be very great. The homestead law of Manitoba
COMMONS DEBATES
April 23, 1873
335
at present was much more liberal than that of the United States; very little more expense would make their water communication very perfect, and the land grants were free at present. Settlers going there would have ample opportunity of making for themselves good and comfortable homes, and the building of the Pacific Railway would not fail to increase the prosperity of the country.
Mr. MERCIER (in French) gave the motion strong support. He complained that the policy of the Government had been too long merely a spending of money in supporting emigration agents in foreign countries instead of making ourselves and the rest of the world acquainted with the resources of our great country by explorations and surveys which ought to be published in all the European languages. This would have infinitely more effect, as applying to the understanding and judgment of intelligent people willing to better their condition, than all the agents they could ever send.
He expressed regret that so many young French Canadians emigrated to the United States, and hoped that some policy might be adopted which would persuade them to stay at home or even entice them to return. The people of the Province of Quebec were anxious to see their population and influence increased in this Dominion, and he suggested these reports of our mineral resources should be printed in French and distributed throughout France and Switzerland, so that a tide of emigration would be induced from these countries. We wanted people from all countries to fill up our waste lands with population and build up a great power on the northern half of this continent.
Mr. ROSS (Victoria) thought the Government, while doing all they could to induce the settlement of the Northwest country, should not forget the Atlantic shores of the country and should do something to get more settlers to go to Nova Scotia. He thought Nova Scotia and the Lower Provinces should be thoroughly explored before the Northwest Territory. Too much was expected of geological surveys, and he hoped the Minister of Finance would provide for the employment of a larger staff of surveyors.
Mr. CASEY said it was undoubtedly a fact that the Northwest Territories were rich in minerals, and that the railway which would at some time connect our Atlantic and Pacific shores would greatly benefit from the supply of coals at both ends, but if the territories are to be settled, we must let the world know what encouragement they offered to emigrants. In the advertising policy of the United States and the success which attended it, we had an example worth copying. He hoped the resolutions would be carried, and that the Government would take active steps to carry it out in the spirit in which it was worded. (Hear, hear.)
Mr. TROW said he was fully aware that the district drained by the Ottawa was at some points very rich in minerals, but the absence of coal made the working of them a very difficult and not very practicable matter. Another gentleman had dwelt upon the necessity of connecting our Atlantic and Pacific shores by means of a railway, and thought such a road, in bringing the scale of Nova
Scotia and the Northwest to the centre of the country, would serve a great purpose.
He quite agreed with the motion for a geological survey, but he thought a geographical survey would be of more importance, in order to ascertain what arable land we had at our disposal. (Hear, hear.) He looked at the matter from a farming point of view, and he did not think the Government were adopting the true policy with regard to immigration. He objected to such wholesale disposal of our waste lands for the sake of revenue, and especially to the creation of large landed monopolies such as existed in the Huron district, where its evils had become painfully apparent. The idea of the Government being able to induce settlers to pay $2.50 per acre for land along the Pacific Railway route, when they could get better land in a better climate for nothing on the other side of the line was perfectly preposterous. When the proper policy for inducing settlement of land had been adopted it would be time enough to speak of making geological surveys. (Hear, hear.)
Mr. JONES said too much money had already been spent upon geological surveys, and he did not think that there should be any more expended in that way. The hon. gentleman went to a great deal of trouble to find a reason for the great immigration into the United States, without giving the correct reason, which really was the splendid protective policy adopted by that country. (Hear, hear, and laughter.) If there was one thing more than another which made him give the present Government a cordial support, it was the grand Pacific Railway scheme which they had inaugurated. He argued that similar schemes in the United States had been perfectly successful and that higher prices were paid for land on their routes than would be asked for on the Canadian Pacific.
Hon. Mr. WOOD said no doubt the subject of this resolution was a very important one, whenever it was brought up in any shape, and doubtless this discussion would excite more or less attention throughout the whole country. After many years consideration and negotiation, Canada had acquired the Northwest territories. In this acquisition this House and country had not exhibited much patrimony. He supposed that up to the present time, they had cost us not much short of four million dollars. The object which this country had in view in obtaining that country was to advance its settlement, for which purpose various schemes had been advanced. Among others incidental to the acquisition of that country was the opening up of communication with British Columbia, for which the construction of the Pacific Railway was devised; and it seemed now among a large portion of the members of this House and by a great many gentlemen in the country that the only means of settling the Northwest territories, or rather that which must precede that settlement and commence it, was the construction and completion of the Pacific Railway.
Theoretically this was all very fine to talk about; we had been talking about it for nearly five years, and if we were to judge by the progress made in the past, if we were to judge by the progress made in the construction of the Intercolonial Railway, we could hope only to be able to talk about its completion for a long time to come. The construction of the Intercolonial had been going on for nearly five
COMMONS DEBATES
336
April 23, 1873
years, there was no scarcity of money; there were the utmost possible facilities for proceeding rapidly with the work; it had all the power and force of the Government brought to its aid; it had been broken down into and let in small sections, and after the past five years, it would yet take three or four more to complete it.
Taking all this into consideration, he would like the hon. gentleman who last spoke, who was well known to be a great arithmetician, to say how long it would be before we open up the Northwest territories by the construction of the Pacific Railway. He was afraid the date was far in the distance. (Hear, hear.) Ten years would be gone and they would hardly have commenced it, they would scarcely be in a position after that time had elapsed to begin, so that it should be completed before the great day of judgment. (Hear, hear.)
The question involved by the motion of the hon. member for Norfolk North (Mr. Charlton) was a most important one, as he had already said. It suggested the idea that there was a vast region of country in the Northwest territories under the jurisdiction of the Dominion of Canada which might be filled with a population of settlers who would cultivate and bring within the precincts of civilization a large region of country now a wilderness. The means which had been used to induce emigration into the United States and used with such good effect as well as those used in this country, had passed in review before this House in the speeches of hon. gentlemen not only on this but on former occasions.
We were accustomed always to hear reference made to the United States and different gentlemen had different opinions as to the real cause of such a large immigration into that country. Some said it was the form of Government, and that Republicanism had a great attraction for many Europeans; some considered that it originally began with the small settlers who were the pioneers of that country, who in this communication with the mother country became powerful immigration agents by the glowing accounts they were careful to send of their own property; their friends at home in turn widened and disseminated the favourable impression of the United States. He was inclined to believe that there was a great deal due to this influence. Others again said it was induced by the construction of railways. The large grants of land made to these companies made them interested in the settlement of the country, and they were therefore at great pains to induce settlers to get upon their lands. He could easily understand that the immigration into the country might be largely effected by the means suggested, but he did not think it was the most effective way of doing it. He questioned if there was a more powerful immigration yet to be found in this world than a Government which, with the united appliance, powers, and means as its command, understood, itself, thoroughly and in earnest to conduct the immigration movement. He did not think that a railway company or any other corporation having land to dispose of could be nearly so powerful and effective as the Government of a great nation making a national effort to add to their population from the surplus of the old world. It was an arguable point, and one on which different men held different
views; but he certainly did not think that immigration was induced in the most effective way by the granting of large tracts of land to railway rings and corporations, and thus enhancing the price of land to the settlers. He did not think that this had been productive of good results, as practised in the United States.
He thought it would have been better for them to give their hundred millions of acres, as he proposed should be done in the Northwest territories, free of charge, and under the protection of a liberal homestead law. If that policy had been adopted, he had no hesitation in saying that many a poor immigrant, now bound to labour hard for years and years in order to pay the price of his land, would have lived free, happy, independent, and contented; while immigration by the hundred and the thousand of those who had never seen and never would see the shores of this Dominion, would not have been diverted to the United States (hear, hear), while these one million six hundred thousand acres of land would have been filled by a thriving population of freemen. (Hear, hear.)
All were agreed as to the desirability of the attachment of the object proposed by the Pacific Railway—that is, the populating of the Northwest Territories—that the population must in a great measure come from the great centres of the world; and the question before this House and before this country was how shall that be accomplished. We had been negotiating and enquiring about these Northwest territories in one way or another for the past five years, and as yet we had accomplished but little. The population had increased only to a very limited extent, and the question was, what is the duty at the present hour of the Government and people of this country in that direction. It was said by an hon. member representing a constituency in that country that free lands could now be had for all who chose to go there. He would like to ask that hon. gentleman where these lands were to be found. It was said we had a vast region of country there. The hon. Minister of Justice said it. (Hear, hear.) An hon. member had remarked that before you could establish manufactures to any large extent or develop the mineral resources of the country, the populating of the country must be proceeded with. There was no doubt of that.
He recollected reading a statement of the hon. the leader of the Government (Hon. Sir John A. Macdonald) to the effect that we had three hundred and fifty millions of acres of land in the Northwest Territories but he (Hon. Mr. Wood) had never been able to find the authority upon which the statement was made. The hon. gentleman had said that he made the statement on the authority of the Surveyor General, but he had not said whether it was the Surveyor General of the Dominion or the Surveyor General of Manitoba, and he (Hon. Mr. Wood) was therefore at a loss to know the source of the hon. gentleman’s information. From all accounts he had been able to obtain regarding these territories he would not suppose that there were over one hundred million of arable land or that would be of any use to settlers. He did not wish to limit the quantity, but it had been estimated by Professor Hyan, that it did not exceed fifty or sixty millions of acres. Now, if that were so, he would like to ask the hon. leader of the Government to inform him where he was
COMMONS DEBATES
April 23, 1873
337
going to get the lands he was going to give to the Pacific Railway. He (Hon. Mr. Wood) thought there was a great apprehension in the public mind on this subject, and had it not been for the purpose of dispelling it, he should not have sent anything on this occasion.
The railway company was to have alternate blocks of land, forty miles wide from the commencement to the end of the railway, and he quoted from the charter the clause making the provision. Now he was bound to say that there was an entire misapprehension of this whole thing in the country. The company, he said, quoting again from the charter, if the land was not suitable for cultivation had only to take one mile on each side of the line in alternate blocks. He had hardly thought that any hon. gentleman would take upon himself to state to this House or to the people or to inform the people of the centres of population in Europe that that was a region to which they could invite a settler to come and make his home in. How different had been the conduct of the Dominion Government in paying British Columbia for the right of way across the Rocky Mountains and for which privilege they paid a sum equal to two million of dollars. Surely a Railway Company ought to take the land as it happened to come along the line; but that was not so, they had to get fifty millions of acres from somewhere, and the balance that they did not select from the portions lying along the line must be taken from the best land in the territories. The public did not fully understand this, and he was bound to say it was nothing less than trifling with the interests of the country to give such an extraordinary grant to any corporation as to allow them the liberty of picking out fifty million acres of the best land in the territory.
He would like to know where the lands were the hon. member for Norfolk North (Mr. Charlton) was speaking of surveying, and the plans of which he wanted to distribute in the great centres of population in Europe. It would be a work of supererogation, and we would be but deceiving the people. We could only tell them that they would not get land for less than $2.50 an acre, but we could not tell them how much more they might have to pay for them for it was not at all unlikely that the railway company would raise the price of the desirable lands to what they could get for them. But there were not only fifty millions of acres to be taken out of the fertile valley of the Saskatchewan, there were also ten million acres for the branch line. Where were all these lands to be found?
There was a very great portion of the line surrounded by land not up to the standard which the contract provided for to the company, namely that portion lying between the parallels 47 and 49, north latitude. He would remind the House and the country that the contract provided that the fifty or sixty millions of acres granted to this Company should be of the quality best adapted for settlement, and yet an hon. member from that quarter told the House that there were free homesteads in that country for those who chose to come to them. Where was he going to invite the immigrant from the old world to settle? Was it at the 49th parallel of latitude and would he tell this House that the lands there situated were fit for settlement, or that they contained fifty or sixty million acres of desirable land?
Mr. SMITH (Selkirk) said that from parallel 49 to 51 there was a stretch of about five hundred and fifty million acres of good land, and from 54 and 55 up to 57 there was also much good land.
Hon. Mr. WOOD said that might be so, but he would require a demonstration of an overwhelming character to that effect before they could invite settlers from the old world to take up their abode in that region and ask them to pay $2.50 for the land. The hon. gentleman well knew what a hard thing it is for the ordinary class of emigrant to gather together their little all to enable them to reach those distant regions, and then cast upon them a debt which would be a burden upon them and their children instead of the freedom and prosperity they had expected. We had the experience of the Huron tract and its management by the Canada Company, which though it appeared at first to induce settlement, had been in the end a dead failure. Poverty and wretchedness hung upon the land in every case where the Canada Company had used their blighting influence.
If we were in this country to follow out the patriotic policy which every member of this House desired to pursue towards the Northwest territories, we must leave the people to settle on free land and provide for them a homestead which cannot be disturbed either so far as they or their descendants are concerned, but this scheme of waiting to build the Pacific Railway through a thousand miles of wilderness, so far away from settlement than even exploring parties come well nigh starving in it, was preposterous.
He had nothing to say against the construction of such a railway when there was a proper scheme for the development of the Northwest. If a railway were constructed from Winnipeg to Pembina, and communication thus obtained with the outer world, and if some vigour were used in the interest of travelling instead of trifling with the Dawson route, commerce would spring up in Winnipeg, and things altogether would take a different term from that they are receiving in at the present.
The water communication, as had been stated, was very good, and with some small expenditure might be much better. Hon. gentlemen knew that if this road were constructed, coarse grains could not be carried over it to market, because the cost of freight would consume the whole value of the grains. The produce of the Northwest, to find a profitable market, must be transported by water, therefore this dependence upon the railway to open up the country was utterly fallacious. It became the duty of the hour to abandon this mad scheme of a mad Government (cheers) and to look at the matter like rational business men; to open up the country in the easiest and cheapest way possible, and when it was opened up to go to the great centres of population in the old world and assure the people there that here was a free home for them and their children.
Did any one believe that a single individual mentioned in the charter of the Pacific Company would risk 500 pounds of their own money in the enterprise? If they did they made a huge mistake. He would like to know how many thousands of their own money these
COMMONS DEBATES
338
April 23, 1873
persons who spoke of the great confidence they had in the scheme would invest in it. If they thought the monied men of England were not sharp enough to comprehend the whole scheme, they were mistaken. What ever they might do, the money in the long run would have to come from the people of Canada. That being the case, it would be better for the Government to build the road, as they built the Intercolonial, which he believed had been executed more economically and satisfactorily than any public work ever undertaken in this country. Then why make use of a Company that had no foundation whatever, except what was given to it by the Government? Why not come down boldly and tell the House that the Government was prepared to open up this communication?
Hon. Sir JOHN A. MACDONALD: Then why did you vote for a Company?
Hon. Mr. WOOD: I never voted for a Company.
Hon. Sir JOHN A. MACDONALD quoted from the Journals of the House of 1871, to show that Hon. Mr. E.B. Wood was a consenting party to the resolution providing that the Pacific Railway should be constructed and worked by a private company, and not by commissioners.
Hon. Mr. WOOD said he would like very much to have a Company construct the road, but he did not want the Company to construct with the funds of this Dominion. He did not consent to the land grants for the railway.
Hon. Sir JOHN A. MACDONALD read again from the same resolution to the effect that the Company should be aided by grants of money and land not unduly pressing upon the resources of the Dominion.
Hon. Mr. WOOD: Do I understand the hon. gentleman to say that I voted for that?
Hon. Sir JOHN A. MACDONALD: Of course; everybody
voted for it.
Hon. Mr. WOOD asked Hon. Sir John A. Macdonald to send him over the Journals from which he was reading. After receiving the volume he looked embarrassed much to the amusement of the House. He, however, recovered in a few minutes, and endeavoured to prove that the circumstances were changed, it never having been contemplated that the charter would be given to a pet company, formed and supported by the Government. He had not voted for any such proposition as that. If he had he would say “Lord forgive me”—(Laughter). The leader of the Government had made nothing by his interruption. He had only shown his (Hon. Mr. Wood’s) consistency throughout.
At the time he spoke of, the popular idea was that the “road should be built by a company, and not by the Government, but he supposed those who favoured such a plan never supposed that the company would derive all its validity from the Government and not
be supplied with funds by the Government, while at some time only acting for the purpose of making speculation out of the funds of this country. If this work must be built, in his judgment it would be better to have it carried on by the Government, subject continually to responsibility to Parliament. If it ever was built, it must be built in that way.
The present scheme, he fancied, could not be floated on the money market in England. He fancied that the capitalists of England had some recollection of the sixty millions sunk in the Grand Trunk, and that they would be careful how they took up these Pacific Railway bonds. The hon. gentleman opposite must recollect that a Canadian could scarcely go to England at that time without being reproached with the Grand Trunk swindle. If that was the fate of the Grand Trunk Railway, with all its advantages, what would be the fate of this Pacific scheme? Even if it were built, it would take between fifteen and twenty million annually to run it, in addition to the immense cost of building the road, which would far exceed thirty million. There would still rest upon us the obligation of running the road. He repeated it was a scheme that was undertaken without consideration.
It being six o’clock the Speaker left the chair.
AFTER RECESS
GRAND TRUNK ARRANGEMENT ACT
Hon. Mr. CAMERON (Cardwell) moved the third reading of the Bill to extend the provisions of the Grand Trunk Arrangement Act of 1862, so far as relates to certain preferential bonds, for a further period and for other purposes.—Carried.
* * *
BILLS ADVANCED
The following Bills were read a second time, passed through Committee of the Whole, read a third time and passed.
Mr. MORRISON—To legalize, confirm and extend letters patent granted to James McNabb, inventor of a horizontal car coupler.
Mr. DOMVILLE—To incorporate the Maritime Railway Equipment Company.
Mr. MERRITT—To amend the charter of the Dolphin Manufacturing Company.
Mr. DOULL—To incorporate the Pictou Bank.
Mr. TOURANGEAU—To incorporate the Stadacona Bank.
COMMONS DEBATES
April 23, 1873
339
Mr. CRAWFORD—To incorporate the Empire Fire and Marine Insurance Company of Canada.
Mr. DELORME—To incorporate La Banque Saint-Hyacinthe.
Mr. JETTE—To incorporate La Banque du Canada.
Mr. BECHARD—To incorporate the Banque de Saint-Jean.
Mr. BEATY—To incorporate the Western Bank of Canada.
Mr. BROUSE—To incorporate the Warrior Mower Company
Mr. ROSS (Durham East)—To incorporate the Huron and Ontario Transportation Company.
Mr. WITTON—To incorporate the Dominion Fire and Inland Marine Insurance Company. (Second reading and passed through Committee.)
Hon. Mr. HUNTINGTON—To incorporate the Victoria Bank of Canada.
Mr. MORRISON—To incorporate Date’s Patent Steel Company (Limited).
Mr. YOUNG (Waterloo South)—To incorporate the Goldsmith’s Company of Canada (Limited).
* * *
BILLS ADVANCED
Mr. MORRISON moved the second reading of the Bill to change the name of the “Freehold Permanent Building Society of Toronto” to that of the “Freehold Loan & Savings Company,” and to extend the powers thereof.
Hon. Mr. BLAKE raised the question that this Bill was within the jurisdiction of the Local Legislature, and it was allowed to stand over for the present.
On motion of Mr. MERCIER the House went into Committee on the Bill to amend Act 34 Vic., Cap. 43, entitled “An Act to enable certain Railway Companies to provide the necessary accommodation for the increase of traffic over their railways, and to amend the Railway Act of 1868.”
The Bill was reported with amendments, which were agreed to.
FELONY AND MISDEMEANOUR BILL
On motion of Mr. GLASS the House went into Committee on the Bill to amend the Act respecting the trial of felony and misdemeanours (32 and 33 Vic., Cap. 35).
Hon. Mr. DORION (Napierville) asked for explanations.
Mr. GLASS explained that the object of the Bill was to enable persons charged with felony and misdemeanour to be tried summarily by the judge, without a jury, during the sittings of the Court of Oyer and Terminer in Ontario, as well as when the Court was not in session. He also proposed to add an amendment to give judges power to amend an indictment and to postpone the trial.
Mr. CARTER cordially approve of the Bill. He suggested an amendment that the powers and duties of the Judge of Sessions, under the 8th section of the Act, be in Quebec exercised by the Recorder, in the case of the death or absence of the Judge of sessions.
Hon. Mr. WOOD considered that the responsibility of changing the criminal law should rest upon the Minister of Justice. The Act which it was now proposed to mutilate was prepared by the late Mr. Sandfield Macdonald and himself, and had worked well, and some grave exigency should arise before any one tried his apprentice hand at amending it. There was nothing in the Act to prevent parties being tried summarily while the Court of Oyer and Terminer was in session; but judges considered it unseemly that an inferior court should step in while there were in session and take a case from them and dispose of it before their eyes.
He contended that the amendments to the Bill proposed by its author were entirely unnecessary, and were not called for either by the public or the profession. If the hon. member for Middlesex East (Mr. Glass) wished to try his hand at amending criminal law he might find something more needing change than this Act.
Mr. GLASS said he could prove that just as important legal business had been entrusted to him as was ever entrusted to the member for Durham West (Hon. Mr. Wood), and he did not see why that hon. gentleman should try to put him down. However, this Bill should stand upon its new merits, without regard to the imperfect manner in which it was proposed. He had received letters from prominent legal gentlemen approving of the Bill.
Hon. Mr. RICHARDS (Leeds South) agreed that when the Court of Oyer and Terminer was in session there could be no speedier means of trial than this Court afforded. In his opinion there was no necessity for this Bill.
COMMONS DEBATES
340
April 23, 1873
After some further discussion,
Hon. Sir JOHN A. MACDONALD suggested that the proposed amendments be laid before the Committee, and that the Committee then sit and report progress, and ask leave to sit again, meantime these amendments could be printed with the Bill, and gentlemen from the lower Provinces could take into consideration the propriety of having this law for the summary trial of persons changed.
This suggestion was agreed to, and the Committee rose, reported progress, and asked leave to sit again.
* * *
PROTECTION OF NAVIGABLE STREAMS
Mr. CARTWRIGHT moved the second reading of the Bill for the better protection of navigable streams and rivers. He said he did not wish to have a discussion on the Bill until the report of the Committee on the subject had been printed, but he wished to take a stage tonight.
After some remarks from Messrs. CURRIER, RICHARDS, LANGEVIN and LEWIS, who wish the Bill postponed,
Mr. CARTWRIGHT stated that lumbermen had been in the habit of discharging the rubbish of their mills into rivers, and the results had been a considerable obstruction of the streams. The sawdust flung into the Ottawa River alone had been estimated by the Commission at 8,000,000 cubic feet, and he was aware of some streams in which the depth of water had been reduced from eight or nine feet to four or five feet. He was prepared to make any reasonable modification of the bill to prevent its immediate enforcement. In New Brunswick the mills were compelled to consume their sawdust, and he protested against any private interest being allowed to obstruct our great rivers.
Hon. Mr. ANGLIN stated that the mouth of the Saint John River was being rapidly filled up with sawdust, and if something was not done to prevent it, dredging would be required there continually.
Mr. BELLEROSE said he had always opposed this Bill, and did so now. He moved the six months’ hoist.
Hon. Mr. LANGEVIN asked his hon. friend to allow the Bill to pass the second reading on the understanding that the Bill would not go to the Committee of the Whole till the report of the Committee that had the investigation on the subject was before the House.
After some discussion,
Mr. BELLEROSE said he would not oppose the second reading.
Hon. Sir JOHN A. MACDONALD thought the second reading should be taken, as it was so late in the session, and the debate left for Committee.
The bill was then read a second time.
* * *
VENTILATION OF THE HOUSE
Hon. Mr. TUPPER moved, seconded by Mr. BROUSE that a Select Committee be appointed to inquire into and report on the sanitary condition of this House, especially in relation the mode of heating and ventilating now in use. The Committee was composed of seventeen members, all members of the medical profession (Messrs. Grant, Brouse, Almon, Ross (Champlain), Robitaille, Fortin, Bergin, Blanchet, De St-Georges, Forbes, Lacerte, Landerkin, Gillies, Paquet, Schultz, Fiset and Tupper).
* * *
REGULATION OF TRAFFIC ON RAILWAYS
On motion of Mr. OLIVER the Bill for the better regulation of Traffic on Railways was read a second time, and referred to the Railway Committee.
* * *
EAST TORONTO ELECTION
Mr. BOWELL reported from the East Toronto Election Committee, asking leave to adjourn till the 20th of April, which was granted.
The House then adjourned at 11.30 * * *
NOTICES OF MOTION
Hon. Sir JOHN A. MACDONALD—On Thursday next — Committee of the Whole to consider the following resolutions:— That it is expedient to pay to each of the Lieutenant governors of the several Provinces, in addition to his present salary, the sum of $2,000 per annum.
That it is expedient to increase the salaries of the Judges of the several Provinces as follows, viz:—To add 20 per cent to the present salaries of the Judges of the Supreme Courts in the Provinces of Ontario, Quebec, Nova Scotia, and New Brunswick, who now receive $5,000 per annum or upwards. To add 25 per cent to the present salaries of the Judges of the Supreme Courts in the Provinces of Ontario, Nova Scotia, New Brunswick Manitoba and British Columbia, who now receive salaries under $5,000 per
COMMONS DEBATES
April 23, 1873
341
annum, except the senior Puisne Judge of the Supreme Court of British Columbia, already sufficiently provided for. To add the sum of $1,000 per annum to the present salary of the presiding Judge of the Court of Error and Appeal for Ontario, being twenty per cent of the increased salary of the Chief Justice of the Court of Queen’s Bench of Ontario, the office formerly held by the present presiding Judge of the said Court of Error and Appeal.
That the Legislature of the Province of Quebec, having at its now last session enacted that the Supreme Court for that Province shall be composed of one Chief Justice and twenty five Puisne Judges instead of one Chief Justice and nineteen Puisne Judges as at present, it is expedient to provide that the twenty five Puisne Judges shall receive the salaries following, that is to say:—Ten Puisne Judges of the Court, $4,000 per annum each, twelve Puisne Judges of the said Court, $3,700 per annum each; three Puisne Judges of the said Court $2,800 per annum each, and that to such several last-mentioned salaries shall be added the increase of twenty five per cent.
That it is expedient to amend the Act 32 and 33 Vic., Cap. 8, sec. 5, respecting the salaries and travelling allowances of the County Court Judges in the Provinces of Ontario and New Brunswick, and to provide that except in the county of York in the Province of Ontario, and the county of St. John in the Province of New Brunswick, the salary of each County Court Judge, to be hereafter appointed, shall be $2,000 per annum, with $1,000 for travelling expenses and that the salary of any County Court Judge, or of the Judge of the District of Algoma, hereafter appointed or heretofore appointed, and not having heretofore received a salary exceeding $2,000 per annum, shall, after a period of—years of such service as such County Court Judge, be $2,400 per annum with the travelling allowances aforesaid, and in each of the said counties of York and St. John the salary of any County Judge hereafter appointed shall be $2,400, with $200 for travelling expenses, and the salary of the present Judge of the County Court of the county of St. John shall be the sum last aforesaid. The salary of the present judge of the Country Court of the said county of York remaining as it was. That the salary of the last Junior Judge of a County Court in either of the said Provinces shall be $2,000 per annum, with $200 for travelling expenses.
That it is expedient to provide that in case any Judge of a County Court in either of the Provinces, of Ontario or New Brunswick becomes, after having continued in seat of office of Judge of a County Court is either of the said Province for fifteen years or upwards, afflicted with permanent infirmity, disabling him from the due execution of his office, then in case such Judge shall resign his office, Her Majesty may, by letters patent under the Great seal of Canada, vacating the seat, period of office, and his disability from permanent infirmity duly to execute his office, grant unto such County Judge an annuity equal to two-thirds of the annual salary which he was in receipt of at the time of this resignation, to commence immediately after his resignation, and to continue throughout during his natural life, and be payable pro rata for any period less than a year during such continuance out of any
unappropriated monies forming part of the consolidated revenue fund of Canada.
That the several increases of salaries and other charges proposed in the foregoing resolutions shall take effect and be computed from and after the first day of January in this present year.
That it is expedient to provide for payment to the members of the Senate and of the House of Commons of an increased indemnity, and in pursuance thereof, to repeal the first section of the Act, the 31 Vic., Cap. 3, and to substitute in lieu thereof, and to be read as the first section of the said Act, the following section: “that is to say, in each session of Parliament there shall be allowed to each member of the Senate and of the House of Commons, attending at such sessions $10 for each day’s attendance, if the sessions do not extend beyond thirty days, then there shall be payable to each member of the Senate and of the House of Commons, attending at such session, a seasonal allowance of one thousand dollars and no more.”
That the deduction provided by the fourth and fifth sections of said Act shall be at the rate of eight dollars per day in lieu of five dollars per day as in the said section mentioned; but in lieu of the sum of six dollars mentioned in the third and fifth sections of the said Act, the sum of ten dollars should be taken and read as part of the said section respectively.
That the foregoing provisions in respect to such sessional allowance shall apply to this present session as well as to the future sessions of Parliament.
That it is expedient to increase the salaries of the Speakers of the Senate and the House of Commons respectively, to the sum of $4,000 per annum.
That it is expedient to appropriate the sum of $2,500 for readjustment of the salaries of the officers and servants of the Senate, and the sum of $5,000 to effect a re-adjustment of the salaries of the officers and servants of the House of Commons.
That it is expedient to appropriate the sum of $75,000 to enable his Excellency the Governor General to re-adjust the salaries of the civil servants in Canada for the year beginning the first of January, 1873.
Hon. Sir JOHN A. MACDONALD—On Monday next— Committee of the Whole to consider the following resolutions:—
Resolved,—That by chapter 15, title 3, of the revised statutes of New Brunswick, amended and made permanent by later Acts of the Legislature of that Province, certain duties of export on lumber shipped there from are imposed, the proceeds whereof belong to the said Province.
COMMONS DEBATES
342
April 23, 1873
Resolved,—That by section 124 of the British North America Act of 1867, it is provided that nothing in that Act shall affect the right of New Brunswick to levy the lumber dues imposed by the said Provincial Act, or say Act amending it before of after the Union.
Resolved,—That by article 30 of the Treaty of Washington it is agreed that for the term of years mentioned in article 35 Her Majesty’s subjects may carry in British vessels, without payment of duty, goods, wares, and merchandise from one part or place within the territory of the United States upon the St. Lawrence, the great lakes, and the rivers connecting the same to another port or place within the territory of the United States as aforesaid provided that a portion of such transportation is made through the Dominion of Canada by land, carriage, and in bond under such rules and regulations as may be agreed upon between the Government of Her Britannic Majesty and the Government of the United States, and that by Article 31 of the said treaty it is declared that Her Britannic Majesty further engages to urge upon the Parliament of the Dominion of Canada, and the Legislature of New Brunswick, that no export duty or other duty shall be levied on lumber or timber of any kind out in that portion of the American territory in the State of Maine watered by the River Saint John and its tributaries, and floated down that river to the sea, when the same is shipped to the United States from the Province of New Brunswick; and that in case any such export or other duty continue to be levied after the expiration of one year from the date of the exchange of the ratification of the said Treaty, it is agreed that the Government of the United States may suspend the right of carrying therein, before granted under Article 30 of the said Treaty, for such period as such export or other duty may be levied.
Resolved,—That the privilege granted by Article 30 of the said Treaty will be of advantage to Her Majesty’s subjects in Canada and tend to facilitate the commerce of the Dominion with the United States, and it is therefore desirable that such arrangements should be made with the Province of New Brunswick respecting the said export duty on lumber as will prevent the suspension of the said privilege, and with that view to offer to the said Province such fair indemnity, not exceeding the sum of $20,000 per annum, as would compensate the present and prospective loss it would sustain by the total repeal of the said export duty, and the abandonment of the right to impose any such duty in future, inasmuch as it would be difficult to abolish the said duty on lumber out on American territory only, without incurring great loss and expense and the rise of possible misunderstanding with the citizens and authorities of the United States.
Hon. Mr. RICHARDS (Leeds South)—On Thursday next— Address to His Excellency the Governor General, praying for a return of all patents issued for islands or parts of islands in the St. Lawrence in front of or forming part of the county of Leeds; also, of all such islands or parts thereof sold, but not granted to purchasers; also, of all applicants to purchase, lease or occupy any of the said islands, or any part thereof, with date, consideration, quantity of land, name of island, and name of parties, and also copies of all correspondence within the last ten years with parties applying to purchase or lease any of the said islands or any part thereof.
COMMONS DEBATES
April 24, 1873
343
HOUSE OF COMMONS
Thursday, April 24, 1873
