, and ordered the members to be called in.
The following members were then sworn to try the Brockville election petition:—Messrs. Currier, Gibbs (Ontario North), Bodwell, Gillies and Scatcherd.
COMMONS DEBATES
406
May 1, 1873
The following members were sworn to try the Durham East election petition:—Messrs. Pozer, Wallace (Norfolk South), Bergin, Gillies, Nathan and Galbraith.
The following members were sworn to try the Stormont election petition:—Messrs. Wright (Ottawa County), Thompson (Cariboo), Burpee (Sunbury), Jette and Oliver.
The following members were sworn to try the Quebec Centre election petition:—Messrs. Ross (Champlain), Paquet, White (Halton), Kirkpatrick and Masson.
The following members were sworn to try the Addington election petition:—Messrs. Brown, Grover, Haggart, Nelson and Carter.
The Committees were severally ordered to meet tomorrow.
* * *
REGISTRATION OF INLAND VESSELS
The House again went into Committee.
Mr. CASGRAIN agreed in the principle of the resolution, but thought this House had no right to legislate except for ships registered in our own ports. Many of the ships in the Province of Quebec were registered in Liverpool.
Hon. Mr. MITCHELL understood that the House had no power to legislate in regard to ships built and registered abroad. It would be better to discuss the details of the bill when it was brought down, and the members could examine its provisions.
The resolution was then adopted, and the Committee rose and reported.
The resolution was then read a first and second time, and a bill founded thereon was introduced and read a first time.
* * *
PETERBOROUGH WEST CONTROVERTED ELECTION
Mr. PALMER presented the second report of the Peterborough West Election Committee, recommending the extension of the time for receiving objections till the 7th of May.
* * *
THE KENT CONTROVERTED ELECTION
Mr. COSTIGAN resumed the discussion of his motion to refer the report of the Kent Election Committee to the Committee on Privileges and Election. He would ask that it be referred to the Standing Committee on Privileges and Elections, for them to report whether it was a final adjudication according to the law of New Brunswick and the law generally on the subject.
Hon. Mr. CAMERON (Cardwell) said Mr. Costigan had overlooked an important precedent in New Brunswick, where the circumstances were nearly the same as is the present case and where the Committee took the common sense view of the case, that the dismissal of a petition ipso facia declared the election to be sustained. In every case, without exception, it had been the practice for the House to accept the finding of the Committee as absolutely final. He read several New Brunswick precedents, bearing out this view of the case, and he suggested that all that was necessary was for the Chairman of the Committee to move that report be received by the House.
Hon. Mr. DORION (Napierville) said there were two New Brunswick cases of a similar nature, and in which similar decisions had been arrived at. He did not find that it was necessary to move that the report of the Committee be adopted by the House, and he quoted from New Brunswick sessional records in proof of the position. He took for granted that the reception of the report was taken as a matter of course, as in one case, at least, no order for acceptance of the report was to be found in the record. He moved that the Clerk of the Crown in Chancery amend the return according to the finding of the Committee. There was no need for referring the matter to the Committee on Privileges and Elections, nor even, for that matter, of moving that the report be received, although custom in New Brunswick was in favour of that procedure.
Mr. MACKAY contended that the law of New Brunswick had been acted up to.
Hon. Mr. BLAKE thought there was substantially a final dismissal of the matter by the report of the Committee. He was of opinion that under the statute no motion for its reception was necessary and, as this was not done, he did not think that it should be done, because the statute pointed out the proper course. He advised the hon. gentleman to withdraw his motion, as it was a dangerous procedure to refer reports of election Committees to any other tribunal.
Hon. Mr. McDONALD (Pictou) quite agreed as to the desirability of the decision of the Committee being final, but the question was whether that Committee reported according to the statute under which they acted. If they had not, then he thought they were amenable to this House the same as any other committee of the House. He contended they had not the right to discuss the petition, because the statute gave them no power to do so. The statute stated what they were to try, and the only thing the Committee had to found their action upon was one New Brunswick precedent.
Hon. Mr. DORION (Napierville) said he must deny the statement that there was only one precedent from New Brunswick, which the hon. member had repeated several times. He quoted from decisions in several cases to show that reports were made not in the terms named in the terms of the statute. Of those there were six or seven. In only one case had he found the terms of the statute strictly
COMMONS DEBATES
May 1, 1873
407
adhered to. Every one must admit that dismissing the petition was equal to saying that the sitting member was entitled to his seat.
Hon. Sir JOHN A. MACDONALD said that according to the reports quoted of the motion of the Committee in New Brunswick, he could not agree with the hon. member for Pictou (Hon. Mr. McDonald). If the question had to be decided according to the law of Old Canada or Great Britain he could agree with him. He advised the mover to withdraw his motion, as it was apparent from what had been said by the members of the Committee, that they intended to have reported in the terms of the Statute in favour of the sitting member; and as a new mode of deciding controverted elections would hereafter be in force, no dangerous precedent could be established on account of the mere wording of the report.
Mr. COSTIGAN did not wish to press the motion upon the House when it did not appear to receive reasonable support from the House. He would only say that he felt satisfied with the course he had taken, and considered the motion necessary. He would, however, withdraw his motion.
* * *
EXAMINATION OF WITNESSES ON OATH
Hon. Mr. MACKENZIE reminded the Minister of Justice that he intimated to the House the other day that he would yesterday or today inform the House as to whether or not the consent of His Excellency was to be given to the Oaths’ Bill, and when. He would ask the hon. gentleman if he had such information now, as he had not been in the House last night when he (Hon. Mr. Mackenzie) put a question to the Government on the matter.
Hon. Sir JOHN A. MACDONALD said in reply that he had permission from His Excellency to say that his advisers had advised him to give consent to the Bill, and that he had now that advice.
* * *
MAIL SERVICE: ALLAN STEAMERS
Hon. Mr. TUPPER wished to call the attention of the House to the correction of a statement made by him in regard to the time taken by the Allan and Inman line. The statement made by him, and reported in the newspapers, was as follows: “Hon. Mr. Tupper, in reply to a question, said no subsidy was granted to the Allan Company by the Imperial Government. He read a statement to show that during the summer months mails were delivered in Montreal at the same time, whether coming by the St. Lawrence or by New York, and instanced the case of the Scandinavian, which left Liverpool on the 22nd of August, the mail being delivered in Montreal on the 2nd of September, whilst the mail by the City of Paris, which left Liverpool on the 23 August, was delivered in Montreal on the 3rd of September thus occupying the same time.” He had this morning received the following letter from Mr. Andrew Allan, with respect to the matter:—
“Montreal, 30 April, 1873”.
“Sir,—In the proceedings of the House of Commons, published in the newspapers this morning, you are reported to have said what is contained in the slip attached. You have somehow been led into error. What I am going to state, you can depend on as being true, and I ask you to correct your mistake in your place in the House of Commons as publicly as you made the statement I complain of. The Scandinavian sailed from Liverpool at 10.45 p.m. on the 22nd of August, and arrived at Quebec at 4 p.m. on the lst of September, making the net passage in nine days, three hours and fifteen minutes. Her mails were delivered in Montreal at 5.50 a.m. on the 2nd of September. I have looked up the London Shipping Gazette, and find that the City of Paris sailed on the 22nd of August instead of the 23rd, as stated by you, and I have ascertained from the Post Office authorities here that her mails reached Montreal at 1.45 p.m. on the 3rd of September, thus, although both steamers sailed from Liverpool the same day, the mails by the Scandinavian were delivered here in one day, seven hours and forty-five minutes less time that were those of the City of Paris, instead of having been delivered in the same time, as you are represented to have said. I may mention that the Scandinavian was detained at Moville five hours waiting for the mails, and nine hours by fog in the Gulf of St. Lawrence.
“I am, Sir”
“Your obedient servant”,
(Signed)
“Andrew Allan.”
Hon. Mr. TUPPER resuming, said he had immediately sent the letter over to Mr. Griffin asking an explanation, who had replied by the following note:—
“Sir,—Referring to the statement recently published of the time occupied by the Scandinavian, of the Allan Line, and by the City of Paris, of Inman Line, in the delivery of their respective mails from England at Montreal in August and September last. I regret to find that the Montreal post office returns from which the information was taken were so far incorrect that they gave, as respects the Inman steamers, under the head of departure from Liverpool, not the date of sailing from Liverpool for New York, but the date the mail for Montreal was put on board the steamer at Cork on the day after leaving Liverpool. This mail was made upon the 23rd of August on the Dublin and Cork Railway. As a matter of fact the Scandinavian for Quebec, and the City of Paris for New York, left Liverpool on the same day, Thursday, the 22nd August, and the mails brought by the Scandinavian reached Montreal early on the morning of the 2nd of September, whilst the mails brought by the City of Paris arrived in Montreal from New York in the afternoon of the 3rd September, that is on the following day.
COMMONS DEBATES
408
May 1, 1873
“I have the honour to be”,
“Your obedient servant”,
“W.H. Griffin”.
“To the Hon. C. Tupper, C.B.”
He felt that it was only justice to the House and the steamship lines that he should make these statements.
Hon. Mr. YOUNG (Montreal West) said there was no wonder that the Scandinavian should arrive before the City of Paris. She had such a much shorter distance to run. He maintained that the Allan Line should deliver their mails twenty-four hours earlier than the New York line.
* * *
MESSAGE FROM THE SENATE
The SPEAKER announced a message from the Senate stating that they had passed without amendment the two following bills:
An Act to amend the Act respecting the Montreal and Champlain Railway Company.
An Act to amend the charter of the Dolphin Manufacturing Company.
* * *
INFLUENCING OFFICIALS
Hon. Mr. MACKENZIE said the Hon. Minister of the Government promised to say today what communication the Government had to make concerning the matter of the letter of Mr. Gilbert Griffin to a postmaster during the late election.
Hon. Mr. TUPPER said he had referred to his hon. colleague the Minister of Justice to give this information and he did not therefore acquaint himself with the particulars of the matter. He had therefore to crave the indulgences of his hon. friend, and would give an answer tomorrow.
* * *
ALLOWANCES TO JUDGES
Hon. Sir JOHN A. MACDONALD moved that the House go into Committee tomorrow to consider the resolution on the subject of the allowance to judges for duties, under the proposed Act, to make better provisions respecting election petitions and matters relating to controverted elections of members of the House of Commons, the expenses of witnesses, and the duties and remuneration of the clerk of the election court created by virtue of the said Act.—Carried.
Hon. Sir JOHN A. MACDONALD moved that when the House adjourns on Friday, it will stand adjourned till Saturday at three o’clock p.m. and that the order of proceeding to the same as on Friday. He hoped the House would not object to sitting from three on Saturday, till such hour as they might adjourn, in order to get through the business as members were anxious to get home.
The motion was carried.
* * *
BEET ROOT SUGAR
Mr. JOLY enquired of the Minister of Finance when the resolutions with respect to Beet Root Sugar would be considered.
Hon. Mr. TILLEY replied that in a day or two they would be considered.
* * *
THE NORTHERN RAILWAY
Hon. Mr. MACKENZIE said he considered the next order, with regard to the Northern Railway, as extraordinary. He (Hon. Mr. Mackenzie) had a notice on the paper for a statement of the affairs of the Company, which it had been impossible to reach as yet. He hoped therefore, this resolution would not be pressed till that statement was moved for and brought down.
Hon. Mr. TILLEY promised not to press the motion until the statement desired was brought down.
* * *
UNOPPOSED MEASURES
Hon. Mr. BLAKE suggested that some arrangement should be made for the passing of some of the unopposed measures which were on the paper, and made it very bulky.
Hon. Sir JOHN A. MACDONALD agreed with the hon. member and proposed that when the House was tired the Government measures should be dropped, and that the orders on the paper should be called over and the unopposed measures proceeded with.
* * *
THE INTERCOLONIAL RAILWAY
Hon. Mr. MACKENZIE said there was another matter to which he wished to refer. With regard to the evidence taken before the Committee of Public Accounts in respect to the Intercolonial Railway, he thought it should be printed. He would therefore move that the said evidence be referred to the Printing Committee.
COMMONS DEBATES
May 1, 1873
409
Hon. Mr. GIBBS (Ontario South) had enquired of the printer about this matter, and had found that it could not be printed at present. There were, however, seventy-five copies already printed, which might perhaps be all that would be required.
Hon. Mr. MACKENZIE though the seventy-five copies would be sufficient, and therefore withdrew his motion.
* * *
SAVINGS BANKS
Hon. Mr. TILLEY moved the third reading of the bill to amend the Act respecting savings banks.—Carried, and the bill passed.
* * *
IMPROVEMENT OF NAVIGATION
On motion of Hon. Mr. TILLEY, an Act to authorize the loan of one and a half million dollars, to be expended in the improvement of the navigation of Lake St. Peter and the River St. Lawrence, and to authorize the imposition of tolls, should it be necessary to meet the interest thereon, was read a third time and passed.
* * *
WEIGHTS AND MEASURES
On motion of Hon. Mr. TUPPER, the House went into committee on the bill respecting weights and measures.
Hon. Mr. TUPPER explained that in reference to the question of the bushel, which this bill undertook to define, the number of pounds that there should be to the bushel of a variety of articles, such as grain, salt, dried fruits, et cetera, that the Committee of Banking and commerce had amended the bill by providing that after the lst of January 1874, all these articles should be sold by the centigrade.
Mr. KILLAM thought some provision should be made for a uniform system of gauging. It should be stated in the bill whether the contents of a cask should be determined by caliper or by rod. It was suggested that the bill should be printed with the amendments, before being finally passed by the Committee.
Hon. Mr. TUPPER said he would be very glad to do this were it not that the very great difficulty in getting printing done just now would very greatly delay the measure. He explained that the only changes made in the bill were two, the first providing that after the lst of January, 1874, all the various articles enumerated, such as grain, salt, dried fruit, etc., should be sold by centigrade, and the second that the provision of the bill by which the minot was to be retained, should be struck out.
Mr. KIRKPATRICK was sorry that no provision was to be made for the establishment of a uniform system of gauging throughout the Dominion. He was the more sorry for this, because he knew that the trade throughout the country were desirous of it having a uniform system of gauging, and so unanimous were they on the subject, that the Dominion Board of Trade at its last session had passed the resolution urging a change in the system.
Hon. Mr. TUPPER said that certain provisions that he had suggested in this respect had been discussed in the Committee of Banking and Commerce, when it was found that they were not quite prepared to adopt the resolutions. The subject would, however, receive the careful attention of the government, and he was in hopes that next session they would be prepared to introduce such a measure as would prove satisfactory. The Committee then rose and reported the bill as amended, and the amendments were read a first and second time.
The third reading was put upon the order of the day for tomorrow.
It being six o’clock, the Speaker left the chair.
AFTER RECESSS
DECK LOADS
Hon. Mr. MITCHELL moved the third reading of the bill respecting deck loads.
Hon. Mr. YOUNG (Montreal West) moved in amendment that the bill be not now read a third time, but that it be referred back to a Committee of the Whole, with instructions to amend the same by inserting the words “first of September,” instead of “1st of October” for ships carrying deck loads from the St. Lawrence to Europe. He pointed out the great danger of allowing ships with deck loads going to sea during the stormy season. He did not expect the amendment to carry, but wished it placed on the journals of the House.
Hon. Mr. CAUCHON thought as the Bill, as it then stood, had been approved of by the Committee to which it was referred, it should be allowed to pass as it stood.
After a few remarks from Mr. KILLAM, the amendment was lost on a division and the bill was read a third time and passed.
* * *
SUPPLY
On motion of Hon. Mr. TILLEY the House then went into Committee of Supply.
COMMONS DEBATES
410
May 1, 1873
Hon. Mr. MACKENZIE asked when the hon. gentleman intended to submit his supplementary estimates?
Hon. Mr. TILLEY: They will be laid on the table tomorrow at 3 o’clock.
The first item was $2,027,204 subsidies to Provinces, which was passed after some discussion upon the non-separation of the same granted to Ontario and Quebec in the estimates.
The next item was $157,700 for salaries of officers and inspectors of excise.
Hon Mr. MACKENZIE asked for an explanation of the increase of some ten or eleven per cent in the salaries of excise officers; also, he desired to know how the $75,000 which the government had given notice that they would ask for to increase salaries was to be divided. He reminded the Minister of Inland Revenue (Hon. Mr. O’Connor) that in the Public Accounts Committee it had been generally agreed that it was undesirable that the inspectors of Inland Revenue should get any portion of the seizures, and on that ground their salaries had been increased. Now he understood that the inspectors continued to share the seizures.
He had heard it stated by junior officers that frequently when seizures took place the inspector obtained the share of the seizure, while the local officer, by whom the fraud had been discovered, received no share of it. While he admitted that it was desirable that the lower grade of officers should receive a share of the seizures as an incentive to them more zealously to perform their work, he thought it was equally desirable that the inspectors should not share in the seizure. Of course in that case it would be necessary to increase the salaries of these latter.
Hon. Mr. TUPPER entirely concurred with the hon. gentleman that this was a proper time to give the explanations desired. He could, however, hardly be expected to go into any general statement in reference to a subject that would come under the consideration of the House in a few days, when the House was to be asked to vote a sum of $75,000 to defray the cost of the increase in salaries.
He might say that there seemed to be a common accord on both sides of the House that salaries that were adequate a few years ago were not adequate now; that in consequence of the increase in the price of all necessaries of life, if they desired to give to their officers the means of living comfortably, it was indispensable to make proportionate increase in their salaries. There was no class of the public officers whose salaries it was so necessary should be adequate in order to secure a due performance of their duties, as the officers of Inland Revenue. There was no class of officials who were so subject to temptation as the officials of this Department. It was well known that the slightest relaxation of official vigilance might be worth an enormous amount of money to the persons who those officers were appointed to supervise, therefore it was a matter of importance in the public interest that they should have a
sufficient salary to remunerate them, and to secure a due performance of their duties.
He was glad to hear the principle laid down by the hon. member for Lambton (Hon. Mr. Mackenzie). This principle had been adopted by the Government, and for a year past no inspectors had been allowed to participate in seizures. The right to participate in seizures having been taken away from these officers it had been found necessary to increase their salaries, and it had also been found necessary to increase the salaries of the gentlemen charged with the collection of Inland Revenue. An increase was also occasioned by the establishment of branches of the Department in British Columbia and Manitoba. He then proceeded to state in detail the increases that had been made.
Mr. PATERSON thought it was a question, now that the salaries of these officers had been increased, whether any of those officers should participate in the proceeds of seizures. The machinery of the law of Inland Revenue was so intricate that it was not desirable to give officers any inducement to seize the goods of manufacturers beyond what they derived from a desire to do their duty for a sufficient salary. He hoped the Minister would take the matter into his consideration.
Hon. Mr. TUPPER said this was a very important question, and had received the attention of the Government. They had not thought it desirable to take more than a step in the direction indicated, for, as the hon. gentleman had shown, a great incentive would be given to manufacturers by the adoption of that system. He asked the hon. gentleman if he thought a salary of $700 a year, with any participation in the profits of seizure, would be sufficient to protect an officer from the inducements which might be offered to him by wealthy manufacturers to be lax in the exercise of his duties.
The item then passed.
The following items also passed:—Travelling Expenses, Rent, Fuel, Stationery, Postage, Furniture, et cetera. $37,500 Preventive Service 4,000.
On the item of $6,400 to provide for additions to the Outside Service of the Excise Department as may be found necessary,
Mr. WILKES referred to the excise duty of five cents per gallon charged on petroleum, and expressed an opinion that it would be better to charge a round sum per barrel on the inspection of oil. The five cent tax had been imposed at the request of some oil corners (hear, hear), and the Government had left the duty in force, after the corners had ceased.
Hon. Mr. MACKENZIE said the article consumed in Canada was subjected to the tax, while the oil sent out of Canada was not subjected to it.
The Minister of Justice (Hon. Sir John A. Macdonald) had been pleased on the hustings to connect his (Hon. Mr. Mackenzie’s)
COMMONS DEBATES
May 1, 1873
411
name with some oil transactions. He had defied him to prove any such connection on his part. Neither himself, nor any one connected with him, had had any connection, good, bad, or indifferent, with any agitation for the imposition of duties. Neither did any one connected with him derive any advantage from it.
He made this statement publicly, because hon. gentlemen had cheered when the member for Toronto Centre (Mr. Wilkes) referred to some corners having had the duty imposed. When his (Hon. Mr. Mackenzie’s) opponent at the election in Lambton had, not by himself, but by infamous placards printed without the name of any individual or printing officer being attached, circulated these statements, he (Hon. Mr. Mackenzie) had taken the most effectual means not only to make it impossible for any one to prove them, but to enable himself to prove them false.
As to the imposition of this duty he did not think the manner of levying it was the wisest that could be adopted, or one that could well be defended, while it had been almost unanimously denounced by the trade. It was not wise to place exceptional burdens on this kind of any one article, unless there was a complete system of inland taxation upon production of all kinds. The oil manufactured in Canada, so far as safety was concerned was far superior to any manufactured in the United States oils.
Hon. Mr. TUPPER had learned with a good deal of surprise that such an ardent, extreme, almost ultra, free trader as the hon. member for Toronto, should have in another place very ably sustained a principle which appeared to him to strike at the very foundation of anything in the shape of free trade. We must have a revenue, and if we did not secure it by the imposition of customs duties, we must obtain it by means of direct taxation. The hon. gentleman must not object to custom duties on the one hand and to excise on the other, at all events not until he had developed further some more tangible scheme of direct taxation by taxing the land of the country. There was a body to which the hon. gentleman belonged to whose opinions he (Hon. Mr. Tupper) deferred a good deal, namely, the Dominion Board of Trade. Their opinions were entitled to considerable respect, though not to be implicitly followed by the House. This subject was very ably considered by this body recently, and the motion to remove this excise duty from petroleum was defeated by an amendment which declared that no change in the duties would be recommended during the present year. This amendment was carried by 33 to 18, and the course taken by the Government was, therefore, in consonance with the opinions of the Dominion Board of Trade on the question.
Mr. WILKES though regarding petroleum oil as one of our mining industries, thought it was not the class of article to be seized to make up the revenue. He only wished to say that the point he raised was not the abolition of the duty but the mode of raising it should be altered, and ameliorated.
Hon. Mr. TUPPER said the remarks of the hon. member for Toronto Centre (Mr. Wilkes) had been replied to a great part by the hon. member for Lambton (Hon. Mr. Mackenzie) and he urged that
it is required in the interest of free trade, of which the hon. member for Toronto Centre (Mr. Wilkes) was an advocate, that the revenue be raised from such source.
The item was then passed.
The following items were then passed:—
To pay Collectors of Customs in New Brunswick and Nova Scotia, allowances on duties collected by them, estimated at $2,700
To pay expenses in connection with Weights and Measures $10,000
The item under the head of Culling Timber, for salaries and contingent expenses of Culler’s officer, of $78,000 also passed:—
Salaries and contingencies of canal officers $28,970, Collection of slide and boom dues $13,875, Ontario and Quebec $435,000
On item of $1,559,000, on the Intercolonial and other Government railways in Nova Scotia and New Brunswick,
Hon. Mr. HOLTON asked the Minister of Public Works if he could give any idea of the gross traffic returns on the road; by whom the traffic was arranged, and whether the dead-head system had been abolished on the railway.
Hon. Mr. LANGEVIN said he could only speak approximately as to the gross traffic returns. In 1870 the Government railways in Nova Scotia yielded $275,000, and those in New Brunswick $195,000. In 1871, $314,000 in Nova Scotia and $251,000 in New Brunswick, and in 1872, $328,000 in Nova Scotia and $294,000 in New Brunswick. They had the returns from the amalgamated lines from November to March. In November, 1872, the return was $64,000; in December, $18,000; in January, 1873, $50,000; in February, $42,000 and in March, $46,000. By that return they might safely expect about $700,000 or $750,000 from the Government railways in New Brunswick and Nova Scotia, including the Intercolonial Railway there. He had no means of giving the return from Riviere du Loup to the Matepediac roads.
In answer to the second question of the hon. gentleman, he would state that the tariffs were prepared by the Superintendent of the railways in Nova Scotia and New Brunswick. They were then discussed by the Department, and submitted to the Council, and an Order in Council having been passed, they were published, and could not be changed without the sanction of the Government. As to the dead-head system, he would say that he had reduced it as much as possible. There was a list of persons having free passes upon these railways, and the persons receiving the privilege were the same as on other railways.
Hon. Mr. HOLTON discussed the subject of that vast excess of the cost of running the Government railways over the receipts therefrom. He thought the Department of Public Works should not be charged with the labour of managing these railways. He also
COMMONS DEBATES
412
May 1, 1873
declaimed against the system of free passes. He believed public servants should have no passes on any railways whatever, and hoped the system would be abolished by the Government during this year.
Mr. ALMON thought in some cases passes could not be abolished.
Mr. YOUNG (Waterloo South) said they were abolished on other lines.
Hon. Mr. LANGEVIN said they were probably not so much abolished as the hon. gentleman believed. (Hear, hear.) At any rate he did not think that it amounted to actual prohibition. He pointed out that telegraph officials, and others of a similar kind, must of necessity have free passes.
Hon. Mr. HOLTON expressed himself satisfied with all the answers except the last, from which he was sorry to learn that the free pass system—a most vicious system, he would take the opportunity to say—had not been entirely abrogated.
Hon. Mr. MACKENZIE said it would be better to let the officials referred to as being granted free passes pay their fares in the usual way, and let the public exchequer reimburse them to that extent. There might be some excuse for continuing this system on railways owned by private companies, but none of those owned and worked by the Government.
He gave the Minister of Public Works notice that on concurrence he would call the attention of the House to certain matters connected with the construction of the Intercolonial Railway, especially with reference to the investigation before the Public Accounts Committee.
Hon. Mr. MACKENZIE gave the Government notice that when the House again went into Committee of Supply he intended to call attention to certain expenditures on the Intercolonial, which had been investigated in the Public Accounts Committee.
Hon. Mr. YOUNG (Montreal West) considered the location of the Intercolonial as a great mistake, and believed there was no chance of the Intercolonial being used in winter, and during summer the steamboats would take its place. He urged upon the Ministry to give up the whole scheme, which, as a commercial enterprise, he contended, had no basis whatever.
Mr. BURPEE (St. John City and County) believed the revenue to be derived from the New Brunswick part of the railway would be very considerable, if there was sufficient rolling stock.
Hon. Mr. MITCHELL said the location of the Intercolonial had been decided after months of calm deliberation. Not only had the question of trade to be considered, but the question of the interests of the vast land population had also to be considered. He would like to ask the hon. member for Montreal (Hon. Mr. Young) how their
interests were to be considered by the steamboat lines. He maintained that the cost of the railway was not going to be twenty-one million, as had been said by Mr. Young of Montreal.
Hon. Mr. YOUNG (Montreal West) contended that there were lines being built which would bring Halifax two hundred miles nearer Montreal than the Intercolonial.
In reply to Mr. Oliver,
Hon. Mr. LANGEVIN said that in fixing the tolls on the Intercolonial, no discrimination was made between large and small shippers. The vote then passed.
The item of $33,000 for telegraph lines in British Columbia passed.
The following items, under the head of Post Office, were than
taken up:—
Ontario and Quebec Mail Services:—
Grand Trunk Railway	$167,000
Great Western Railway	45,000
Other Railways	90,000
Steamboat Service	40,000
Ocean Mail Service	10,000
Stage and other ordinary conveyance	270,000
Salaries of Outside Services—
Inspectors, Post-masters, Clerks, City Post
Officer, Railway Clerks, et cetera	280,000
Miscellaneous including City Post Offices	72,000
Nova Scotia Mail Services:—
Railways	20,000
Steamboat Service	2,000
Stage and other ordinary conveyance	80,000
Salaries of Outside Services	30,000
Miscellaneous	12,000
New Brunswick Mail Service:—
Railways	20,000
Steamboat Service	6,000
Stage and other ordinary conveyance	44,000
Salaries of Outside Services	30,000
Miscellaneous	12,000
Manitoba Mail Services:—
Stage and other ordinary conveyance	14,000
COMMONS DEBATES
May 1, 1873	
Salaries of Outside Services	4,000
Miscellaneous	2,000
British Columbia Mail Services:—	
Steamboat Service	18,000
Stage and other ordinary conveyance	37,000
Salaries and Outside Services	9,000
Miscellaneous	2,000
	$1,316,000
On the items for mail services on railways,
Mr. YOUNG (Waterloo South) called attention to the great increase in the expenses of the Post office Department. There was an increase in the estimates over last year of $112,000 and the increase in the six years since Confederation was $424,000. He also noticed the deficiency of revenue as compared with the expenditure. A few years ago there was a surplus, while now the deficiency amounted to $237,000. He admitted that the expanse of our territory necessarily demanded increased expenditure in the Post office Department but he could see no reason for so large an increase. He was afraid there was a tendency to extravagance in this Department, and there was room for the exercise of a little wholesome economy.
Hon. Mr. TUPPER said the increase was fairly accounted for by the additional expenses of Manitoba and British Columbia and the opening up of new settlements in other parts of the Dominion. Then, it was to be remembered that the postage rates were recently very considerably reduced.
Hon. Mr. MACKENZIE said he had received several letters complaining of the management of the Post-office Department. He referred especially to some letters he had received from British Columbia, making certain complaints, to which he would call the attention of the Government, and also to another complaint received from Cape Breton. He referred to several items in the estimates for mail service, respecting which some explanation was needed.
Hon. Mr. TUPPER asked the hon. gentleman either for the letters or for extracts, in order that he might convey them to the Postmaster General.
Hon. Mr. MACKENZIE would give extracts. He then asked explanations with respect to several items.
Mr. THOMPSON (Cariboo) had received no complaint about the mail service in British Columbia. As regards the stage and other ordinary conveyance, he could tell hon. gentlemen that several new routes and new post offices had been opened.
Mr. FARROW desired to call the attention of the Government to the excellent suggestion thrown out the other day by the member
413
for Oxford South (Mr. Bodwell), which, if adopted, he was satisfied would greatly increase the revenue of the Post office Department and at the same time would be a great convenience to parties living at a distance from banks.
He referred to the suggestion to reduce the rates for sending money orders in places at a distance from the banks. People were obliged to send money either by registered letter or by money order. It was some risk to send by registered letter, and therefore if the rate for money orders was reduced from a half cent to a quarter per cent, there would be a large increase in money orders, and that much of the Post office revenue would be proportionately increased. He thought this letter should receive the attention of the Government, and this was the proper time for calling attention to it.
Mr. THOMPSON (Cariboo) urged the Government to extend the money order system to British Columbia.
Hon. Mr. TILLEY said the increase in the post-office Department expenditure was nearly met by the increased revenue, where an increase had taken place it was counted for by a greater convenience in areas which did not bring sufficient revenue to meet their own costs.
Hon. Mr. TUPPER said he was not in a position just now to explain the item for mail service in Ontario, but he had no doubt it could be done satisfactorily. The item for ocean mail service he supposed to be for mail clerks on the Allan steamers to the St. Lawrence.
Mr. MILLS suggested that a reduction on the postage of newspapers should be effected. With regard to those from the office of publication, but forwarded from news office, they should, he thought, be placed on the same footing as newspapers mailed from the office of publication, and he had no doubt the increase in the number posted would take up any deficiency in the revenue.
Hon. Mr. TUPPER said he would call the attention of the Postmaster General to this question. With regard to Post-office orders the Postmaster had considered the subject, and concluded that any further reduction would cause a deficit in the revenue.
Mr. BODWELL pointed out that very little money order business was done in places distant from the banks, because of the high rates imposed. If the rates were reduced he felt certain the revenue would be considerably increased, and he hoped the Government would consent to a reduction.
Mr. YOUNG (Waterloo South) referred to public documents to show that the figures he had previously quoted respecting the revenue and expenditure of the Post-office Department were correct.
Hon. Mr. MACKENZIE enquired on what terms the new railways were paid for mail conveyance.
COMMONS DEBATES
414
May 1, 1873
Hon. Mr. TUPPER presumed the arrangements were the same. He would, however, enquire. The items then passed, as also the item of $10,000 for minor revenues.
The item was then passed, and the Committee rose and reported progress.
UNOPPOSED NOTICES OF MOTION
The House then took into consideration such notices of motion as would be passed without discussion.
Mr. MATHIEU moved for copies of letters, petitions, et cetera, respecting the improvement of the Richelieu River and the Chambly Canal.—Carried.
Hon. Mr. CAMPBELL moved for correspondence relating to the wreck of the Atlantic on the coast of Nova Scotia.—Carried.
Mr. EDGAR moved an address for an account of the Naval Reserve lands in Ontario, handed over to the Dominion government by the Commissioners of the Admiralty.—Carried.
Mr. WILKES moved for a return of public buildings insured against fire since Confederation.—Carried.
Hon. Mr. MACKENZIE in the absence of the Hon. Mr. Richards (Leeds South) moved for the return of patents issued for islands, or parts of islands, in the St. Lawrence, in front of, or forming part of the County of Leeds.—Carried.
Mr. OLIVER in the absence of Mr. Cook (Simcoe North) moved for a copy of the memorial purporting to be from the town of Collingwood, asking to have the port made an independent port of entry.—Carried.
Mr. FOURNIER moved for the correspondence in relation to the right of fishing granted for rivers running through the Seigniory of Mingan—Carried. Also for statement of rivers in the Province of Quebec for which the Government has granted the exclusive right of line fishing for salmon.—Carried.
The House then adjourned at 12.30 a.m.
* * *
NOTICES OF MOTION
Hon. Sir JOHN A. MACDONALD—On Saturday next—
Bill respecting the administration of justice and the establishment of a police force for the North-west territories.
Mr. TOBIN—Address to His Excellency the Governor General for copies of all correspondence between the Dominion Government, or any member thereof, and the Admiralty authorities in England and at Halifax, relating to the extension of the railway from Richmond depot to Halifax: also, copies of all plans, surveys, and reports connected with any proposed plans for railway extension for the city of Halifax.
Hon. Mr. TILLEY—On Saturday next—That the House do then go into Committee of the Whole on the following resolutions:—
That it is expedient to authorize the Governor in Council to direct the issue of five per cent Dominion debentures to the amount of $1,200,000 for relief of the Quebec Harbour Trust, and to be applied as follows: First, $700,000 to be applied to the purchase of the outstanding securities issued by the trustees, the amount to be paid for the same to the present holders to be that paid to each of these respectively not exceeding par, such amount to be proved to the satisfaction of the Treasury Board, and the payments to be made on the order of the said Board.
Second, the remaining $500,000 to be issued from time to time to meet payments to be made on account of improvements in the said harbour, such improvements having been previously sanctioned by the Governor in Council on the joint report of the Minister of Marine and Fisheries and the Minister of Public Works. That upon the issue of any such debentures by the Government for any such purpose as aforesaid, on the payment of any sum upon which debenture to a like amount might be issued, the trustees of the said harbour shall deposit with the Receiver General their own bonds, bearing four per cent interest, and one per cent, for a sinking fund, for the same amount, the sinking fund so established being kept by the Receiver General as a special account; and interest at the rate of four per cent per annum is allowed on all accounts received from it, or investments of such amounts being made from time to time on securities approved of by the Minister of Finance. Third, that it is expedient to provide that, if at any time the income of the trustee of the said harbour is insufficient, after the payment of their current expenses of maintenance and repairs, to pay the interest aforesaid and sinking fund to the Government, the Governor in Council may increase the harbour dues then payable to such rates as will enable the trustees to pay such interest and sinking fund.
COMMONS DEBATES
May 2, 1873
415
HOUSE OF COMMONS
Friday, May 2, 1873
