 at three o'clock.
BILL INTRODUCED.
Hon. Mr. MACKENZIE introduced a Bill respecting the lien of the Government on the Northern Bail way of Canada. The Bill was read a first time.
THE PACIFIC RAILROAD.
Mr. WHITE (Hastings) resumed the adjourned debate on the motion to concur in the report of the Committee of Supply. He said he regarded the Pacific Bailway as the most important project ever brought before the people of Canada since Confederation. Certainly this Dominion could only expect to be great by carrying out, in good faith, the obligations entered into with the different Provinces in the Union. It was necessary that we should use all our exertions to bring the Pacific Province into commercial as well Hon. Mr. Mackenzie.
as political union with the rest of the Dominion. This would not be accomplished by the policy of the Government. A half-rail and half-water route would not satisfy the people of this country. The other day Mr. Wood, the member for South Victoria, in the Ontario Legislature, remarked that the people only desired the Government to commence the railroad at Lake Nipissing; the people of Ontario had the wealth and energy to reach that point and Quebec could do likewise. He (Mr. White) was glad to have this opinion from a Beformer and he believed it was the opinion of a great majority of the people of Ontario. They would prefer to see this contract with Mr. Foster cancelled and the money appropriated for it expended in constructing a line to connect the great lakes with Manitoba. The House had heard the remark of the hon. member for Marquette that the people of Manitoba were unanimously in favor of an all-rail route between Thunder Bay and Winnipeg in preference to the Pembina Branch and the two sections of railroad along the Dawson Boute. There could be no doubt that the money expended on the construction of a railroad across the continent would be well invested, and he hoped the Premier would cancel the contract with Mr. Foster and apply the sum to the construction of a road from Georgian Bay to Winnipeg.
Mr. McCALLUM said that it had been argued during the debate that the House should pass the Pacific Bailway item because the Government policy had been ratified by the people at the last election. The fallacy of this argument was proved by the fact that the policy of the Government was not known at that time beyond what was indicated in the speech of the lion, the First Minister at Sarnia. It was held that for the prosperity of Canada we must have a railway through our own territory from the pacific which should be the back-bone of the Dominion. It would be a singular back-bone, however, when it diverged from a straight course in order to reach Georgian Bay, and when the route was alternately rail and water. If the railway could not be constructed in a more satisfactory manner, it would be well for the Dominion to at once tell the people of British Columbia and Manitoba that the Dominion could not afford to build it. Before the Government expended so large
March 13, 1875.
689
ah amount of money in con-stmcting a useless railway to Georgian Bay, it would be better to cut the painter and let those Provinces •drift away from the Dominion. Not many .years ago we had trouble in .the NorthWest, and Canada became alarmed because a few half-breeds had risen in arms. On that occasion they were able to defy the ‘Canadian Government for six months, and supposing a similar outbreak again took place how could we send troops into the country in winter, over a water and rail route which would be useless during five or six months of the year. In regard to the Georgian Bay branch, he desired to ask the Government what traffic they could bring over the road. He contended that when grain was placed on board of a vessel at Fort William it should be brought right down to Montreal, for grain would scarcely be remunerative if transported by rail. While this was the case it was necessary to have the Pacific Railway through our own territory to meet emergencies should they arise in the West. A railway should be built from Nipegon or Fort William right on to Fort Garry, and so soon as practicable a line should be commenced at Nipegon carrying it eastward. Several hon. members had complained of what they termed the unreasonable demands made by British Columbia, but the House should remember that we had not looked at the exports and imports collected in that Province, but to the fact that the Dominion had entered into a solemn compact with the people of the Pacific Province, to build a railway so soon as praticable and that promise ought to be fulfilled. As regarded the cry raised that the country would be impoverished if we constructed the road, the House would remember that the Minister of Finance collected last year three millions of additional taxation, which it was contended by the hon. member for Cumberland was unnecessary, and the people did not feel that additional taxation. With the wealthy and fertile lands of the North-West at our disposal, we ought to proceed at once with the construction of the direct all rail line. The question of the Georgian Bay branch was never before the people at the last election for the question, then was, “ Pure party and Pacific Scandal,” and upon that only was a verdict of the people obtained.
Mr. BORDEN said the question had > MeOaltum.
been discussed from a British Columbia point of view, from an Ontario and Quebec point of view, and from a Manitoba point of view, and it seemed to him that the Provinces which were getting all the concessions, all the expenditure and all the advantages, if there were any, had the most complaints to make. He refered to British Columbia and Manitoba. Ontario and Quebec were largely interested in this road, from the fact that the line which is to connect the eastern end of the Canada Pacific Railway with the Atlantic, is to traverse and open up many miles of the interior of the former Province, and from the fact that the Atlantic terminus of the road is to be at the great commercial centre of Quebec—the City of Montreal. It was true that these two Provinces had another consideration in the matter, and that was the paying by far the largest part of the cost. Still, as he had already said, they have a direct interest in the construction of the road, from the fact that a large subsidy will be spent by theDominionGovernment in the territory of the one, and from the fact that the other will possess the great eastern terminus of the road. There was one other point of view from which this undertaking had not been viewed, and that was the Maritime— the point of view of the Provinces of New Brunswick, Prince Edward Island and Nova Scotia. These Provinces composed a very considerable portion of the population of the Dominion, a very considerable portion of the trade of the Dominion, they paid a very considerable portion of the taxes of the Dominion, and they would be called upon to pay a very considerable portion of the cost of this railway. On the other hand he maintained that they did not in the slightest degree participate in the direct advantages of the proposed expenditure, and the indirect advantages were so very remote and imaginary that he did not think they could be fairly considered. Hence, he contended that no portion of the Dominion would contribute so far beyond and out of proportion to the benefits to themselves, which could be fairly claimed to result from this expenditure, as the Maritime Provinces. The hon. member for Marquette found fault with the Government becarrse they would not deviate from a straight line in the eonstruc-tion of this road to accommodate a few hun! dred families in his Province, and argued
690
HOUSE OF COMMONS.
that those people would he disappointed. But where he had a few hundreds of disappointed people because this road did not take a deviating course, he could tell him of thousands who were bitterly disappointed that it should ever be built at all. That lion, gentleman thought it an outrageous thing that the shortening of the road thirty miles should be used as an argument, lib had come to the conclusion that the smaller the Province the larger were the ideas of its representatives. It was easy, however, to be lavish with what does not belong to ourselves. If there was any one thing commendable more than another in the scheme of the Government, it was this thirty-mile abbreviation, and if this country were not pledged to this insane project he should like to advocate, not the reduction of its length by thirty miles, but by its whole distance, and he was quite ready to plead guilty to the charge of holding contracted views, if it was contracted not to desire to expend millions for an imaginary population—if it was contracted not to wish to construct a road down the inhospitable slopes of the Pocky Mountains, which involved the building of five hundred miles in order to gain a distance of two hundred and fifty, every mile of it at a frightful expenditure in overcoming engineering difficulties. This country has had some sad experiences already in railway construction —in its Grand Trunk and Intercolonial ; and he appealed to lion, members, and to the country to say whether those experiences seemed to justify any such undertaking. The United States was often quoted on account of its Pacific Railway ; but what had been their course 1 They first opened up their Western countiy, established great cities, and then with a population of forty millions accomplished with the greatest difficulty what we were attempting to do with a population of less than four. But he (Mr. Borden) would be told that this work was a foregone conclusion—that the country was pledged to it. Well, he supposed this was the fact, and it was a most melancholy one. But the present Government were in no way responsible for this insane project—it was one of the unenviable legacies of the late Government. The present Government had succeeded in getting somewhat better terms. He could only regret that they were not in honor, able to repudiate the Mr. Borden.
whole bargain. He could but regret, too,, that the Colonial Secretary of the British. Government should be so ready to hold this country to a bad bargain, which meant almost certain financial ruin to us, and which to Great Britain was only the realization of a pet fancy to connect the British Provinces of the Atlantic with the Pacific at their expense. As regards the scheme proposed by the hon. Premier, he was bound to say, in view of the fact already stated that we were pledged as a nation to the work, and in view of the fact that the gentleman leading the Opposition in this particular was largely instrumental in entangling this ccfcmtry in their difficulty, and in view of the fact that he believed the hon. Minister of Works is competent and conscientious in the discharge of his duties, and in view of the fact that he believed the Government of this country was in safer hands then it ever was before,—in view of these facts he (Mr. Borden) should support the scheme proposed by the Government, believing as he did that, coming from such a source, the opposition of the hon. member for Cumberland was prompted by the desired to offer obstruction for party purposes.
Mr. PATTERSON said he had noticed the Government had been very strongly attacked, and perhaps there was an impression in the minds of some that the opinion of the Plouse was adverse to the vote of concurrence in this item of six and a quarter millions asked by the Premier. Very few of the supporters of the Government had taken part in this discussion, as they had with their usual generosity given most of the time belonging to them to the Opposition ; recognizing the talent they brought to bear on the discussion. In this question of the expenditure of six and a quarter millions for the construction of a paid; of this great national undertaking (was involved the whole scheme of the Government in reference to the construction of this railway. Their whole policy had been attacked. The points made against them were rather difficult to be seen, as there was a conflict of testimony by those opposing it; and there did not seem to be concert of action on the part of those opposing the Government. Opposition was taken from a Manitoba point of view, from a British Columbia point of view, from a Maritime
March 134 18f5.
m
Province point of view, and strangest of all he found some gentlemen opposing it from an Ontario point of view. Professing to speak for Ontario they had said Ontario’s interests had been ignored ; and that the Minister of Public Works, a distinguished representative of one of the most important Ontario constituencies, had been recreant to the trust imposed in him so far as his own Province was concerned. He (Mr. Patterson) failed to see where Ontario interests had been sacrificed. Were they to be told that a subsidy for the construction of 180 miles of road through Ontario was opposed to Ontario’s interests 1 The construction of that road would develop a country not now settled, but which would be settled, and the scheme could not be adverse to the interests of Ontario. Another hon. gentleman asked where was the traffic for the road 1 “Some ice from Georgian Bay to the ice houses in Quebec,” was his answer. In the same breath he told us that the railroad must precede settlement, and thus develop and stimulate trade and commerce for itself. He held that these arguments were altogether conflicting ; and that the Opposition must either •abandon one or the other. The first item in this vote of six and a quarter millions was a million for the construction of a telegraph line and roadway. There was no objection to that item—the opponents of the Government and its supporters united in supporting it, and some said we should have even more roadway than was proposed. The next item was two millions for steel rails, and there was no member, except the hon. member for Cumberland, who held that the Minister of Public Works had not done a good work when he secured that bargain for the country. Had not the Premier conclusively shown that it was one of the best bargains ever made. The item of two and a quarter millions was on account of construction of the road on Vancouver’s Island ; and this was necessary in order to carry out the arrangements made by the Minister of Public Works, by which he Bad, while keeping faith with British Columbia, as he was bound to do, saved the country from the bankruptcy that would have followed the rash construction of this road. The House must not forget that we were not at perfect liberty to determine whether we would make that expenditure or not. They had -V*. Patterson.
to keep faith with British Columbia ; and he believed the Premier would keep faith with that Province, as he would keep faith in all the agreements he might enter into. At the same time it must not be forgotten that while we were a growing and prosperous people, with strong nerves and undaunted hearts, nothing would do more to cripple . us than to undertake an outlay the resources of the country would not warrant. He supposed that this grant of 82,2-30,000 towards the construction of. that road would not be taken exception to. The appropriation of £500,000 for the G eorgian Bay Branch had been attacked. He would not disguise the fact that when lie first looked at the Government scheme he was not as favorably impressed with it as he was at present. He thought that an undue advantage was being given to the sister Province of Quebec, and that the proposed road would tend to divert the traffic of the North-West from the western cities of Ontario to the great commercial metropolis of Quebec. He ventured to say that after the explanations of the Premier a different view of the question would be taken in the Province of Ontario, and the fact would be recognized that the lights of no province had been sacrificed, and the interests of no province in particular had been taken into account. Looking at it from an Ontario point of view, lie saw a railroad was to be constructed for two hundred miles through a portion of his Province which had never been opened up before, and which was fit for settlement. Viewing it in that light, he heartily approved of this portion of the Government policy. Then the appropriation of $500,000 for works of navigation had been strongly attacked. Tt was contended that a half rail and half water route would never succeed, and that we must have an all-rail route at once. The hon. member for Monk, who had settled in this country many years ago and accumulated wealth there, proclaimed that there was no use in utilizing our magnificent stretches of water communication. How did the hon. gentleman reach the place he now represented? Was it not by the magnificent stretches of water communication 1 The North West could be settled as Ontario was before railroads were built, by utilizing the magnificent stretches of water communication as proposed in the Government scheme. The
692
HOUSE OF COMMONS,
water was there and cost us nothing, and we should use it for the present. When the necessities of trade demand it, we could do as Ontario had done, supplement the water communication with railroads. To the Government policy he accorded his hearty approval. He rejoiced that we had an administration that did not ask Parliament to give them powers to do this work, but in all they undertook recognized the rights of the people’s representatives, and bad given such evidence of their honesty and sincerity. He regretted that the Minister of Public Works, in his remarks concerning the Boards of Trade, had not been more explicit. The hon. gentleman had said nothing disrespectful of them, but he was misunderstood by some members. The Premier recognized the talent and commercial ability of Boards of Trade, but denied that they were in a position to arrive at as correct conclusions with regard to the construction of public works, as the Government, who possessed the accurate information supplied by engineers.
Hon. Mr. TUPPER said if any evidence were required that his position was sustained by arguments which were unanswerable, he had only to turn to the speeches of • the hon. member for South Bruce and the hon. Premier to find it. These hon. gentlemen in discussing a question of the greatest gravity and importance had adopted the tone of special pleaders, instead of meeting the arguments he had presented. The hon. member for South Bruce had dwelt at great length upon the point that his (Mr. Tupper’s) position with regard to the Pembina Branch was inconsistent, and defended the policy of the Government on that ground. So far from opposing the policy of the Government with regard to the Pembina Branch, he (Mr. Tupper) had distinctly stated that lie would offer no opposition to it, since a portion of the road was graded, and it was no longer a subject for discussion in this House. But supposing he had opposed the Pembina Branch, would the arguments and statements of the hon. member for South Bruce have been in point! The policy of the late Government was to construct a railroad from Lake Nipissing to the Pacific, and it would have been unfair to the company that was bringing a large amount of capital into this country to prevent them from connecting with the American lines.
Jfr Patterson.
But that policy was widely different from that bf the present administration, which was to construct the Pembina Branch as a Government work. The policy of the present Government was to utilize the water stretches of this country, and did not involve the construction by Government money, and the ownership and operation by the Government of seventy miles of railway alongside of seventy miles of the most magnificent water communication in the country. He did not assail the Government for this, and he merely drew attention to the fact to show how the hon. member for South Bruce instead of grappling with his arguments had set up men of straw to knock them down. His (Mr. Tupper’s) position was this, that the Government instead of eairying out the policy of their predecessors and grappling with this great work with all possible energy, proposed to expend $10,500,000 of "'the public money outside, above and beyond anything that was required for the construction of that great work. That was the question he addressed to the House and the position he occupied. The arguments he had adduced to the House were unanswered, not because there were not hon. members of ability on the Ministerial side of the House, but because the arguments themselves were unanswerable. The hon. First Minister adopted the course of avoiding the main issue and taking up the question of rails. He had not opposed the First Minister’s policy in regard to the purchase of rails. He declared that he was prepared to give the most generous construction to any act of the Government in dealing with a question of such magnitude, and asserted that they had doubtless acted as they supposed in the public interest. But it was a grave act for the Govern-. ment to incur a debt of two millions and a-half for any purpose and come to Parlia ment six mofiths afterwards and ask it to meet the bill. That was undoubtedly a great power to assume; he did not say there were not occasions when such power ought to be exercised, and he did not say that this was not one of those occasions. But the hon. First Minister had brought forward the question of rail purchase as one upon which he (Mr, Tupper) had attacked the Government. What he did state was that although rails had been purchased at an exceedingly lowpricethere was no reason why they might not be still lower. The
March 13, 1875.
es3
fact was that iron is now at amueh higher price than a few years ago; that it had been falling in price was abundantly evident; that the competition had become so keen in the manufacture of Bessemer steel rails, between England, Belgium, and the continent that there was nothing to indicate that the price would not still further decline. But the interest of the money was alone a serious item. Computing intei'est at 5 per cent, on $2,500,000 for two years, the result was a sum of $250,000 which must be added to the cost of rails, and then it appeared to be very doubtful whether the Government had saved any money to the country. Two years would elapse before a rail would be required except for the purpose mentioned by the Eirst Minister, that of construction, which would be a very improper purpose for which to put the rails, because when rails had been used for such a purpose they would be found very unsuitable and unfit for the operations of the road when constructed. The hon First Minister and the hon. member for South Bruce also took the ground that this question was not legitimately before the House, because the member for South Bruce stated that it had been provided for and settled at the last session of Parliament, and the Premier stated that this expenditure had been provided for by law. Suppose that the law passed	last year pro-
vided for making that contract and giving subsidies for the line, was Parliament not in a different position to-day 1 If there was anything in the arguments of the hon. gentleman they proved too much, because if they proved that hon. members might not discuss and examine the policy and contract agreed to, that proved that the Premier was using a mere senseless form in placing the contract on the table, and inviting deliberation on it by Parliament. He would put it to the hon. member for South Bruce and the Premier whether this Parliament stood to-day in the position in which it stood when the legislation was put on the statute book last session. The House had heard that the Government during recess had bound the country to a time bargain to the construction of the Canadian Pacific Railway from the Pacific coast to the shores of lake Superior. The late Government were charged with having committed a
ffon. Mr. 2upper.
monstrous folly in making a bargain with British Columbia for the construction *f the Pacific Railway within ten years. The bargain was made between our own people and the people of a Province who by tneir loyal and patriotic course had given the best evidence that- they would not complain if they saw that the Dominion. Government in good faith was making all exertions possible to carry out the bargain. Suppose the work had occupied fifteen years instead of ten, there would not have been a dissentient voice raised provided the Government proceeded as rapidly as possible with the work. But the present Government had made an additional compact with the Crown and Parliament of Great Britain, providing that within fifteen years the railway would be bu'lt firm the Pacific to Lake Superi'-r. Aul for this, if for no other reason, the question occupied a different standpoint. He enied that the late Government had ever agreed to put their hands in the public tr usury and build a road from Esquima.dt to Nanaimo, but they required the company to secure the contract for the construction of the Pacific road proper to carry out that line at their own cost. The leader of the present Government had stated in his letter of instructions to Mr. Edgae, the agent sent to British Columbia, ancl reiterated the statement in a Minute of Council to Lord Carnarvon, that the Government of Canada were under no obligation to build a mile of railway on Vancouver Island. And yet the Government had pledged the country to the construction of a road from E^quimault to Nanaimo at a cost of three and a half millions. Supposing the First Ministercar-ried out the policy already submitted to the House, the terminus of the road might be fixed at Bute Inlet, at all events thelocationof the terminus could only be decided after survey. If that should prove to be the case, it would involve the construction of 150 miles of railway at a cost of $8,000,000.
Hon. Mr. MACKENZIE said he never recognized any obligation to carry the line beyond the head of Bute Inlet. Even if they adopted that route the Government were not bound to do more than reach salt water. No doubt the grades in the valley of the Frazer were the best, and the route was the shortest, and if the works of construction were not too serious, that
694,
HOUSE OF COMMONS.
wcm}4 the best route to take ; but he apprehended that the works of construction woidd be exceedingly difficult.
Hon. Mr. TUPPER said that if the Government only carried the line to Eute Inlet they would leave a gap of 160 miles between that point and Bute Inlet. He ' was' surprised at the Government bemoaning the inheritance left them by the late administration, which included the Pacific Raidway scheme, because the members of the party worked night and day to obtain power.
Hon. Mr. BL AKE—The lion, gentleman resigned, left his place vacant, and it had to be'filled.	*
Hon. Mr. TUPPER said the late Government did not resign until they found that they could not longer conduct public affairs with advantage. He expressed his confidence that the Opposition would aid the Government to accomplish thegreat national work undertaken by their predecessors ; and deprecated any factious criticism regarding the position of British Columbia, which was now an integral part of the Dominion. There was not a word in the law that justified the contract or the subsidy, and he quoted from the Pacific Railway Act of 1674 to show that the authorized terminus was fixed at a point near Lake Nipissing, contending that to subsidize any other route than that indicated in the act was defying the law and the expressed intention of Parliament. The. Minute of Council showed that the Government had entered into a contract with Mr, Foster to build a subsidized line from Burnt Lake to Douglas, and it so happens that Burnt Lake is 85 miles from the point authorized by Parliament as the eastern terminus. Not only, therefore, had, the Government acted without the authority of the law, but they had acted in the teeth of the statute passed last session. This was no mere legal quibble - --me irrelevant controversy, for it involved a waste of PI ,400,000. The lion, member for South Bruce had charged him with exaggerating figures ; but he called the attention of that hon. gentleman to the fact that there was no exaggeration in the statement that Burnt River was 35 miles from the terminus authorized by Parliament. With regard to his other figures he had the authority of the best information open to any member of this JTan* Mr. Mackenzie.
House—the contracts themselves. He made his calculation on 122 miles. His hon. friend from South Bruce made his calculation on 115 miles. The contract stated the distance to be about 120 miles, and it was surely less of an exaggeration to deviate from the statement of the con-v tract two miles than seven. He valued the land at $2 an acre, but the First Minister said they were giving it away. If the land was as valuable for agricultural purposes as the Premier represented it—and he believed that it was, and that there was no finer country on the face of the earth— why should it he given away ? The simple reason was that the Government did not provide a direct and easy means of communication with the North-West. Nothing would justify the Government iu incurring the expense they had incurred unless those lands were worth $2 an acre. On twenty-six lines of railway stretching across the Western prairies the land grants sold at from $13.25 to 83.17 per acre. The Northern Pacific sold their lands at a minimum price of $4 and a maximum price of 810 per acre. So that it was evident that his fhmres
O
were rather under than over what he was justified in stating. This contract bound Canada to pay for twenty-five years 8300 per mile per annum amounting to $637,500 and making the large sum of $6,327,500 that is to be paid under this contract. The hon. member for South Bruce had calculated the amount at $4,270,000, and giving him the benefit of the reduction, and assuming that he was right, he would ask him if he was prepared to throw away from four to five millions without accomplishing any object. His (Hon. Mr. Tuppeb’s) argument was relatively just as strong in relation to the amount of expenditure involved according to the hon. member for South Brace’s own calculations as according to his (Mr. Tupper’s) own. Why was there not greater utilization of the water stretches to get to Lake Superior l No hon. gentleman opposite had dared to grapple with this phase of the question. They might secure this communication without an expenditure of one dollar of public money, for private capital and private enterprise had tapped all these waters and furnished all the facilities required for getting east. According to the hon. member for North Oxford the First Minister had been besieged .by
March 13, IST5.
695
delegations from Ontario against tliis scheme. They said if you are going to spend the public money of Canada in this way you should divide it up among the railway companies, for we want some of it. From their standpoint their opposition was a very strong one. They have expended private capital to accomplish, what this expenditure of ten and a half millions was designed to accomplish, and they had a right to say not that thus deep wrong should be increased and made greater, but that the public money should be expended in carrying out this great undertaking to some neutral point to be fixed bv Parliament, which could be reached by private capital and private enterprise. The lion, member for Algorna had with an amount of canuor that did him credit, but for which the Government would not thank him, had let some light upon the matter. Discussing the question naturally from an Algorna standpoint he had in the course of his interesting speech last night said that at an early day a road would be made to Sault Ste. Marie to connect with an extension of the Northern Pa cific from Duluth. If that were not the case what did this expenditure mean '? It would leave us at the feet of the Northern Pacific for the next fifty years, and make our great artery of commerce dependent on a rival road. When Sir Hugh Allan had entered into negotiations with American capitalists with this end in view the then Government of Canada had refused to sanction his plans; and it was owing to the patriotic stand that we were where we were to-day. The Globe, in the course of its comments o.i Sir Hugh Allan’s plans, had said :—•
“ A very cursory examination of the country to he traversed by the American road from the head waters of Lake Superior will show how fallacious all such arrangements are, and how pot only the line through British territory may he carried through from strictly commercial ■considerations, but must be, if British authority is to be maintained on this continent, and our new Dominion made practically as well as in theory a great fact. Apart from all other considerations, the very fact that the line under consideration is through American territory would be a fatal objection to its being made the Grand Trunk line for the Canadian Forth-West. Chose who had the command of it would inavery few years command the country. All the intercourse, both social and commercial, of the people of the North-West region would be directly with and through a foreign people, and what might at any moment become a hostile country.
■Hon. Hr, Tupptr.
By a mere stroke of his pen a foreign ruler might lay an embargo upon the whole intercourse of that part of Canada with what lies to the east. The bondiug system, as we have lately had hinted at in connection with a region nearer hand, might be stopped capriciously, and on very short notice ; the tide of emigration might be turned away from our border, to a certain extent at any rate, while everything would conduce to make the absorption of the whole territory by the States a mere question of time, and of time very shortest at the longest. The connection of all that region with the more eastern parts of the Dominion would be merely nominal, and when the pear would be ripe, it would naturally fall, as from the lirst had been desired, into the lap of our very astute and enterprising cousins over the
way......................................:••••.•
The proposed route for that undertaking is, on an average, four hundred miles north of that now being made from Duluth, and instead of being, as a large part of both American lines must be, through an irreclaimable desert it runs through a country which in fertility and climate, will compare favorably with any part of the North American continent.
“ When tiiis has been stated, nothing else is necessary. Any person of ordinary intelligence can see at a glance that a railway which never, throughout its whole course, comes within a hundred miles of the border lines of a country can uo very little to develop the resources of that country. It is better than nothing, but that is all that can be said in its behalf. The immediate territory through which it runs would be benefited chiefly and in the first place, and all beyond only incidentally, and after the lapse of many years.
“ Instead of the fact that the ‘ North Pacific ’ is under construction being an argument for allowing the Canadian project to fie in the meanwhile in abeyance, it affords the strongest reason possible for its being pushed through without delay. Politically, it is a manifest and pressing necessity, * while -commercially it is as evidently of the very highest importance for Canada. In this way alone can this country have any chance for her fair share in the lucrative trade with the North-West which will assuredly spring up, and in the varied traffic with the Pacific world which to a great extent will pass through Canadian territory, if once what will be the shortest ami easiest route from ocean to ocean ia in working order.
“ Our neighbors know the value of the prize involved, and are making gigantic efforts to secure it exclusively for themselves. Our rulers will be traitors to their country and to British connection if they lose a single season in making it practicable and convenient for settlers to go to Fort Garry through our own territory, aaid in putting things in a fair way for the Canadian Pacific Railway. It is a question not merely of convenience but of national existence. It must be pushed through at whatever expense. We believe it can be so pushed through, not only without being a burden pecuniarily to Canada, but with an absolute profit in every point of view. Without such a line a great British North America would turn out an unsubstantial dream;
696
HOUSE OF COMMONS.
■with it, and with ordinary prudence and wisdom on the part of her statesmen, it will be a great, a glorious and inevitable reality. ”
Turning from this statement held up by the great organ of the party when Sir Hugh Allan proposed to enter into an agreement with the American capitalists to subordinate the commerce of this country to rival lines, in the speech of the Hon. First Minister, on this subject, he said:—
“It is felt that it is extremely difficult for us to pour a large population into that country, when the expense of transportation to Fort William, westward, is so great; and it is deemed advisable that we should not be driven, for any length of time, to pour a tide of emi-
Sration through any portion of the United tates, in order to reach our own territory.” What would the House and the people think of the policy of the Government, with the light that had been thrown upon it by the hon. member for Algoma 1 After all this expenditure on a land and water route between Lake Superior and Fort Garry, did anyone suppose that an emigrant on a steamer on Lake Superior would travel by it when he could run down to Duluth and travel by an all-rail route to the very heart of Manitoba, as he could do after the completion of the Minnesota liue to Pembina, and the construction of the Pembina Branch. Looking at it from that point of view, it appeared to him that if the object of the Government was not—and he did not for a moment intimate that such was their object—to hand us over bond slaves to our neighbors, and to fetter the commerce of Canada for the next fifty years, then it was an act of insanity. The hon. members for Marquette and Selkirk had shown that it was impossible for the Parliament of Canada to commit a greater folly than to appropriate this large sum to be expended outside of the Canadian Pacific Bail way, instead of grappling with the great work itself. The hon. member tor Algoma had asserted that it would take one hundred years to build the section north of the lakes. Did the hon. member forget that the Premier had laid upon the table a contract for constructing the 200 miles of railroad from Douglas to Georgian Bay within two and one-half years from the present time 1 The hon. gentlemen would believe, in view of this fact, that if the energies of the Government were rightly directed, and directed with equal vigor to Hon. Mr. Tupper.
the construction of a great national highway, it could be accomplished in a comparatively short period. He (Mr. Tupper) would not assume that the policy of the Government was not founded on the purest patriotism, but if it were carried out the intelligent people of this count} y, from end to end, would believe that tne Premier was not a free man ; they would believe that the interests of Canada were subordinated to those of the Northern Pacific Railway, and that under these arrangements he was carrying out a policy which, while fatal to Canada, was eminently successful to that Company. The item in the estimates was between six and seven million dollars. He (Mr. Tupper) was ready to put twice that amount in the hands of the Premier for the construction of a Canadian Pacific Railway, but not for the purpose of rendering it impossible for us to have a through railroad on Canadian territory. He therefore moved that the said resolution be amended by adding the following words: “That in view of the engagement entered into during the past year between the Government of Canada and the Imperial Government and British Columbia, to build a railroad without delay from Nanaimo to Esquimault on Vancouver Island, and to expend not less than $2,000,000 per annum in British Columbia on the Canadian Pacific Railroad, and to complete the construction of the line from the Pacific Ocean to the shore of Lake Superior in fifteen years, this House is of opinion that no time should be lost in beginning the eastern portion of the Canadian Pacific Railroad, and constructing it as rapidly as is consistent with a due regard to economy, from the point fixed by Parliament at or near to the south of Lake Nipissing, westward to Lake Nipegon and thence to Red River, commencing at Lake Nipegon and working eastward and westward, and that the Government should employ the available funds of thq Dominion in the first place for the completion of that great national work—a continuous railway on Canadian territory by the shortest route from the Atlantic to the Pacific Ocean.”
A division was taken on the amendment, which was rejected by the following vote :—
Yeas ;
Messieurs
Brooks,	McDonaldf Cape Breton),
Cameron {Caldwell),	MeDougall{ TkreeJSivers)
March IS, 1875.
597
Caron,
Cimon,
Colby,
Costigan,
Currier,
Cuthbert,
Desjardins,
Domville,
Dugas.
Farrow,
Ferguson,
Flesher,
Fraser,
Gaudet,
Greenway,
Haggart,
Hurteau,
Jones {Leeds),
Kirkpatrick,
Little,
Appleby,
Archibald,
Aylmer,
Bain,
Bechard.
Bernier,
Bertram,
Biggar,
Blackburn,
Blake,
Borden,
Borron,
Bourassa,
Bowman,
Brouse,
Brown,
Buell,
Burk,
Burpee (St. John), Burpee (Sunbury), Campbell, Carmichael, Cartwright,
Casey,
Casgrain,
Cauchon,
Charlton,
Cheval,
Church,
Cockbum,
CofBn,
Coupal,
Dawson,
De Cosmos, Delorme,
De St. Georges, DeVeber,
Dymond,
Ferris,
Fiset,
Fleming,
Flynn,
Forbes,
Fournier,
Frechette,
Geoffrion,
Gillies,
Gillmor,
Gordon,
Goudge,
Mr. Masson.
McMillan,
McCallum,
McQuade,
Masson,
Mitchell,
Monteith,
Montplaisir,
Palmer,
Pinsonneault,
Pope,
Bobitaille,
Rouleau,
Byan,
Schultz,
Thompson (Cariboo), Tupper,
Wallace (Norfolk), White,
Wright (Pontiac)—43.
Nays :
Messieurs
Laird,
Lajoie,
Landerkin,
Langlois,
Laurier,
Macdonald (Glengarry), Macdougall (Elgin), McDougall (Renfrew), MacKay (Cape Breton), McKay (Colchester), Mackenzie (Lambton)* Mackenzie (Montreal), Maclennan,
McOraney,
McGregor,
McIntyre,
Metcalfe,
Mills,
Moffat,
Moss,
Murray,
Norris,
Oliver,
Paterson,
Pelletier,
Perry,
Pettes,
Pickard,
Pouliot,
Power,
Pozer,
Ray,
Richard,
Robillard,
Rochester,
Ross (Durham),
Ross (Middlesex),
Ross (Prince Edward), Rymal,
Scriver,
Sinclair,
Smith (Peel),
Smith (Selkirk),
Smith (Westmoreland), Snider,
Stirton,
St. Jean,
Taschereau,
Thibaudeau,
Thompson, (Haldimand)
Hall,	Tremblay,
Horton,	Trow,
Huntington,	Vail,
Irving,	Wallace (A Ibert),
Jones (Halifax),	Wilkes,
Kerr,	Wood,
Killam,	Wright	(Oltaica),
Kirk,	Yeo,
ioung—117.
Mr. MASSON said when lie addressed the House a few days ago he remarked that he was opposed to the policy of the Government in regard to the location of the Pacific Railway, and 'ms in favor of the plan of the late Government on that subject. The House had now decided to build the Georgian Bay branch, but he trusted that rights which had already been acquired would be respected. He therefore moved in amendment:—That this resolution be not now
concurred in, but that it be resolved that in the opinion of this House no contract shall be entered into with any company for the construction of the Georgian Bay branch of the Canadian Pacific Railway, nor any subsidy granted for the construction of the railway from the Eastern terminus of said Pacific Railroad to Douglas or near Douglas until a thorough and complete instrumental survey shall have been made of the route proposed and the route by the Mata-wan, to ascertain which would be the shorter and more economical of construction.
Hon. Mr. BLAKE called attention to the fact that the contract for the construction of this branch had been laid upon the table and was subject to the ratification of the House. He thought it would be better to pass upon it by direct resolution and it seemed to him that his hon. friend should not proceed with the motion of this point.
Mr. MASSON said it was competent for any member to move that an amount be struck out of the estimates, which would be the effect of his amendment.
Hon Mr. HOLTON admitted that the motion might be in order, but seeing that the effect of it, if carried, would be to strike the whole grant for the Pacific Railroad from the estimates; and the hon. member and his friends had been calling very loudly for the construction of that road at the earliest possible moment, he thought it would be the better course to withdraw the amendment.
Mr. MASSON consented to withdraw the motion in the meantime.
698
HOUSE OF COMMONS.
Hon. Mr. HOLTON deeired it tote understood that the hon. member reserved his motion until the contract was before the House ; otherwise he (Mr. Holton) would object to its withdrawal.
The amendment was withdrawn and the item concurred in on a division.
THE CANADA CENTRAL SUES1DY.
Hon. Mr. MACKENZIE moved that this House do ratify the Order in Council granting a subsidy to the Canada Central Hail way under authority of the Act providing for the construction ot the Canada Pacific Kail way, 37 Viet., Cap. 14, which order is to the following effect :—
“The Committee of Council have had under consideration the application of the Canada Central Railway Company for the subsidy proposed to be granted to Railway Companies under the terms of the Act, 37th Vic., cap. 14, entitled ‘An Act to provide for the construction of the Canadian Pacific Railway.’ and they advise that a subsidy of $12,000 per mile be granted to the said Company, to aid in constructing their line from the vicinity of the village of Douglas westward to the eastern end of the Branch Railway, proposed to be built from Georgian Bay by the Government, being about one hundred and twenty miles, upon and subject to the following conditions, namely
“1st. That the road shall be built upon a line to be approved by the Minister of Public Works, but which may be defined generally as ascending the valley of the Bonnechei’e from the vicinity of the village Douglas via Golden Lake and Round Lake, thence by as direct a line as may be found to Burnt Lake, and thence to the proposed terminus of the Go '/eminent Railway, at about the 85 th mile from Georgian Bay.
“2nd. That the Company shall within one month from the ratification of this Order of Council by the House of Commons, satisfy the Minister of Public Works that they have entered into a bona fide contract or contracts for the building of the Railway, and have provided sufficient means with the Government bonus to secure the completion of the line on or before the first day of January, 1877, and also that the Company shall, from the <jate of such contracts, make continuously Httru Mr. Holton.
such progress as will justify the hope of the completion of the line within the time mentioned.
“ 3rd. That the Company shall enter into an agreement to grant running powers on terms to be approved by the Governor in Council to the Northern Colonization Railway Company. The Kingston and Pembroke Railway Company Irom the point of intersection of their respective lines, provided such point of intersection is on the subsidized line or within five miles of the same, and also to such other Companies as may have the termini of their systems on or towards Lake Huron, and may be designated or approved by the Governor in Council as entitled to such running powers, provided that the terms of such running powers may be mutually agreed upon by the Canada Central Railway Company and the other Companies named, and in the event of a disagreement, the conditions shall be settled by arbitration, one arbitrator to be selected by each Company, and one by the Governor in Council.
“ 4th. The Government or lessees of the Government line from Georgian Bay to the western terminus of the subsidized line, or any future owners of said line, shall possess running powers on said railway on similar terms to the Companies designated.
“ 5th. That payment of the subsidy shall only be made on the completion of the railway in sections of not less than twenty miles, each payment to be made on the certificate of an Engineer, to be appointed by the Government, that a section or sections has or have been completed; paymentmay,ho wever,be made of an amount equal to the subsidy on twenty miles, on work extended over a larger distance, which in value will be equivalent to not less than twenty-five miles of finished roadway; payment will also be made on rails delivered at any point of the line to be constructed, to the extent of seventy-five per cent, of the value thereof, such rails to become the property of the Government until they are laid on the road for use.
“ The grant to be operative only after the ratification of this Order in Council by resolution of the House of Commons.
Certified.
W. A. Himsworth,
Clerk, Privy Council.”
Makch 13, 1875.
699
Mr. MASSON" moved the amendment he had just withdrawn.
The House divided on the amendment which was rejected on the following division :—
Yeas :
Messieurs
Bunster,
Cameron {Cardwell), Caron,
Cimon,
Costigan,
Cuthbert,
Desjardins,
Domvilie,
Dugas,
Farrow,
Ferguson,
Flesher,
Fraser,
Gaudet,
Haggart,
Hurteau,
Jones {Leeds),
Little,
Macmillan,
McCallum,
McQuade,
Masson,
Mitchell,
Monteith,
Montplaisir,
Palmer,
Pinsonneault,
Pope,
Robitaillie,
Pouleau,
Ryan,
Schultz,
Thompson {Cariboo), Tupper,
Wallace {Norfolk), White,
McDonald, (CapeBreton)Wright {Pontiac)—39. McDougall (ThreeRivers)
Kays :
Messieurs
Appleby,
Aylmer,
Bain,
Bechard,
Bernier,
Biggar,
Blackburn,
Blake,
Borden,
Borron,
Bonrassa,
Bowman,
Brouse,
Brown,
Buell,
Burk,
Burpee {St. John), Burpee (Sunbury), Campbell, Carmichael, Cartwright,
Casey,
Casgram,
Cauchon,
Charlton,
Cheval,
Church,
Cockburn,
Coffin,
Coupal,
Currier,
Dawson,
Delorme.
De St. George*, De Veber, Dymond,
Ferris,
Fiset,
Fleming,
JWV. Mamn.
Laird,
Lajoie,
Landerkin,
Langlois,
Laurier,
Macdonald {Glengarry), Macdougall {Elgin), McDougall {Renfrew), Mac Kay {Cape Breton), Mackenzie (Lambton), Mackenzie {Montreal), Maclennan,
McCraney,
McGregor,
McIntyre,
Metcalfe,
Mills,
Moffat,
Moss,
Murray,
Korris,
Oliver,
Paterson,
Pelletier,
Perry,
Pettes,
Pickard,
Pouhot,
Power,
Pozer,
Ray,
Richard,
Robillard,
Rochester,
Ross (Durham),
Ross (Middlesex),
Ross (Prince Edioard), Scriver,
Sinclair,
Forbes,
Fournier,
Frechette,
Geoffrion,
Gillies,
Gillmor,
Gordon,
Goudge,
Green way,
Hall,
Horton,
Huntington,
Irving,
Jones (Halifax), Kerr,
Killam,
Kirk,
Smith (Peel),
Smith (Selkirk),
Smith (Westmoreland), Stirton,
St. Jean,
Taschereau,
Thibaudeau,
Thompson (Haldimand), Tremblay,
Trow,
Tail,
Wallace (Albert), Wilkes,
Wood,
Wright (Ottawa),
Yeo,
Young—113.
Kirkpatrick,
A Bill incorporating the Western In-suiance Company, and a Bill to amend the Act incorporating the Canada Car Manufacturing Company (from the Senate) were read a first time.
The House adjourned at six o’clock.
HOUSE OF COMMONS,
Monday, March 15th, 1S75.
