 at Three o’clock.
TWO MOUNTAINS,
Mr. SPEAKEK announced that Mi-. Globensky had resigned his position as the representative of the County of Two Mountains in this House.
STANDING COMMITTEES.
Hon. Mr. MACKENZIE moved that a Special Committee of seven members be appointed to prepare and report a list of members to compose the Select 4
14, 1876.] of the House.	49
Standing Committees ordered by this House. He said:—I mentioned on Friday that some arrangement would have to be made immediately to authorize the printing, or some other Committee to take charge of the reports of the House. On thinking over it, I believe it is much more conven ient that a Committee of our own, and not a Sub-Committee of the Joint Committee on Printing should take charge of the matter of reporting the debates, and I shall therefore move, seconded by Sir John Macdonald, that a Select Committee of seven he appointed to assume the direction, under orders of this House, of the reporting and printing of the debates.—Carried.
THE RULES OF THE HOUSE.
Hon. Mr. MACKENZIE moved the appointment of a Select Committee to consider certain amendments to the rules of the House. He said—In making this motion I may add that some of the rules to be considered are connected with the legislation of last Session. Hon. gentlemen will see by the 53rd section of the Supreme Court Act, that it shall he the duty of the Judges of that Court to give opinions upon certain measures that may be submitted by Parliament, and it was necessary that we should adopt the rules that should govern us in so-submitting them. It is also proposed to make some change, not perhaps exactly to the same extent but in the direction of the change made in the-House of Commons of England last year, assented to by the Government as to notices of motion and the order in which they should §be pi-oceeded with. The right hon. "gentleman on the other side of the House mentioned on the last day of the Session of last year, that he would give* early notice this Session of his intention to have the rules of the House, as they now stand, strictly enforced with regard to taking up notices of motion and disposing of them as they came up. It would be desirable, I think, to consider this by a Select Committee. The Legislature of Ontario, and I think the Legislature of Quebec, have adopted certain rules with regard to the printing of private bills, and the payment of the fees before the meeting of the
50	Routine	[COMMONS.]	Business.
House. It has facilitated the transaction of business very much. I propose to submit to this Select Committee the question whether it would be advisable for us to adopt the same rule here to its full extent or not. There is another rule in the English House of Commons with regard to the exclusion of strangers. At the will of any member of this House, strangers may be excluded from the galleries. This has been felt in England, in consequence of recent events, to be an intolerable power placed in the hands of any member of the House, and a change has been made there which practically -puts it out of the power of any one man—although it leaves it in the hands -of the Speaker—to enforce such a rule at any time. I propose to leave it to the Committee to consider whether something of this kind should not be done here.
Sir JOHN MACDONALD suggested that the Committee should be empowered to report from time to time.
Hon. Mr. MACKENZIE said it was -a very good suggestion, which he would adopt.
Hon. Mr. BLANCHET said perhaps it would be more courteous to the Chair to follow the usual custom and appoint this Committee to assist Mr. Speaker in revising the Buies of the House. Perhaps the Hon. Premier would see lit to change the motion in this way.
Hon. Mr. MACKENZIE thought it had never been the practice of Parliament to put the Speaker on any Committee, and this was a matter appertaining so entirely to the government -of the House that it ought to be left in their hands. The recollection of the hon. member for Levis was about the Library, a Committee being appointed •every Session to assist the Speakers, of the two Houses in its management.
Hon. Mr. BLANCHET said the custom in this House had always been to appoint such Committees to assist the Speaker. He appealed to the right hon. member for Kingston to say whether this had not been the rule.
Sir JOHN MACDONALD said his recollection was not clear on the subject. He knew that a good many Committees had been appointed to assist
Hon. Mr. Mackenzie*
Mr. Speaker, but forgot whether this was one of them. Perhaps the hon. member for Chateauguay could give some information on the subject.
Hon. Mr. HOLTON said his recollection rather ran with tjie hon. member for Levis, but he might be mistaken.
After some discussion the motion was carried.
THE LIBRARY.
Hon. Ml-. MACKENZIE moved the appointment of the usual Committee to assist Mr. Speaker in the management of the Library^ He said the names were the same as those of last year.
The motion was carried.
FISHING LICENSES IN LAKE SIMCOE DISTRICT.
Mr. DYMOND moved an Address to His Excellency the Governor General for a return of all leases or licenses for fishing stations in the Lake Simcoe District; and of all fines and forfeitures inflicted in the years 1874 and 1875 by the Inspector of the said District, with the names of persons convicted and character of offence ;—also number and aggregate amount of licenses to kill fish in the winter months issued by the said Inspector in the years mentioned.
The motion was carried.
WHARVES AT MALBAIE, ETC.
Hon. Mr. LANGE YIN moved an Address to His Excellency the Governor General for:—1st. Copies of all accounts and pay-lists presented to the Government and also of all accounts and pay-lists paid by the Government for the construction or repair in 1875 of the wharves at Malbaie, Les Eboule-ments and Bay St. Paul; 2nd. A list of the foremen and clerks employed in connection with such construction or repairs ; 3rd. A statement in detail of the travelling expenses and salary paid to each of the said foremen and clerks; 4th. A list of the schooners and barges employed for the said work, or in connection with the said work, shewing their tonnage and the amount paid for each trip, and the system of calculation of such payments; 5th. A separate statement of the cost of the work done on each of the said wharves and an estimate of the
Routine
Business.
[February
<jpgt of what remains to be done on .e&ch of them; 6 th. A statement shewing the total cost of the timber pur-•chased for each of the said works, shewing the price of such timber per foot, the name of the person from whom it was purchased, and what •quantity was purchased for the purpose; 7th. A statement shewing the total amount paid by the Government for the said works; 8th. A statement Shewing the amount claimed and remaining to be paid for the said works ; 9th. The report or reports of Henry R. Symmes, Esq., and also the report •or reports of Frederic Baillarge, Esq., Assistant Chief Engineer of the Department of Public Works, on the subject of the said works in the years 1874, 1875 and 1876.
Hon. Mr, MACKENZIE—I have no objection to the adoption of the motion, but I cannot promise all the information that the hon. gentleman asks. I will give it as far as possible. The hon. gentleman is aware that Mr. Symmes died during the execution of this work from a sudden illness, and left some of these matters in such a state that it is impossible to
give all the information that he wants, ut I will give all I can.
The motion was carried.
SURVEYS IN CHARLEVOIX.
Hon. Mr. LANGEVIN moved an Address to His Excellency the Governor General, praying him to cause to be laid before this House the report of Henry R Symmes, Esquire, in reference to his surveys in the Parish of St. Irenee in the Electoral District of Charlevoix in 1874 or 1875, also a copy of the instructions issued to him on that subject, and of all petitions and correspondence which may have been sent in or exchanged in relation thereto.
Hon. Mr) MACKENZIE—I may say to the hon. gentleman with regard to all these subjects that there is some very interesting correspondence. Would he like to have it all ?
Hon. Mr. L ANGEVIN—Of course, this matter interests me, and I have no doubt the correspondence will prove most interesting!
The motion was carried.
SURVEYS IN ST. FIDELE AND ST. SIMEON.
Hon. Mr. LANGEVIN moved an Address to His Excellency the Governor General for copies of the report or reports of Frederic Baillarge, Esquire, Assistant Engineer to the head of the Public Works Department, on his surveys in the Parish of St. Fiddle and St. Simeon in 1875 ; the instructions furnished him in relation thereto, and of all petitions and correspondence presented or exchanged on the subject, —Carried.
VIOLATIONS OF DECK LOAD LAW.
Hon. Mr. MITCHELL moved an Address to His Excellency the Governor General for copies of all correspondence between the Government of Canada and any of its officers or with any individual or public body in relation to violations of the Deck Load Law, and also in relation to violations of the Port Wardens Act, with any instructions that may have been given by the Government to its officers for the enforcement of the Laws referred to. Mr. Mitchell said:	My object in mak-
ing this motion is to call the attention of the Government to the fact that two very serious violations of the laws to which I have referred have taken place within the past year. This matter is of the greatest importance m view of the Legislation of the Imperial Parliament, which seriously affects our shipping interests, and a very strong remonstrance should be made that at a crisis like the present any violations should occur of the character at which English legislation strikes so directly and desires to have strictly enforced. I may state, for the information of the Hon. the Minister of Marine, that the cases to which I refer came within my own knowledge. There may have been many more violations which have escaped observation. One was a steamer of one of the steamship lines which was loaded with grain, and finding by the report which the Port Warden is required to make, that she could not be passed, went to sea in defiance of the law and without the certificate necessary before clearing. The other instance was that of the JS. Churchill, which, after loading with a cargo of grain, proceeded to Quebec and took on board a deck load of timber—
62	Routine	[COMMONS.]	Business.
a fact which came out in the evidence of the case now under examination. Where cases of this kind arise it is the duty of the Government to make a stringent enquiry into the facts, and an example of any ship-owners or agents of ships who deliberately violate* laws established for the purpose of saving life and property, and which to some extent justifies legislation which we looked forward to as Canadians with Borne apprehension, on the ground that the Imperial Parliament should not by its measures interfere with our shipping. I make this motion purely for the purpose of drawing attention to the matter in order that some decided steps shall be taken in regard thereto. I should like to know what correspondence, if any, has been presented to the Department of Marine and Fisheries.
Hon. Mr. SMITH—I am very glad that the hon. gentleman has called attention to this matter. There was some correspondence with regard to those violations of the laws.
The motion was carried.
INLAND WATERS OF CANADA.
' Mr. KIRKPATRICK moved an Address to His Excellency the Governor General for all Orders in Council, papers and correspondence between the Government of Canada and the Imperial Government or any public body or individual in relation to the extention of the jurisdiction of the Admiralty Court to the InlandWaters of Canada. Mr. Kirkpatrick said—In making that motion, Sir, I have no intention to do more than remind my hon. friend, the Minister of Marine and Fisheries, that it is now two years since it was distinctly promised that this matter should be brought before the authorities in England and the necessary formalities gone through to get the Yice Admiralty Court extended to the inland waters of Canada. Last Session, too, the then Minister of Justice, in answer to a question from this side of the House, stated that they were in correspondence with the Imperial Government on the subject, ana that a measure had been brought before the Imperial Parliament to effect the object sought. I hope to re-Hon. Mr. Mitchell.
ceivo some assurance from the Govem-ment that this long delayed matter will be attended to.
Hon. Mr. BLAKE—There has been some correspondence on the subject, which, however, is incomplete, and not in a condition to be presented to the House. If the hon. member will withr draw his motion for the present, I will give him private notice when the correspondence is in such shape as to be brought down, and of course we will assent to a renewal of the motion.
Mr. KIRKPATRICK—Of course, if the correspondence is incomplete, I shall withdraw the motion. I hope, however, that other two years will not pass before the matter is settled.
THE BAIE VERTE CANAL.
Mr. BURPEE (Sunbury), enquired whether a minority report of one or more of the Commissioners appointed by the Government to report upon and investigate the nature and extent of the commercial advantages to be derived from the construction of the proposed Bay Verte Canal has not been made ; if so, whether it will be printed and circulated for the information of the country ?
Hon. Mr. MACKENZIE—In reply to my hon. friend, I may say that no such report has been made to the Government. I was informed however, fey the Chairman of the Commission that one of the Commissioners proposed to make a minority report, and I received yesterday a copy of a printed pamphlet purporting to be such report, but no communication has been received from Mi\ Lawrence to identify that pamphlet as his production. The presumption is that it is the minority report. The pamphlet is printed in a shape not suited for our journals. Such as it is, the pamphlet, of which there are a number of copies, will be distributed among the members.
PUBLIC ACCOUNTS.
Hon. Mr. CARTWRIGHT laid the Public Accounts on the Table. *
The House adjourned at 3:50 p.m.
Routine	[February
HOUSE OF COMMONS.
Tuesday, Feb. 15, 1876.
