 at Three o’clock.
BILL INTRODUCED.
Mr. ROBINSON—To incorporate the England and Canada Mortgage Security Company.
THE JOURNALS OF THE HOUSE.
Mr. ROSS moved the adoption of the fourth report of the Committee on Printing. The last paragraph was a recommendation to dispense with the printing of the journals of the House, by which a saving of $2,350 will be elfectod. This was the system adopted by the Senate.
The SPEAKER said this was such an important matter that time must be given for due consideration of it.
After a brief discussion the report, with the exception of the last paragraph, was adopted.
686	The Member for	[COMMON’S.]
THE MEMBER FOR TWO M3UNTAIXS.
Mi-. TASCHEREAU moved that the Journal of the House of Assembly for the Province of Canada for the Session of 1866, relating to the production of certain papers, in the case of the Queen vs. J. B. Haoust, be now read. He proposed, if the motion should be carried,to refer the case with the papers to the Committee on Privileges and Elections.
Mr. DAOU3T then read the following statement:—
Before withdrawing from the House, according to the practice, when any motion in which a member has a personal interest is under consideration, I beg leave to make the following statement :—In the month of March, 1865, two indictments were found against me for forging the name of my brother-in-law to two notes, one for $500 and the other for $300. I knew that my brother-in-law had authorized me to place his name on those notes, and that a witness was present when the authority was given to me ; but when the first indictment was tried I could not remember who the witness was. I could not swear to the fact myself, and I was convicted because I could produce no witness to substantiate my statement. The trial of my case was published in the newspapers, and my witness heard of it and came forward to testify to my innocence. The first indictment was tried in March, and the second indictment in April, when the witness came forward and was examined. On his evidence I was at once acquitted by the jury without leaving the box. I then directed my Counsel to move to • set aside the verdict and to obtain a new trial on the first indictment. Judge Mondelet, before whom the motion was made, set aside that verdict and granted me a new trial on the affidavits that I put in; the Counsel for the Crown consenting that a new trial should be granted. When my case came before Judge Aylwin for the new trial, he held that the new trial was illegally granted, because no new trial could be granted on facts alone, and directed that it should be referred to the Court of Appeal for adjudication, and that Court so decided on the appeal at the Crim-
Mr. Ross.
Two Mountains.
iminal Term following. Mr. Ramsay, as Counsel for the Crown, moved for judgment against me, and Judge Mondelet, before whom the motion was made, declined to entertain the motion, declaring that his order to quash the verdict against me had never been set aside, and there was therefore no conviction against 'me on which any sentence could be passed.
' Mr. Speaker, I might close my statement here, but I consider that I should not make it complete unless I called the attention of yourself and this honourable House to the fact, that after these charges had been made against me, I was elected to this Hou e by acclamation, and sat as the Member for the county of Two Mountains for for a whole Parliament ; that the the members of the present Government, who were then in this House, sat in the House with me ; that the Hon. Chief Justice Dorion, the leader of the members from Lower Canada who were opposed to me, also sat in that House, but no one of them, during all that time, ever made any motion against me, nor since the present Government took office have they ever instructed any Crown officers to ask that sentence should Jbe passed upon me on that conviction now ten years old.
On this statement of facts, Mr. Speaker, I think that I may fairly leave the consideration of my case to the members of this honourable House, believing that as I now withdraw from their presence for a timej they will speedily restore me to the position to which my constituents so lately unanimously elected me.
Mr. Haoust then retired.
Mr. MASSON thought the House was entitled, after the statements made by the hon. member for Two Mountains, answering conclusively any accusations in advance that could be made against him, to know if any of these assertions were questioned by the mover of the resolution or any hon. member present. If not, he hoped the Premier would take this question in hand, and move that the House do proceed to the next order of the day.
The Member for
Two Mountains.
687
[March 16, 1876.]
Mr. LAURIER thought the matter should be discussed dispassionately, and he proposed to deal with it in this spirit. He had not seconded the motion in order to gratify spite against any one, but with the view of doing his duty towards his Province. The statement which the hon. gentleman had submitted disclosed facts which should go before the Committee of Privileges and Elections, in order to ascertain the legal and responsible position of the member elect. The hon. member had certain rights and privileges, but these might conflict with those of the House. He had been indicted for the committal of two forgeries, and found guilty on one accusation ; on the second, he was acquitted. A new trial was granted ; but afterwards this ruling had been set aside. A technical question arose ; it wTas said that a part of the decision of Judge Mondelet had not been overruled by the Court of Appeals, but simply the portion which granted the new trial. This was technically and substantially true, but when the order granting a new trial wTas set aside, did not this also do away with the ruling concerning the verdict? He could not conceive that a judge could set aside a conviction and not grant a new trial ; if he could do one he could do the other thing, or if the latter was beyond his authority so was the former.
These facts had been. laid before the House by the Attorney General of Lower Canada, the late Sir George Etienne Cartier, and the papers being submitted, the hon. member only three days afterwards resigned his seat. The hon. gentleman had been since elected, it was true, and no steps had been taken in the matter. But what was the legal aspect of the case at present ? Any Crown prosecutor acting in the District of Montreal could at any time move for judgment against the hon. member. The Court of Appeals declared that the conviction remained in full force, and the question was, whether a man so liable was fit to sit in the House. In this a technicality was involved, but it was quite clear that the circumstances should be referred to the Committee mentioned.
Hon. Mr. CAMERON (Cardwell) thought that the hon. member for
Drummond and Arthabaska had shown very strong reasons why they should proceed in this connection with a great deal of care. He quite agreed with what the hon. member had said ; this question was not to be approached in a party spirit. The statement read by the hon. member for Two Mountains revealed facts, not one of which was disputed, that required the House f> pause before it took action.
If the witness who had came forward on the occasion of the second trial had been heard on the first, without doubt a verdict of acquittal would also have been given in the former instance. Mr. Johnson, the Counsel for the Crown, who conducted the two trials, as appeared from the papers on the Clerk’s table, had at once consented to a new trial being had ; this being the case, it struck him that in Upper Canada, under such circumstances, the Crown would have intervened. The whole proceedings in Lower Canada in connection with the verdict had been entirely contrary to law. Judge Mondelet had clearly no power to grant a new trial, as the law did not provide for cases of surprise, error, or mistake. It was also clear that the Judge made two orders, or one order combining two propositions; one quashing the verdict, and another, according a new trial. He could not say, owing to unfamiliarity with precedence before the courts in Quebec, but if there was power for the issue of the two orders, no appeal could certainly be taken against one of them. The steps taken with regard to the appeal had been absolutely contrary to law, and without precedent. The judge who reserved a case under the Criminal Appeal Act, was the judge who tried it; and Judge Aylwin before whom this case came for a new trial afterwards, had as much power to send it before the Court of Appeals as his hon. friend or himself, and no more. It was however so transmitted; and the judgment there jwonounced was really in eontrovention of all provisions of the law. Beyond question, the verdict of guilty still stood against the hon. member for Two Mountains. What did the Crown say ? It could at any time, before a verdict was given, according to the practice in our
688 The Member for [COMMONS.]	Two Mountains.
Courts, enter a nolle prosequi; and this could be done even after a jury was sworn to try a case.
The jury gave a verdict, and a nolle prosequi being entered, the Crown could not interfere except by granting a pardon or bringing forward a new indictment. In the case of the member for Two Mountains a verdict had been given, but no judgment entered, and none of the consequences which were involved in a judgment could by any possibility come against him. They could not sentence him because the time gone by would require that a record ol conviction should be. first had, and after the statement of the facts which had been presented to the House the Crown would never allow a judgment of record to be given. The Crown had the right both before and after conviction to pardon the accused if it thought proper, but in the event of the latter the stigma remained. Now, in this case the stigma of conviction should not be allowed to remain. The hon. gentleman had sat in the House several years since the conviction, and after an interum of a few years he returned, and was arraigned on a conviction which had never matured into a judgment, and of which, if the facts stated that day in the House were true, Ke ought to have been acquitted. He (Mr. Cameron) considered that it would he more to the hon. gentleman’s advantage to have this case go to the Committee on Privileges and Elections, from which it would return exonerating him from the whole procedure if there was nothing to contradict what he himself had stated. He was perfectly certain that the gentleman who was implicated in the matter would receive at the hands of the Hon. Minister of Justice as much consideration and tenderness in the administration of the duties of his office as though he were the hon. gentleman’s warmest political friend.
Hon. Mr. BLAKE said the House would readily understand that when the hon. member for Two Mountains rose to make his statement it would not have been generous in him (Mr. Blake), to make the suggestion he was about to offer. It would not have been right to have prevented an hon.
Hon. Mr. Cameron.
member standing in his position from making a statement, although he might have thought it a little premature. His hon. friend the member for Montmagny, who made the motion, pointed out that he intended to follow it with another, and that he would reserve his remarks until the papers were read. The hon. member for Two Mountains followed that motion with his simple statement. He agreed with the hon. member for Cardwell as to the spirit in which they should approach the consideration of this matter, but it seemed to him that in entering upon a grave judicial investigation of this character the first thing to be done was to have the papers before the House. He begged to submit to the consideration of the House whether it was not proper in the interest of the hon. member for Two Mountains that the papers should be read without furr ther discussion.
Mr. MASSON thought the Hon. Minister of Justice had misapprehended the position in which his hon. friend was placed. The motion made on the previous day was accompanied with expressions bearing heavily on his hon. friend from Two Mountains, and he (Mr. Masson) considered he should take the first opportunity to make the statement he had made. He thought the hon. Minister would see that the hon. member for Two Mountains had acted as he should have acted, by laying his case before the House.
Hon. Mr. BLAKE said he would be sorry to think that the House understood him to call in question the course the hon. gentleman had thought proper to pursue. He merely wished to point out that it would be more formal and regular if they first permitted the formal motion to pass, and then go on.
The motion was adopted.
The papers were then read in French, The reading in English being dispensed with.
Mr. SPEAKER—The Clerk informs me that in connection with a case of this kind, it is the custom of this House to enter the statement of the member on our Votes and Proceedings. I do not know that this is done
The Member for	[March
in the English Parliament; but I think that if it is to be so entered, it would be more in order if it came after the entry of the reading of the papers, than if it was inserted previous to them. Yesterday I called on the hon. member for Two Mountains to make a statement and withdraw, because the hon. mover in this matter chose while asking for the reading of the papers, to go somewhat into the merits of the case. To-day I thought that it was an entirely new proceeding ; and proceeding more regularly, a motion was merely made that the papers should be read. As this did not of itself convey any charge, I did not feel that it was the time to call on the hon. member to make a statement and withdraw. He however volunteered to read a statement before the papers were produced ; and, I thmk that with the consent of the House, I would instruct the Clerk to record the statement as having followed the reading of the papers, as it may form a precedent hereafter. Without this precaution some confusion might result.
May tells us:—The practice on learning the charge against him, after being read in his place, is for him to withdraw from the House. The precise time at which he ought to withdraw is determined by the nature of the charges; when founded on recorded petitions or other documents, or on words spoken, and taken down with sufficient explanation of the charge, it is easy to have them read, and for the member to withdraw before any question is proposed.
The papers have now been read, and if the hon. member were in his place, it would be quite in order for him now to make a statement and withdraw. If the House will consent, I will direct the record to be prepared in that way.
Mr. MASSON—Two years ago, Mr. Delorme, the member for Provencher, was assailed in the House, and it is recorded simply on the Journals that he made a statement.
Hon. Mr. MACKENZIE—Perhaps the matter may be left over for a short time, and then definitely settled.
Hon. Mr. CAMERON (Cardwell)— If the papers are entered on the Jour-
50
16, 1876.] Two Mountains. 689
nals, I think that the statement should also be entered.
Mr. MASSON—I contend that the statement then should not be placed on the Journals verbatim; but only the part the hon. member may require.
Hon. Mr. BLAKE—It is to be observed that almost the whole of the statement, with the exception of one point—the denial of the truth of the accusation—may be said to be argumentative ; probably the suggestion of -my hon. friend the First Minister should be followed.
Mr. SPEAKER—I see it recorded that “ the said Pierre Delorme having stated in his place, that the said charges were utterly unfounded and untrue.”
Mr. MASSON—These words were inserted, but not the statement he made.
Hon. Mr. MACKENZIE—Probably that was his whole statement.
Hon Mr. BLAKE—This was the substance of the statement.
Mr. SPEAKER—It occured to me as a matter of justice to the hon. member whose character is impugned, this statement should appear.
Mr. TASCHEREAU wished to correct his hon. friend from Cardwell regarding certain points. On the back ot the indictment were these entries— after the words true bill—arraigned 8th of March, 1805 ; trial fixed for the 30th March; trial had same day; verdict guilty, and recommended to mercy. The Court had simply granted the motion for a new trial, but the first conviction had not been actually quashed. Judge Mondelet had differed from all his colleagues in the Court of Appeals regarding the question. Judgment was given on the 8th June, 1865, and when the matter came up again in September 1866, the only thing that Justice Mondelet said was, that he had not changed his mind, and that, according to his opinion, he could not pass sentence on the first trial. Desforges denied that he had given the hon. member any authorization to sign his (Desforges) name.
It was strange also that the line of defence in the first case was this—that
690	The Member for	[COMMONS.]	Two Mountains.
the signature was genuine and no for gery. It was said the Crown prosecution was favorable to the prisoner, but Iiis statement in Vol. 9, L. C. Jurist, page 86, was as follows:—
“The Court will probably consider that under the peculiar circumstances of the present case I am precluded from offering opposition to the motion of my learned friend. The first indictment was supported by direct and positive evidence, as, indeed, was the second, but there is this difference between the two cases, viz.: That in the first the evidence for the prosecution was not encountered by any testimony on the prisoner’s behalf tending to explain or exculpate his conduct, and the conviction upon that indictment was, therefore, a matter of course ; while upon the second trial, it was proved by evidence that was only discovered after the verdict in the first case, that authority to sign the name of the prosecutor existed to an extent to satisfy the jury of the prisoner’s innocence. I feel, therefore, that he should have the opportunity accorded to him of adducing the same justification in the case' now before the Court. It has been suggested to me that upon this motion being granted, I should file a nolle prosequi. I am not prepared, to go that length however. I am bound to protect the rights oj the prosecutor as well as those of the prisoner, and the prosecutor must have in the present case an opportunity of rebutting the prisoner’s evidence if he can. I will take the prisoner’s recognizance to appear on the first day of next term.”
It had also been said that the ruling of the Court of Appeal was based on Lower Canadian law only, and not on English law. He found, however, on page 203 of the 10th volume of Lower Canada Jurist, page 223, the following opinion of Judge Meredith:—
“ The first question submitted to ub by the learned judge is, whether a second trial can be legally had in the present case; it being a case felony, and I think that this highly important question may at this day be answered in nearly the same words used by Chitty half a century ago, namely: ‘ In case of felony or treason it seems to me completely settled that no new trial can be granted.’ There is, it is true, one case, Queen vs. Scaife, in which a new trial was granted in a case of felony. This much is plain, that whatever may be the rule with respect to cases moved by certiorari into the Queen’s Bench, the rule with respect to cases tried in the ordinary course of law was, when the criminal law of England was extended to this country, and still is, that there cannot be a new trial in cas6s of treason and felony. Repeated attempts have been made in Parliament to change the law in this respect, and those attempts have invariably been resisted, not on the ground that the law was not as stated by those who sought to change—but on the contrary, on the ground the change proposed would not be an improvement. It is true that in Upper Canada the distinction between misdemeanors and crimes of greater magnitnde has been done away with, in so far as respects the right to obtain a new trial; but this has been done by statnte, and if legislation for that purpose was
Mr. Taschereau.
necessary for Upper Canada, it is still more necessary here, for it is plain that if an application for a new trial were allowed, it ought to be made to the Court of Queen’s Bench sitting in appeal, held by at least four judges, and not to the Court of Queen’s Bench on the Crown side, usually beld by one judge. And it is equally plain that under the existing law such an application could not be made to the Court of Appeals.”
The notes which formed the basis of the two indictments were signed at two different dates and were for two different amounts. The evidence in the second trial was quite different from the testimony in the first. It did not appear in the second trial Desforges was a witness as to the question of authority, but he was in the first trial and gave evidence that ' he never authorized the prisoner to sign his name on a note of any kind. Having stated these facts he (Mr. Tascherau) moved that the case be referred to the Committee on Privileges and Elections.
Mr. MOUSSEAU congratulated the Hon. Minister of Justice on the liberal spirit in which he approached this question. He desired to make a statement of the facts which had not j'et been placed before the House. It was a fact very well known that the hon. member for Two Mountains and his brother-in-law had been in the habit for four or five years of endorsing one another’s notes. About eighteen months previous to the conviction the hon. gentleman’s brother-in-law authorized him to sign his name to notes for an amount not exceeding $1,000. The former in civil suit denied a signature to a bill for $500, and the hon, member for Two Mountains was of course arrested on the charge of forgery. He was tried and found guilty, and the news of the trial immediately spread over the whole country. One of the witnesses, who was present when the hon. gentleman’s brother-in-law authorized him to use his name, then came forward. A new trial took place, and the hon. gentleman was triumphantly acquitted; the judge had not the slightest hesitation in declaring that he was entirely innocent of the charge brought against him. An application was at once made for a new trial. The application was granted, but the next term the same judge was not on the Bench. This gentleman raised objections to the
The Member for
691
[March 16, 1876.] Two Mountains.
new trial, and at the same time took it upon himself to make up a case and submit it to the Court of Queen’s Bench. The Court of Appeals had confirmed the opinion of Mr. Justice Aylwin. The weight of authorities in favor of new trials was very great indeed. In most parts of the United States, in connection with felonies, these were granted. There was considerable analogy between this and the French system, which gave recourse against judgments in certain cases. They possessed in this regard the requete civile, under which decisions delivered in the Civil Courts could be set aside, either on the ground that they had been based on false evidence or given in the absence of authorative documents which had been concealed, or missing, or discovered after judgment; this practice was founded on the great principles of justice and equity. In this relation new trials should always be treated from a very liberal point of view. The prosecutor, at the time of the trial in question, although a Conservative, and though the accused had rendered great service to his party, had treated him most severely; no hesitation was shown, and the mon-member had been speedily found guilty. This proved that the parties concerned in the case were high-minded men, who were not inclined to prevent justice being done. On the occasion of the second trial the same judge presided, the same Crown Counsel appeared, and the same advocates conducted the defence. He must make especial allusion to Judge Mondelet, who stood very high in the esteem of his fellow citizens; though some did not always approve of that gentleman’s doctrines, his high sense of duty and his great impartiality were well and generally appreciated at the first trial. The Judge had charged very severely against the prisoner; but when the missing witness, a brother-in-law of Desforges, who was interested in obtaining a conviction in order to save himself the neces-s ty of paying $800, appeared and gave his testimony, His Honour instructed the jury to return a verdict of not guilty, being very strongly impressed with the innocence of the hon. member. The remarks of Judge Mondelet touching the case, when brought before
the Court of Appeals, were to be found in the Lower Canada Jurist, Yol. 10, and page 221; the judgment was delivered on tho 9th of June, 1866. This was an extract:—
“ Mondelet J.—At the March Term, 1866, of the Court of Queen's Bench, at which I presided, Daoust was tried on an indictment for forgery of an endorsation of a promissory note. From the evidence adduced at the trial, there seemed no doubt, and I charged the jurjr—a3 I never shrink from doing where my conviction is strong—to return a verdict of guilty, and the jury did so. The most important evidence was that of Desforges, who stated that he had never authorized the prisoner to sign his name. The prisoner was subsequently put upon his trial for forging the same name on another note, and this time the jury found a verdict in his favour, on evidence tending to show that the prisoner had been authorized by Desforges to Bign his name. The prisoner stood between two fires—between a verdict of guilty and a verdict of not guilty. Towards the end of the term, Mr. Ouimet, the prisoner’s counsel, moved for a new trial on the first indictment, in order that the witness Legault, who testified that Desforges had authorized the prisoner to sign his name, might be heard. Mr. Johnson, who then represented the Attorney General, said that under the circumstances he did not think proper to oppose the granting of a new trial. I, having presided at both trials, and being au fait with the circumstances of both, having no possible doubt that Daoust either believed himself authorized, or was really authorized to sign the name, considered it not only justice, but an imperative duty to grant a new trial. I wish to be clearly understood on this point. First—because an imperative sense of duty urged me to it; and secondly- because I believed the Court had the power to do it. In the following September Term, Mir. Justice Aylwin, who was then presiding, reserved tne case for the consideration of the full Bench. It will beunderslood that my conviction must be very strong, when I still adhere to it; though I find four Judges, for whose abilities I entertain such profound respect, differing from me in opinion.”
He (Mr. Mousseau) had received a letter from a gentleman in Montreal who was present when the judgment was rendered, mentioning the following circumstance which did not apperr on the record. When the judge decided that no new trial should be granted, Mr. Ouimet rose and said “ What is my poor prisoner to do ? You give no new trial and his innocence is per fectly proved.” Judge Drummond said “You need not trouble yourself, no G-overnment in the world will do anything against your client.” The following Term the Crown prosecutor moved that sentence be rendered on the verdict.
Some astonishment had been expressed by hon. members opposite that.
692
Two Mountains.
The Member for	[COMMONS.]
the hon. member had resigned in 1866. The reason was he found himself in a very awkward position, and on the advice of Sir George Cartier he resigned in order to test public opinion and ascertain whether he had the confidence of his constituents. He resigned and was opposed by a wealthy manufacturer who had an establishment at St. Scholastique, employing hundreds of men. He was rich, backed by strong friends, and spent money freely. Mr. lfaoust was poor and his election expenses were only .$20, yet, after a very hot contest he was returned to Parliament. No popular verdict could set aside a legal decision, but taken in connection with the opinions of the Bench, it was a proof that in his own county, and among those who had known him from his childhood, there was perfect confidence in his innocence. He telegraphed to Montreal the previous day for a copy of the Judge’s order, and he would beg leave to read the following report of the case which was published in the Montreal Herald, Gazette and Minerve: —
11 Court oj Queen’s Bench—September Term—
“ Presiding—Mr. Justice Mondelet.
“ Wednesday, 17th October, 1866.
“ In the matter of J. B. Daoust, Esq., M.P. P., Mr. Ramsay, on part of the Crown moved for sentence.
'‘The motion was opposed by Mr. Ouimet. His Honour said that Mr. Justice Ailwyn had reserved the motion on the part of the Crown to proceed to a new trial in September of 1865, and that the Court of Appeals had decided that there could be no new trial in a felony, but this left intact so much of his judgment as set aside the verdict. Until that portion of his judgment was set aside there could be no sentence on the verdict; in other words there was no verdict. The Crown could therefore make nothing by the motion.
“ Mr. Ramsay said that the whole of this matter had been begun and the new trial accorded before he had the honour to represent the Attorney General, He was desirous of asking His Honour whether he had been rightly info med that the Counsel representing the Crown had consented to the new trial. His object in asking was that it would manifestly be a breach of good faith on the part of the Crown to consent to a new trial, and afterwards to adopt the extreme proceeding of moving by writ of error to set aside a portion of the judgement to which the Crown Counsel had formerly consented.
“ The Court taid that Mr, Johnson for the Crown had consented at once.
" Mr. Bamsay then asked if the Court would consider him authorized in entering a nolle prosequi on the bill ?
Mr. Mousseau.
“The Court declined to give any opinion.
“ The Crown must take its own course.
“ Mr. Ramsay only asked because he had nothing to do with the application for granting a new trial or the granting of it, and therefore he did not feel called upon to assume the responsibility of taking any step without the aasent—not the consent, but the assent— of the Court.”
That state of things had been undisturbed since that time, and no proceeding had been attempted either in the Courts or in the House. The hon. gentleman had sat in the house several sessions since, and although there were many gentlemen in the House well qualified to .judge, not onlj'on questions of law, but on principles of parliamentary practice and upon constitutional points. No attempt was made by the old Parliamentarians to bring this matter up, and it seemed strange that these young members should now undertake to bring the question before the consideration of the House. The motion asked that these papers and the questions they involved should be submitted to the Committee on Privileges and Elections, and he was sorry he could not see the ultimate result of such reference. They were not dealing with a disgraced man or a fugitive from justice, but one vho had been acquitted by one of the highest tribunals in the country. If the Committee were to report adversely to the hon. member for Two Mountains, the effect would be to upset the decision of the Court which had acquitted the hon, gentleman.
AFTER RECESS.
Mr. MOUSSEAU resumed his speech. He said there was nothing before this House against the character and standing of Mr. Daoust. If there were any proceeding to be taken against him it must be taken before a legal tribunal. Suppose the matter should be referred to a Committee of this House, it would be easting a reflection on the character of the hon. gentleman. But it was said that unless this House took steps to remove the difficulty, the hon. member was liable to have proceedings taken against him at any time in the Courts of law. If there were any ground for such action being taken, however, no
The Member fcr	[March 16, 1876.] Tuo Mountains. 693
decision of this House could interfere with the proceedings before the legal tribunals of Quebec. He (Mr. Mous-.seau) hoped that this matter would not be referred to the Committee, but that the Minister of Justice would move that the orders of the day be taken up. The hon. member for Two Mountains had been pronounced perfectly innocent by the Courts of Law and by his constituents : to refer his case to a Committee of this House would be to cast a doubt on those judgments.
Mr. MACDOTJGALL (Elgin) said the character of a member of this House was in question, and it was their duty to ascertain whether with the facts before them Mr. Daoust snould continue to hold his seat. There were English precedents for the course to be^>ursued,in the cases of Smith O’Brien in 1849 and O’JDonovan Eossa in 187U. From the papers before the House, it was apparent that the hon member for Two Mountains had been indicted for forgery and found guilty, but there was no evidence to show that anything further had been done.
The hon. member for Bagot had stated that this was not a subject for the consideration of the Committee. He would agree with the hon. gentleman, if the House were satisfied, that the hon. member for Two Mountains had not been adjudged guilty of felony; but when there was doubt on this point he thought it advisable that the matter should be referred to a Committee. In 1870, in the case of O’Donovan Eossa, Mr. Gladstone, who led the House of Commons at the time, moved that this member elect was incapable of sitting in the House, inasmuch as he had been adjudged guilty of felony. It was proposed by a member of the Opposition that it should be referred to a Committee, and Mr. Gladstone stated that if he entertained any doubt in this connection he would have no objection to this step.
Mr. BABY—Had O’Donovan Eossa not been convicted and sentenced ? Was he not under sentence ?
Mr. MACDOUGALL replied that if the hon. gentleman would have patience he would make himself clear. He thought that circumstances existed in
connection with this case which made an enquiry into the facts by a Committee desirable, in order to ascertain the proper course to be pursued, and to report forthwith to the House. He only desired that justice should be done in the premises. He had heard it stated that the hon. nember for Two Moun-taines had sat for a number of years in Parliament after his conviction, but he submitted that this would be no condonation of any offence which might have been committed. This would be no bar from a legal point of view to such proceedings as had been taken in the cases of O’Donovan Eossa and Smith O’Brien.
Beference had been made to Sir John Jarvis, who afterwards was an eminent Judge on the English Bench, in the discussion which took place on the motion with respect to the election of O’Donovan Eossa, as having expressed an opinion in this election ; and in the case of Smith O’Brien, Earl Bussell, who led the House of Commons at the time, used the word “ convicted,” and at the instance of the Attorney General of the day, he amended his motion by inserting the words—“ adjudged guilty of felony.” Sir John Jarvis in the course of his arguments, to which reference was made by Mr. Gladstone as well as by the Solicitor General of the Day, suggested that “ adjudged guilty of felony ” should be substituted for “ convicted,” and these words were incorporated in the motion by the Loader of the House of Commons.
The question was whether the case was one which would justify the very strong proceedings adopted in these cases. He had some doubt on the subject, and he thought the case should be referred to the Committee in order that the case might be enquired into. He desired that the gentleman against whom this charge was preferred should have fair play, and he was quite sure the Committee to whom the case -was referred would do the hon. gentleman justice and inform the House as to the proper course to pursue.
Mr. WEIGHT (Pontiac) thought it was unfortunate that the friends of the hon. member for Two Mountains should evince so much solicitude on his behalf as to prompt them to put him before the House and the country in.
694
Two Mountains.
[COMMONS.]
The Member for
so unenviable a light. The hon. gentleman had been acquitted of the charge by the highest Court of Criminal Jurisdiction in the Province of Quebec, but this was not sufficient for hon. gentlemen opposite. He was perfectly satisfied the hon. member for Two Mountains could not be expelled unless, he had been guilty of conduct which rendered him unfit to be a member of this House. No one had an idea that he was guilty of such conduct, and the Committee could do nothing to settle the difficulty. The matter should end in the House. .
Hon. Mr. BLAKE said he would be sorry that the decision arrived at by the House should be anything but unanimous. The suggestions made were alternatives, either to refer the matter to the Committee or to pass on to the Orders of the Lay. He thought it would be most unfortunate to pursue the latter course. The case came before Parliament the second time. In 1866 Sir George E. Cartier, then Attorney General for Lower Canada, laid upon the table these papers. It indicated that, in the opinion of the Government and Parliament of that day, in the then existing state of things, the House should consider the matter in some way or ol her. It so happened that any action which might have been taken by the House was averted by the resignation of the hon. member for Two Mountains. Subsequently the proceedings referred to by the hon. member for Bagot, and which were not on record, were taken. Whether they were correct or not, it was only bj’ virtue of them the House was called upon to determine if they had taken place before Mr. Laoust’s resignation, whether he would have pursued that course. It was desirable the case should be investigated, not only in the interest of the hon. member for Two Mountains, but of Parliament. It would be better to postpone any decision for a few daj^s, until this Committee had time to thoroughly investigate the matter. .
If the House should, as he hoped it would, adopt unanimously this view, it would demonstrate that no step taken in the case w is, in the slightest degree indicative of an adverse opinion regarding the situation of the hon.
Mr, Weight.
member for Two Mountains. He thought that they should take no action which would have the effect of prejudging the case any way whatever. With such intentions he had communicated with hon. gentlemen on the other side of the House in order that they might agree on this mode of disposing of the matter. The motion was changed, requesting the Committee to examine into the legal aspects of the case—and very singular they were—so that they might know exactly how they stood in this connection. It did not propose to delegate to it either the duty of hearing witnes ses, or expressing an opinion on the facts disclosed in these papers; and due regard would be paid to the position of the hon. member, inasmuch as he believed that the various statements with reference to the new trial were amongst the papers; also, that the Committee should be instructed, as was frequently the case with Committees of the Imperial House of Commons, to search for parlimentary precedents applicable to the case, being requested to report whether any existed, and if so, what further proceedings were required. He trusted that the 2’eport would be speedily made, and that they would then be able to dispose of the matter in a more satisfactory manner than at that moment, after the discussion of the afternoon, whether by dropping it or passing to the Orders of the Lay, or taking other action without a vote on the motion.
Mr. PALMEE—Lo you propose to allow the Committee to obtain the subsequent proceedings ?
lion. Mr. BLAKE—They are asked to report on the legal questions, and of course they will get the subsequent proceedings. It would be grossly unjust if they did not, preventing the completion of the entire record.
Mr. MASSON assented to the posi' tion taken by the Minister of Justice! at the same time he confessed he would have certainly preferred the adoption of another and more decided course, there being nothing before the House to justify adjudication regarding the position occupied by one of its members. After reflection, however, he thought
Corrupt Practices [March
it better that they should look into precedents with an eye to the future.
Mr. SPEAKER observed with reference to the mole of report, that he found at least two cases in point—and there were probably some others— where statements made in explanation by hon. members whose conduct was impugned, were fully entered on the Journals of the House. One dated as far back as 1837, when the Hon. Mr. Bolton, member for the County of Norfolk, laid a formal charge against Mr. Watts, then a member of the House; and the statement of the latter in his defence was set forth at full length. The second took place in 18t>5, when the Hon. John Sandfield Macdonald brought under the notice of the House the fact that one hon. member had, in an angry moment, struck a blow with his fist on the nose of another hon. member. The former made a long statement, explaining that the provocation consisted in his being, in fact, told that he lied ; and such as it was, it was recorded at full length on the Journals. He found that this was not the practice in England, where neither the state ment itself nor even its substance was given in any instance. He left it to the House to decide whether it would adhere to our own or follow the English practice.
Hon. Mr. L ANGEVIN was of opinion that the statement should be entered on the Minutes, as the other papers were to be published.
Mr. SPEAKER—The resolution commences—“ it appearing from the statement of Mr. Daoust”—and I think that under the circumstances it ought to be recorded.
Mr. LAURIER—It was understood that the hon. member should have the privilege of bringing down a statement.
Mr. MASSON"—The statement of the facts will be inserted. /
The motion was carried.
CORRUPT PRACTICES AT ELECTIONS.
On motion of the lion. Mr. Blake, the Bill entituled an Act to provide for more effectual enquiry into the existence of corrupt practices rt elections of members of the House of Commons, was read the third time and passed.
6, 1876.] at Elections. 695
The House went into Committee of the Whole, Mr. Mills in the Chair, to consider the Bill intituled, An Act to make more effectual provision for the administration of the law relating to corrupt practices at elections of members of the House of Commons.
The first three clauses of the Bill were adopted without amendment.
On the fourth clause,
Mr. SCATCHERD asked, in the trial of contested elections, if it was intended to pursue the enquiry on both sides, or on one side only ? Hitherto the Courts had only investigated into the charge of corrupt practices against the sitting member, and no notice was taken of corrupt practices on the part of the petitioner. He thought there ought to be a full enquiry into the corrupt practices on both sides of the House.
Hon. Mr. BLAKE said he thought this difficulty had been provided for by the law of 1874.
Hon. Mr. TUPPER was of opinion that the case had been provided for in the Bill which had just been read the third time.
Mr. HYMONL) considered that as the evidence in these cases would have to be obtained from persons more or less implicated in the corrupt practices being enquired into, that it would be necessary to extend the indemnity in order to indemnify any person from the penalties imposed by the Act who had fairly and honestly answered the questions that might be put to him.
Mr. BOWELL thought the first clause covered, the points referred to by the hon. member for Middlesex, and the hon. member for North York.
Hon. Mr. BLAKE said that the point made by the hon. member for North York was one of great importance, and one to which he had given consideration. In England provisions for indemnifying witnesses at the trials of controverted elections were made.
Those provisions were gradually expanded as experience appeared to demonstrate the necessity of making them wider for the discovery of the whole truth about the matter. At length they were settled in the form in which they now appeared on the.
696	Supply.	[COMMONS.]	Supply.
Statute Book. The Government had embodied the substance of that indemnifying clause in the Rill which had just been read the third time. Under that clause a witness who was willing to tell the whole truth was indemnified against any proceedings that might be based on his evidence, the terrors of the law being reserved fqr those who did not disclose the truth, and about whom there might be any reasonable ground to suspect they should be put on trial.
Mr. SCATCHERD said this was an important point. For instance a member’s seat was contested and the Judge is called upon to decide whether the seat was gained by bribery. The defeated candidate is no party to the suit, and the sitting member is unseated for corrupt practices, having to pay all the costs. Now he (Mr. Scatcherd) contended the defeated candidate should always be a party to such petitions, and if bribery on his part should be proved, the costs should be divided.
Hon. Mr. BLAKE said a provision to that effect was contained in the second sub-section of the eighth section of the Controverted Election Act of 1874, by which the sitting member was enabled to file a cross petition against the defeated candidate wTho petitions.
Hon. Mr. TUPPER said in one county (Dorchester) the defeated candidate was disqualified under this very provision.
The clause and the remaining sections of the Bill were passed. The Committee rose, reported progress and asked leave to sit again.
The House went into Committee to consider the following resolution :—
“That it is expedient to provide that the travelling expenses of the Judge and all expenses incurred by the Sheriff or other officer in consequence of any sitting for the trial, and for providing a Court room and any accessories under the Bill (No. 13) intituled: ‘An Act to make more effectual provision for the administration of the Law relating to corrupt practices at elections of members of the House of Commons,’ shall be defrayed out of any moneys whicdi may be provided by Parliament for the p rpose.”
The Committee rose and reported the resolution, which was referred to Hon. Mr. Blake.
the Committee of the Whole on the Bill No. 13.
SUPPLY.
The House went into Committee of Supply, Mr. Scatcherd in the Chair.
Regarding item 6, providing for a sum not to exceed $30,140 to defray salaries in the Department of the Secretary of State,
Mr. BO WELL remarked, that this showed an increase similar to what he had noticed on the previous evening.
Hon. Mr. CARTWRIGHT replied that this was caused by the promotion of certain second-class to first-class clerks. A gentleman who had been hitherto charged with the superintendence of the stationery, and who had effected a saving in the Department, had been promoted, as he understood, in accordance with an arrangement of long standing. This was the only increase with the exception of the ordinary advances of $50 a year.
The item was passed.
Item 7, providing $30,681 to defray salaries in the Department of the Minister of the Interior, and item No. 8, providing for the payment of $20,720 in the Department of the Receiver General, were passed without discussion.
On item No. 9, providing for $48,250 for the payment of salaries in the Department of Finance.
Mr. BOWELL remarked that the amount showed an increase.
Hon. Mr. CARTWRIGHT replied that he believed this was due merely to the statutory increases.
Hon. Mr. TUPPER hoped that the appropriation would be sufficient to secure the correct publication in the Official Gazette of the receipts and expenditure. He had felt that it was disgraceful to the Financial Department of the Government that statements should be published which, at the expiration of several months, should be found to be totally fallacious. We had a great deal of discussion as to the derangement of our trade within the past few months, and the hon. gentleman knew that every merchant formed his opinion from the statement of revenue and expenditure, which was one of the objects
697
Supply.	[March 16, 1876.]	Supply,
of the publication of the Gazette. The hon. gentleman had never condescended to explain to the House why the returns for March last had never been published ; and he thought that the Committee should be informed why they were suppressed—why they never •could be obtained, and to what was due the great inaccurracies found in them. He trusted that the recurrence of these would be prevented. If this had happened only for the first time it would not be so open for censure, but this was far from being the case.
lion. Mr. CARTWRIGHT stated that the most important error in the returns occurred last September, a few day- before he sailed for England. On coming back in December his attention had been called to it, and he had immediately caused a statement for the six months to be published in the Official Gazette. On enquiry in the Department he found that a clerical error had been made by one of the inferior clerks after they had left the Auditor’s hands. This clerk was reprimanded, and no doubt the hon. gentleman did not wish a further punishment to be inflicted, though the mistake was unquestionably not creditable.
Hon. Mr. TUPPER—He has, however, inflicted a great deal of punishment on other people.
Hon. Mr. CARTWRIGHT continued, that with regard to the future he would take care that more accurate returns would be prepared. He had issued the most strigent orders, requiring that the returns no«v published should correspond much more nearly than they had hitherto done, with what were known as the days’ statements, which came more closely than the others under the supervision of the Ministers; he thought that these precautions would be sufficient to effect the purpose. With respect to the March statement, the Auditor General had explained to him, when his attention was called to the matter, that there were some extraordinary errors in the various reports made to him, and this had been the cause of the <ielay.
The item was passed.
With regard to item Ho. 10, providing for $27,500 in connection with the Department of Customs,
Hon. Mr. TUPPER invited the Minister of Customs to explain why the Civil Service Act had been violated—f as he had understood was the case in the Customs’ Department—by the appointment of officers over the heads of competent officials- who had served for considerable terms—with increases ot salary. Hot only so, but very large bonuses had been added to these salaries out of all proportion with those given to officers of long periods of service.
Hon. Mr. BURPEE replied that the officer to whom he supposed allusion had been made, had been a very efficient accountant for many years, and was quite as efficient as any of those who were employed in the Department. His qualifications in fact entitled him to a position higher than the one he occupied. Some nineteen-twentieths of the employes had received the usual $50 advance per annum; and $100 each had been given to three junior French clerks, who only got $450 a year each ; and this was very small for men, who had been in the service for four or five years.
Hon. Mr. TUPPER answered that he had not referred to the gentleman to whom the hon. gentleman made allusion.
Hon. Mr. BURPEE—The officer referred to has been in the service for four or five years; he has been a very efficient accountant for many years, and he is really entitled to the position.
On item Ho. 11, providing for $24,982 for the Department of Inland Revenue.
Hon. Mr. TUPPER asked if the Inland Revenue Department was utilized in the carrying out of the provisions of the Weights and Measures Bill ?
Hon. Mr. CARTWRIGHT said that circumstances might arise which would offer serious obstacles to the employment of Inland Revenue Officers, but still wherever they could use these officers they did so.
The item was then passed.
On item Ho. 12, for $218,934, for the Department of Public Works.
698	Supply.	[COMMONS.]	Supply.
Hon. Mr. LANGEYIN said he saw there was an increase in the number of officers in the Department.
Hon. Mr. MACKENZIE in response said there was now a vacancy in the Department which they did not propose to fill up, as they thought they could do without that officer.
Hon. Mr. LANG-EYIN stated that there was also an increase in the number of first-class clerks, and he wished to know if that measure was in accordance with the theoretical organization of the Department ?
Hon. Mr. MACKENZIE did not know what the hon. gentleman meant by theoretical organization.
Hon. Mr. LANGE YIN said that some yeais ago a Committee had prepared a paper for the regulation of the appointments in the Department. This was what he referred to as the theoretical organization.
Hon. Mr. MACKENZIE said he bad not seen the paper, and he presumed he had acted independently of it. He had endeavoured to make the Department as efficient as possible with as few men as possible, and in the conduct of that department he would endeavour to promote men who were entitled to it on account of their real value, and not give preference to certain men simply because they had been a certain number of years in office.
The item was carried.
On item No. 13, $84,990 for the Post Office Department,
Mr. BO WELL said that though this was a decrease from last year that it was an increase over 1873-4 of $18,000. He de fired to know what was the reason of that.
lion. Mr. CARTWRIGHT said that the reason of that was that a considerable number of extra hands who had been paid out of the contingencies of that Department were made permanent officers. It was more properly a transfer from the contingencies to the regular expenditure of the Department.
lion. Mr. TUPPER-How many extra clerks are there in the Department ?
Hon. Mr. MACKENZIE—I think there are not more than seven or Hon. Mr. Cartwright.
eight extra clerks, but there may be more. The number, however, varies according to the amount of work that has to be done in the dead-letter office.
Mr. BOWELL—Can the hon. gentleman inform us whether the system of advertising the letters, formerly practiced, was more expensive than the present system ?
Hon. Mr. CARTWRIGHT—I will obtain that information for the hon. gentleman. I am very sorry that ihe Postmaster General is too unwell to be present and answer these enquiries.
The item was passed.
Item, $28,340 for Department of Agriculture passed.
On item, $23,815, Mr. Cartwright explained that the increase of $1,605 was in consequence of the engagement of an additional clerk and some minor expenses.
The item passed.
On the item, Departmental Contingencies, $175,000,
Mr. KIRKPATRICK said this item should be reduced to what it was in 1873. It was an item that would bear to be pruned down.
Hon. Mr. CARTWRIGHT said if the Public Accounts of 1872 3 were examined it would be found that that item in the estimates had always to be supplemented by another vote.
Mr. KIRKPATRICK said telegraphing alone was $59,000 last year, while the last year of the late Administration the account for telegraphing was only $2<i,000.
Hon. Mr. CARTWRIGHT said the increase wTas in consequence of the number of public wrorks being carried on at a great distance from the capital, and also the addition of Prince Edward Island to the Confederation. Some of the telegraphic expenses might, no doubt, be curtailed. There had also been a great deal of telegraphing across the Atlantic.
Hon. Mr. BURPEE said that last financial year, 1874-5, there was a large increase in telegraphic expenses in consequence of the change in the tariff.
Mr. KIRKPATRICK said this was the account where “ mucilage” and
699
Supply.	[March
such like things came in; subscriptions for papers, books, &c.
Hon. Mr.'MACKENZIE said lie would give the hon. gentleman something if he could devise any possible mfcans to keep the newspapers out of the offices. As for the books, he had stopped them by the simple expediency of excluding the book pedlars out of the buildings. As for the telegraphic expenses, a large number of cypher messages had been sent between Ottawa and Washington and British Columbia last year.
The item passed.
The item, $20,000, for the stationery office, passed.
On item, $35,000, for re-adjustment of salaries (including promotions),
Mr. MASSON asked if the Premier was understood to say that he would regulate the promotions of his office himself? The hon. gentleman would have to remember, powerful as he was, there was a Civil Service Act by which promotions were regulated.
Hon. Mr. MACKENZIE said the hon. gentleman always kept within the law; but if he wished for a comparison of the way promotions were arranged by his predecessors, and by himself, he was willing to do it.
Mr. MASSON said the hon. gentleman was not justified in using the tu quoque style of argument.
Hon. Mr. MACKENZIE said he had kept within the Act.
Mr. KIRKPATRICK said when this vote was fii’st introduced it was his impression it -was only going to be a temporary arrangement. He thought it was time this bonus system should be done away with.
The item passed.
Items under the heading of “ Charges of Management,” $69,100, passed.
Item, $10,000,	(“ Miscellaneous”),
under the heading of “ Administration of Justice,” was passed.
On item, $10,000, “ Miscellaneous North-West Territories,” a new vote,
In reply to the Hon. Mr. Tupper,
. Hon. Mr. BLAKE said, owing to the increase of settlement in the Territories, there had been violence, and offenders had to be brought to justice. There were also expenses connected
6, 1876.]	Supply.
with the Mclvor murder, and the Government thought it better to provide this amount to meet such contingencies.
On the items under the head of “ Administration of Justice,” $54,400,
Mr. KIRKPATRICK suggested that care should be exercised not to appoint too many officers to the Supreme Court.
Hon. M»\ BLAKE said he had proposed as few appointments as possible, and only on the application of the Judges. He would appoint no officers until he way satisfied they were required. The amount of $10,000 for eontingences was merely conjectural.
The items were passed.
The item, $15,000, for police was passed without discussion.
On the item under the head “Penitentiaries,” $306,175.69,
Hon. Mr. CARTWRIGHT said the increase of $5,151.87 for Kingston Penitentiary was due to the fact that a large number of convicts had been sent there from St. Vincent de Paul Penitentiary.
Hon. Mr. MACKENZIE in reply to a question, said plans were being prepared for the providing of additional accommodation for convicts in Nova Scotia. No site had yet been purchased nor had the Government exactly fixed upon any place. They were in communication with parties as to the value of land, &c., and he hoped to be able to give further information on the subject before the close of the Session.
Hon. Mr. THPPER asked if it was true the Government had superannuated the Warden of St. Vincent de Paul Penitentiary and appointed to the position a gentleman who had recently been of service to the party to which the hon. gentlemen opposite belonged ?
Hon. Mr. BLAKE said it was quite true the late Warden had been superannuated upon his (Mr. Blake’s) recommendation, after a careful investigation of the affairs of the Penitentiary, and on the application of the gentleman himself. It was also true that another person had been appointed to the office, but he was not aware whether it was in consequence of the claim to which the hon. gentleman referred.
700	Supply.	[COMMONS.]
Dr. Duchesneau had the highest testimonials as to his capacity, and the energy and fidelity with which he had discharged his duties justified the choice.
Mr. JOXES (Leeds) hoped the labour of the convicts would be utilized in such a manner as not to interfere with out side industries. He knew two •or three establishments that were interfered with considerably by the prison labour of the United States, and particularly of Michigan.
Mr. MASS OX asked if any investigation had been made into the charges against the late Warden of St. Vincent de Paul Penitentiary ?
Hon. Mr. BLAKE replied that there was no charge agiinst him. He had applied for superannuation, and after an investigation into the management of the Penitentiary it wa3 thought best to grant it.
Mr. MASSOX said he was glad to hear this because it had been asserted that the late Warden had been discharged after an investigation into the management of the Penitentiary. He was glad to hear that there was no foundation for such assertions.
Hon. Mr. BLAKE said he had no desire to say an unkind word of the late Warden. He had merely remarked there was no accusation against him, but the result of the inspection was not satisfactory.
Hon. Mr. TUPPER said if the Government found that anyone occupying such a position neglected his duties he should be dismissed without superannuation. Xone but deserving officers should be superannuated.
The Warden of the Halifax Penitentiary had been superannuated, and the statement of the Minister of Justice led him to suppose that it was the intention of the Government to get rid of this official in order that another might be put in his place. It so happened that a defeated candidate had been given a very valuable post at the St. Vincent de Paul Penitentiary, and also very conveniently for the Local Government of Nova Scotia that it had to provide for one of the local members, succeeding a gentleman who the Inspectors reported was one of the most Hon. Mr. Blake.
Supply.
efficient and able officers in the public service.# Hot only so, but the salary had been largely increased simultaneously in favour of the new officer, a friend of the Administration. This was an abuse of tbe power of tbe Government and of the Superannuation Fund System, and one of the things which shook the confidence of the people in the belief that this fund was provided for the purpose of increasing the efficiency of the public service, the only ground upon which a change could ever take place.
Hon. Mr. BLAKE stated that he was not very familiar with the circumstances connected with the case of the Warden of the Halifax Penittntiary, because the arrangement in question had been effected, he believed, before he entered the Administration. If he was rightly informed, however, this officer had not been for a long time in the public service, entering it somewhere about the age of sixty-eight, on the appointment of the hon. gentleman opposite, while his age was now about seventy-two.	.
As to the Wardenship of the • St. Vincent de Paul Penitentiary and the Deputy-Wardenship, he might say that one of these officers had been superannuated, and the services of the other gentleman dispensed with. The exWarden’s state of health had rendered his continuance in that position impossible ; he had applied for superannuation nine months ago, and to his ill health he (Mr. Blake) in part attributed the disorganization of that institution. This gentleman was no friend of his; and according to the strict rule his hon. friend had advocated, it would have probably been advisable, under the circumstances of the case, to dispense with any remuneration at all in this particular.
Hon. Mr. TUPPER—Does the hon. gentleman speak of Dr. Tasse ?
Hon. Mr. BLAKE—Ho ! I alluded to Jean Baptiste Daoust, at present the member for Two Mountains, who received a gratuity of one month’s pay for each year of services. This was likely a sort of justice I would not administer to a political friend, but I did it for a political opponent.
701
Supply.	[March
Mr. MASSON—I am glad to hear the real explanation at last. The state of things in question proves to have been due to the ill health of Dr. Tasse.
Hon. Mr. BLAKE—I said principally, Sir. The state of disorganization which had existed before was aggravated by that gentleman’s illness ; but I desired to look as leniently as possible on his conduct. I did not wish to speak of these matters, but they have been dragged out of me by the hon. gentleman.
Hon. Mr. TUPPER—My statement with regard to the change in the Halifax Penitentiary is that when the Government asked the inspectors, the responsible officers, on whom they were bound to depend for a report, with the view of getting a place for one of their friends; they had to report that he was one of the most able and efficient officers of the Public Service.
Hon. Mr. BLAKE—I know of no such thing.
Hon. Mr. TUPPER—I undertake from my place in this House to state —and I do it advisedly—that this was the answer which the Minister of Justice got from the Inspector of Penitentiaries ; and I say that we have received no answer in this relation.
Mr. MILLS—Was that officer sixty-eight years old when appointed ?
Hon. Mr. TUPPER—I only know that he was as rigorous, able and efficient an officer as could be found in the service of this country. I do not know or care for his age ; this report of the Inspectors was very damaging with regard to the intentions of the Government.
Mr. MILLS—It was very damaging, to them.
Hon. Mr. TUPPER—No doubt of that; I have no' doubt that it led to their dismissal, for the Government required a report in accordance with their wishes. This, moreover, relates to an abuse of the Superannuation Act.
That is one particular charge ; but I declare further that the Government which created an undue drain on the revenue by dispensing with the services of a valuable and efficient officer,
16, 1876.]	Supply.
deliberately came to • Parliament and had the salary increased, and why ? To bestow it upon a new man, one of their friends; and there is no answer given to this accusation.
Mr. CARTWRIGHT said that the circumstances of this case were somewhat peculiar. The Superannuation Act provided that persons 65 years of age should ipso facto be superannuated. This gentleman, who was then above that age, was some five or six months after the passage of the Order in Council appointed to this office.
Hon. Mr. TUPPER--He was in the public service when he was appointed.
Mr. BLAKE—In what Department ?
Hon. Mr. TUPPER—He filled an office on the Intercolonial Railway.
Hon. Air. CARTWRIGHT said they all knew that there were exceptional cases in which officers had rendered service to their country after the age of 65, but they were of comparatively little use after that. He did not know anything about this gentleman, but he must then be over 70 years of age, and could not in the course of nature be expected to be fit for the dangerous duties imposed upon the Warden of a Penitentiary.
Hon .Mr. TUPPER said he desired that the Government would bring down a statement of the officers appointed under the Weights and Measures Act, together with the ages of the officers.
Hon. Mr. MACKENZIE—Said he was surprised to hear the hon. gentleman state that he had no doubt that the two inspectors were dismissed on account of the report they made. The hon. gentleman knew very well that these men were removed from office because the offices were abolished and a saving to the public secured. The gentleman who was retained had distinguished himself as an active opponent of the Government, but was in every respect a capable and worthy man.
Hon. Mr. BLAKE pointed out that the hon. gentleman’s Government introduced the principle of arranging these salaries, and that a salary of-81,400, the amount paid to other Wardens of Penitentiaries, was not too large for that responsible and
702
Supply.	[COMMONS.]
somewhat dangerous office. One of the necessary qualifications of the occupant of such a position, in addition to the wisdom which age gave, was the vigour which age too frequently took away.
Hon. Mr. MACKENZIE said that perhaps hon. gentlemen would remember that in the Session of 1874 he announced the intention of the Government to dispense with two of these inspectors, at the same time declining to do it at that particular time because they wished to make sure that they were doing right. They took time to consider the matter, and had only done that which they had contemplated from their accession to office, and by means of which a considerable saving would be effected.
The motion was adopted.
On item No. 37, for $ 17,640 for the Manitoba Penitentiary,
Mr. SCHULTZ desired to enquire when it was likely that the Manitoba Penitentiary would be in a condition for occupation.
Hon. Mr. BLAKE—In July or August next.
Mr. SCHULTZ said that he was glad to learn that this was the case, because the present arrangement was a very expensive one to the Government. A building had been rented at a large rental. Most of the prison labour had been devoted to its improvement, and while its value had been doubled in consequence, still the owner continued to exact the large rental, and the sooner this expense was cut off the better.
This item, together with items No. 38 and No. 3'd, was passed.
On item No. 40, $60,850 for salaries and contingent expenses.
Mr. SPEAKER stated that the whole expenditure of the House of Commons was rather calculated to create an erroneous impression. There had been a slight increase of expenditure in this Department of public service, but it was one for which the officers of the Honse were in no way responsible. It would be within the recollection of the House that the Commissioners of Internal Economy were instructed to make a revision Hon. Mr. Blake.
Supply.
' of the salaries with a view to their re-adjustment. This had been done, and many of the salaries had been increased in a manner proportionate to the services rendered, and the length of the services of the employe. The death of the chief clerk of the Private Bills office had created a vacancy which had not been filled up, and an annual saving of. $850 had been made. The expenses of Committees, extra sessional clerks, &e., had been reduced from $14,100 to $13,000, and he had recommended the Leader of the House to endeavor to keep down the expenditure of the Committees as far as possible, and he thought it would be kept down within the estimates. The publishing of the Debates in French swelled the amount of that appropriation. It had been put down at $15,000 this year. The House, however, had nothing to do with this expenditure, which was managed by the Committee on the Debates. There would have been a considerable reduction in the expenditure on behalf of this part of the public service had it not been for the increased expenditure necessary in the publishing of the Debates.
The following items were passed without debate:—
Expenses of Committees, extra Sessional Clerks, $13,000.
Contingencies, $20,140.
Publishing Debates, $15,000.
Salaries and Contingencies—per Sergeant-at-Arms estimate—$35,450.
On item of $12,000, grant to Parliamentary Library, including provision for law books,
Hon. Mr. MACKENZIE said the grant last year was insufficient to procure what was considered necessary for the purchase of law books. He had directed the Librarian to consult with parties at Osgoode Hall and Montreal, with regard to the text books that were to be obtained, and after getting their opinion they found that the sum required was more than was anticipated.
Mr. BERTRAM called attention to the disgraceful manner in which many of the books in the library had been mutilated, and suggested that some measure should be adopted to prevent it in future.
Buppty-	[Makch 16, 1876.]	Supply.	703
Mr. SPEAKER said this had been a serious complaint for some year past, but it had been impossible so far to prevent it. The Librarian was an exceedingly careful officer, but there were 300 gentlemen who were privileged to go to the library and take whatever books they pleased out of it. Resides this, the Speakers of both Houses were allowed to grant privileges to a large number of persons of this city on recommendation of members of Parliament, to have access to the library. It was impossible when so many persons were allowed to have the books, to prevent vandalism. Some of the valuable and rare books were not allowed out at all, and many were kept under lock and key. If any hon. gentleman could suggest any means of preventing the books from being defaced he would be very glad to adopt it.
Mr. YOLTNG said the matter had been before the Library Committee. One reason of the abuse was that the number of assistants was too small to take care of the library, and in consequence cf the? Statute, they could not increase them. The new library was expected to be completed next year, and there would be a railing in front of the shelves, so that the public could not have access to any of them without asking an assistant.
Hon. Mr. MACKENZIE said the library was practically a free circulating library to the people of this city, and the Committee had devoted themselves to seeing how far this system could be curtailed. He looked into the library himself the other day, and he found on the register the name of one private person down for twenty volumes. It could hardly be expected that the whole Dominion should have to contribute to keep up a free library for the people of this city.
Hon. Mr. BLAKE thought it was only reasonable that the library should be at the disposal of the members of Parliament and the public, but it was intended that that privlege should not be abused or that it should be turned into a free-circulating library.
Mr. DOMVILLE said he would be very sorry to see the people refused
the use of the library within proper limits.
Hon. Mr. CARTWRIGHT said valu' able books were taken out of the library and scattered about the city, and it was not the intention of the country in subscribing $10,000 a year for this library to provide a circulating library for Ottawa.
Hon. Mr. TUPPER thought it would be unwise to deprive the members of the Civil Service of the use of the library, as every means should be afforded them to improve their minds by reading instead of spending their leizure hours in a less profitable manner. One means to prevent the books from being abused would be to make it the duty of one person to note the condition in which each book left the library and returned ; and when people found there was such a check it would make them more careful not to mutilate the volumes.
Mr. MASSON said the Premier had made the statement that one private person had 20 volumes out of the library at one time. This showed mere was some lack of administration in the Department, as members of Parliament could have only three volumes out at one time. The people of Ottawa should not be allowed greater privileges than the members of this House.
Hon. Mr. CAUCHON stated that as long as the general public, including school boys,were allowed to have access to the books, they could not prevent their defacement. He believed that there were too many novels in the library; the perusal of these works demoralized the young people, rendering them unfittedt for the study of scientific and historical works.
Mr. YOUNG announced that there would be another meeting of the Joint Committee, when he would bring the subject before it.
Hon. Mr. MACKENZIE remarked that they could not well have a more efficient Librarian, but it was very difficult to arrange and keep proper supervision over such a place, with an ordinary staff.
On the item, $70,000, for printing, printing paper and binding.
T04
The Insolvency	[COMMONS.]	Act.
Hon. Mr. CARTWRIGHT explained that the increase of $20,000 over the vote of last year was in consequence of the representations made by the officials that they found it impossible to get through their work properly without incurring additional expense.
Mr. YOUNG was sorry to see this item increasing so fast. Many years ago the printing service of old Canada got to be a great abuse, $150,000 being expended in one year. The Printing Committee reduced it to $27,000, and until lately the estimates were not iv*i* reasonable. A great deal of useless matter was printed which might be dispensed with.
After some further discussion the item was passed.
The remaining items under the head u Legislation” were also passed, and the Committee rose and reported progress.
The House adjourned at Thirty minutes past Twelve o’clock.
HOUSE OF COMMONS.
Friday, March 17, 1876.
