 at Three o’clock.
Prayers.
NORTH YORK CONTROVERTED ELECTION.
JCDGE'S REPORT.
Mr. SPEAKER laid before the House a certificate which he had received from the Hon. Vice-Chancellor Blake, one of the J edges selected for the trial of Election Petitions pursuant to the Dominion Controverted Elections Act, 1874, in the matter of the election for the electoral district of the North Biding of the County of York.
OFFICIAL REPORTING OF THE DEBATES.
RETURN.
Mr. SPEAKER informed the House that, in obedience to the order of the House of Tuesday last, the Clerk of the House had laid on the table a return of the notices asking for tenders for reporting and publishing the Official Debates
Death of the
Drincess Alice.
59
[February 21, 1879.]
of this House; together with copies of all tenders received, and of all arrangements or contracts entered into, for the reporting and publication of said debates.
Mr. ANGLIN said he would like to know how these papers came into the possession of the Clerk. They had never come through his (Mr. Anglin’s) hands, nor had he been communicated with in regard to them. If they had come through the Executive, he thought it would be another instance of improper interference on the part of the Executive.
Mr. SPEAKER :	The paper came
to me to be laid before the House. It was put into my hands by the Clerk.
SELECT STANDING COMMITTEES.
LISTS CONCURRED IN.
Sir JOHN A. MACDONALD moved :
“ That the report of the Special Committee appointed to prepare and report lists of Members to compose the Select Standing Committees of the House, in so far as relates to the following Committees, viz.:—On Privileges and Elections; on Expiring Laws; on Railways, Canals, and Telegraph Lines; on Miscellaneous Private Bills; on Printing; on Public Accounts ; on Banking and Commerce ; and on Immigration and Colonization, be concurred in.”
Motion agreed to, and report concurred in.
PRINTING COMMITTEE.
Mr. STEPHENSON moved :
“ That a Message be sent to the Senate, requesting that their Honours will unite with this House in the formation of a Joint Committee of both Houses on the subject of the Printing of Parliament; and that the Members of the Select Standing Committee on Printing, viz.:—Messrs. Bowell, Bannerman, Bechard, Bunting, Charlton, Costigan, Desjardins, Lanthier, McDonald (Cape Breton), Ross (West Middlesex), Stephenson, Tasse, Thompson (Haldimand), Trow, and Wallace (South Norfolk), will act as Members of the said Joint Committee on Printing.”
CONTROVERTED ELECTIONS ACTS AMENDMENT BILL.—[Bill No. 4.]
(Mr. McCarthy.)
FIRST READING.
Mr. McCarthy introduced a Bill (No. 4) To make better provision for the trial of controverted elections of mem-
bers of the House of Commons, by amending and consolidating the Acts now in force on that subject.
Bill read the first time.
DEATH OF THE PRINCESS ALICE. ADDRESS OF CONDOLENCE TO THE QUEEN.
Order for consideration of Message from the Senate, acquainting this House that their Honours have passed an Address of condolence to Her Most Gracious Majesty on the death of Her Royal Highness the Princess Alice, Grand Duchess of Hesse, and transmitting the same, and desiring the concurrence of this House therein, read.
Sir JOHN A. MACDONALD: I am sure that this House will have a melancholy pleasure in joining in this, I may say, most beautifully worded .Address sent to us from the Senate, condoling with Her Majesty on her late bereavement. Though that calamity has not been of so very recent a date, and we may therefore hope that the blow is somewhat alleviated, yet it is our duty to take the eailiest opportunity of our assembling, to assure Her Majesty that the people of Canada and the representatives of the people in this House heartily sympathise with Her Majesty in her great loss. I feel that I am not called upon to enlarge upon this subject; the Address speaks for itself. It conveys our hearty expression of feeling, and we would fain hope that Her Majesty’s loss will be, in some degree, alleviated by the knowledge that her sorrows are our sorrows, her joy and her happiness the source of the greatest gratification and pleasure to us. The feeling in Canada, as in all parts of the Empire, is not lip-loyalty. We owe our duty of loyalty to the Crown, but we also present our respectful and loyal affections to Her Majesty in her personal character. We have personal feelings of affection for the gracious lady who presides over this vast empire. We may hope that such solace as these assurances can give, will have its effect upon Her Majesty. Her grief was intensified by an unhappy coincidence, the death of her beloved child reminding her of the grief of her life, the loss of the Prince Consort. We all know that the Princess Alice deserved all the affection bestowed
GO	Absence of an	[COMMONS.]	Official from Duty.
on her, and the touching circumstances which occasioned her death hanging over the dying body of her child, increases our sorrow at her loss and our knowledge of the gravity and depth of the feeling which must pervade Her Majesty’s breast. I shall say no more, but shall move this Address, seconded by the lion, leader of the Opposition.
Mr. MACKENZIE : I have a melancholy pleasure in seconding the motion made by the lion, gentleman at the head of the Government. As a portion of the British Empire, it would be our duty on the occasion of any bereavement in the Royal family, to pass such an Address ; but towards Her Majesty we entertain feelings of peculiar respect and veneration. She, above all her predecessors, has established a personal claim to the good will and affection of all her subjects in every part of her wide Dominion. On the occasion of her recent bereavement, we all know that she was deprived of one of her principal domestic supports in the person of the lamented Princess Alice. The devotion of that lady to her duty during the occasion of her father’s illness was one which elicited a great deal of touching feeling in the country, and the melancholy occasion of her death revealed fresh traits of the excellent and affectionate disposition of her character, which must have commended itself to every one, even if she had no connection with the Royal family. As one of tier Majesty’s daughters, she is peculiarly entitled to he thus spoken of in one of the great assemblies of the nation. Canada never was, nor will ever be, wanting at any time, in the respect and veneration due to Her Majesty in her exalted position as our Sovereign, or her personal excellence ; but the Canadian people feel a still deeper interest now than formerly, having another of Her Majesty’s daughters presiding at the Canadian Government House in the Dominion, and committed to the care of the Canadian people. I, therefore, second this motion, and should be glad if any words of ours, or in the Address of the joint Parliaments of Canada, could have the effect of conveying a single emotional pleasure to Her Majesty in her sad bereavement.
Sir John A. Macdonald.
Mr. MASSON rose to speak to the resolution in French, but, alter uttering a few words, the lion, gentleman was attacked with faintness, and was unable to proceed.
Address from the Senate concurred in.
THE BUDGET.
QUESTION.
Mk. CARTWRIGHT asked the lion, the First Minister if he would give them some idea wdien the Budget speech would be made. He did not presume to ask him when it would be made, but he desired to know whether it would be made on the following Tuesday or not.
Sir JOHN A. MACDONALD said he would have liked the hon. the Minister of Finance to have answered that question. In the lion, gentleman’s absence, however, he would say that he did not think there was any reasonable probability of the Budget speech being made on the following Tuesday.
IMPROVEMENT OF THE WALLS OF THE CITY OF QUEBEC.
QUESTION.
Mr. VALLEE enquired, Whether it is the intention of the Government to carry on vigorously the works connected with the improvement of the walls of the city of Quebec.
Sir JOHN A. MACDONALD : In the absence of my hon. friend the Minister of Public Works, who has been called away through the recent illness of my colleague, I would say generally that it is the intention of the Government to carry out vigorously the obligations entered into in this respect by the previous Government.
ABSENCE OF AN OFFICIAL FROM DUTY.
MOTION FOR RETURN.
Mr. RYKERT moved for a return of the number of days during whch one James A. McMahon, a clerk in the Paymaster’s office of the Welland Canal, was absent from duty during the years 1877 and 1878, tho number of days for which he received pay from the Department of Public Works ; also a copy of the letter or letters by which he was
Absence of an	[February
authorized to absent himself from duty during those years, either for the purpose of electioneering or for promoting contracts in the interest of certain Government contractors. He said that, as the subject of dismissals was now occupying the attention of the country, he might, perhaps, be pardoned in making a few observations in respect to it. The interest taken in this matter in the county from which he came was not to be wondered at, when it was remembered that, within four years, seven elections had been held in the county of Lincoln, most of which had been brought about by the unwarrantable interference of officials of the late Government. He spoke advisedly upon the matter, because he knew that it was in his county where the missionary was first found abroad elevating the standard of political purity. It was there also that the celebrated Sunday brigade, by their zealous efforts, succeeded in disqualifying the gentleman who opposed him. As he understood the doctrine laid down by lion, gentlemen opposite some years ago, it was that no official should interfere in an election, and he had in his hand a document, an extract from which he thought clearly defined the doctrine of those gentlemen. It was as follows :•—
“ That it is highly criminal in any Minister or Ministers, or other servants under the Crown, directly or indirectly, to use their powers of office in the election of Representatives to serve in Parliament, and an attempt at such influence will, at all times, be resented by the House as aimed at its ©wn dignity, honour and independence.'”
He also recollected well that in the Ontario Parliament the hon. gentleman opposite promulgated the same view in reference to interference in elections, and placed on record a resolution declaring it was inexpedient for officials to take part in elections. In 1873 a discussion took place in this House respecting Mr. Griffin, one of the Post Office Inspectors in western Canada. In the course of that discussion, the hon. the leader of the Opposition moved a resolution clearly defining the position of hon. gentlemen opposite. This was followed by a speech from the hon. gentleman in which he said :
“ He was surprised that hon. gentlemen opposite should for a moment defend this
21, 1879.] Official from Duty. Cl
action, and he pointed out that if they did so they were doing what could not but result in the American system. ”
He (Mr. Rykert) was entirely opposed to the American system of removing all officials except for just cause. It was the duty of the Government to see that officials kept their places and did not interfere in elections. The facts in the case in point were simply these :	Mr.
McMahon was imported into the Paymaster's office of the Welland Canal, at a time when, beyond all question, his services were not required. The moment he put his foot in the county of Lincoln, that moment it was discovered the missionary was abroad and at bis work. At every parliamentary election his handiwork was to be seen in his interference with the elections ; and as he had under his immediate supervision no less than three or four hundred employees, his influence was necessarily very great. The hon. member for Welland, as well as himself, had felt Mr. McMahon’s influence, and it was about time this interference was put a stop to. Not only did he interfere in elections, but he ran about the country manipulating contracts. In 1877, when the late member Capt. Norris was contesting the county with Mr. Miller, this Mr-. McMahon took a very active part in the election, and appeared on a public platform, and used language exceedingly unbecoming a Government official. He was, however, very gracious not to take his pay during the eight days of the election; but it was found that he w7as subsequently recouped for his loss in the month of November. Last year he was absent, running about the country at the elections, for two or three months to his (Mr. Rykert’s) certain knowledge. He was in Quebec and elsewhere, one place electioneering, in another manipulating contracts. He also understood that that gentleman was interested in a contract on the Welland Canal, by means of which he was drawing a large amount of money, and, at the same time, held his office. He hoped that when those facts were brought to the notice of the Government, they would see the necessity of taking action in this matter, and of preventing Government officials from taking any part in the elections. These gentlemen had a right to exercise their franchise, but the
62
Surveys in Ihe
[COMMONS.]
St. Zaivrence.
moment they stepped beyond that, that moment the Government was bound to interfere. The people of Canada were desirous of having this matter fully investigated, and of knowing whether this interference at elections met with the concurrence of the Government.
Mr. MACKENZIE said he never heard a word of complaint concerning this officer’s conduct, and he nevei heard until that moment that he was interested in any contract, or he would not occupy a position as clerk. He entirely agreed in the demand for an investigation. That gentleman never had any control given him whatever, good, bad, or indifferent, in connection with any contract, and was never connected in any way with any contract. These contracts were either given out by the Department, or minor ones for supplies, chiefly by Mr. Page, or one of his assistants. Mr. McMahon was simply an extra clerk in that office, until somewhere about a year ago, when he was appointed permanently an officer of the Government, lie knew nothing about the leave of absence, and was utterly ignorant of any of the charges, none of which had been made to the late Government by any person.
Mr. DOMYILLE said he was only sorry his hon. friend had not made the motion more general, in order that they might have brought before the House, or some committee, many other charges that existed, such as conveying gentlemen on the Intercolonial Railroad for the purpose of voting for certain members of the House. Gentlemen holding important positions in the Government coerced the employes under them to vote for Government candidates, and had, in some instances, voted an open ballot ; and he would have been able to show from telegrams and other papers, that a great deal of pressure had been brought to bear by the Government during the last election.
Sir JOHN A. MACDONALD said, in the absence of his hon. friend the Minister of Public Works, he would merely state that he knew nothing about this matter till he saw it on the paper. Of course there could be no objection, after the statement of the hon. gentleman, to the return being brought Mr. Rykert.
down. He did not agree with the hon. member for King’s that the resolution should be widened. If any gentleman had a complaint to lay before Parliament, he thought it should be made separately and specifically, so that each case could be judged according to it? merits or demerits. He would opjnose anything like a roving commission or committee appointed to make inquiries into such matters. Wherever a real wrong had been done, that wrong should be investigated, and the charge should be distinctly and specifically stated with all the certainty which an hon. member making his motion was able to submit to the House.
Mr. ROCHESTER said he hoped the motion would be amended and enlarged, as he and a great many others had great reason to complain. Pie thought he would be able to show that Ministers of the Crown worked and used their influence during the last election.
Mr. MACKENZIE:	Hear, hear;
I should think so.
Mr. ROCHESTER said he thought he would be able to show that his hon. friend sent for employes of the Government, telling them how to vote, and that a candidate for the county of Carleton, who pretended to be a Conservative, was furnished with money by a Minister of the Crown, and, if elected, was to support the late Government; and further, that the emigrant agent of this city, Mr. Wills, was acting as treasurer, and paid out money during the election.
Motion agreed to.
SURVEYS IN THE ST. LAWRENCE, MOTION FOR REPORT.
Mr. LANDRY moved for copy of report prepared by a certain party of engineers, on the exploratory survey which they made in Montmagny Basin, and in the River St. Lawrence, off the parishes of St. Thomas, L’lslet, and St. Jean Port Joli. Pie said that, during the late local election, in the Province of Quebec,theLiberalsin his county proclaimed to all who would listen to them, that the Federal Government had promised to deepen the Basin of Montmagny, and that the execution of these works would
Loans to Railways [February
put considerable money in circulation in that locality. During his election, in September last, the same rumours were set afloat throughout the county. One fine morning his constituents were somewhat surprised to see the Patton property at St. Thomas studded with several white tents. No one said, “ The deepening of the basin of St. Thomas is going t to begin; ” but, with a common accord, every one exclaimed, “ The elections are near at hand.” And, indeed, a few days later, a ministerial battery put in its appearance, and in front of the engineers’ tents, the hon. member for Quebec East, then Minister of Inland Kevenue (Mr. Laurier), might have been seen bringing his cannon into line and preparing his projectiles. This stratagem did not succeed, and the former Government was beaten. What he wanted now was the report of the exploring party upon the deepening of the"basin of Mont-magny. He wished to know whether the deepening of this basin was possible, and, if it was, he should be one cf the first to ask the Government to execute these works, which would be of so great importance to trade in general, and to his county in particular. He wished to know whether the late Administration was sincere in the action which it took, or whether this explanation was merely a lure, a stratagem of war ; ministerial dust, in a word, thrown in the eyes of some of the electors of his county.
Motion agreed to.
BEAUHARNOIS CANAL EMPLOYES.
MOTION" FOR STATEMENT.
Mr. BERGERON moved for a statement showing the number of persons employed on the Beauharnois Canal, with their salaries or emoluments; the number of employes dismissed or pensioned since the 5th November, 1873 ; the names of those appointed since that date, and the increase of salaries.
Motion agreed to.
LOANS TO RAILWAYS BEFORE CONFEDERATION.
MOTION FOR STATEMENT.
Mr. VALLEE moved for a statement showing the sums of money lent or materials lent or given to the several railway
21, 1879.] before Confederation. 63
companies now existing in the Dominion of Canada, prior to and since Confederation, by the Government of Canada ; and also a statement of the sums repaid by any such companies. He said he wished to put this House in a position to study an important question. When the founders of the Confederation established, in 1867, the financial basis upon which was to ' be erected this great national institution, they took a certain amount of the assets of the united Provinces as security for the liabilities that the Federal Government was willing to assume. Among these assets were certain revenues, certain properties, railways, debentures, and these assets were taken at their face value. They were divided into two classes ; a part being considered as security for the federal debt, the remainder as provincial receipts for the surplus of the debt for which the Provinces were still responsible. This was a solid and equitable basis. It was highly important that this equilibrium should not be disturbed. Nevertheless, he believed that the policy followed by former Governments on this subject was calculated to destroy tho very basis upon which this great social and political edifice reposed. In the British North America Act he saw that, among the assets credited to the Federal Government, there were certain sums of money granted before 1867 by the Provinces to several railway companies. How was it that the debentures of these railway companies were included among the assets of the Dominion of Canada ? By referring to the British North America Act, 1867, section 108, they read : “ The public works and properties enumerated in the third schedule of this Act shall be the property of Canada.” Now, in looking over this third schedule, he saw, by paragraph 6, that railways and railway stocks, mortgages and other debts due by these companies were among the properties that came under section 108. These mortgages due by the railways were taken at their face value. Thus these assets were credited to the Dominion at par ; consequently the Provinces had been relieved of certain debts that had been transferred to the general liabilities of the Dominion. In order to come to and facilitate
64
Loans to Railways
[COMMONS.] before Confederation.
this arrangement, it was decided to lea^e to the Province of Ontario and Quebec the surplus of the assets mentioned in schedule 4. The surplus of the assets had in part been divided between Ontario and Quebec after much difficulty, as everyone knew. In the first place, there was an arbitration, from which the Province of Quebec appealed to England, and the Privy Council of Her Majesty had decided in favour of Ontario. His Province had to yield to this decision. On the other hand, the surplus of the debt, over and above sixty-two millions which was to be paid by the Provinces of Ontario and Quebec, was, in 1873. transferred to the Federal Treasury. He believed that the action of the Government in 1873 and 1875, in remitting a considerable portion of the liabilities of the Western and Northern Railways was not in harmony with the financial basis established in 1867 by the British North America Act. This was what he grounded his opinion upon. The surplus of the debt of the Provinces served to establish what should be the surplus of the assets of which Ontario and Quebec were to retain possession. The greater part of the assets brought by Ontario to the general credit of the Dominion consisted in railway stocks and debentures. Since then these stocks and debentures or mortgages had been declared to be of little or no value, and what was more, in the cases above alluded to, the Government had, in 1873 and 1875, given up its rights. Thus the Province of Ontario had been credited twice with the same amount, which made an error of about three millions of dollars. Consequently the division of the surplus of the assets "which had been made between the two Provinces was not fair. The basis of the division of the assets and the liabilities between the Provinces of Ontario and Quebec, had therefore been changed. He believed it his duty to draw the attention of Parliament to this fact, in order that this error, if error there were, should be rectified, and that justice should be rendered, not only to the Province of Quebec, but to all the Provinces of the Dominion. By enquiring what were the sums of money that had been lent or given to railway companies since and before Confederation, he thought that, with the help of Mb. Valine.
this statement, he should be able to establish what he had just laid down. Later on, when these documents were brought down, he would explain more at length his views on this serious and important question.
Me. CIMON said that the Province of Quebec should be grateful to the hon. member for Portneuf (Mr. Yallee) for having brought this all-important question before the House. There was no doubt that the Province of Quebec had been neglected for some years past by the Federal Government. Fie had often had occasion in this House to offer some remarks on the subject. The best means for the Federal Government to repair the injustice done to the Province of Quebec would be to purchase the North Shore Railway that the Quebec Legislature had undertaken, and which was now nearly completed. This great road that the Quebec Government had built from Quebec to Hull, was undertaken for the benefit of all the Provinces. This House remembered that the hon. member for Lambton (Mr. Mackenzie), when he presented himself for the first time before the country as the leader of the Government, stated in his programme that it was the policy of the Federal Government to aid this great enterprise, the North Shore Railway, as it formed part of the Pacific Railway. Upon this declaration the Quebec Government undertook to build this great railway. The Local Government had made great sacrifices in order to open this road to public traffic, and he held that the Federal Government was bound to purchase this road, for it would be a link in the national highway, the Pacific Railway. By this means the Federal Government would render justice to the Province of Quebec. With the > price that the Federal Government would pay to the Quebec Government, the latter, mindful of its duty, would construct in the Province of Quebec other railways that would tend to develop colonisation and enhance the prosperity of Quebec. Seeing the manner in which the public moneys had heretofore been distributed by the FederalGovernment, always to the sole ‘ advantage of the other Provinces, it was eeitain that Lower Canada would not be satisfied unless the Administration of
General
Business.
G5
[February 24, 1879.]
the Dominion accomplished the act of justice that he had just mentioned.
Motion agreed to.
EXPENSES OF THE GENERAL ELECTIONS
MOTION FOR RETURN.
MR. OLIVER moved for a return showing all sums paid to defray expenses of the late elections +o this House, in the different electoral districts throughout the Dominion ; showing the returning officers and deputy returning officers to whom the same were paid, and distinguishing the different services for which the Bame were allowed.
Motion agreed to.
COST OF STANDARD WEIGHTS AND
PRIVATE BILLS PETITIONS. MOTION TO EXTEND TIME.
Sir JOHN" A. MACDONALD
moved that the time for receiving petitions for Private Bills be extended for ten days, and that Rule 55 be suspended in relation thereto.
Motion agreed to.
House adjourned at
Five minutes before
Five o’clock.
HOUSE OF CO M MONS.
Monday, 2Jjth February, 1879.
