 at Three o’clock.
Prayers.
BILLS INTRODUCED.
The following Bills were severally introduced and read the first time:—
Bill (No. 71) To incorporate the Pontiac Pacific Junction Railway.—{Mr. White, North
Renfrew.)
Bill (No. 72) To extend the corporate character and powers of the Direct United States Cable Company to the Dominion of Canada.— [Mr. McCarthy.)
AUDIT OF PARLIAMENTARY ACCOUNTS.	,
RESOLUTIONS ADOPTED.
Mr. KIRKPATRICK: I beg to move that the report of the Select Standing Committee on Public Accounts be concurred in. This report is printed in the Votes and Proceedings of yesterday, and refers to the subject of auditing the accounts of expenditure for salaries and contingencies, of the House of Commons and members’ indemnity by the Auditor-General. It is a new practice, and it has been introduced because it was considered the Audit Act did not give the Auditor-General this power. The report also contains the following resolutions :—
“ Resolved, That in the opinion of this Committee the account* of expenditure for salaries and contingencies of the Senate, and for their members’ indemnity, should be audited by the Auditor-General; and that the House be requested to send a message t« the Senate requesting their Honours to concur in and to give effect to this resolution. *
“ Resolved, That in the opinion of this Committee the amounts of payment made under the authority of the Joint Committees of both Houses on Printing, and on the management of the Library, should be audited by the Auditor-General ; and that the House be asked to concur therein, and to send a message to the Senate requesting their Honours to concur in and to give effect thereto.
“ Resolved, That the House be asked to send a message to the Senate to request that their Honours will be pleased to give leave to Robert
[COMMONS.]
General
Business.
595
[March 11, 1880.J
LeMoine, Esquire, their Clerk, to furnish details of the sum of $44,098.74, paid for salaries and contingencies of the Senate, for the year ended 30th June, 1879, for the use of this Committee.
“ Resolved, That the House be asked to send a message to the Senate te request that their Honours will be pleased to gire leave te Robert LeMoine, Esquire, their Clerk, to furnish for the use of this Committee a detailed statement of amount paid to each member of the Senate for indemnity and mileage ; also the number of days each Senator has attended a sitting of that body, during the year 1879, as per item of $83,772.48, in Public Accounts, for year ended 30th June, 1879, page 88, part ii.”
I call special attention to this report as it involves a change in the mode of auditing there accounts.
Sir JOHN A. MACDONALD: I would ask the hon. gentleman to allow this to stand over for another day, in order that we may give some consideration to the resolutions which affect the Senate. I understand indirectly that that body is trying to take exception to the resolution calling their officers to come before the Public Accounts Committee and furnish the details required, and, in order to have an opportunity of looking into the precedents, I would ask my hon. friend to allow this matter to stand over.
Mr. MACKENZIE : We are not calling upon their officers ; we are asking the Senate to direct their officers.
Sir JOHN A MACDONALD: I understand the objection which is likely to be taken is that, while they do not object to furnish ttheir accounts we, by calling upon their officers to be examined and cross-examined before the Committee, do not trust to their honesty. It is no use getting up or fostering a feeling of that kind. I have no objection to concurrence being taken in the first two or three resolutions.
Mr. KIRKPATRICK : I may call the right hon. gentleman’s attention to the fact that these resolutions do not ask that the officers of the Senate attend before the Committee and be examined and cross-examined, but simply that their Honours will permit their Clerk to furnish for the use of the Committee the required statement.
Motion agreed to, and report concurred in.
Resolved —1. That the accounts of expenditure for the salaries and contingencies of the House of Commons and members’ indemnity should be audited by the Auditor-General.
2.	That the accounts of expenditure for salaries and contingencies of the Senate, and for their members’ indemnity, should be audited by the Auditor-General; and
3.	That the amounts of payment made under the authority of the Joint Committees of both Houses on Printing, and on the management of the Library, should be audited by the Auditor-General.
Ordered, That a Message be sent to the Senate, acquainting their Honours that this House has passed the two last mentioned Resolutions, and requesting their Honours to concur in, and to give effect thereto.
CANADA GUARANTEE COMPANY.
QUESTION.
Mr. ROCHESTER enquired, In view of Bill (No. 22), to amend the Act incorporating the Canada Guarantee Company, and to limit the liability of its shareholders, whether the Government have obtained from the company a statement showing the amount of subscribed stock, the number and amount of the shares respectively, the percentage paid up, the number of policies outstanding, and the number of unsettled claims upon policies issued by the company, and the amount of such policies held by the Government as security for public officers.
Sir SAMUEL L. TILLEY : The returns hare been furnished to the Government. The amount insured on the part of the Government in that company for the officials of the Civil Service is $277,100.
INTERCOLONIAL RAILWAY—ELGIN STATION, L’lSLET COUNTY.
QUESTION.
Mr. CASGRAIN enquired, Whether it is the intention of the Government to make a station, temporary or otherwise, on the Intercolonial Railway, at Elgiffi Station, county of L’lslet.
Sir CHARLES TUPPER: The Government have not yet determined to erect a station at the place the hon. gentleman refers to.
MILITIA DRILL.
QUESTION.
Mr. CARON enquired, Whether it is the intention of the Government to allow a large number of the Active Militia to drill this year, and whether they will increase the number of days for the annual drill.
Mr. MASSON : It is intended to call
[COMMONS.]	Amendment Bill.
596	Criminal Law
out about 20,000 of the volunteer force for twelve days drill, as last year.
QUEEN’S BIRTHDAY REVIEW AT
QUEBEC.
QUESTION-.
Mr. CATION enquired, Whether it is the intention of the Government to hold a review of all the troops that can be assembled at Quebec, to celebrate the Queen’s Birthday, on the 24th May next, and allow all that can attend pay and transport, as in 1878 and 1879.
Mr. MASSON : It is the intention to hold a review of the Active Militia at Quebec, on the 24th May. It is not known how many corps will attend. The allowance will be about the same as for the review at Montreal last year.
PRINCE EDWARD ISLAND—RAILWAY CONNECTION.
QUESTION.
Sir ALBERT J. SMITH enquired, Whether it is the intention of the Government to make provision during the present Session for the construction of a railway from the Intercolonial Railway to Cape Tormentine, and from Cape Traverse to connect with the railways of Prince Edward Island.
Sir CHARLES TUPPER : The Government will not be prepared this Session to submit a provision for that service.
CRIMINAL LAW AMENDMENT BILL.
[Bill 38.]
{Mr. McCarthy.)
CONSIDERED IN COMMITTEE.
House resolved itself into Committee of the Whole to consider the said Bill.
(In the Committee.)
Mr. MILLS : I think we have no jurisdiction in this matter. The right hon. the Minister of the Interior himself introduced a Bill relating to criminal procedure in an early Session of the first Parliament after Confederation. That Bill was carried through and became law without properly considering the question of jurisdiction. In dealing with questions of this sort, this Parliament must have respect to the provisions of the British North America Act. Sub-section 27 of section 91 of that Act provides that “ the Criminal Law, except the constitution of the Courts of Criminal Juris-
1£k. Masson.
diction, but including the procedure in criminal matters,” shall be within the exclusive jurisdiction of the Federal Parliament. It is clear from this subsection the framers believed that unless criminal procedure was expressly exempted from Provincial jurisdiction, it would be included in thepower to constitutethe Courts. And sub-section 14 of section 92 provides that the Legislature of each Province shall have exclusive jurisdiction over
“The administration of justice in the Province, including the constitution, maintenance and organisation of Provincial Courts, both of civil and criminal jurisdiction and including procedure in civil matters in these Courts.”
In this section the whole subject is embraced in the administration of justice excepting procedure in criminal matters. There are three things mentioned in this section of the British North America Act,namely,the constitution,maintenance, and organisation of the Courts. In the two sub-sections referred to it will be seen that the word “ constitution” is used in the first instance in a more comprehensive sense than in the second. In the first instance it is used in a broad comprehensive sense—in a sense so broad as to embrace criminal procedure unless it is expressly excepted, and in the second the same sense is expressed by using the three words “ constitution, maintenance and organisation,” and again excepting, by implication, criminal procedure. It is perfectly clear that the word “ constitution ” is used in a sense to embrace the subject of jurisdiction. “ Organisation” is used with reference to the manner in which the Court shall be formed, the officers to be appointed, the places where the Court shall hold its sittings, and so forth. The hon. gentleman will see that, if we can divest the Provincial Court of any portion of its jurisdiction in criminal matters, we can declare that any Court shall have only such jurisdiction as we may choose to give it, in any matter whatsoever. We have here the right of constituting Ceurts of original jurisdiction, by the 101st section of the British North America Act. That section provides that:
“ The Parliament of Canada may, notwithstanding anything in this Act, from time to time, provide for the constitution, maintenance and organisation of a General Court of Appeal for Canada, and for the establishment of any
Criminal Law	[Makch 11, 1880.J Amendment Bill. 59T
additional Courts for the better administration of the laws of Canada.”
The terms of this section, with regard to the powers of this Parliament to establish a general Court of A ppeal for Canada, are the same as those used with regard to the Courts of the Provinces, both of civil and criminal jurisdiction. Except in regard to criminal procedure, they are as comprehensive for Courts for the trial of crime as for Courts for civil purposes. It is true that under this section we may establish Courts of original jurisdiction for the administration of the laws of Canada. But, if we have the power to do this under that section, we have no power to take away the jurisdiction of the Courts constituted by the Provincial Legislatures. The control over the jurisdiction being conferred on the Provincial Legislatures by the 14th sub-section of section 92, I think it is a well-known rule of interpreting a Statute to so interpret it as to give effect to every part of its provisions; and, after constituting the Court, you cannot take away the jurisdiction, by mere implication, with which it has been invested by another Legislature. There is another principle, equally obvious, that we cannot give jurisdiction to a Provincial Court. It is true that the question was raised upon the Act relating to controverted elections but it is also true the decision or advice of the Judicial Committee of the Privy Council shows that they considered by the provisions of that Act that an Election Court was established, and that Act did not undertake to confer jurisdiction on existing Courts, but by its provisions it constituted an Election Court under the authority given by this 101st section. The hon. gentleman proposes here to exercise the power of conferring jurisdiction on a Provincial Court, and he proposes to divest another Provincial Court of the power with which it is invested. He cannot do either of these things, except in so far as we improperly assumed to give it, and we ought not to proceed in this way. We have been going in a wrong direction, and we ought to recede from the position formerly taken, and leave to the legislators and Governments of the various Provinces the right to exercise, without this meddlesome and illegal oversight, the functions conferred upon them by the Constitution. We
cannot undertake to argue that these powers will be abused if left in their jurisdiction. We cannot undertake to say that that power will be wrongly exercised, or that a Court will be wrongly organised for the administration of justice, if left to the Local Legislatures. If the hon. gentleman thinks so, he should seek to change the Constitution, not by an unwarrantable usurpation of power, but in a constitutional way. But, so long as the Constitution remains as it is, we must presume that the Local Legislatures will constitute their Courts of the most suitable character. I do not think we ought to adopt this Bill, and I think the hon. gentleman ought not to persist in carrying the Bill through the House in its present form.
Sir JOHN- A. MACDONALD: I think it is a sufficient answer to the hon, gentleman that the Criminal Act of 1869 was passed without objection in the Dominion Parliament.
Mr. MILLS: It was objected to at the time.
Sir JOHN A MACDONALD: And without any objection from any Local Legislature, and without a question being raised throughout this vast Dominion. It is not questionable now.
Mr. MILLS: Oh, yes, it is.
Sir JOHN A. MACDONALD : I am not aware of it, but certainly it has never been decided upon. No person has raised the question, and no Court has decided adversely to the decision of Parliament in 1869.
Mr. MILLS : That is no answer.
Sir JOHN A. MACDONALD: I think it is an answer. The 12th section of the Criminal Act of 1869 provides that
“ No Court of General or Quarter Sessions or Recorder’s Court, nor any Court but a Superior Court having criminal jurisdiction shall have power to try any treason, or any felony punishable with death, or any libel.”
According to my hon. friend’s argument, therefore, that clause is altogether ult/ra
Me. MILLS : Yes.
Sir JOHN A. MACDONALD : But there are half a dozen such clauses.
Mr. MILLS : Yes, yes.
Sir JOHN A. MACDONALD : All of which are ultra vires, and only now discovered to be so for the first time by my hon. friend.
598	Criminal Law
Me. MILLS: No, no.
Sik JOHN A. MACDONALD: I think, if my bon. friend or myself were up on a criminal charge, and if we were to raise this point, we would not be acquitted if guilty otherwise. I contend that all these things are thrown upon the central or Dominion Legislature. We have a right to declare what is a felony and what is a misdemeanour, and to declare the different modes of procedure with respect to felonies and misdemeanours, and we hare a right to declare whether offences shall be tried summarily by a Magistrate or by a Court of Quarter Sessions.
Mr. MILLS: No.
Sir JOHN A. MACDONALD : Then all the laws for the summary punishment of an offender are illegal, according to the argument of my hon. friend. According to his argument, all that we hare the power to do is to declare that one crime is a felony and another is a misdemeanour, but no power to declare how it is to be tried.
Mr. MILLS: That is a different question about procedure.
Sir JOHN A. MACDONALD: The hon. gentleman contends that a person cannot be brought up and punished by a Magistrate. That is the result of his argument. All our legislation is false, all we can do is to declare what is a crime, and nothing more. It may be tried by a Court or no Court, or it may get a summary trial or a trial by one Court or another Court. We cannot be allowed to know that there is any such thing as a distinction between the Superior Courts of criminal jurisdiction and inferior Courts.
Mr. MILLS : Hear, hear.
Sir JOHN A. MACDONALD: We cannot even say that treason, felony or murder shall be tried by a Court of superior jurisdiction. We have not the power to do that according to the hon. gentleman’s line of argument, and, if, for instance, a Local Legislature decided that treason or murder should be tried before a Justice of the Peace, we would be obliged to submit. Perhaps he will not go so far but will allow that we can leave the law as it is, and as it has been generally and universally accepted, except by my hon. friend, through the whole of the Dominion.
Mr. MILLS : No.
Sir John A. Macdonald.
Amendment Bill.
Sir JOHN A. MACDONALD : The hon. gentleman has not the courage to bring in a Bill based upon his opinions ; he has not the courage to introduce a Bill to repeal the 12th section of the Criminal Act of 1869, and I think, until we have made up our minds to decline jurisdiction, we shall find ourselves able to say whether it is expedient to deprive a Court of Quarter Sessions of the power to try treasons, etc., and for the same reasons to deal with all other such matters.
Mr. MILLS : I do not think the right hon. gentleman has answered my argument. It is quite true that, if the Lecal Legislature thought proper to say that a Magistrate should try murder, and so of other crimes, it could do so. The Local Legislature may abuse its power, hut that does not prove that it does not possess that power. The Local Legislature might give jurisdiction to a Magistrate to try cases of ejectment, and the hon. gentleman might say that because it has not given such a jurisdiction it does not possess the power to do so. But in that way he can prove nothing. In Ontario it is not long since the Local Government submitted a Bill to the Local Legislature to consolidate the Courts of Justice there. They proposed to make but one Court, composed of certain divisions, and to declare what jurisdiction each of these different divisions are to possess. Now they have or they have not that power. They propose .to say that, in a certain division of the Court, the powers of the old Court of Chancery shall be exercised by that Court, and that, where the rules of Common Law and Equity differ in civil matters, the rules of Equity shall prevail in all the divisions of this Court. Now, if they have no right to confer jurisdiction, they have no right to say that these Courts shall be consolidated into one Court composed of such divisions. The power to confer jurisdiction, both in civil and criminal matters, either belongs to us here or to the Local Legislature; if they have not both by sub-section 14 of section 92, they have neither. The right hon. gentleman should deal with the whole subject or not at all. The right hon. gentleman has not undertaken to deal even with the whole question of jurisdiction in criminal matters. In all the Provinces which hav-e legislated since Confederation, it has been dealt with by
[COMMONS.]
599
Criminal Law	[March 11, 1880.] Amendment Bill.
the Provincial Legislatures. Why did not the right hon. gentlemen deal with the whole subject ? Was it not because he believed the power to give criminal jurisdiction was vested elsewhere ? And did he not give it in a few instances, by confusing jurisdiction with procedure? Why has a Provincial Legislature the power to establish Courts 1 Is it not to meet the wants of the people in the administration of justice, and how can they do this except they can say what the jurisdiction is to be? The Local Legislature of a Province may say: Whereas it is necessary for the better administration of justice that a Court should be established, for what?—why, to do certain things set forth. Can it be supposed that the law left them to judge of the necessity of having a Court, and denied to them the power to state the necessity, but left it to another body to guess what it might be ? The right hon. gentleman must go much farther, or he must go back within the limits marked by the Constitution.
Mr. McCARTHY : Ithinkthatitisun-fortunate this subject has been raised. I do not remember any question of the sort mentioned being raised in any Court. My hon. friend has referred to another Act, that of the Hon. John Sandfield Macdonald, in the Lower House. Well, I do not think that we interfere with that in the Province of Ontario ; they have simply and expressly constituted the Court, but they do not pretend to confer jurisdiction on that Court. They leave that matter for some other legislative body. If the hon. gentleman will look at the earlier part ©£ the Statute, he will find how the Constitution of the Senate is spoken of. There is no attempt to confer power or a jurisdiction on the Senate. It simply states how the Senate shall be constituted. Constitution is one thing, jurisdiction is another, an#, power is a third.
Mr. MILLS : A Legislature has power to give powers to a Court in civil matters.
Mr. McCARTHY : I will come to that in a moment. We now come to this particular clause by which jurisdiction is ■conferred on the Legislative House. This is affected by the 91st clause. Let us see what it says on this subject:
“ 27. The Criminal Law, except the constitu-
tion of Courts of criminal jurisdiction, but including the procedure in criminal matters.”
I think that covers the whole ground and settles the question of the Constitution of the Courts. It says that the Constitution of the Court shall not include the procedure in criminal matters. It is to prevent the possibility of a doubt that the words referred to have been introduced. Procedure does not mean jurisdiction,and I think that under all the circumstances it would be unwise on the part of this Parliament to reject the Bill simply and solely on the grounds presented by the hon. member for Bothwell (Mr. Mills.)
Mr. BLAKE : It is quite obvious that the point under discussion would never be raised in any Court, because what is done by this clause is ostensibly to deprive the Court of jurisdiction in matters which are left to its jurisdiction. That proposition does not directly apply to the Act passed in 1869. It is carrying the argument too far to assume that there was any deliberate decision on the part of Parliament in the case of section 12 of the Act of L869. Hon. gentlemen will remember that a large volume of laws were passed en bloc at that time on the recommendation of the Government. There was no discussion except on one ’Bill. I think that for a proper interpretation of the words “ Constitution of the Court of Criminal Jurisdiction,” we have to enquire what the constitution and maintenance of the Civil Courts means in the 14th sub-section, and I think it will not be contended that the constitution of these Courts does not embrace the fixing of the extent of the jurisdiction of the Courts. Leaving out of consideration, for the moment, the question as to Courts of criminal jurisdiction, it will be found that the whole power with regard to the Civil Courts was vested in the Local Legislatures. I think, therefore, that the fair meaning of these two sub-sections is to give to the Local Legislatures the power of erecting Courts of Criminal Jurisdiction, embracing in that power the power of declaring what the jurisdiction of each or all should be. Two modes of avoiding inconvenience are given, the one special and the other general. The special mode of avoiding inconvenience, from the absence of power which would otherwise exist on the part of Canada to
600
Common Assaults [COMMONS.]
Amendment Bill.
enforce her laws, is the power to create additional Couits necessary for effecting the execution of the laws of Canada. Of course it is not pretended that this is an exercise of that power. Then the other mode is that which I think we may fairly refer to as capable of avoiding some of those evils, one of which the hon. the Minister of the Interior has referred to, namely, the power of disallowance. If there be any one reason when it might be safely adopted, it would be an abuse of power by the Local Legislature, such as he has suggested, namely, the giving over to Justices of the Peace the power to try the highest offences, when there were other properly ordained Courts of criminal justice for that purpose. The power of disallowance may not be unfairly exercised in cases in which the Local Legislature, having created adequate Courts, should proceed to interfere with the due execution of criminal justice and the administration of the laws so as to give power to a wholly inappropriate Court to try cases it was not competent to try. So that, if we are to assume that the Local Legislature might be guilty of such an impropriety or mistake as that, there is yet a power of correction. Upon the whole, I think that, in so far as this Bill proposes to remove from the County Court Judges the power which, by the Act to which, I have referred, was vested in them, no one can object; because in so far it is a repeal of the Act which gave them those powers, and those who hold there is a difficulty about the jurisdiction can not object to the repeal. I do not precisely understand the words in the Bill: “ Any offence charging an attempt to murder.” The phrase does not seem to be a good one.
Mr. McCARTHY : I just follow the words of the English Act.
Sir ALBERT J. SMITH: I think some of the Local Legislatures have assumed the right to deal with this subject, and to constitute Courts and constitute the powers of those Courts. New Brunswick has legislated with reference to County Courts, and conferred upon them criminal jurisdiction. It seems to me the Provinces have this power, and not this Parliament, to define and fix the jurisdiction of those Courts. We legislate with regard to Criminal Law ; but those Mr. Blake.
Courts have charge of the administration of justice as much in respect of criminal proceedings as of civil matters. I find, with regard to the Courts of Oyer and Terminer that they have exercised the same power in New Brunswick—that it has been conferred on the County Courts. The same power, I apprehend, is exercised by the Legislatures of the other Provinces.
Mr. COURSOL :	It seems to me
quite clear, and I have never heard any opinion to the contrary expressed in our Courts, that the criminal procedure is entirely left to the jurisdiction of the Federal Parliament. The clause in the Confederation Act, cited a few moments ago, by omitting the words “ criminal matters,” can leave no doubt whatever about the intention of its framers, namely, to withhold such authority from the Local Parliament and to vest it in the Federal power. There can be no doubt, therefore, that the jurisdiction being vested in the Federal Parliament, this House has the right and full authority to classify the offences, and to designate the Criminal Court before which the different crimes may be tried. In the present instance, the object is to vest in the Superior Court the jurisdiction over certain offences which may now be tried at the Court of Quarter Sessions. The Bill does not even create a new offence, but merely changes the jurisdiction from one Court to another.
Mr. McCARTHY : I wish to propose a verbal alteration—to substitute the words, “the County Judge’s Criminal Court” for the words now standing in the sub-section; and also to leave out the words in the 15th line, “ offences charged and,” so that the words shall run thus: “Only the County Judge’s Criminal Court shall have power to try,” etc.
Bill, as amended, ordered to be reported.
House resumed.
(In the House.)
Bill, as amended, reported.
COMMON ASSAULTS DEFENDANTS WITNESSES ACT AMENDMENT BILL.
[Bill 41.]
(Mr. McCarthy.)
CONSIDERED IN COMMITTEE.
Order for House to resolve itself into Committee of the Whole to consider the said Bill
read.
601
[March 11, 1880.] Amendment Bill,
Common Assaults
Mr. KIRKPATRICK: I think it is very desirable that there should be added to the Bill a clause giving power, in cases of a quasi criminal nature, and in cases of the trial of civil rights, to have the parties called as witnesses. The Bill was passed in this House a year or two ago and was rejected by the Senate. It was at the close of the Session, and, with all due respect, perhaps they did not quite apprehend the scope of the measure. A similar measure has been passed in England, and it is a very reasonable proposition. In England, in Ontario, and, Iffhink, in the other Provinces, there is a law that parties in civil cases shall be competent witnesses ; yet, if the case is brought to test, the right to shut up aroad or a bridge, where a man’s property may come into question, if it is brought in a Criminal Court, under an indictment, parties at present are shut out from giving evidence in their own behalf.
House resolved itself into Committee.
(In the Committee.)
On Section 1,
Mr. McOARTHY : The Committee will understand that it is simply intended to strike out the proviso in the clause now in the Statute, which seems to me to be illogical and inconsistent with the whole purport of the Act. The proviso is that, in the event of a Judge, at the conclusion of a trial, thinking that there is not evidence of a common assault, the defendant may be called to give evidence, but this proviso shall not apply to a case where the trial is by jury. I propose to add another clause, making it read ‘‘assault and battery,” instead of “common assault,” as it stands now. There is hardly ever a charge of common assault; the offence is generally characterised as “ assault and battery.” I have one or two letters drawing attention to this defect in the law. One case was of greatffiardship—the defendant was charged with kissing a young woman, and it was said that that was something more than a common assault, it was an every day assault, and the defendant was not allowed to explain that it was not a battery.
Sir JOHN A. MACDONALD: An electric battery.
Mr. BLAKE: If I remember aright, when the measure came back from the j
Select Committee, the suggestion was that, in cases in which the Judge was trying a case without a jury, if he determined at a particular stage that the case was no more than one of common assault, being able to determine the [question of fact as well of law, he could then admit the evidence of the other party. But the Committee appeared to be then of the opinion that there would be difficulty in carrying that out where the case was to go to a jury, unless the Judge was in a position to treat the case as if there were two different counts, one for the aggravated and one for the smaller offence, and to direct a verdict for the defendant on the former, and thus leave to the jury only the latter. The case of common assault was that alone to which it was intended by the Committee the provision should apply, and the question is how that difficulty is to be met, because I believe the law is such that a man can be found guilty of the minor upon an indictment for the major offence, so that there is no power to direct a verdict for the defendant on the major, and then have a separate trial, as it were, for the minor offence.
Mr. McCarthy : No doubt the hon. gentleman is quite right—technically speaking, that is to say. But I do not think such a case ever occurred of a jury finding a party guilty of a major offence after the J udge told them there was no evidence. In practice, I do not think such a case was ever heard of. The result is this : the Bill is sent to a grand jury, including something more than a simple common assault, and the line is very narrow. I dare say one grand jury out of ten does not see the defendant, yet, if the party’s mouth is to be closed, great injustice is done him. There is no pretence of anything but a common, assault. The Judge is clear on that point, and the Crown officer submits to it, yet the party cannot give evidence.
Mr. GUTHRIE: Technically, there may be something in the objection referred to by the hon. member for West Durham (Mr. Blake), but in practice I do not think a jury would convict a man of a graver offence if the Judge charged that the evidence supported nothing but common assault. It was suggested at the time the Bill was under consideration that the defendant might himself by his own evidence make out a greater offenee than common
602	Stock Brokers
assault, and that the Judge, having heard his evidence, might leave the whole case to the juiy, and the jury might convict the man. That, I think, was the course of reasoning in the Committee which led to the insertion of the proviso, contrary to my opinion. I am in favour of the amendment proposed by the Bill of the hon. member for North Simcoe (Mr. Me-Oarthy).
Section agreed to.
On Section 2,
Mr. MCCARTHY moved to insert the words “ assault and battery.”
Mr. I YES : Practically I do not think there is much danger of a jury, in spite of the Judge’s charge, returning a verdict for the greater offence. We often know of juries who do not find the greater offence where the Judge charges it, but I have never known a case where they have been more severe upon a prisoner than the Judge has been in his charge. But, if such were the case, if the man was examined and the jury, seeing him and hearing his story, find him guilty of the greater offence, I can see no objection, for there must be something about him to warrant such a verdict.
Section, as amended, agreed to.	'
Bill, as amended, ordered to be reported.
House resumed.
(In the House.)
Bill, as amended, reported.
STOCK BROKERS REGULATION BILL.— [Bill 42.]
(Mr. Girouard, Jacques Cartier.)
SECOND READING.
Order for second reading read.
Mr. GIROUARD (JacquesCartier) : This Bill is about the same ok the one I had the honour of introducing last Session; that Bill reached its second reading, and was referred to the Committee on Banking and Commerce, and, considering its importance, it was decided there to defer its further consideration until the present Session. In obedience to the order of the Committee last year, I now present this Bill to the House. It is well known that there are two Stock Exchanges in operation to-day in this Mr. Guthrie.
Regulation Bill
Dominion. There is one in Montreal called the Montreal Stock Exchange. It was incorporated in 1874, under an Act of the Quebec Legislature. Another was incorporated about the same time, known as the Montreal Open Stock Exchange, but it ceased to be in operation some years ago, owing to a resolution of the Board of the first Exchange ordering the expulsion of any member who had any dealing with this Open Stock Exchange. There is also another Exchange in the city of Toronto, known as the Toronto Stock Exchange. These two Exchanges deal especially in Canadian stocks, rarely have they any transactions in foreign o. Dominion securities, but generally in bank and other like stocks, such as those of the Montreal and the Dominion Telegraph Companies’ stocks. It might reasonably be supposed that, when a broker is entrusted with the sale of shares he should act simply as an agent, that he should have no interest at all in the transaction beyond his commission and the interest of his client. It is well known, however, that in many cases the stock-broker buys for himself stock which he has instructions to sell for another party. It is well known that stockbrokers deal and speculate in stocks for their own profit. One of the Toronto brokers admitted last year, before the Committee on Banking and Commerce, that, when they had no transactions from outsiders, they operated themselves to keep up the market. It is also known that the operations of these brokers are secret. Their doors are closed, and no ordinary mortal has any access to their proceedings. The result of these speculations and combinations among brokers has been great depression in hard times and great inflation in times of prosperity. The following figures will show that beyond a doubt. I find in 1872, a time of great inflation, the following quotations, which speak for
themselves:—	Brokers’	Directors’
	value.	value.
Bank of Montreal....	.... 271	150
Bank of Toronto....	.... 192	140
Merchants’ Bank....	.... 133	118
The following figures, which give the* standing of leading stocks in March, 1879, are also remarkable:—
[COMMONS.]
60S
Stock Brokers	[Mabch 11, 1880.] Regulation Bill
Valuation
according to Stock last report Exchange
of Directors, quotation.
Bank of Toronto, about..	150	117
Consolidated Bank, about	107	46
Ontario Bank, about...... 104	63
Molson’s Bank, about....	120	76
People’s Bank, about..... 108	50
Union Bank, about........ 101	53
Exchange Bank, about....	105	55
Merchants’ Bank, about..	109	79
I propose by this Bill to put an end to the operations of brokers as far as they are personally interested. In England, under the new regulations, they have what are called stock-brokers and stock-jobbers. The stock-broker is merely an agent while the stock-jobber has the privilege of speculating for his own profit. By the first clause of this Bill it is enacted that brokers shall be licensed by the Board of Trade. By the 2nd clause it is provided that stock-brokers shall disclose the names of their principals except in the case of bank shares, which are regulated by a special Statute passed last Session. This enactment is necessary, because a broker, being commissioned to sell a certain number of shares, reports he has disposed of the shares without giving the name of the purchaser. In some cases the purchaser is the broker himself, and, under this provision, these transactions will become impossible, at least it will be checked to a great extent. The 3rd clause provides that brokers shall not be interested in the operations of the Board :
“ No stock-broker shall be personally interested in any such contract, either as seller or purchaser, directly or indirectly; nor shall directly or indirectly operate, deal or speculate for his own account or profit on any stock exchange or elsewhere in such stocks or securities, either in his own name or by and through the agency of an intermediate party.”
By the 4th clause I have endeavoured to put down short sales, or sales for future delivery. The Banking Act of last Session has special enactments about short sales of bank stock, but it is perhaps not known that the Montreal Stock Exchange recently passed a resolution not to comply with the law, declaring in fact that in the case of a sale of bank shares for future delivery the seller shall not be obliged to give the number of shares. Short sales on the Com Exchange need	not	to	be so regu-
lated. The intrinsic value of wheat, corn and grain generally is known to the world.
Parties interested in that article do not depend on the quotations of the Montreal Com Exchange. They have the reports of the Liverpool, Chicago and other markets. But, in the case of Canadian joint stock, or bank stock, there are no quotations outside of Canada, and the shareholders, seeing the quotations of the Stock Exchange in. the daily papers, are sometimes alarmed and misguided, and they may thereby be induced to sacrifice their property. This is an important reason why clause 4 should be adopted. It reads as follows:—
“All agreements for the future sale or delivery of shares, stocks or securities, of which the seller is not actually possessed in his own right, at the time of making such agreement, shall be absolutely null and void as to all parties and to all intents and purposes,”
Section 5 says :
“ No broker shall receive double brokerage or commission—that is to say from both seller and buyer—but from the seller ®r buyer employing him only, and in no case shall he demand or receive for his services any larger sum of money than the amount of the usual brokerage or commission.”
The 6th section provides that :
“ Every contravention of any of the pro visions of this Act shall subject the offender to a penalty of not less than $100 andfnot more than $1,000 for every such contravention or offence, payable one-half to Her Majesty and the other half to the private prosecutor, which said penalty or penalties shall be recoverable by suit in any Court having jurisdiction to the amount of such penalty, and by distress of the goods and chattels of the defendant, and, in case of their insufficiency, the offender may be imprisoned for a term not exceeding one year, as the Court may arder, unless the penalty and costs be sooner paid.”
And in certain cases, where the broker shall make short sales,or exact more than the commission from his principal, it provides that he shall be subject to the forfeiture of his license. The 7th section is an important one. The Montreal Stock Exchange, some months ago, a short time after the Banking Act was passed, consented to admit the public to their rooms, not for the purpose of transacting business, but with a view of enabling them to see what wag going on. The section will make this inclination of th® stock exchange imperative. It says :
“Every stock exchange shall be open, and suitable accommodation for the public shall be provided in every stock board-room, or place
004	Stock Brokers	[COMMONS.]	Regulation Bill.
where brokers meet to transact their business ; and any person who shall aid or abet in excluding the public, or any individual whomsoever, from any such exchange, stock board-room or place, without just cause, shall be guilty of a contravention of this Act. ”
Section 8 has been introduced to meet an objection that was made in England when similar provisions were in existence. In the time of Lord Kenyon, some 200 quitam suits were instituted with a view of fining some stockholders who had acted in contravention of the provisions of the then existing Statute (7 Geo. II, cap. 8), but'they all failed, because the operations of the brokers were held to be “ privileged.” It is proposed to meet this difficulty by section 8 :
“No person shall be excused from answering any question put to him in any suit brought under this Act, on the ground of any privilege, or that the answer to such a question will tend to criminate him, bat no such answer shall be used in any criminal proceeding against any such person, other than an indictment for perjury.”
The general character of this Bill is not new ; similar provisions were in force in Great Britain for 125 years, and they are to be found in all countries where stock exchanges or “ bourses” are in operation— Paris, Amsterdam, Frankfort-on-the-Main, Berlin, Vienna, St. Petersburg, etc. It can easily be imagined that in England stock-brokers grew with the Bank of England, which was established in 1694. The first English Stock Exchange seems to have been open in 1773. But as early as 1700, when brokers used to do their business on the street, we are told by Fenn that “ a strong feeling was aroused against stock-jobbing, which was denounced as a public nuisance.” It was about that time that Sir William Temple thus defined the stock-broker—a	definition which has been
preserved by Webster—and which is unfortunately too true in many instances in our days :	Stock-brokers,
who having no stock of their own, set up and trade with that of other people, buying here and selling there, and commonly cheating both sides, to make a little paltry gain.” In 1734, an Act (7 Geo. II, Cap. 8) was passed to put an end to what was then publicly called “ the infamous practice of stock-jobbing.1' The first clause enacts that:
“ All wagera and contracts in the nature of wagers, and all contracts in the nature of pats
Mr. Gibouabd.
and refusals, relating to the then present or future price or value of any such stock or securities, as aforesaid, shall be null and void to all intents and purposes.”
Clause 4 decrees a penalty of £500 on making or executing “ any such puts or bargains.” Another penalty of £100 is imposed upon any person “ giving or receiving money to compound differences relating to stock not actually delivered.” A penalty of £500 is also inflicted upon any broker or person “ buying or selling stocks of which they are not actually possessed at tbe time of the contract.” Clause 9 provides for the keeping of a brokers’-book or register, under a penalty of £50. This Statute was enacted for three years only; but its provisions were found so wise and necessary that they were made permanent by a subsequent Act (10 Geo. II, Cap. 8) and remained in the Statute-book of Great Britain until the year 1860, when they were repealed as being “ unnecessary restrictions” (23 Vic., Cap. 28). Yet the London Stock Exchange remained subject to special regulations, which were promulgated in 1818, and which will be found in Bussell on Factors and Brokers, page 213. These regulations were of a municipal character, the London Stock Exchange being dependent on the municipal authority of the corporation of that city. They were about the same as those contained in the Statute of 1734, and further provided for the licensing of brokers under certain conditions, and, among others, the giving of a bond, taking of an oath and the promise “ directly or indirectly, by himself or any other, not to deal for himself or any other broker in the exchange or remittance of money, or in buying any tally or tallies, order or orders, bill or bills, share or shares, or interest in any joint stock to be transferred or assigned to himself or any other broker, or to any other interest for him or them.” These municipal regulations or by-laws of the corporation of London were repealed in 1870, by an Act passed in that year by the British Parliament, and intituled “ The London Brokers’ Relief Act, 1870” (33 and 34 Vic., cap. 60). The stock-brokers did not, however, remain without some State discipline. A Statute passed in 1845, (8 and 9 Vic., cap. 109,) and still in force, declared that “ all contracts oi agreements
Stock Brokers	[March
by way of gamijig or wagering shall be null and void.” Under this Statute, the Courts in England have maintained that u time ” bargains, made with no intention to purchase or deliver shares, are null— (Fisher’s Digest, Gaming, p. 4179.) The Imperial Statute of 1845 is not in force in most of our Provinces, and the consequence has been that a different rule prevails with us (Baldwin vs. Bin-more, L. C. Jur. 297;	4 Moore
Indian Appeals, 339). The Criminal Law of England, which is also found reproduced in our Criminal Act of 1869, has also made it an offence for a trustee to sell to himself. However, England soon found out that these short and lenient limitations were quite inadequate. Gambling on the Stock Exchange became more alarming, and in 1867 Parliament thought it expedient to interfere and “ make provision for the prevention of contracts for the sale and purchase of shares and stock in joint-stock banking companies, of which the sellers are not possessed, or over which they have no control,” and ordered “ that such contracts shall be void, unless the members by which such shares are distinguished are set forth in such contracts.” —(30 Vic., cap. 29.) The provisions of this Statute, as far as bank shares are concerned, were introduced into Canada by the Banking Amendment Act, passed last Session. But, of course, in London, as in Montreal, means were found of evading the law. Stock-gambling is practiced more than ever. Doubts were even expressed whether the Criminal Law reached the operations of these trustees or agents. In 1877, Sir George Campbell, from his seat in the Commons, asked the Secretary of State for the Home Department “ whether, with reference to the serious division of opinion among the Judges on the question whether Stock Exchange practices, which all consider to be dishonest and immoral in the highest degree, are punishable by the existing Criminal Law, and also to the opinion of the Attorney-General, that it is no part of his duty to initiate criminal proceedings against the promoters of companies, the Government are still considering the expediency of strengthening the law dealing with financial and commercial frauds, and of appointing a public prosecutor, who may deal with the delinquencies
11, 1880.] Regulation Bill. 605
of the rich as effectually as the police deal with those of the poor ?” To this query, Mr. Assheten Cross replied, ‘ ‘ that the hon. member must be aware that a Commission had been very lately appointed to enquire into the whole subject. He was bound to say that, under the circumstances, it would be wise to wait for their report before any such steps as those suggested were taken. ” Although this report has been made, denouncing, in the strongest language possible, the practices	of
Stock Exchanges, no action, at least as far as my knowledge goes, has been taken by the British Government. In the meantime, public opinion is more and more growing against the evils complained of. In an able article written in Fraser’s Magazine for April, 1879, the great commercial crisis from which Great Britain has been suffering is attributed partlyand firstly “ to the gambling spirit of the English people, fostered by laws which encourage that vice in high places. It is but the naked truth,” continues the writer (Mr. E. A. Ryder) “to say that the Stock Exchange is a legalised and enormous hell. Statistics cannot be given, but it may not be unfairly affirmed that of the transactions in the Stock Exchange nine-tenths are illegitimate, that is, do not result in the transfer of sureties from seller to buyer. ‘ Contango,’ ‘ differences,’ and the other terms in use, clearly indicate that the business is as purely gambling as to stake at rouge et noir.” The Times of the 18th April, 1879, under the heading of “Monte Carlo,” has the following remarkable observations: —
“ The real strength of Monte Carlo consists in the weak points of European morality. The Prince of Monaco has only to point to the Stock Exchange of every European capital, where, every year, there is twenty times as much real gambling, under the name of speculation, as there is at Monte Carlo. For one simpleton who has lost a few hundreds at Trente et Quarante and disappears from society, he could point to the thousands that risk all and more than they have in time bargains, and ruin not only themselves, but their creditors, and, worse than that, the relatives upon whose natural affection they work to make good their losses. Enormous as the scandal of Monte Curio is, it can bear no comparison with the shrines of Fortune thinly disguised with a commercial character. The ruined gambler of the Casino throws himself into the Mediterranean, or publicly executes himself at the tables, or otherwise acknowledges the criminal character of his
606	Stock Brokers	[COMMONS.]	Regulation Bill.
position. The English, French, or German speculators for the advance or fall have no more real grounds for their presumption than the man who plays Roulette on a * system ; ’ hut they are not ashamed of themselves when they lose all. They throw themselves, not into the sea, but on their creditors or their friends. There is no hypocrisy about Monte Carlo. It does not hide its shame or cloak it with fair pretences. It is gambling, nothing more or less, with the usual accessories of ill-got wealth. That there is a controversy at all, and that preachers dare to be open-mouthed about it and to denounce it with no uncertain sound, is so much in its favour. They are not so courageous or so plain-spoken about the far more potent and extensive mischiefs that we have lately seen wrought at home by respectable and religious men.”
Mr. Arthur Crump, a distinguished writer on finance, and the editor of the monetary column in the London Times, has been asking himself this very pertinent question in his recent work entitled, “A New Departure in Political Economy.” To use the language of the Montreal Gazette, of the 24th March, 1879, in quoting him I with evident pleasure, Mr. Crump predicts the approaching disappearance of brokers as a class and the conversion of their present mischievous activity into labour useful to the community. “ Reflecting,” continues the Gazette, “ upon the enormous development of this activity in Montreal, no member of this broker-infested community can fail to utter a sigh of relief at the prospect, however dim, of so happy an ending in the future to the troubles of the present.” But, to come to Mr. Crump, he describes some classes of society who are useless to the commercial system, and in this connection he says :
“All kinds of brokers com# under the same category. They consume more and produce less than any other section of the working community. What they save counts for very little, because it is no real saving. What they save is simply filched from the hard earnings of others, a portion of which they should have saved themselves. It is proverbial that money easily gained is rapidly spent. There is no class in the community which really dees so little for the benefit of their fellow-creatures in the way of honest hard work as the broker middlemen class, and none which is so pretentiously ostentatious of their means, Consumers of luxuries in an undue proportion, who are not at the same time good workers, are a direct loss to society. We are of opinion, therefore, that no class can be so well dispensed with, and is being so economical^ and efficiently replaced, as the body of middlemen, and that their removal to a sphere in which a good day’s work will be got out of them is a permanent, direct and indirect, gain to consumers as a body. ”
Mr. Girocard.
I am not so hopeful as Mr. Crump, or the editor of the Montreal Gazette; but I believe that prohibitory measures would tend to check the operations of these aristocratic gamblers. The restrictions I am endeavouring to introduce are those which had the sanction of ages not only in Great Britain, as we have seen, but also all over Europe, in France, Germany, Russia, in fact every place where a Stock Exchange exists or has existed. In France, for instance, the stock-brokers are licensed by the State ; in Holland they are nominated by the municipalities of the locality; in Germany they are appointed, in some places by the Boards of Trade, and in some other places by the Magistrates; everywhere a control is kept over them by the State or the citizens. In every country the broker is also bound to keep a register of his operations, and to give a true and correct copy of his entries to his principal. He is likewise prohibited from dealing for his own profit on any Exchange, and as far back as 1673 we find in the celebrated Ordinance of Louis XIV of that year, an express prohibition to be engaged in any trade or commercial business whatever. Brokers are also bound to disclose the names of their principals. Generally, Stock Exchanges ara open to the public, and I believe the same rule prevails in the New York Stock Exchange. (See de Saint Joseph, Concordance des Codes, page 18, and following; Rothschild, Dictionaire d’Economie, page 226). My Bill does not go beyond these regulations, and I hope it will receive the favourable consideration of this House. Its subject is of the greatest importance, and I hope will be considered with impartiality and fairness, free from outside pressure or influence, without prejudice, and especially without sympathy for the class of men it deals with, who generally, as everyone knows, are highly respectable, personally, and very pleasant members of our society.
Mr. MACKENZIE : I presume it is intended to send this to the Committee on Banking and Commerce ?
Mr. GIROUARD : Yes.
Mr. MACKENZIE : I do not choose at the moment to oppose the Bill as I am quite willing to have it discussed. One of the provisions of the Bill is that no one shall act as a stockbroker “ in any manner whatever,” and
Maritime Jurisdiction
that if he should do so he will be subject to a fine of $1,000 and imprisonment not exceeding one year, if he fails to pay the fine. Now that clause, and some other clauses of the Bill will, in my opinion, be impracticable. Anyone in business might often act as a stock-broker. He might be an agent for the exchange of securities, even if his business is not that of a stock-broker, and I do not think this House can control such liberties. If anyone thinks fit to carry on stockbroking, I think he might do so without our license or authority, and I am of opinion that in law any restriction of this liberty is wholly inconsistent with that freedom which we enjoy in this country. The Local Legislatures in Ontario and Quebec have authorised the establishing of Stock Brokers’ Associations. Now, what right have we to say that they shall not act in that capacity. We are endeavouring to impose disabilities on people over whom we have no control whatever. The 8th section of this Bill provides that no one shall be excused from answering any question put to him, but that no such answer shall b» used to criminate him in a prosecution other than in an indictment for perjury. Now, a question may be put, and a person be compelled to answer, even if the answer would tend to criminate him in an indictment for perjury. This is a monstrous clause to put in a Bill, and one which should not be entertained, no matter under what pretence. I have, however, no objection to some of the provisions of the measure, if we can enact them. I think something in the way of legislation should be done in regard to stock-broking, so far as we can control it. I admit some of the evils of stock-broking as sometimes carried on, and any measure we can adopt that will put an end to these evils I shall be willing to consider But this Bill is wholly inconsistent with the^powers under which we legislate, and entirely inconsistent with that personal liberty which is above all Constitutions.
Mr. GIIiOUARD : I wish to say one or two words in answer to the hon. gentleman’s remarks. First, as to the question that we have no jurisdiction to regulate Stock Exchanges. It has been alleged that they have been authorised to carry on business in the Provinces of Quebec and Ontario. They have no such
Act Amendment Bill. 607
power under their charters. The only power they have is to hold real estate, and, in fact, no Local Legislature has any jurisdiction to authorise stock-broking. This Dominion Parliament has exclusive jurisdiction in matters of commerce and banking, and, even if the Local Legislatures had conferred the alleged privilege, the Statutes conferring it would be ultra vires. It is said that this Bill or some of its provisions are in restraint of trade, an infringement of the liberty of the subject. Now, it is not the first time that this Parliament has introduced Bills restraining trade and the liberty of the subject. Have we not laws punishing common gambling, frauds and crimes generally, which are all restrictions on the liberties of the subject 1 To be short, all prohibitory laws are restrictions upon the liberty of the subject, as the hon. gentleman calls it. If it is right to prevent by legislation common gambling at a horse race or in a public house, it should be likewise lawful, just and wise to suppress gambling in bank stocks and high spheres of life and business. The next point was with regard to the preventing of a witness from making certain disclosures. That is said to be extraordinary, but it has not been found too extraordinary to have been already placed in our Election Law, under the very auspices of the hon. gentleman, when leader of the Government of this country. I do not think that this Bill is too strict. I believe that something should be done in the direction of the Bill; I am willing to concede that it may not be perfect in its details, but when the Bill will be in Committee, any reasonable suggestion that may be made will be accepted with pleasure.
Bill read the second time.
TIMBER TRANSMISSION COMPANIES
ACT AMENDMENT BILL.—[Bill48.] {Mr. White, North Renfrew.)
SECOND AND THIRD READINGS.
Bill read the second time, considered in Committee of the Whole, reported, read the third time and passed.
MARITIME JURISDICTION ACT AMENDMENT ACT AMENDMENT BILL.
[Bill 52.]
[Mr. Shaw.)
SECOND READING PROPOSED.
Order for second reading read.
Mr. McLENNAN : It will be observed
[March 11, 1880.J
Act Amendment Bill.
608 Maritime Jurisdiction [COMMONS.]
that this is a Bill to repeal the second section of an Act which in itself repealed some of the provisions of an important Bill —the Maritime Jurisdiction Act of 1877. When the Bill was passed providing for the establishment of that Court, I had not the honour of being in this House, but I quite believed that the Court was not necessary, and I think it was stated in Parliament then that the Court could only provide remedies that could already be provided in the then existing Courts. I think, with the feeling we have to-day, we do not want two Courts where one can serve the purpose. In this particular case I think it has been found that the Court is simply an obstruction to the business of transportation. The clause proposed to be repealed reads thus :—
“No right or remedy in rem given by the said Act in respect of claims for tonnage or claims for damage by collision by any ship shall be enforced as against any bona fide mortgagee whose mortgage is duly executed and registered at a port of either of the Provinces of Ontario or Quebec.”
This does net prevent a suitor from obtaining his remedy in either of those cases ; it simply provides that a security shall be held just as it was held previously to 1878. It was to be a registered security, and not to be interfered with in the Maritime Courts. This matter was argued at length last year, and I need not go over the same ground, but I may state that in my opinion the proposed repeal will give no advantage to any parties who ought to be protected in their claims against the vessel. There is a class of people in all seaports who take a great interest in the navigator, who are very much interested in sailors’ earnings. Their office is generally to supply his wants, but more particularly to supply his drink, and their interests are generally in conflict with the business of public carrying. Those are the persons who have the greatest interest in the existence of the Maritime Courts. I regret the failure of the motion last year to repeal the entire Act; but, having obtained a repeal of two of its clauses, I think we should now be travelling backwards unwisely to restore them. I deprecate anything like violence even to so small a work of man as this little Bill, and would prefer if my hon. friend from South Bruce (Mr. Shaw) would withdraw it;
Mr. McLennan.
otherwise I shall move that it be not now read a second time, but that it be read a second time six months from today.
Mr. McCALLUM : The hon. gentleman says the present Bill is not necessary to protect sailors in their rights. I do not agree with him. If the clause in the existing case is not repealed, sailors would have to send to the port of registry to ascertain if there was a mortgage against the vessel in order to know whether they S could collect their wages. Before the (enactment of the law, I have known American vessels change owners in order to get rid of their indebtedness to Canadians, and I think the repeal of the clause would be a great benefit to our people. The thanks of the country are due to the late Government for their action in this matter. Our vessels are principally engaged on international waters. As I understand the law, if a Canadian vessel damages an American one, the owners of the latter can come into our Courts and collect the full amount of the damages if the Canadian vessel and her owner are worth the amount; but if an American ship damages a Canadian one no greater amount can be recovered in an American Court than the value of the vessel, although she may have done damages to ten times her worth, and her owners may be good for it. No honest man should have any objection to this Act, which is necessary to protect the interest of the sailors. I move the adjournment of the debate.
Motion agreed to, and Debate adjourned.
House adjourned at
Six o’clock.
HOUSE OF COMMONS.
Friday, 12th March, 1880.
