 at Three o’clock.
Prayers.
COMMUNICATION FEOM HIS EXCELLENCE
Mr. SPEAKEE informed the House that he had received from the Governor General's Secretary, the tollowing letter:—
Ottawa, 19th March, 1881.
Sir,—I have the honor to inform you that His Excellency the Governor General w 11 proceed to the Senate Chamber to prorogue the Session of the Dominion Parliament, on Monday, the 21st instant at 3.30 o’clock.
I have the honor to be, Sir,
Your most obedient servant,
F. de Winton, Lt.-Col. R.A.,
Governor General’s Secretary.
The Honorable
The Speaker of the House of Commons.
• PAYMENT OF SESSIONAL INDEMNITIES.
Mr. MoINNES. With the permission of the House, on this the last day of the Session, I beg to move :
That in the opinion of this House, it is expedient that the full Sessional allowance be paid F. J. Barnard, Thomas Scott, and Robert Doull, members of this House, in view of the fact that they were unavoidably prevented by illness from being present during the early part of the Session.
I may say, in connection with Mr. Barnard, that he was, unfortunately, ill for a number of months before the House was called together. Even when he left his home, on the 3rd of January, he was not sufficiently recovered to come over here alone, and was compelled to bring his wife with him, thereby causii g him increased expense. I believe the circumstances connected with the case of Mr. Scott are similar. He unfortunately met with an accident a few days before the opening of the Session. I leave the House to say whether, in their opinion, it is not just that the hon. members who have the misfortune to be ill at home should he paid their full Sessional allowance. It is a misfortune for an hon. member to be ill anywhere, but I do not know the country will derive any more benefit from their being ill here rather than at home. I find in the Journals of 1874, on the motion of Sir John A. Macdonald, seconded by Mr. Holton, it was resolved:
“ That the Accountant of this House be authorized to pay to Joshua Spencer Thompson, Esquire, member for Cariboo ; to A. B. Borron, Esquire, member for Algoma; to Lewis George Harper, Esquire, member for Gaspe; and to St mislas F. Perry, Esquire, member for Prince, the full amount of their indemnity as if they had been present and taken their seats in the House on 20th of March Iasi, under the special circumstances connected with the election and return in these cases.”
I find again that on 11th April, 1876, the following resolution, moved by Mr. Holton, seconded by Mr. Langevin, and resolved :—
“ That under the special circumstances of the case the Speaker be authorized to cause the full Sessional allowance of Mr. Ross, member for the? West Riding of the County of Middlesex, to be paid as if he had been in attendance from the beginning of the Session.”
I believe, in that instance, Mr. Eoss was only a few weeks here, whereas the hon. members on whose behalf I have moved were here over two months. I find on 9th May, 1878, it was moved by Mr. Dewdney, seconded by Mr. Plumb:—
u That the Accountant of this House be authorized to pay to T. R. Mclnnes, the newly elected member for Westminster, the full amount of his idemnity as if he had been in attendance in this House for the full cumber of days of the Session.”
185
Under these circumstances,! trust the hon. gentlemen mentioned in my motion will receive their full Sessional indemnity.
Sir EICHAED J. CABTWETGHT said the motion was out of order.
Sir JOHN A. MACDONALD said that if this motion was out of order, a similar objection must have applied to the granting of the full Sessional indemnity to the hon. member for West Middlesex (Mr. Eoss) a few years ago, which was unanimously agreed to by the House. The present motion was merely an expression of the House that it is expedient that those hon. members should receive their full indemnity.
Mr. SPEAKEE. I decided the other day that the House could not pass such a motion. If that motion is carried the Sessional allowance will have to be paid.
Sir JOHN A. MACDONALD. May says:
“ But the rules applicable to grants of money, and motions for increasing the burdens upon the people do not apply to resolutions expressive of any abstract opinion of the House upou such matters. Such resolutions have been allowed upon the principle that not being offered in a form in which a vote of the House for granting money, or imposing a burden, can be regularly agreed to, they are barren of results, and are therefore to be regarded in the same light as auy other abstract resolution.”
I notice that under that rule resolutions upon the following subjects, among others, were allowed: Prince of Wales, 24th May, 1787. National monuments and works of art, 16th April 1818. Danish claims, 9th June, 1'41, 26th June, 1851. Scotch inspectors and surveyors of taxes, 23rd June, 1857. Eiver Thames (amendment on going into Committee of Supply;, 9th July, 1858. National defences, 9th July, 1859. Eecreation grounds, 15th Mav, 1860. Harbors of Eefuge, 6th May, 1862. Sailors’ Homes, 24th April, 1863. These expressions of opinion by the House that certain things are expedient have nothing to do with consequences, they are barren of results, and being so are allowed. As there is no clause in the motion that the Speaker ‘‘ shall be authorized” to order the payment of a sum of money, I think the motion can be regarded as an expression of opinion merely.
Mr. SPEAKEE. I think it can scarcely be held that the motion would be “ barren of results,” as it would certainly contemplate the payment of the indemnity, and, therefore, I must rule it out of order.
ME. PATRICK.
Sir JOHN A. MACDONALD. I wish to make a statement to the House upon a matter in which I think the House will take an interest. I have been guilty of an omission for which I take some blame to myself, as I intended to have submitted this matter to the attention of the House at an earlier day in the Session when there was a full attendance of members; but the pressure of other duties and the hurry of the Session caused it to be overlooked. I had intended to ask the House to have recognized, as I knew it would most thoroughly, the efficient services of an old officer of Parliament—I mean the late Clerk of the House. Mr. Patrick has served aB an officer of this House in various capacities for a period of more than half a century—having been an officer of the Assembly of Upper Canada, and he has performed his various duties with the highest integrity and efficiency. In England it has been usual and pi-oper, when a parliamentary officer is retiring after long services, that the House should specially recognise the services of that offioer, and the Clerk and the Clerk Assistant in England have received official recognition of their services. I intended to have moved a motion expressing the recognition of the House of Mr. Patrick’s long and faithful services, and I have no doubt that the leader of the Opposition would have.
1464
COMMONS DEBATES.
geconded that motion with pleasure. It would be of no value to the late Clerk if I should move the motion (at this stage of the Session, when there is merely a fragmentary representation of the House present, and I have risen simply for the purpose of stating that it is my intention, next Session, to move a resolution that the House approve of Mr. Patrick’s conduct as an officer of the House, and express their recognition of his long and valuable services.
Sir RICHARD J. CARTWRIGHT. I have no doubt that when the hon. gentleman moves his motion it will meet with a tolerably unanimous expression of approval on this side. Those of us who have long been members of the House remember with pleasure the assiduity and courtosy with which Mr. Patrick always discharged his duties which at one time were even more onerous than the somewhat onerous duties we have gone through this Session. Very few of the officers of Canada, I think none except Mr. Patrick, have lived to complete more than half a century’s service; I am glad to hear the First Minister express his sense of those services and his intention of giving public recognition of them at the proper time. I quite agree with him that it would be better done when the House is full, because I am certain many members on both sides would desire to give public expression to their sentiments of esteem and respect for that very excellent officer.
OFFICIAL REPORT OF THE DEBATES.
Mr. WHITE (Cardwell), in moving the adoption of the third report of the Committee appointed to supervise the official reports of the Debates, said: This report is in favor of the employment of amanuenses by the reporters. This system has been found absolutely necessary in every other place where there is an official staff for reporting (he Debates. The difficulty that occurred this year has been in the reporters being obliged to go out from the table into the office, there writing rapidly for a time, and returning to the Chamber somewhat exhausted, and thereby unable to take shorthand notes so perfectly as they otherwise would do. The result is, that the copy sent to the printers has been bad, as a rule, and the printing has cost a good deal more, according to the Estimates, on account of corrections, than the cost of these amanuenses will be. The effect of this system will be to enable the reporters to do their work much more efficiently, and really to lessen the expense at the end by the improved character of the proofs that will be brought to the hon. members.
Sir RICHARD J. CARTWRIGHT. This seems to me very reasonable. I would ask the hon. gentleman, as he is better acquainted with these matters than most of us, if it is an easy matter for an amanuensis to read the shorthand notes of another reporter? I havealways understood it was not.
Mr. WHITE. The amanuensis does not read the note’s at all. Every one who knows anything about the matter at all is aware that the reporter is delayed very often in reading over his notes by the difficulty of making them out, but by having an amanuensis who writes from dictation, the reporter is enabled to read more rapidly and gets the work better done, as well as being more fresh to do note-taking. It is proposed to pay the amanuenses $12 a week. Payment will be made direct to them, as it was suggested that if the money were paid to the reporters, they miglit take it and add it to their salaries.
Mr. KIRKPATRICK. I am told by some persons, who have a better knowledge of these matters than myself, that the expense of employing an amanuensis for each reporter will exceed the cost of employing an additional reporter to do their work. If the present staff has too much work to do, it would really be cheaper to Sir John A. Macdonald.
March 19,
employ an additional reporter instead of employing an amanuensis for each reporter. This secretary becomes an employe of the House, and in a short time his salary will have to be increased. It will add to the number of the staff, and must inevitably increase the cost of reporting in a short time.
Mr. WHITE. I may mention that the person who gave my hon. friend that information is incorrect iD one respect. An additional reporter would not relieve the staff from that physical exhaustion which comes from the drudgery of writing out the notes rapidly in the time they have before returning to the table to take shorthand notes. It is the labor of writing out their notes which makes it difficult for them to take the shorthand notes as well as they would otherwise do. In Washington, where the staff is much larger than it is here, each reporter has an amanuensis, and some of them have two. The experience of those who are most thoroughly acquainted with this matter is, that if you add another reporter, that would not get rid of thg difficulty which, I think, will be avoided by this plan. Much of the cost of the Debates results from the bad copy which the reporters have sometimes turned out through physical exhaustion,
Mr. TROW. I would suggest that if additional reporters are added to the staff, one should be set apart expressly to report the speeches of the hon. member for Niagara (Mr. Plumb).
Mr. PLUMB. I “trow” not. I am very glad it has been proposed to relieve these heavily taxed reporters. I plead guilty to having done my share in taxing them in this House, and I feel, as a matter of conscience, that anything that can be done to relieve them, without increasing unduly the public burdens which my hon. friends opposite are groaning under, should be done. I think it is a step in the right direction. I do not agree with the hon. member for Frontenac (Mr. Kirkpatrick) that the difficulty will be remedied by employing another reporter. The staff this year have done their work, on the whole, in a satisfactory way, and as we have undertaken to have a correct system of reporting, I think that any reasonable means that will contribute- to that result, ought to be employed, or else abolish the Hansard altogether, and trust ourselves to the tender mercies of the newspapers, whose accuracy is proverbial!
Mr. STEPHENSON. I think the House will agree that the system adopted this year has proved more successful than any one anticipated it would be. As far as the expense is concerned, it is well known that the Session has been unusually lengthy, and the House has sat unusually late. So far as we have been able to ascertain, the work done by the reportei-s is without precedent in any other public body in the world. In the United States they have a far larger staff, and in England, though the system is not quite the ■ same, a far larger staff, relatively, is employed than here. The propositions contained in this report will vastly improve the system we have inaugurated. I do not think there can be any reasonable objection to the adoption of this report.
Mr. PATTERSON (Essex). I think the reporters of the daily papers in the gallery have more work to do than the Hansard reporters, and do it with greater efficiency, because they condense their reports. I think this proposal is the first step towards the abolition of the Hansard. We are now going to increase the expenses indefinitely. Next Session there will be an additional reporter, and he will have to have his amanuensis, and by-and-byo these amanuenses will have to have their secretaries, and in the end we will have a staff of reporters, amanuenses and clerks which will be so expensive and so unsatisfactory that it will have to be abolished.
1881
COMMONS DEBATES
1485
Mr. STEPHENSON. The $12 a week, which it is proposed to pay these amanuenses, is no more than the sum which is given to the messengers who carry the papers of the hon. member for Essex from here to the post office.
Motion agreed to.
ADJOURNMENT.
Sir JOHN A. MACDONALD moved :
That when this House adjourns to day, it stand adjourned until Monday at half past two p.m.
Motion agreed to; and (at 4:35 o’clock, p.m.,) the House adjourned.
HOUSE OF COMMONS,
Monday, 21st March, 1881.
