 at Three o’clock.
Prayers.
SUPPLEMENTARY ESTIMATES.
Sir LEONARD TILLEY presented a Message from His Excellency the Governor General ;
Mr. SPEAKER read the Message as follows :—
Lop.xe.
The Governor General transmits to the House of Commons Supplementary Estimates of sums required for the service of the Dominion for the year ending 30th June, 1882; and, in accordance with the provisions of “The British North America Act, 1867.” he recommends these Estimates to the House of Commons,
Government House,
Ottawa, 23rd February, 1882.
Ordered that the Message and Supplementary|Estimates be referred to the Committee of Supply.
THE CIVIL SERVICE OF CANADA.
Sir HECTOR LANGEYIN in introducing Bill (No. 36) respecting the Civil Service of Canada, said: Mr. Speaker, the Bill is intended to apply to the inside and outside services. The Civil Service, by this Bill, will be divided, as it is now, into two divisions : there will be the first or inside departmental division, and the second or outside departmental division. The inside division will comprise the officers at headquarters, the outside division will comprise the officers and servants outside the Capital. The Bill provides for the appointment of a Board of Examiners, who shall be authorized to examine all candidates for admission to the Service, and to give certificates of qualification to such persons as are found qualified, according to the regulations then in force. The meetings of the Board shall he hold at such times, and the proceedings thereof shall be governed by such rules, as may be decided by the Governor in Council. It is intended to fix the salaries of the examiners, when so employed, at 010 a day, and their travelling expenses; and if persons, as provided by the next clause, are employed as assistants for the examinations, they shall be paid $5 per day. The Board of Examiners shall sit at certain periods in the cities of Halifax, St. John, Charlottetown, Quebec, Montreal,Ottawa,Toronto, London, Winnipeg, and Victoria, and such other places as may be determined by Order in Council. The Bill provides that all appointments shall be during pleasure, and no person except a -Deputy-Head shall be appointed without a previous exami-Tnf10-n 1Q accor(^ailce with the provisions of the Bill.
. 0 Deputy-Head shall be appointed by the Governor m Council during pleasure, but may be removed for |
cause, and if so removed the cause shall be communicated to both Houses of Parliament at the next Session, within the first fifteen days. The salaries of the Deputies, by this Bill, are intended to have a minimum of S3,200, and a maximum of 04,000. The duties of the Deputy-Heads of the Departments are provided for by the Bill. In the absence of a Deputy-Hfad the chief clerk may be named by the Head of the Department to fill his office. The Biil provides for four classes of clerks: chief clerks, first class, second class and third class clerks. Under the law as it stands now, there are five classes besides probationary clerks, namely:, chief clerks, senior Beeond class, junior second class, third class and probationary clerks or fourth class clerks. We thought it would be better to have, besides chief clerks, only three classes: first, second and third. Chief clerks shall only be appointed, according to this Bill, by Order in Council, passed on the report of the Deputy-Head of the Department, concurred in by the Head of the Department, and after the salaries have been voted by Parliament. More than that, the party so appointed must have a certificate from the Deputy-Head of the Department, that he possesses the necessary qualifications. Hon. gentlemen will see that a great deal more power is given in this Bill to the Deputy-Heads than is given by the law as it stands. The salary of a chief clerk will be the minimum, 01,800, and maximum, 02,400, as at present. A first-class clerkship shall only be created by an Order in Council, based on a report ol the Deputy-Head, and concurred in by the Head of the Department, setting forth the reason for creating the office, and provided the salary has been already voted by Parliament. The salary will be $1,200 minimum, per annum. 81,800 maximum, which are the present rates. The second class clerkships will be appointed under a similar Order in Council, and with similar certificates. The salary will not be changed from what it is under the present law, 01,100 minimum and 01,400 maximum. The minimum salary-of third class clerks will be 0400, and the annual increase of 050 per year, up toa maximum of 01,000. We have combined in the third class the two classes that existed before, namely, the third class and a junior second class. No increase of salary will be given to any officer unless on a report by the Deputy-Head, concurred in by the Head of the Department. There is the right of suspension of the increase, and when restored the arrears are not to be paid to the clerk. The manner of paying it would be from the beginning of next quarter. The number of officers and servants of a Department shall be determined by an Order in Council as well as the appointments; and all vacancies, however occurring, shall be filled in the manner provided hereafter in this Biil. No person shall be appointed to the Civil Service until he has passed an examination before a Board of Examiners. The examination will be according to the class to which the applicant aspires, and must be preceded by a preliminary examination to ascertain whether the candidate possesses such knowledge of orthography and elementary arithmetic, and whether his handwriting is such as to justify his admission to the qualifying examination. When that preliminary examination is passed he must be submitted to an examination for the class to which he aspires. No person will be admitted to be a candidate until be has satisfied the Board that at the time appointed for such examination he will have attained the full age of eighteen years, and that he is free from any physical defect or disease which would be likely to interfere with the proper discharge of his duties; also that his character is such as to qualify "him f >r the Service. These examinations are open to all. but if the applicant wishes to be examined in English or in French, or in both languages, the examiners w 11 have to grant his request. Then the Bill provides the machinery for giving notice in the papers, &c. When the examinations have taken place the examiners will send a list of the sue-
ro
COMMONS DEBATES
February 23,
cessful candidates to the Secretary of State, provision being made for the publication of the list in the Official Gazette. The examination, of which I spoke just now, will apply to the messengers, packers and sorters in the first division, also to the third class clerkships and similar officers and employes in the inside and outside services. I need not go through the whole list. The mode of appointment will be this :
30. When it becomes necessary to make any new appointment to any of the classes to which is herein provided that first appointments shall only be after qualifying examination, such necessity shall be reported to the Bead of the Depaitment by his Deputy, and upon such report being approved by the Head of the Department, and after the salary to be paid shall have been voted by Parliament, the Head of the Department shall select and submit to tbe Governor in Council for probation from the lists of qualified candidates, made by the Board as aforesaid, a person fitted for the vacant place.
That person will be appointed after ho has passed this examination, and even then he is to be under probation for six months, and if during these six months the Head of the Department is not satisfied with him, he may be sent back and another appointment wiil take place in the manner in which the first was made. There is a provision also in the Bill by which an officer who has been so appointed, even after the six months but previous to the end of the year, should he be reported by tbe Deputy-Head of the Department a-* unfit for the service to which he was appointed, will be replaced by another in the manner provided by the Bill. If an officer is required in the Department for work requiring special qualifications, then the Bill provides for his appointment in the following way. For example, for an architect, or an assistant engineer, or an officer of that kind, the requisite qualifications for which arc not possessed by any person then in the service of that Department, the Governor in Council may select and appoint such person as shall bo deemed best fitted to fill the vacancy. Then about promotions in the Department:
33.	Promotion in either division of the Civil Service shall be by examination, under regulations made by the Governor in Council.
(2) Such examination shall be open to any person employed in the Department in which he vacancy to be filled by promotion exists (unless the Governor in Council shall otherwise order) in either division of the Service who holds a position below that to which the promotion is to be ma-te, arid—
(:J.) Shall be in such subjects as, after consultation with the chief officers of the Department in which the promotion is to be made, may be decided upon by tbe Board as best adapted to test the fitness of the candidates for the vacant office.
The Bill provides that once in a year there shall be an estimate made by the different Deputy-Heads of the Departments of the probable requirements, or number of vacancies to take place in their respective Departments during the year. Of course that will be, to a certain extent, approximate ; but the experience of the past few years will certainly show them what is likely to be the probable number to be provided for during the year.
34.	(2) To the number so estimated shall be added such further number as the Deputy-Head may deem necessary to compensate for any failure of health, death, or other contingency; and a similar estimate shall be made, at the Bame time or times, of the number of vacancies likely to occur in the second division, to which promotions can be made. The numbers so estimated shall be those with reference to which the examinations for promotion shall be held.
Notice will be given in the Official Gazette of the vacancies likely to occur in the Departments, and the candidates may come forward and pass their examinations at the places fixed by the notice in the Gazette. The Board will be bound to make a list of those who are competing for promotion, and send it to the hon. the Secretary of State.
36. When any vacancy occurs in one of tbe higher classes, in either division, the Head of the Department shall select from the lists made, as herein directed, for promotion thereto the person whom, having due reference to any special duties incident to the office, to the qualification and fitness ehown by the candidates respectively during their examination, and to the record of their previous conduct in the Service, he may consider best fitted for the office.
Sir Hictor Langevin.
Then there will be a probation for those as well as for the others, of six mouths, and if the probationer is rejected before the end of the six months, then another may be appointed in the same way and from the same list. During the time of probation, the office held by the probationer previously may be filled by another officer of the Department, under the same conditions.
• 40. So soon as conveniently maybe after the passing of this Act, the Governor in Council Bhall determine the number of officers, chief clerks, messengers and other servants that are required for the working of tbe several Departments in each division of the Civil Service, but the amount of the salaries of the whole number shall in no caBe exceed that provided for by vote of Parliament for that purpose.
The object of this is, that if we wish to have this new law we must put in force as soon as possible, and for that purpose ihe Governor in Council will have to determine the number of officers that experience may have taught us is likely to be required for the proper performance of the duties of the Department, and will take the officers already there and use their services for that purpose ; then if the number is larger, or if an officer holds a higher grade now in the Service than the grade to which he would be allotted were he to go into the Department for the first time, then he would be considered a supernumerary officer of his grade in that Department, thus he will be engaged in the Department with the functions, perhapB, of an officer of a lower grade till be is appointed permanently to the office, or has left the Service, or been removed. When a Deputy is required in a Department, he will have to be selected as ordinary clerks, from the list of those who will be declared, by the Board of Examiners, to have the qualifications of their class. The pay will be that which is now fixed third class clerks, not to exceed the minimum salary of a clerk of that class in proportion to the time he occupies the office, that is to say, the salary being, say, $400 per annum as a mininum, if he is employed only two months it will be a sixth part of that.
42. (2) The temporary and supernumerary clerks so employed shall be paid only out of money voted by Parliament for payment or the contingencies of the Department and division of the Service in which such clerks are employed, or out of money voted by Parliament for the construction of the works upon which they are employed.
The hon. member for Lambton (Mr. Mackenzie) having been a Cabinet Minister, will remember that, when persons were required for the examinations of harbors or rivers, or special works of that kind, these persons were chosen from among those experienced in tbe business, and wore paid out of the allowance voted for the work. Then the 43rd clause provides for private secretaries. That makes no change. Private secretaries may receive $:i00 per annum as such, and may be members of the Civil Service as now. But no private secretary shall be paid $600 unless tbe amount has been previously voted by Parliament. The 44th clause provides for three weeks’ absence of officers during the year. It is customary to give officers working during the year three weeks leave of absence when they have performed their duties well, and it is to be given by the Head of the Department, or Deputy-Head, as the case may be. In case of illness or any other cause, the Govornor in Council may grant to any officer or servant of tbe Department leave of absence not to exceed one year.
Mr. MILLS. Is it intended that a private secretary shall be subject to an examination before he shall be appointed, or may the Minister appoint a private secretary, a member of tbe Civil Service, without examination ?
Sir HECTOR LANGEYIN. The Bill provides that any member of tbe Civil Service may be appointed private secretary; but a Minister may, by Order in Council, obtain the appointment of private secretary without his being subjected to an examination. Of course, as the hon. gentleman knows, a private secretary should have the entire confidence of tbe
1882.
COMMONS DEBATES
71
Minister, and the latter selects him for that purpose, being first assured of his qualifications in other respects ; and, therefore, that a private secretary, unless he may be a member of the Civil Service, is not subjected to the examination. The 45th clause provides that the Head of a Department, or, in his absence, the Deputy-Head of a Department, shall have power to suspend from the performance of his duties any officer or servant who shall be guilty of misconduct or negligenco in the performance of his duties, and to recall such suspension an j allow the suspended officer to return to his duties, but no officer shall receive pay for the time he may have been suspended. We think it better to put such a provision in the law, because, at present, if an officer is suspended for a time influences are brought to bear upon Ministers with a view of having the suspension revoked, as hon. gentlemen no doubt found when they occupied our places. We all know that pressure is brought to bear for the purpose of having his full salary paid to an officer who may have been suspended for three or four, days or a week, as the case may be; and under the present law such requests are very difficult to refuse, whilst if such a provision is put in the Bill it will protect the Head of the Department as well as members of the House and others who may be kind enough to make such applications to Ministers. Another provision of this clause is, that in case of neglect of duty or misconduct by a civil servant, the Head of his Department may impose a fine not in any case to exceed one day’s pay, and to deduct such fine from his salary. Hon. gentlemen may say that one day’s pay is a small fine. In certain cases, in fact, 1 believe in any case, an officer, whether he be a chief clerk, or in the first, second or third class, will regard a tine of one dollar as almost as severe a punishment as if it were twenty or one hundred dollars, for, no matter how small the fine may be, it is equally a reflection on his conduct, and will give him as much pain as if it were a larger amount. All cases of suspension or fine by the Deputy-Head of the Department will, of course, be reported by him to the Head of the Department. The 46th clause provides that no extra salary or additional remuneration, of any kind whatsoever, shall be paid to any Deputy-Head, officer or servant in the Civil Service, unless such sum shall have been placed injthe Estimates submitted to and voted by Parliament, and the name of the person stated. When the duties of any superior officer or clerk are continuously performed by an officer or clerk of an inferior grade during a period of more than three months, the latter may, on the recommendation of the Deputy-Head, concurred in by the Head of the Department, receive, in addition to his ordinary pay, the difference between such pay and the pay of the) superior officer, whose duties he has performed. When the absence of the superior officer is not on account of illness, as, for example, if he were called away by important business to the United States, or England, the sum paid to the inferior officer who takes his place shall be deducted from his salaiy. The 47th clause provides for the retention of the attendance book. As hon. gentlemen probably know, this is not a particularly popular volume in the Civil Service ; but, nevertheless, I am sure that the large majority of the officials who perform their duties punctually and well will not object to it, as it is a guarantee, to themselves and every one else, of their attendance in their offices, and the proper fulfilment of their duties. We, therefore, think that it should not be abolished. By the 49th clause it is provided :	r
Rnl uothing contained in this Act Bhall prejudicially affect the of any officer in the Service at the time of the nor	»rce	Act, so long as he shall be continued in office,
force a l 11 a**ec*' any salary or emoluments granted by any Act now in
21f.?ou,,8e look to provide for the civil servants now J ymg office, mid we do not wish to disturb the present
staff except to the extent involved in the re-organization of the Departments. By clause 50 it is provided :
That nothing in this Act shall diminish in this way the rights and powers of the Governor General in Council to dismiss any officer or servant.
The 51st clause is an amendment of tbe Superannuation Act. I shall read it, as I have no doubt that hon. gentlemen will prefer my doing so, in order that they may know exactly what its provisions are :
The superannuation of any civil servant shall be preceded by an enquiry by the Treasury Board.
(a)	Whether the person it is proposed to superannuate is eligible within the meaning of the Superannuation Act;
(b)	Whether his superannuation will result in benefit to the Service, and is therefore in the public interest; or,
(c)	Whether it has become necessary in consequence of his mental or physical infirmity.
2,	And no civil servant shall be superannuated unless the Treasury Board reports that he is eligible within the meaning of the Superannuation Act, and that such superannuation will be in the public interest.
3.	No person hereafter appointed shall be deemed to have served in the Civil Service of Canada for the purposes of the Superannuation Act, unless such person has been appointed in conformity with the provisions of this Act.
We have here a guarantee that no mistake shall be made with regard to the superannuation of any officer, because previous to the report to Council, and previous to the action of Council, the Treasury Board will have to investigate the position of the officer, and see not only whether he should be superannuated, but whether he has attained the age, and is otherwise in a position to have the benefit of the Act.
Mr. MILLS. Is there any power to add to the time ?
SirHECTOB LANGEY1N. Mo; the law in that respect remains as it is. The 5 ffid clause provides that the Secretary o» State shall lay before Parliament, within fifteen days after the opening of the Session, a report of the proceedings of the Board of Examiners; also, within the same period, a return of the names and salaries of all persons appointed to, or promoted in, the Civil Service during the previous year. The Minister of Finance shall also lay before Parliament a return of the superannuations made in the Civil Service during the year, in accordance with tbe Act. The next two clauses are the repealing clauses, and by the last it is provided that the Act may be cited as the Canada Civil Service Act, 1882. The second schedule of the Bill gives the divisions in figures, but the salaries will have to be filled in afterwards, and I suppose I will have to introduce resolutions to that effect. Having made these explanations, I move for leave to introduce this Bill.
Mr. CASEY. I am very glad to find that this important matter has at last reached the stage of being embodied in a Government Bill. But I am sorry that, so far as I could gather from the expressions of the hon. Minister, this Bill does not embody the great radical principle in the method of appointing civil servants which we expected it would, namely, that of competitive examinations. Do I understand the hon. gentleman aright ?
Sir HECTOB LANGE YIN. Yes; it is a modified examination.
Mr. CASEY. So far as one can judge, it contains some admirable provisions for securing greater efficiency and better discipline in tbe Service. But there is one thing which I think should have been done, even before the introduction of this Bill. Certain information has been gathered, and I believe very effectively, by tbe Civil Service Commission, for the express purpose of enabling us to discuss this question thoroughly, which information, I believe, has been prepared for more than a year, but has not been distributed yet to the members. I hope the hon. Minister will see that the evidence taken at that Commission is laid before us before this Bill comes up for a second reading.
72	COMMONS DEBATES.	February 23,
Sir HECTOR LANGEYLN. I think the hon. gentleman will find that most of these documents have been laid before the House. The first report was laid before the House, at all events.
Mr. CASEY. But not the evidence.
Sir HECTOR LANGEVIN. The hon. gentleman may rest assured that the necessary time will be given to Parliament to examine the Bill, and to read the reports that have been made on the subject, before I move the second reading.
Bill introduced and read the first time.
MARITIME COURT OF ONTARIO.
Mr. CAMERON (Huron) introduced Bill (No. 37; to amend the Act to establish a Court of Maritime J urisdiction in the Province of Ontario.
Bill read the first time.
BANK OF PRINCE EDWARD ISLAND.
Sir JOHN A. MACDONALD. I rise for the purpose of asking leave to introduce a Bill (No. 38) for the relief of the Bank of Prince Edward Island, which I can only do by the unanimous consent of the House. It is a private Bilf for which there is no petition, and yet 1 am sure the House will, without opposition, allow me to introduce it. It is a Bill for the relief of the Bank of Prince Edward Island. It is known that that bank was obliged to suspend some little time ago. By its charter, which was granted by the Island Legislature, and is similar to our law, a suspension of ninety days operates for a suspension of the charter. The ninety days will expire on the 28th of this month. The bank has, I am happy to say, been able to make satisfactory arrangements with all its depositors, and I believe the directors are on the eve of making arrangements for the successful prosecution of their business, but not within the ninety days. A gentleman who is well known to a great many members of this House, Mr. Lewis Davies, formerly a member of this Parliament, is now in England, as the agent of this bank, for the purpose of making arrangements to enable them to go on with their business, and telegraphs that he is satisfied that he will be able to make those arrangements, but not within the statutory time. Of course, even if this Bill is passed by this House in one day, it will be too late, in consequence of the adjournment of the Senate, as the 28th will have arrived before the Bill can become law. There is, however, a clause in the Bill which provides that it shall have a retroactive effect; and if the Bill is not law at the expiration of the ninety days, it provides that there shall be an extension for ninety days longer. In that respect it is similar to the Act passed by the Canadian Parliament for the relief of the Royal Canadian Bank, in which a special clause was inserted granting an additional ninety days after the passing of the Act. 1 shall read the Bill, which contains only three clauses:
Whereas, the bank incorporated by the name of ‘The President, Directors and Company of the Bank of Prince Edward Island,’ by Statute of the Legislature of Prince Edward Island, passed in the eighteenth year of Her Majesty’s reign, was compelled by unforseen losses and difficulties, to suspend payment on the 28th day of November, 1881, and under the provisions of said Act, if such suspension continues for ninety days from that last mentioned, the charter of the bank will be forfeited except only for the purpose of winding up its affairs and business, unless legislative provision be made for its relief: and whereas, it appears that since the said suspension, efforts have been made, and negotiations entered into in England and elsewhere, for the purpose of enabling the bank to resume payment, and it has been satisfactorily shown that there is every reason to believe that such efforts and negotiations will be successful, and that the bank will be able within the period hereinafter mentioned, to resume payment; and whereas, in the interest of the public and more especially of the people of the said Province, it is expedient that the relief prayed for by the said bank be granted: Therefore Her Majesty, by and with the advice and consent of the Senate and House of Commons of Canada, enacts as follows:—
Mr. Casey.
1. The period of ninety day3, during which the said bank may resume payment without forfeiture of its charter, is hereby extended for ninety days after the passing of this Act, and if within that period the said bank resumes and continues payment m specie or Dominion notes, its charter shall continue in force as if no such suspension of payment as aforesaid by the bank had occurred.
2- If the said period of ninety days should have expired before the passing of this Act, the effect of the preceding section and provision shall tie retroactive, and the charter of the bank shall, on the condition therein mentioned, be, and be held to have been, revived and continued, as if this Act had been passed before the expiration of the said ninety days.”
I move, therefore, for leave to bring in this Bill, and that all rules and orders with respect to private Bills be dispensed with for that purpose.
Sir RICHARD J. CARTWRIGHT. I assume that the Ministry have satisfied themselves that the facts are all correctly stated, and that being the case—speaking for myself, and, I think I may venture to say, speaking for my friends on this side—no objection will be taken to what the hon. gentleman proposes. Of course he is aware—better, perhaps, than any other gentleman here—that this suspension is in danger of becoming a precedent which may be put into effect on occasions when there is not so much to recommend it as in the present instance. Still, I have no doubt that the course the hon. gentleman proposes is the best in the interest of the shareholders, the depositors and the creditors of the bank; and, so far as I am individually concerned, I will be glad to support the Bill.
Sir JOHN A. MACDONALD. The hon. Minister of Finance is satisfied that the statements made in the preamble of the Bill are correct. There is, in fact, a Government deposit there, and the Government are ready to abide t,he result with the moral certainty of being paid in full.
Bill introduced and read the first, second and third times, and passed.
DISTRIBUTION OF SEATS.
Sir RICHARD J. CARTWRIGHT enquired, When is it intended to introduce the Bill for the distribution of seats announced in the Speech ?
Sir JOHN A. MACDONALD. The Bill will be introduced very shortly, and early enough to give hon. members a full opportunity of perusing all its clauses, considering and discussing them.
THE CENSUS.
Sir RICHARD J. CARTWRIGHT enquired, Whether the information laid on the Table on the subject of the Census is all that is available, or that is to be submitted to the House this Session ? if not, what further information is it intended to submit, and how soon V Mr. POPE (Compton). Since the question was placed on the paper, other information has been brought down. Further information will be supplied, but when, it is impos-si ble at present to say.
MONTREAL POST OFFICE.
Mr. COURSOL enquired, Whether it is the intention of the Government to cause a clock to be placed in the central tower of the Post Office at Montreal; and if so, when the said clock is to be placed in position ?
Sir HECTOR LANGE YIN. It is the intention of the Government to cause a clock to be placed in the central tower of the Post Office at Montreal; orders have been given to that effect, and the said clock is shortly to be placed in position.
AGED EMPLOYES IN THE MILITIA OFFICES.
Mi\ AMYOT enquired, Whether it is the intention of the Government to place on half-pay, or grant a pension to
1882.
COMMONS DEBATES
73
those employes in the militia offices discharged by reason of age or infirmity ?
Mr. CARON. In reply to the hon. member, I have the honor to inform him that the existing law does not allow the Government to place on half-pay, or grant a pension to those employes in the militia offices discharged by reason of age or infirmity.
MILITARY COLLEGE AT KINGSTON.
Mr. AMYOT enquired, Whether it is the intention of the Government to abolish the Military College at Kingston ?
Mr. CARON. In reply to the hon. member, I have the honor to inform him that it is not the intention of the Government to abolish the Military College at Kingston.
MILITARY SCHOOLS FOR THE INFANTRY SERVICE.
Mr. AMYOT enquired, Whether it is the inlention of the Government to open, in the principal cities of the Dominion, Military Schools for the infantry service (similar to those in operation about 1863, the success of which was so complete), in order that the infantry battalions may complete their complement of officers and non-commissioned officers, who will first have been enabled to acquire suitable instruction in the military art, and so prevent the active militia from becoming rapidly ineffective ?
repairing a wrong which the report of the official arbitrator shews to have been really dene by them to a private individual ?
Mr. MACKENZIE. I object to this question on the same grounds as in the previous case.
Mr. SPEAKER. The question must be, What decision have the Government arrived at in regard to the claimant in question ?
Sir CHARLES TUPPER. In reply to the hon. gentleman, I desire to say that the Government have considered the question and have decided that they cannot entertain this claim.
THE TELEGRAPH SYSTEM OF THE DOMINION.
Mr. GAULT enquired, Whether the Government have taken into consideration the propriety of assuming the telegraph system of the Dominion and running it in connection with the Post Office Department, the telegraph system to-day being under the control of foreigners.
Mr. MACKENZIE. The question is open to the same objection. We do not know that the telegraph system is under the control of foreigners.
Sir HECTOR LANGEVIN. In answer to the hon. gentleman, I may say that the Government has not taken this matter into consideration.
Mr. MACKENZIE. I object to the question, because it contains statements which are controverted.
Mr. SPEAKER. The first part is not objectionable, but the last part must be withdrawn.
Mr. AMYOT. I have no objection to withdraw the latter part, as it does not meet with general approval, although I thought the fact stated was admitted.
Mr. MACKENZIE. What is the question, as amended ?
Mr. SPEAKER. It is: Whether it is the intention of the Government to open, in the principal cities of the Dominion, military schools for the infantry service?
Mr. CARON. I beg to state that it is not the intention of the Government at present to open schools, in the different cities of the Dominion, for the infantry service.
THE CORVETTE CHAR YBDIS.
Mr. BURPEE (Sunbury) enquired, (1) Whether it is the intention of the Government to utilize the steam corvette Charybdis as a training ship, as was originally proposed; and if so, when ? If not, why not ?	(2) What has been
the entire outlay by Canada in connection with the Charybdis f
Sir JOHN A. MACDONALD. I beg leave to say to the hon. member that the best mode of utilizing the steam corvette Charybdis engages the serious attention of the Government. As to the total outlay by Canada in connection with the Charybdis, if the bon. gentleman will move for a return, I will bring it down ; or, on this question, I will bring down a return.
THE CLAIM OF JOSEPH CHARLES LISLOIS.
Mr. LANDRY enquired, Whether the Government have taken into consideration, in accordance with the promise by them made, on the 16th March, 18si, the question of paying to Mr. Joseph Charles Lislois, Ihe amount of the osses sustained by him in the destruction by fire of one of is buildings, caused by one of the locomotives of the Government on the Intercolonial Railway ? What decision nave the Government come to ; and if it be adverse, what equitable reasons can prevent a Government from
HAGGAS’ WATER ELEVATORS.
Mr. WHELER enquired, Whether the new system of
supplying water to locomotives as adopted on the Government'Rail ways in Prince Edward Island and the Canadian Pacific, known as the “ Haggas’ Water Elevators,” is giving as good satisfaction as was claimed for it at the time it was adopted on the above railways.
Sir CHARLES TUPPER. I desire to say, in answer to the hon. gentleman that the adoption of the Haggas’ Water Elevator system on the Prince Edward Island Railway has given the most entire satisfaction, and has proved to be quite equal to what it was represented. So far as the Canadian Pacific Railway is concerned, the portion of the road on which that system has been adopted, is as yet in the hands of the contractors, and I have no knowledge further than that it is perfectly satisfactory.
MUNICIPAL AND LOCAL TAXES.
Mr. BURPEE (Sunbury) enquired, Whether the Government intend, during the present Session of Parliament, to bring in a Bill making Dominion officials liable to pay municipal and local taxes upon their incomes, as is the case with other ratepayers ?
Sir JOHN A. MACDONALD. The Government do not intend to propose such a measure.
GOODS FOR THE INTERCOLONIAL RAILWAY.
Mr. KILLAM enquired, Whether any individuals or firms are permitted to import, free of duty, any goods for the use of the Intercolonial Railway; and if so, what are their names ?
Sir CHARLES TUPPER. I have to say, in reply to the hon. gentleman, that no individuals or firms are permitted to import goods for the Intercolonial Railway free of duty.
MAILS FROM STRATFORD TO CHESLEY.
Mr. GILLIES enquired, Whether it is the intention of the Government to have the mails carried from Stratford to
74
COMMONS DEBATES.
February 23,
Chesley this season, by the Port Stanley and Lake Huron Railroad ; and if so, when ?
Mr. O’CONNOR. It is not, at present, the intention of the Government to send the mails by that railway.
MARRIAGE WITH A DECEASED WIFE’S SISTER.
Mr. GIROUARD, in moving the second reading of Bill (No. 9) concerning marriage with a deceased wife’s sister, said : After having seen, as we have to-day, a petition from about three hundred ladies of Montreal, for the repeal of the prohibition of marriage with a deceased wife’s sister, we cannot postpone the second reading of this Bill. It is perfectly clear that the passing of this Bill has become a necessity, not only in the interest of the female, but also in the interest of the male sex. This necessity is so manifest that I do not intend to repeat, to-day, the arguments which were made when this Bill was brought forward for the first time in 1880; the discussion then lasted four sittings. Every possible argument for and against the Bill was then advanced, and I would be abusing the indulgence of this House were I to deal with the subject-matter at any length. This House will recollect that on its second reading, this Bill was passed by 120 to 19, and on its third reading by a majority of 75. Finally, when the Bill was brought before the Senate, it occupied several sittings of that body, and there the Bill, after having been thoroughly considered, was not rejected, but its consideration postponed for another year. We have given the members of the Senate, not only one, but two years to consider it and arrive at a conclusion as to the tendency of public opinion regarding it, and what is the result ? Do we find that public opinion is against the Bill? On the contrary, it is more in favor of the Bill than ever. So much so, that ladies have thought it necessary to adopt a very unusual proceeding on their part, and ask Parliament to adopt this measure. Since the Session of 1880 it has been constantly before the public. There is hardly a newspaper in the country which has not contained not only numerous correspondence, but also leading articles; and it is a most agreeable fact that not a single newspaper can be quoted against the provisions of this Bill. I do not intend to examine the question from any religious aspect. To-day, as two years ago, theologians are divided and will always be divided, but, I believe, that a large majority of the people of the Dominion are in favor of the measure, and that is the reason why I have the honor to ask the House to pass the second reading. I may add that this Bill has passed the British House of Commons ten or twelve times, and has been defeated in the House of Lords but by a majority of four—
I believe in 1877. A similar Bill has become law in all the British Colonies except Canada. It has become law in South Australia, Yictoria, Tasmania, Hew South Wales, Queensland and Western Australia. Since last Session it has passed the Legislature of New Zealand, and has also become law at the Cape of Good Hope. Undoubtedly those colonies but follow the natural law. I have changed a little the wording of the Bill. The first section provides that all laws prohibiting marriage with a deceased wife’s sister are hereby repealed. The first Bill provided that hereafter it shall be lawful for a man to many his deceased wife’s sister. I make this change to meet the views of the hon. member for Maskinonge and others of his friends who moved an amendment to that effect. I do not see, really, that it makes much difference whether the proh i n be repealed or the marriage be made lawful; but I make the change to meet the hon. member’s views, and secure as many votes as I can. That position in the old Bill which related to the widow’s brother has also been left out, to meet the views of another portion of this House, who, to the number of thirty, supported an amendment to that effect. As far as I am personally concerned, I would be glad to see that Mj*. Gillies,
portion restored. It is only a sentiment, but sentiment must be respected. The second clause is inserted in order to protect vested rights with which we have no desire whatever to interfere.
Motion agreed to on the following division :—
Yeas:
Messieurs
Allison,	Fitzsimmons,	Merner,
Amyot,	Fleming,	Methot,
Anglin,	Fortin,	Mills,
Arkell,	Fulton,	Mousseau,
Bain,	Gault,	Mnttart,
Baber,	Gigault,	Orton,
Bannerman,	Gillies,	Paterson (Brant),
Barnard,	Gillmor,	Pickard,
Beaty,	Girouard (Jac. Cartier),Pinsonneault,	
Beauchesne,	Girouard (Kent),	P latt,
Bechard,	Grandbois,	Reid,
Benoit,	Guillet,	Richey,
Bergeron,	Gunn,	Rinfret,
Bergin,	Guthrie,	Robertson (Hamilton),
Bill,	Haddow,	Robertson (Shelburne)
Bolduc,	Haggart,	Rochester,
Bourassa,	HeBson,	Rogers,
Bowell,	Holton,	Ross (Dundas),
Brown,	Houde, Huntington,	Ross (Middlesex),
Bunster,		Rouleau,
Burnham,	Hurteau,	Routhier,
Burpee (St. John),	Irvine,	Royal,
Burpee (Sunbury),	Jackson,	Ryan (Marquette),
Cameron (Huron),	Killam,	Ryan (Montreal),
Carling,	Kilvert,	Rykert,
Cartwright,	King,	Rymal,
Casey,	Kranz,	Scriver,
Casgrain,	Landry,	Shaw,
Cimon (Chicoutimi),	Lantier,	Skinner,
Cockburn,	Laurier, Longiey,	Sproule, '
Colby,		Strange,
Costigan,	Macdonald (Kings),	Sutherland,
Coupal,	Macdonald (Sir John),	Tasse,
Coursol,	Macdonell (Lanark),	Tellier,
Crouter,	Mackenzie,	Trow,
Currier,	Macmillan,	Tupper,
Cuthbert,	McCallum,	Yallee,
Daoust,	McCarthy,	Wade,
DeCosmos, Desjardins,	McDougald,	Wallace (Norfolk),
	McDougall,	Wallace (York),
Doull,	McGreevy,	Wheler,
Drew,	McLennan,	White (Cardwell),
Dugas,	Me Rory,	White (Hastings),
Dumont,	Malouin,	Wiser, Wright.—137.
Elliott,	Man son,	
Ferguson,	Massue, Nays : Messieurs	
Bourbeau,	Jones,	Ouimet,
Brooks, Bunting, Caron, Charlton,	Kirkpatrick,	Patterson (Essex),
	Lange viu,	Plumb, Pope (Compton),
	McDonald (C. Breton),	
	McDonald (Tie., N.S.),	Scott,
Daly,	MacDonnell(Inverness), Stephenson,	
Dawson,	McCuaig,	Thompson,
Desaulniers,	McQuade,	Vanasse,
Farrow,	Montplaisir,	Weldon, White (Renfrew),
Fiset,	O’Connor,	
Geoffrion, Hackett,	Olivier,	Williams.—34.
Bill read the second time.
DRAWBACKS ON GOODS MANUFACTURED FOR EXPORT.
House resumed the adjourned debate on the proposed motion of Mr. Paterson (South Brant) for a return of all claims presented for drawbacks on goods manufactured for export since January 22nd, 1881, &c.
Mr. CHARLTON. In view of the fact that the Budget Speech will be delivered shortly, and that matters pertaining to the trade policy of the Government will then be fully discussed, I shall not enter to-night into a lengthy discussion of the question under consideration. I shall confine myself to meeting a few of the views presented by the hon.
1882.
COMMONS DEBATES.
75
gentlemen who have spoken upon this question from the opposite side of the Chamber. My hon. friend from South Brant, in the course of his excellent speech, pointed out to the House, in a very forcible manner, the fact that, under the operation of the present Tariff, the export trade of the Dominion in manufactures is steadily decreasing. That, Sir, is a circumstance attending the operation of all protective Tariffs. The effect of high protective duties, when they are levied upon raw materials, is necessarily to diminish the ability of manufacturers to compete in neutral markets with the manufacturers in any country who are not subjected to the payment of duties upon their raw material. For that reason we find that in all protected countries the export trade in manufactures is insignificant. We might point out a good many instances to illustrate this view of the Gase. I shall confine myself on this occasion to one or two only, and I might cite, and will cite, the instance of the United States. The United States, after having been under the operation of a high protective system for twenty-one years have succeeded in developing, to a limited degree only, exports and manufactures, and I find that for the year 1880 the report of manufactures from the United States, including petroleum, a very large item, and an article in which, from the circumstances, they have a monopoly, and including also manufactured lumber, reached only the sum of $104,0u0,®00 in round numbers. That country, in 1860, after a long period of a revenue Tariff, reached, in the exports of manufactured cottons, $10,930,000. In the year 1880, after twenty years of protection, the export of cotton manufactures from the United States, was $9,880,000, considerably more than $1,000,000 less than it had been twenty years previous ; and at no time during the twenty years of the operation of protection in the United States, have the exports of cotton manufactures equalled those in 1860, at the close of the revenue Tariff period. I find that that country in 1880, after twenty years of protection, exported $346,000 of woollen goods. Their exports of woollen goods amounted to two-thirds of 1 cant per head of the population, and their exports of cotton goods to less than 20 cents per head. Their total exports of all manufactures, including petroleum and lumber, amounted to a trifle over $2 per head. Now, Sir, the country, whilst under the operation of this Tariff, taxed itself to an enormous extent. The best Economists in the United States tell us that the domestic productions of the country are enhanced in value to two-thirds the amount of the duty upon the imported article. The average range of duties in the United States is about 36 per cent. If this assumption is true, then the domestic productions of the United States, amounting to some 3,000,000,000 of dollars, are made $720,000,00© dearer to the purchasers of that country than they would be under a different system. This, then, amounts to a tax upon every man, woman and child in the United States, in the enhanced cost of domestic goods, of $18 per head ; in other words, in order to secure a position by which they are enabled to export $2 worth per head of manufactures, they pay taxes of $18 per head upon the domestic productions of the country in addition to the tax they pay the Customs revenue. Well, Sir, the industries of that country that have been promoted and fostered for twenty years, are still reluctant to dispense with that protection which they claimed as infant industries twenty years ago, they are still infant industries, and they will ever remain infant industries under the operation of a protective system such as prevails in that country. Certain circumstances lead careful observers to the belief that one thing only prevents the United States from taking its postion as the great manufacturing country of the world, and that thing is, its absurd fiscal policy. ^°-day, one of the great American manufacturing concerns, the Singer Sewing Machine Company, are erecting works, covering forty acres of ground, that are to employ
4,000 operatives and are to produce 3,000,000 sewing machines a year near Glasgow, they have transferred this business to Scotland, because, under the American tariff laws, they cannot prosecute it in the United States and supply the export demand. But for protection they could carry on the business in the United States, and make their three millions of machines annually, and at the same time supply the home market, as at present. This one fact illustrates the position I take—the position that is taken by Economists everywhere—that the Tariff system of the United States alone stands in the way of that great country assuming a position as the foremost manufacturing nation of the world, in place of the position it now holds of exporting, the beggarly amount of $2 per head of manufactures. While the export of manufactures has fallen off in Canada, as it has fallen off in the United States as compared with a revenue Tariff for the period ending in 1880, the Trade and Navigation Returns indicate that our manufacturers have not secured the control even of our own market. It seems that in the year 1881 we imported something over $10,000,000 worth of cotton goods. It seems that in that same year we imported $8,750,000 worth of woollen goods. It seems that in that same year we imported $12,800,000 worth of iron and steel, and their manufactures. It seems that in almost all lines imports are increasing, notwithstanding the adoption of a policy that was to exclude these products from our markets, and give to our manufacturers the control of the Canadian market. Now, Sir, in view of the fact that the imports of goods are increasing in Canada, in view of the ’fact that the exports of manufactures are diminishing in Canada, I would like to ask, at this stage of my remarks, what was the character of our last Tariff? Was that Tariff, which was supplanted by the present one, a Tariff that operated to the injury of the manufacturing interests of this country ? Was it a Tariff under which our manufacturing industries could not be developed ? I hold that, on the contrary, it was a Tariff under which the manufacturing industries of Canada had been developed, were developing, and would have gone on developing. I believe that, with the revival of times, with the increase of prosperity, that came from causes entirely beyond our control ; that had that Tariff remained in operation up to the present time, our exhibit as a manufacturing people would have been more favorable indeed than it is under the Tariff now in operation. I laid before this House, in 1876, a statement, showing that, notwithstanding the depression that existed in Canada at that time, our manufacturers were in a better position, in a stronger position, were making larger sums on their investments, than were the manufacturers of New England or any other portion of the United States. That statement proved conclusively that, notwithstanding the depression, our manufacturers were in a fairly good position, in a comparatively better position, than the manufacturers of almost any other country. The depression was due, not to the Tariff, but to causes quite outside the Tariff. The depression would have passed away as readily, I believe more readily, without a change of Tariff than with the change of Tariff made by the present Administration. Then, Sir, with reference to the amount of our manufactures, the Census of 1871 shows that we produced in that year $211,000,000 worth of manufactured goods in this country. This is an increase which grew up under a moderate revenue (Tariff. I believe that when the Tariff changed, our production of goods was not less than $250,000,000 per annum, and perhaps amounted to $275,000,000. I find, on looking over the field and examining into the various branches of manufactures, that most of our successful manufacturers began with little capital. In the case of one firm j —and I take the liberty of mentioning their name, because they appeared before the Depression Committee in 1876—in the case of the Messrs. Gurney it was acknowledged in 1876
76
COMMONS DEBATES
February 23,
that they were worth $750,000. They commenced business, twenty years before, without a dollar and yet they managed to accumulate from their business an average of $37,000 a year besides their living. The Tariff, which allows such an accumulation of wealth in twenty years, the establishment of a great business founded on nothing but the intelligence and energy of the men who founded it, was certainly one which might fairly be claimed as calculated to foster the industries of the country. I find, in looking over the country, and by correspondence with manufacturers, that the great majority of manufacturers in Ontario were men who commenced on very small means; that the great majority were highly successful, and that the majority of them were highly satisfied with the fiscal policy which prevailed before the change of the Tariff three years ago. I find that a great many of these manufacturers to-day are dissatisfied with the present Tariff, and pronounce it worse than the one which preceded it.
Hon. MEMBERS. Ho, no.
Mr. CHABLTOH. Yes. I will show, in the course of my remarks, that this is true, and that if the duty had been raised in 1876—as I am free to say it should have been— to 20 per cent., it would have been amply satisfactory to the manufacturers of this country, and, with free raw material, would have placed them in, and left them in, a better position than they have since occupied. I believe that if the duty had been raised 2J per cent, my hon. friend the Minister of Eailways (Sir Charles Tupper), was all ready and prepared to condemn ! that increased duty. I think it is a matter of public notoriety that the hon. gentleman made a very sudden and skilful change of base when the Finance Minister of that day disappointed the bon. gentleman’s expectations by announcing that the duties would not be raised 2\ per cent. It is claimed that the Eeform party are hostile to the manufacturers. Great pains are taken to impress the manufacturers with the belief that the policy of the party represented on this of the Chamber is one hostile to the manufacturing interests of the country. Sir, that is an allegation that I emphatically deny. The Reform party is not hostile to the manufacturing interests of the country; it is not hostile to any great interest of this country. It simply demands that there shall be equitable taxation, that due regard shall be paid to the interest of all classes; that no one interest shall be unjustly promoted to the detriment of other interests. The Eeform party is willing to adopt a policy which has been conducive to the prosperity of the manufacturers in the past; which will be conducive to their prosperity in the future; which will be more conducive to their permanent and substantial prosperity than the one which is now in operation. I may say that 1 think we shall be able to quiet the troubled mind of my hon. friend the Minister of Customs (Mr. Bowell), as to what our policy is. In the course of his remarks on this question he was very anxious that we should know what we meant— to define our position. We shall be able to define our position. We shall unquestionably define our position during the course of this Session, so that he will comprehend it. He will find it not hostile to any great interest in this country. He will find it calculated to promote all the great industries of this country, the manufacturers among the rest. And, Sir, we declaim most emphatically the allegation which has been made that we are the enemies of that or any other interests in this country. I hold that with a Tariff imposing duties for revenue purposes of 20 per cent., a Tariff permitting the admission of the raw material free of duty, would make the position of every manufacturer of this country, with possibly the exception of the manufacturers of sugar and cotton, better than it is to day. I hold, Sir, that such a Tariff, while pressing less heavily upon the masses of the people, or extracting less money j j£r. Chamlton.
from their pockets, while yielding all the revenue necessary, would be infinitely better for the manufacturing interests. And the very fact, Mr. Speaker, that a drawback is allowed in some cases upon the exported manufactured article is itself a proof that the present Tariff is burdensome to the manufacturer. If it was not so, why the drawback— why the rebate ? It is an admission, Sir, that the articles necessary to the manufacturer in the progress of his business—his raw materials—are taxed by the Government; it means that the cost of the article he produces is enhanced to that extent, and when he attempts to export it and meets his competitors in a neutral market, who are not subject to the same duties, it is necessary, in order to place him on a footing of equality, for the Government to repay to him the sum extracted from him in the shape of duty on the raw material. It is true that our manufacturers are prosperous at the present time; it is true that their prosperity is almost as great as it would have been at the present time, under the old Tariff with the revival which has taken place, but I do not believe that the great mass of the manufacturers are as prosperous as they would have been under the Tariff which was supplanted by the present one. I have some letters from leading manufacturers which explain their views as to the operations of the present Tariff. I have one from a large establishment in my own county, engaged in the manufacture of reapers and mowers, in which they explain the enhanced cost of each machine in consequence of the increased duties imposed by the Tariff. It is as follows :—
“ Dear Sir,- Yours of yesterday received asking for details of extra duties over those of 1878 in our manufactures. Below we give them to you, and they are under rather than over the mark. In the construction of our reaper, we use 500 lbs. cast iron, 50 cents; 5 lbs. malleables, additional duties, 24 cents; 32 lbs. spring steel, 13 cents; 16 lbs. machinery steel, 10 cents; and say $1 worth of bolts, 25 cents ; 7j lb3. wrought iron, 19 cents; lib. nuts, 1 cent; paints and oils, 4 cents; varnish, 5 cents; coal, 3 cents; wire, 1 cent; knives, 20 cents; total $1.75.”
This last sum represents the extra cost to that Company on one reaper as compared with the cost of material under the preceding Tariff They say that this is within the mark, so that we may take the amount at $2 on each machine, or an aggregate cost upon their business of about $2,000, which they cannot get from their customers, because they have to sell their machines as low as formerly.
Mr. WHITE (Hastings). How is it that the manufacturers are selling the machine-? from 10 to 15 per cent, cheaper than they were under the old Tariff'?
Mr. CHARLTON. This manufacturer tells us that he is not making as much on his machines as he did before.
Mr. WHITE (Hastings). Then the manufacturers are not public robbers,
Mr. CHARLTON. He tells us that they are selling machines at as low a price as they did formerly, while under the Tariff they cost them more, and therefore the Tariff injures them. The question is not whether they are selling machines for more or less, but whether they are making as much under the Tariff as they were before it was adopted. Then we are told that they have control of the Canadian market. They had it before. This letter is from the firm of Green Brothers, of Waterford, Ontario. I have another from Noxon Brothers, of, Ingersoll, one of the largest firms in Ontario, which I will take the liberty of reading:
“ Ingersoll, 2nd February, 1882.
“ Dear Sir,—I have your letter of the 27th ult. As nearly as we can estimate, the cost of our goods has been increased from eleven to twelve per cent, by the present Tariff. The cost of labor has notincreased; we are not employing the same proportion of skilled mechanics as under the old Tariff; we have taken boys and ordinary laboring men and trained them to do our special kind of work only, and in this way displaced a large number of skilled tradesmen. The men and boys we train in this way never become mechanics in oar works, and if put to
1882.
COMMONS DEBATES
77
other employment than the one single thing they have been trained to do, they could perform only the most menial labor. In this way, they making use of a greater number of labor saving machines, we have to some extent counteracted the effect of the Tariff on the cost of producing our goods. Our annual product of goods could be manufactured under the old Tariff from $12,000 to $15,000 less than under the present Tariff.”
I have a letter also from a firm Id the town of my hon. friend the member for South Brant (Mr. Paterson)—the firm of A. Harris, Son, & Co., in which the writer states that the Tariff is a damage to them of from $5,000 to $7,000 a year in the extra costs of materials. 1 have a letter to the same effect from the firm of Patterson Brothers, of Patterson, Ontario, which, like all the others, states that the Tariff has increased the price of their raw material and diminished their profits without reducing the price of their goods. If the position taken by these men iB true, then the Tariff has not operated to their benefit as manufacturers; and I hold that it will be found that, with the exception of the sugar refiner, the cotton manufacturer and the woollen manufacturer, every manufacturing interest in the Dominion of Canada is placed in a worse position by this Tariff than it occupied under the revenue Tariff which preceded it. We were told by the hon. Minister of Customs that our manufacturers want higher duties. Well, it is certainly not the manufacturers I have alluded to who want higher duties on raw materials. He failed to tell us who wanted higher duties. Is it the Bedpaths, who, under the operation of the present Tariff are making hundreds of thousands of dollars a year, and who are able to associate with the Bothschilds and the Yanderbilts ? Is it the Valleyfield Cotton Company, who have declared a dividend of 50 per cent, on their capital? Ts it those manufacturers who are running full time and are making enormous profits under the operations of this Tariff? I have heard of no others who want higher duties. We were also told by that hon. gentleman 111at, our manufacturers are busy, because the purchasing power of the people is increased. I would like to ask him what would be the condition of affairs if we had a depression, if we had a failure of the harvest, if we had a year such as that of 1876, when we failed by over two millions of dollars in raising our own bread, if we had a period of depression all over the world, affecting the price of the products we sent to foreign countries, would he then be able to congratulate himself on the fact that the manufacturers were driven to fill orders, that the demand for goods was great, and that the people were able to buy freely? No, Sir. Then the condition of things would be as they were during the administration of my hon. friend from Lambton; then rigid economy would have to be practised by the people who were in trouble; and then the manufacturers would have to complain of diminished demand for their goods. The circumstances existing now are entirely different from those which existed during the three or four years previous to their advent to office. They flatter themselves that this is due to their policy. It is nothing of the kind. Have the good harvests been caused by the policy of the Government ? Did the policy of the Government cause the depression here, or the depression that existed in the United btates? Were the causes that produced that depression, that aggravated it, that continued it for five years, causes within the reach of this Parliament, or of any power in the Dominion of Canada? I hold that they were not. And to what is the revival due ? Do hon. gentlemen opposite claim credit for the revival ? Do they say that the National Policy has given us better harvests, that it has reached across the ocean and produced ad harvests in England, yielding us higher prices for our pioductions ? Is it the National Policy which has reached across the border, and, in its potent influence, produced a revival of business there, which has re-acted on us. The assertion is absurd—the National Policy has produced none w these results. Well, Sir, there we certain facts on tins
problem of what has produced the revival, which I may allude to shortly. I find that the net export of cereals and their productions—flour and meal—from Canada from 1874 to 1878 inclusive, amounted to $48,767,000, and that the net export of the same articles in 1870, 1880 and 1881, amounted to $44,078,000; the former being in five years, and the latter in three years. The annual average for the first period is $9,753,000, and for the second period $14,990,000; the average annual excess in the second period over the first being $5,239,000. The excess for the three years since this Government came into power, amounts, therefore, to $15,718,000. For the period extending from 1874 to 1878 inclusive, the export of butter and cheese, the produce of Canada, was $31,860,960; for the three years, 1 - T9, 1880 and 1881, it was $21,927,109; so that the annual average from 1871 to 187& was $0,372,193, and for the period between 1879 and 1881 was $7,309,036, being an excess for the latter period over the former of $y36,843. I find, Sir, that in animals and their produce, the produce of Canada for the period from 18,4 to 1878 inclusive, the exports were of the value of $69,137,801; for the three years 1878, 1879 and 1881, they amounted to $53,068,398, showing an annual average for the first period, of $13, >27,560, and for the second period, of $17,698,466, being an annual excess for the latter period, of $3,861,906.	1 find, Sir, that the
exports of agricultural products, the produce of Canada for the period from 1874 to 1878 inclusive, were of the value of $90,686,295, and for the period from J 879 to 18 M inclusive, they were $63, i9i,119, bring an annual average for the first period of $18,137,259, and for the second period of $21,083,706, being an annual excess for the latter period of $2,916,417. I uuduroioud the hon. member for North Perth (Mr. Hesson), in his remarks upon this question, the other day, to make a comparison between the last three years of the period covering the administration of the hon. member for Lambton and the three following* years. I do not kuow whether I misunderstood him or not. He represented the exports of agricultural produce for 1876, 1877 and 1878 to amount to $53,834,090, and that the exports for the following three years were some $16,000,000 less. If I am incorrect I aip open to correction.
Mr. HESSON. My remarks are before the House in the Debates. I said that, for 1871,1872 and 1873, the last years of the administration of Sir John A. Macdonald, the exports of farms products, the produce of Canada, amounted to forty odd millions, as against $53,000,000 during the last few years of the administration of the Mackenzie Government, the difference was some $13,000,000. My object was to show that, although there was a larger export under the administration of Mr. Mackenzie, times were not better in consequence of that fact.
Mr. CHABLTON. I misunderstood the hon. gentleman, as I thought a comparison had been made for a period subsequent to, and not before, the administration of Mr. Mackenzie. However, it will show this : that if the exports for 1871-72-73 fell $16,060,000 short of those of 1876-77-78, that causes were operating at that time that produced the hard times that followed. Short harvests and diminished exports in due time produced their fruits. I find that for the three years 1876-77-78, as has been correctly stated by the hon. member for Aorth Perth, the exports were $53,834,000, or $10,000,000 less than the exports for the years 1878-79-80. With regard to fisheries, the produce of Canada, I find the exports for the five years, from 1874 to 1878, were $26,671,899, while for the three years 1870 80-81 they were $20,876,242, giving an annual average for the first period of $5,337,179, and for the second period $6,792,080, being an annual excess of $ 1,454,901. I further find on summing up those excesses of export that the average annual excess for the latter period was made up as follows: Net export of cereals, flour and meal, $5,239,425;
78	COMMONS
animals and their products, the produce of Canada, $3,861,906; fisheries, the product of Canada, $1,454,901; being a total of $10,556,232 per annum, or $31,668,695 lor the three years. Add to this the fact that in addition of that increase of thirty-one millions odd during the three years I have named our lumber trade with the United States greatly revived, revived to such an extent that our manufacturers last year were receiving for their lumber a higher price in gold than they received during the inflated period of the Civil War, in currency was worth only 40 cents on the dollar; when you add all these facts together you are able to account for the improvement in the times quite clearly and quite satisfactorily, without any reference whatever to the National Policy, or to any other fiscal policy of this or or any other Government. My hon. friend from Centre Wellington (Mr. Orton), in the course of his remarks, informed the House that the National Policy had stimulated the export of food. We were told, when the policy was introduced, that it would create a home market for our food; we heard nothing about the policy stimulating the export of food. We did hear that manufactures would spring up on all hands, that our consuming population would be largely increased, that a home market would be furnished for the agricultural products of the Dominion, that we would be no longer under the necessity of exporting food; yet hon. gentlemen to-day tell us that a diametrically opposite result has occurred, namely the stimulation of the export trade in the food products of Canada. How is it about this home market? Under what conditions can a home market be created in a country ? Was it reasonable to suppose that when promises were made that the National Policy would result in the creation of a home market for the agricultural surplus of Canada. England has i a home market; and why ? Because of every $100 worth of textile products manufactured 65 per cent, were exported. She is not prepared to hand over the control of her own market, but she supplies her own wants under the operation of Eree Trade, and exports more than one-half of her manufactures. In consequence of being the workshop of the world, she has a home market, and, besides, a market for the surplus productions of other countries. But it is useless to suppose that Canada can secure a home market surplus by supplying its own wants. A country situated as Canada is, with great agricultural resources, can never afiord a home ! market for its own products by simply attempting to manufacture for its own wants. The United States have been endeavoring to secure this home market for twenty years, and with what result. After endeavoring for twenty years to foster their manufacturing industries to such an extent as to create a consuming population that would consume all their food, they exported, in the year 1880, food enough for
25,000,000 people, and Canada exported enough for 1,000,000. The hon. member for Centre Wellington also informed us that the agricultural interests had been benefitted by this policy. In what way? By the creation of this home market which was to absorb all our productions? By the duty upon grain which was to raise the price of grain that much higher? Will any'hon. gentleman in this House inform me that the operation of the National Policy, in so far as grain duties are concerned, has conferred any benefit on the farmer? I would like to hear some individual make that assertion. I say no, it has not. In 1878, and a number of years preceding, Canada was presumably a better market for grain than the United States, and a great outcry was raised here against the importation of American grain. In 1878, oats were worth 10 cents and whoat 14 cents more in Toronto than in Chicago. It was clear then that,under the operation of Free Trade, we had a better market for grain than the United States; and at the same time the United States had, for seventeen years, been living under a protective duty on grain. Although they had a protective Tariff they were shipping millions Mr. Chablton,
DEBATES.	February 23,
of bushels to Canada, and, under the operation of Free Trade, the Canadian market was better than the American market. Is this the case to-day ? Are oats to-day worth 11 cents more and wheat 14 cents more in Toronto than in Chicago ? T*hey are not. Since our present policy has been fairly in operation, there has not been a day when grain was not worth moi*e in the American than in the Canadian market. I see a smile spreading over the countenance of my hon. friend for Niagara. If the hon. gentleman would follow-----
Mr. PLUMB. Because we do not get protection.
Mr. CHARLTON. Wheat is worth more in Toledo, Detroit, Oswego and Buffalo than in Toronto. There is not a single grain on the lisfThat is not higher in the American market than in the corresponding Canadian market. Such was not the case in 1878, yet we are told that the operation of the present duties is beneficial to the farmer. It is an insult to the farmer to try and palm off such nonsense upon him, which he does not believe.
Mr. CAMERON (Huron) moved the adjournment of the debate.
Motion agreed to; and (at 6 o’clock, p.m.,) the House adjourned.
HOUSE OF COMMONS,
Friday, 24th February, 1882.
