 at Three o’clock.
Prayers.
MONTREAL AND CHAMPLAIN JUNCTION '	RAILWAY.
Mr. METHOT. Before the Orders of the Day are called, may I be permitted to ask a favor of the House. I have on the papers a question to the Government, and as the Session is approaching its end, I would desire, by permission of the House, an answer to it to-day. It is as follows:—
1.	Whether the Montreal and Champlain Junction Railway is in existence ?
2.	If it exists, how it happens that its name does not appear in the Statistical Return of.Canadian railways?
3.	Whether the Government have hitherto taken steps to cause that Company to comply with the law which requires the making of an animal return,
Hr. Carom,
May 4,
Mr. BLAKE. I rise to a point of order. When the Government took every day, the other day, I pointed out, among the inconveniences of that course, that hon. members would be deprived of the opportunity of asking questions. But no exception was made to that resolution; they did not leave ns that opportunity, and, consequently, though I have been asked myself to put questions on the paper, I have not, feeling it would be but a mockery, since the Government has taken every day for the remainder of the Session. Now, but one measure of justice can be meted out to all members, and as I did not receive the support of the hon. gentleman, on asking for the privilege of putting questions for some time longer, I object to his asking the present question, because other hon. members have not the same opportunity.
Mr. SPEAKER. The question can be put only by the unanimous consent of the House.	You cannot prevent the
Government from answering it otherwise.
Sir HECTOR LANGEVIN. If the hon. member for West Durham objects to the question, of course we cannot answer it. Nevertheless, I am afraid I shall have to find some opportunity of answering the question in the House before the end of the Session.
INSPECTION OF STEAMBOATS.
Mr. McLELAN moved that Bill (No. 117) to amend and consolidate the Acts respecting the inspection of steamboats and the examining and licensing of engineers employed on them, be not now read the third time, but that it be referred back to the Committee of the Whole for amendment.
Motion agreed to; and House again resolved itself into Committee.
(In the Committee.)
Mr. McLELAN moved that “ May ” be struck out of clause 69 and “ September ” substituted.
Amendment agreed to and reported.
On motion for third reading,
Mr. GIROUARD (Jacques Cartier). I renew the application I made to insert a provision in place of clause 55, to punish the master who allows his steamer to carry more passengers than allowed by his certificate. We know that on certain occasions, especially on excursions, captains of steamers often allow their vessels to be overloaded. I have only to mention the great disaster which took place last Queen’s Birthday, at London, Ont,, which indeed was not the first occurrence of that kind which has occurred in this and other countries. I think the punishment provided by the Bill in section 55, is quite inadequate to the crime—for it is a crime, and it should be made so by the Bill. I, therefore, move that the Bill be recommitted, with instructions to substitute for the 55th clause the following:—
The master of any steamboat who, knowingly, shall at any time allow to be carried on hoard said steamer a greater number of passen-
fers than that provided by her certificate, shall be guilty of mis-emeanor, and who, on conviction thereof, shall be imprisoned for two years in the penitentiary, or for a less term or place of confinement, or shall be subjected to a fine not exceeding $500, or shall suffer both fine and imprisonment within the above defined limits as the Court may order.
The clause will provide for cases like that which happened last year near London. If the violation of the law is not aggravated, then the Judge may impose a small fine; if is a gross violation of the law, if life be lost, then the Jndge may impose both fine and imprisonment. I may also mention now that I intend to move a clause to prevent steamboat racing, which is becoming quite alarming in this country. The Richelieu Navigation Company is opposed by another line running on the St. Lawrence and tne Uppe* Lakes, and steamboat racing between these two lines ha£
1882,
COMMONS DEBATES
1308
taken place even in the rapids. There are also other opposition lines running on the St. Lawrence, and these races are becoming alarmingly frequent. I shall, therefore, propose that the Bill be recommitted to make provision to insure the safety of steamers and the lives of passengers, by making steamboat racing a misdemeanor. Clause o5 provides for the same offence, but only punishes it by a fine of $500.
Mr. COCKBURN (Muskoka). I think the present clause is more forcible than that proposed by the hon. member for Jacques Cartier. Under the former clause a captain is bound to ascertain and know whether he has too many passengers on board or not, but under the latter clause he is not compelled to know and would not be liable to punishment, because he might claim he did not know he had too many on board.
Sir ALBERT J. SMITH. It is the captain’s duty to see how many passengers are on board, and if he carried too many passengers he would be held guilty of a high crime and misdemeanor, and two years in the penitentiary would not be too severe.
Mr. CAMERON (Victoria). In the event of the captain not being in command of the vessel, the mate, or whoever is in charge, should be held responsible.
Mr. GIROUARD. The clause is proposed with the view of meeting a case like that which occurred at London, Ontario, on the Queen’s Birthday, when every one on board j knew that the vessel was over-crowded.
Mr. MACKENZIE. From the newspaper reports I gathered that the cause of the accident was because the boiler was set loosely on the deck, the vessel being without a hold and flat-bottomed. When the vessel tilted the boiler got loose and carried away the supports of the other deck, and the passengers were swept overboard. Whether the Bill provides for such a case I do not know. If vessels on the Thames are still constructed after this manner, that circumstance is more dangerous than mere over-loading.
Mr. McCUAIG. It was proved at the coroner’s inquest that the boilers were not fastened, and when the boat lurched it slipped to one side and carried everything before it. That was the real cause of the accident. It is very important that the House, before dealing with this question, should understand in what way it is to be determined how many passengers the steamer can carry. For instance, the hull of a boat will be 200 or 300 tons measurement, but by the more recent system of measurement the state rooms are all measured and the total would reach 900 or 1,000 tons, and a vessel with an upper deck would carry more passengers.
Mr. McLENNAN. There was a further cause of the London accident which must be corrected by the more strict system of inspection now established, I seconded the amendment of Bie hon. member for Jacques Cartier, because I think an evil of this magnitude affecting the risking of the lives of the people must be prevented by something more deterrent than a mere money fine, and this can only be effected by making such an error a misdemeanor and subjecting the party to punishment. I hope the promoter of the Bill will see the propriety of adopting the amended clause,
Mr. McLELAN. The desire of the Government is to provide for the protection of the lives of passengers °n steamboats. The clause was so drafted that masters and owners should become interested, and watch the passengers as they come aboard and see there was not an excessive number. I think we have made a great step in advance of the old regulations. I admit it is a grave crime for the master of a vessel to knowingly go to sea with a large excess of passengers, and I would
suggest that there be inserted at the end of the clause such words as these :
“ The master or person in charge of a vessel who shall proceed to sea knowingly having an excess of passengers on board, should be held to be guilty of a misdemeanor.”
Motion agreed to; and House again resolved itself into Committee.
(In the Committee.)
Mr. GIROUARD. I propose to add a new clause after clause 55, to the effect that the master of any steamboat, or the officer in charge of such steamboat for the time being, who knowingly shall at any time allow to be carried on board such steamboat a greater number of passengers than that permitted by the certificate, shall be guilty of a misdemeanor, and upon conviction thereof, shall be imprisoned for two years in the penitentiary, and so on.
Amendment agreed to and reported.
On motion for third reading,
Mr. GIROUARD moved:
That the Bill be not now read a third time, but that itbe recommitted with instructions to add another clause immediately after clause 56, to the effect that the master or officer in charge for the time being, of any steamboat carrying passengers, who shall allow his steamboat to race with any steamer so as to endanger the lives of his passengers, shall be punished as provided for in the preceding clause.
Mr. CASGRAIN. I do not think the amendment as it 1 stands, will have the effect which the hon. gentleman wishes it to have. How can you say racing will endanger the lives of passengers or not ?
Mr. GIROUARD. That would he a matter for the jury to decide.
Mr. McCALLUM. It is already provided in the Bill that a steamer shall only carry a certain amount of steam, and if it is allowed to carry more, the owner or master is liable to the punishment provided. How can a man race his boat if he is not allowed to raise his steam to a racing point, It seems to me, therefore, that the amendment js unnecessary, as it is amply provided for by the preceding clause. It is very desirable that there should be every protection to life and property, but we need not go too far; we need not go so far as to drive off our waters all the steamboats of this country.
Mr. McCUAIG. It is provided in the Bill that the pressure shall only be so much and the safety-valve is locked up, so I agree with the hon. member for Monck (Mr. McCallum) that it is unnecessary to add this new provision.
Mr. COCKBURN. The only question that can come in after the provision with regard to the maximum pressure, is the question of crowding and the right of way, and there can he no difficulty in regal’d to that, because they are provided for by the general navigation law of the country. I think, therefore, that the new clause will only encumber the Bill.
Sir ALBERT J. SMITH. As it would be a violation of the law to put on more than a certain amount of steam, it seems that this clause is unnecessary. I do not see any objection to our steamers racing a little on our rivers, if they do not put on more steam than is allowed by the Bill.
Mr. McLELAN. This matter was considered in preparing the Bill, and we thought that the provision in regard to locking up the safety-valve would be sufficient, because the question of crowding and the right of way in narrow passages is dealt with by the navigation laws of the country.
Mr. BUNSTER. I hope the hon. member for Jacques Cartier (Mr. Girouard) will withdraw that clause with regard to racing. In British Columbia we have
COMMONS DEBATES
a strong company that owns a considerable number of boats, and Ve have other enterprising men building boats, and they are vieing vigorously with the large monopoly in steamboats that has existed for years. I hope the hon. gentleman will see fit to withdraw that part of his motion relating to racing.
Mr. GIROUARD. I believe the clause as framed will meet every objection. It says that when a captain of a steamer shall allow his steamer to race so as to endanger the life of his passengers or the safety of his steamer, he will be guilty of a crime. That will be left to a jury.
Mr. McCUAIG. What is the meaning of the word race ? It means an increase of motive power to produce greater speed, and the moment a man increases the power of the engine, he violates the law.
Mr. McDOUGALL. It appears to me the question is a simple one. It is quite true that you may not be able to put on steam enough to make a race; but we know that when people want a race, there is a way of getting at this locked up safety-valve, I apprehend, and what proof can you give whether the safety-valve has been maintained at the proper pressure or not ? A race is a thing which a hundred people may be spectators of and may be able to give proof of; but as to whether the safety-valve was kept in its proper position, or whe her too much steam was put on, cannot be ascertained except from the officers of the boat.
Mr. McCALLUM. I think the hon. member for Halton cannot have read the Bill, because it provides that under a certain penalty the certificate granted by the Inspector is to be bung up, so that every passenger can see it; and that tells the number of pounds of steam which the steamer ought to carry, and the steam-gauge tells what amount it is carrying. Does the hon. gentleman want more than that ? In this Bill ample punishment is provided for any man who violates the law. The amendment cannot hurt the Bill very much. With regard to racing, suppose two steamboats leave a whaif together, both carrying all the steam that the law will allow, and both running at about the same speed ; you might call that racing, hut 'it is not, because they are running according to the law.
Mr. McLENNAN. The explanation that is made of the safety that arises from locking up the safety-valves does not cover the case. The test of a boiler is made with refer-, ence to its strength, and not its ability to propel craft. That will depend upon the size of the vessel for lading, and many other circumstances, and if the boiler happens to have strength enough to stand the test of a high pressure of steam, the vessel may be able to race without violating the law. Thus speed might be produced, measured only by the capacity of the boiler, not by the danger of racing, and everybody knows that racing is very dangerous.
Amendment negatived on a division.
On motion for third reading,
Mr. McCALLUM. Sub-section 6 of section 19 of this Bill provides that:
Every boiler, safety-valve, eteam-guage or other appendage to a boiler, or machine placed on board a steamboat after the ceming into force of this Act, shall for the purposes thereof he considered as having been made after this Act is in force, and subject to the requirements thereof accordingly.
I consider this a very severe provision, because it will have the effect of condemning all the boilers made up to the time this Act comes in force, which are not made in accordance with this clause. I do not think that is the intention. I cannot understand it, and I have not seen a man who can explain it to me. It is not right that we should have this provision applied to all the boilers already made which are good enough, that Mr. Risiey-should try his hand at such experiments. I, therefore, move:
Mr. Burster.
That the Bill be act now read a third time, but it be referred back to a Committee of the Whole, to amend the same, by striking out the word “ boiler-cocks,” in sub-section 2 of section 19, and by striking out sub-section 6 of section 19.
Mr. McLELAN. The effect of this amendment would be to permit boiler-cocks to be screwed into the thin shell of the which proves a very slight hold. The Bill now requires boiler, there should be a flange to connect the boiler-cock to the boiler, or connection by a nut, to give it a better connection between the boiler and itself. In some cases the boiler-cock has been simply screwed into the thin shell of the boiler by a very slight thread of a screw, and has afterwards been blown out, lives being lost in consequence.
Mr. McCALLUM. Never.
Mr. McLELAN. I know of some oases. The Bill provides for additional security by setting in a flange, and by allowing the boiler-cock to pass through the shell with a nut inside, and attaching it more securely to the boiler. Under the amendment a difficulty would occur in leaving the time unlimited. Every boiler made after the passing of f his Act, whether in one, two, or ten years, and set in a steamer, under this proposition, would be free from the requirements of this Act. This motion would destroy the effect of the whole Act Again, you could take an old boiler out of an old steamer and put it in a new steamer, under the operation of this amendment, and would be free from the provision of this Act. This Bill has been known for two or three months, and it will not operate till the 1st of September next, and all boilers in course of construction will be placed on board of steamers before that time.
Mr. BROWN. With reference to placing the flange inside, and the boiler-cock, as proposed in the Bill, if a boiler is likely to burst with a pressure of steam, it would be better to let the cock go altogether. If we could place a plug there on the pressure of steam, it could not do any harm. It is difficult sometimes to get the washer inside the boiler. The guide-cocks sometimes become unscrewed and frequently have to be taken out, and it is difficult to place them inside. Boiler explosions occur very seldom. The ptinciple point is to see that the plates are of good quality and well riveted down. I never knew of a boiler exploding when the engine was in motion. It will generally work off the steam faster than it can be raised. If the steam is likely to get very high, the engineer will be able to let go altogether, which would be a better protection to the boiler.
Mr. MoCUAIG. Although I am over foriy years in the steamboat business, I have never known of a cock of a boiler being blown out. Previous to a steamer leaving the wharf she tests the cock at 90 lbs. pressure and 65 lbs locked up. A good many boilers are so constructed as to reader it impossible to put this flange in. This is a new clause altogether. None of my engineers either, have known of such accidents as the hon. Minister has mentioned. Steamboat owners ought not to be put to unnecessary expense simply because the Chairman of the Inspection Board wishes to test some new-fangled experiment which he learned of in England. With'the present precautions and protection I do not see how any accidents can occur.
Mr. COCKBURN. I believe there was an accident in Montreal from the blowing out of a steam-pipe, but I do not think any dangor exists when the proper screws are in the boilers as at present. It would impose a very great hardship on the trade were they compelled to take out all their present connections and put in bolts. I have consulted practical men on this matter, because I know the inspectors have been in favor of connections on those flanges. In some cases they have had to break the pipes all to pieces. When screwed into the boiler they were more secure than Jihey could have been made Hby any flange, therefore they
1882,
COMMONS DEBATES
1805
are perfectly safe. The accident that took place is no reason why we should adopt this change. A clause might be introduced applying to future boilers, but none should be made retroactive. If it is the desire of the Committee to make it apply in new cases only, 1 do not object. When people are putting in new machinery they will not object to putting on flanges, but if the inspectors wish to put those on in old boilers it would be a great hardship.
Mr. CUKRIER. The heads of boilers, I presume, are generally considered the weakest part, and I think the obligation to rivet on flanges will do harm. Boring holes to rivet pn flanges and putting on try-cocks, will serve to weaken the head of the boiler. The try-cock of a boiler is small, not more than half an inch in diameter. That would only be one-third of a square inch on which the pressure would come. Boiler bolts are scarcely less than three-eighths of an inch in diameter. That would take about nine threads of a screw in the thickness of a boiler bolt. I do not see how it is possible a try-cock put on with nine threads, taking hold of the thickness of the boiler, could possibly be forced out, because the pressure on it is so small, not being more than one-third of a square inch. It would be a great hardship to steamboat owners to be compelled to change their boiler heads by putting on all these flanges.
Mr. McCALLUM. It is very important there should be plenty of water in the boiler all the time, and a glass tube is attached that shows you the quantity of water in the boiler; but in case this tube should by accident be broken, there are three of those gauge-cocks in every boiler to Bhow the amount of water. They are not any larger than my finger, and the holes are not more than one-eighth of an inch in diameter. In a boiler that will carry 100 lbs. of steam, there is not more than a prossure of 30 lbs. on the size of my fiDger. But as far as valves are concerned, it is greater. A man at Montreal when screwing one of these valves did not make it sufficiently fast, it was blown out and killed him. On that an Order in Council was passed, on the 26th March, 1880, providing that all valves and all boiler cocks and everything of that kind should be put on with a flange. In the pipes of any size as high as an inch and an inch and a-half, that has been carried out in the past even on board my own boats ; we had to destroy pipes to get them out and they were afterwards put on with a flange. I do not object at all that in case of valves when there is any pressure of steam against them and there is the slightest danger of their being blown out, flanges should be put on ; but I know the House does not want to impose this useless expenditure on steamboat owners of putting flanges on gauge cocks and making a boiler weak by boring these holes in its weakest part. The hon. Minister says if we strike out sub-section 6 of section 19 you can put any old boiler on board a vessel. But he has got the same law as we had before, and the whole Act itself, even should this sub-section be struck out. I do not want this Bill to be made retroactive so that steamboat owners will be obliged to destroy the boilers already made up to the present time, which they wotfld have to do under this clause which provides that all the boilers made before the passing of this Act must come up to the standard of this Act although they may be safe and good boilers. By one stroke of the pen you are going to destroy people’s property. If a boiler does not come up to this standard the inspector will have to condemn it. I hope the hon. Minister will strike out this clause because it is retroactive.
Mr. McLELAN. It is not.
Mr. McCALLUM. The clause reads :
Every boiler, safety valve, steam-gauge or other appendage to a boiler, or machine placed on board a steamboat after the coming into force of this Act, shall tor the purposes thereof be considered as having
164
Jbeen made after this Act is in force and subject to the requirements thereof accordingly.
If that is not retroactive I do not know what is.
Mr. McLELAN. No; it only refers to boilers placed on board after the passing of the Act. With regard to subsection 2, the boiler-cock may stand, as the hon. gentleman has said, 90 lbs. pressure when the screws are new, but after they are worn a while and corrosion sets in-
Mr. McCUAIGr. That makes them stronger.
Mr. McLELAN. After continual handling the thread weakens, and the pressure becomes too heavy. The hon. gentleman has referred to one ease of loss of life, in consequence of that, and there have been many others. I believe now it is a custom to provide safety-plugs of lead, which melt and allow the steam to escape, and no damage is done.
Mr. KIRKPATRICK. The steamboat owners throughout the country are very much excited over this Bill. Their business is now reduced to almost a non-paying basis through the great competition they have to meet with railroads, and the out-look is that their business will be still further reduced in the future. They naturally feel aggrieved that any unnecessary, if they are unnecessary, or irksome charges should be put on them. The amendment which the hon. member for Monck proposes will not weaken this Bill at all, because it refers to boilers that may be made between now and the time of the	coming into force of this Act.
He only asks to have this clause amended by adding: “ Any boiler, safety-valve, steam-gauge, or other appendage to a boiler or machine, and placed on board after the Act comes into force.”
Sir ALBERT J. SMITH. What will be the standard of the old boiler?
Mr. KIRKPATRICK. The same standard as at present. It will have to go through the same inspection, to be subject to the hydrostatic test and every other test now required.
Sir ALBERT J. SMITH. Would that test be abolished by this clause ?	_
Mr. KIRKPATRICK. Not at all, it is kept in force still. This amendment will not state that these boilers will not be subject to this Act, but that they will not be required to have these new contrivances that the steamboat owners are complaining of. I think, then, tl^it these two words “ made and ” might be inserted there without injuring the Act at all.
Mr. MACKENZIE. The proposition of the hon. member for Monck seems to me a most reasonable one, and I think the hon. Minister ought to give way to it. There can be no dangerous result from it in making it prospective altogether in its operation.
Mr. McLELAN. “Made and placed on board,’,’made when? Made in ten years? If I understand the hon. gentleman he wants to be allowed to place on board boilers that are made or may be made.
Mr. McCALLUM. No. My amendment strikes out that altogether because it is useless.
Sir ALBERT J . SMITH. I would ask whether a boiler made now will be subject as it is now under the law after this Act passes ?
Mr. McLELAN. It will be subject to the same tests of inspection, but it may be excepted from some of the particulars of construction.
Mr. McCALLUM. I have no objection to striking out the clause altogether; it will suit me better.
Mr. CAMERON (Victoria). I am afraid this Bill may be used in such a manner by the inspectors as to make great hardship to steamboat owners, not required by a fair con-
1306
COMMONS DEBATES
May 4,
sideration of the public good. I have received several communications as strongly opposing some of the provisions. While it is absolutely necessary to provide for the public safety, we all know that Government officers are sometimes apt to perform their duties in a rather austere manner, without due consideration to the interests of private parties. Of course, it is undoubtedly our duty to see that every reasonable prevention is taken to secure the safety of the public, but I do not think it is desirable that we should confiscate the property of steamboat owners by making rigid regulations which, when administered by a very severe inspector, would virtually render valueless property that can be used for the convenience of the public, and without any injury to the public by the present owners. Now, a boiler may be perfectly safe and adequate to pass the existing scale of examination, and the boat in which it is used is burned or wrecked, but under this clause that boiler could not be put into a new hull without violating this new Act, and would be practically useless, and the owner would be compelled to purchase a new boiler or else abandon the boat altogether, in my county there are some fifteen or eighteen small or large steamers navigating inland waters, and if a very rigid system of inspection is applied to every one of these boilers, and the owners were all required to build new boilers, the result would be that the public will be deprived of that accommodation which is so useful to them. I do not think the safety of life will be improved in consequence, but an almost irreparable injury will be done to the owners of these vessels. If the Minister intends to strike out that clause, I certainly think the public would suffer no harm, while the property of a good many steamboat owners who are largely interested would be secured.
of Inspectors are wholly uninformed as to the manner of -constructing hulls, and, in recent cases, they failed, when brought before the Courts, to satisfy either the Court or the jury that they had sufficient knowledge to qualify them to examine inspectors. In consequence of that fact, steamboat owners generally have asked the Government to appoint a hull inspector, one practically familiar with the building of vessels. I observe that clause 7 of the Bill runs as follows:—
7. No person shall be appointed Inspector of boilers and machinery of steamboats, unless nor until he has passed a satisfactory examination before the Board of Steamboat Inspection, as to his knowledge on the subject of boilers and machinery of steamboats, and the working of the same ; or an Inspector of the hulls and equipment of such vessel, unless he has passed a satisfactory examination as to his competency for the office, before a Board of three practical shipbuilders, to be appointed by the Governor in Council, or is a certified surveyor of a recognized society for the classification of shipping.
The Courts and juries have declared, time and time again, that the Chairman of this Board of Inspectors and the Board itself are not competent to examine these men.
Mr. McLELAN. Read on a little further.
Mr. McCUAIG. The clause continues:
Nor shall he be appointed an Inspector for either purpose unless he has received from the Chairman of the Board, or from the said practical shipbuilders (as the case may be) a certificate in writing that he has satisfactorily passed such examination, or is a certified surveyor as aforesaid.	.
I do not wish to leave it in the power of the Government to say that these men shall be examined by the Board of Inspectors. What I desire is, to separate the hull inspecting staff from the inspectors of boilers.
Sir ALBERT J. SMITH. They are separated.
Mr. MoCUAIG. I beg to move:
Mr. McLELAN. I have no objection'to strike out the clause altogether rather than amend it. As to clause 2, that has been in operation two years by an Order in Council. I understand from some steamboat owners on both sides that all the boilers are brought up to the requirements of the Order in Council passed two years ago, therefore it cannot be hard in its operation.
Mr. McCALLUM. I can tell the hon. gentleman that in the inland waters of this country not a single gauge-cock is ever put on, and the present inspector does not insist on it. But another inspector might adopt a new policy and cause a good deal of trouble. I shall agree if the hon. gentleman strikes out gauge-cocks altogether. That is a useless provision. As to the valves, I know the inspector insists on their being put in, and they are being put in in many cases at great expense to the steamboat owners.
Mr. McLELAN. It has been in force two years and no harm has resulted from it. I move, in amendment, that the Bill be re-committed for the purpose of striking out subsection 6.
Mr. McCALLUM. Then I will withdraw my motion. But I am determined to insist on getting these words: “ boiler-cocks ” struck out.
Motion agreed to; and House resolved itself into Committee.
(In the Committee.)
Mr. McCALLUM moved to strike out sub-section 6 of section 19.
Motion agreed to.
Mr. McLELAN moved the third reading of the Bill.
Mr. McCUAIG. The object contemplated by the amendments to this Bill is to secure greater safety to the public. It has been found, in cases tried before Ontario Courts, that the present inspectors are deficient in knowledge in regard to the bulls of vessels. The members of the Board Mr, Camebon (Victoria).
That the Bill be re-committed to a Committee of the Whole, with instructions that they have power to amend the same as that in cl&UBe 7 after the word “his,” in line 32, page 3, the words “skill and experience in the construction, fastening and strength of a steamer’s hull and of hi3” shall be inserted,—and after the word “Council,” in line 34, page 3, the words “ from amongst the residents of the Province within which the inspection is required to be made” shall be inserted,— and after the word “from,” in line 38, page 3, the words “ a majority of” shall be inserted. After the word “Council,” in lines 34 and 35, of the same clause, the words “or is a certified surveyor of a recognized society for the classification of shipping,”—and after the word “from,” in lines 37 and 38, the words “ the Chairman of the Board or from,”— and after the word “ shipbuilders,” in lines 38 and 39, as the case may be,—and after the word “examination,” in lines 40 and 41 of the same clause, the words “ or is a certified surveyor as aforesaid,” shall be struck out.
What I really aim to secure by the amendment is this : I wish the hull inspectors to go before practical ship-builders and undergo an examination, and that their certificate shall be satisfactory. I object decidedly to this clause, “or a certified surveyor of a recognized society for the classification of shipping,” Because we know that political pressure is brought to bear on the Government, and the men appointed are not qualified to discharge their duties properly and to the satisfaction of the public. I, therefore, want them to be brought down to a practical test.
Mr. McCALLUM. I agree with my hon. friend from Prince Edward (Mr. McCuaig) that it is desirable that life and property should be protected as far as possible, and I believe that we are going a long way in that direction in passing this Bill. I objected in Committee to some parts of clanse 7. The	Bill provides that the inspector
of hulls shall go before a board of	qualified
shipbuilders and undergo a certain examination before receiving his appointment, and I think that is sufficient, I objected to the words “ or is-a certified surveyor of a recognized society for the classification of shipping,” for this reason, that the Bill provides that they shall go before a qualified body of men who understand their business.
Sir ALBERT J. SMITH. That applies entirely to the inspection of hulls.
1882.	COMMONS DEBATES.	1307
Mr. McCALLUM. Well, who is better qualifier! to inspect boilerB or machinery than the Board ot Steamboat Inspection. I object to the inspector of hulls being under the control of the Chairman of the Board of Steamboat Inspection, because the Chairman of the Board of Inspection can go on board a vessel and supersede the inspection made by the hull inspector. If these gentlemen hold certificates now from the society spoken of, it certainly would do no harm, if they understand their business, to go before the Board, and show to the world that they are qualified. We have societies in the Province of Ontario for the inspection and classification of shipping, and they may be as well qualified as those the hon. gentleman speaks of. If the hon. gentleman will not withdraw the motion I will have to vote against it.
Mr. McLELAN. I think everything the hon. gentleman really asks for is provided in the Bill. The inspector of hulls has to be examined by a Board of three practical shipbuilders, to be appointed by the Governor in Council, and must receive a certificate from them, and I think this provision meets every requirement.
Sir ALBERT J. SMITH. I think the clause provides for all my hon. friend wishes. He seems to think that the Chairman of the Board of Steamboat Inspection has something to do with the examination of hulls.
Mr. McCUAIG. Unquestionably he is, under this Bill.
Sir ALBERT J. SMITH. The hon. gentleman is entirely mistaken. The Chairman of the Board of Inspection has nothing to do with the examination of the person proposed to be appointed inspector of hulls. They are entirely distinct. I think the provision with regard to the inspector being a certified surveyor of a recognized society for the classification of shipping, is a very wise one. It is the strongest possible evidence of confidence in every respect.
Mr. McCUAIG. What I object to is this provision with regard to the inspector being a certified surveyor of a recognized society for the classification of shipping. If you are going to adopt that provision why not adopt at once classification of insurance companies. The Board of Underwriters examine vessels every year, and I should be perfectly willing to accept the classification of the insurance companies. It would be a much more independent classification than the one provided for.
Sir ALBERT J. SMITH. The Government could authorize the person who is agent of these companies to examine and certify vessels. The Government may appoint the same men.	.
Mr. McCUAIG. They may not “appoint these men though.
Amendment negatived on a division, and Bill read the third time and passed.
THIRD READING.
The following Bill was read the third time and passed:—
Bill (No. 152) respecting bridges over navigable waters constructed under the authority of Provincial Acts.—(Sir Hector Langevin.)
SEAMEN’S ACT AMENDMENT BILL.
Mr. McLELAN moved the second reading of Bill (No. 135) to amend Chapter 29, 38 Victoria, intituled: “ An Act to extend certain provisions of ‘The Seamen’s Act, 1873,’ to vessels employed m navigating the Inland Waters of Canada, and to provide for the collection of the wages of seamen and other persons employed on board vessels trading on the inland waters of Canada, in a summary manner.” He said; This Bill is intended to remedy a
hardship of which seamen in Ontario complain. In most countries where seamen are employed, their wages are regarded as the first payment to be made by the owners or captains of vessels. In 1879, an Act was passed in this House allowing mortgages on vessels on our inland waters, to have precedence of sailors’ wages, and several cases of great hardship have arisen in consequence. Seamen have found at the end of a season’s work on board these vessels, that some mortgagee could come before them and deprive them of their wages. It is proposed to remedy this evil and to give the men who sail the vessel and make her profitable to the owners and mortgagees the right to claim their wages first. I propose to amend the Bill very considerably in Committee.
Sir ALBERT J. SMITH. How is this Bill originated, is it applied for by parties interested in shipping in Ontario ? It makes great changes, and unless it has been asked for by a very considerable number of parties engaged in the shipping business, it does not seem necessary to change the law as proposed, because the sailors have the securities of the owners of the vessels fur their wages, which is ample. It would be a serious matter to interfere with mortgagees rights, and allow sailors at any time to take steps which would have the effect of destroying the priority of a mortgage. I would like to hear the opinion of the member for Prince Edward on this measure.
Mr. McCUAIG. Under the Maritime Court Law of Ontario, the sailor has at present a prior claim for his wages.
Sir ALBERT J. SMITH. No.
Mr. McCUAIG. Yes; the sailor has a prior claim on the vessel over a mortgage and everything else, except where a mortgage was created prior to the establishment of the Maritime Court. Perhaps there are not more than half-a-dozen vessels in Ontario that have such old mortgages resting upon them. I wish to impress on my hon. friend for Monck this one point: most of those steamboats cost from $50,000 to $60,000, one-half of which perhaps is furnished by the builder, who receives a mortgage on the vessel, for that amount. Is not that mortgage then created to pay the laborers, the carpenters and others engaged in building the vessel, as well as for the materials, and through these means does not the sailor get employment ? What right, then, has Parliament to destroy that security created for the building and working of the vessel? So far as I am concerned this provision will make no difference to me, but the matter should bo carefully considered by Parliament with such laws destroying the securities of property and railways aided by Government, competing against steamboats, we shall soon find them driven out of existence altogether. At present the stock of the mail line, which boasts of some of the finest steamers afloat, running from Hamilton to Montreal, can be bought at from 25 to 30 cents on the $1. It is the constant passing of such Bills—for every year we have an Inspection Bill— which destroys the public confidence in those boats. This frequent legislation should be terminated.
Mr. GUILLET. The hon. member for Prince Edward has made a very extravagant statement; it is not a new thing to grant a first lien on vessels to the wages of seamen, and the argument of increased employment is not worthy of much consideration if wages are insecure. If there are but half a dozen mortgages, there is the less reason for refusing the protection which is granted by universal Maritime Law.
Mr. MoCCJAIG. You have it now.
Mr. GUILLET. On the upper lakes the Maritime Law of the United States recognizes seamen’s claims as the prior lien on shipping to everything but, perhaps, salvage; and as that law has not existed with us, our seamen
1808
COMMONS DEBATES
Mat 4,
have been placed at a great disadvantage to those of the United States, and consequently many of them prefer sailing under the American flag which gives them security for their wages. X know many instances of seamen finding themselves at the end of the season deprived of their hard earnings on which they had depended upon for support of themselves and families through the winter, in consequence of the existence of mortgages ahead of them. Several cases of hardship have occurred to my own knowledge. I know there is a btrong feeling throughout the Province among the seamen with reference to this matter. It is well known that our seamen are men who are not very fond of money for its own sake. They are generous, hearty fellows, anything but mercenaiy in their characters, reckless of life and limb in the performance of duty, but keenly alive to their rights. They feel very keenly the wrong imposed on them by their being placed in an exceptional position different to that of seamen in any other part of the world. I am extremely glad the Government are giving the Bill their support, and protecting the interests of our seamen, as they have done in regard to every other class of our citizens.
Mr. PATTERSON (Essex). When the Act was passed in Upper Canada it was received with great satisfaction by all parties interested in shipping matters. The sailors, up to that time, had no remedy for obtaining their wages in cases where they had difficulties with the masters of vessels. This Act was passed in 1877, but in 1879 an Act was passed changing its spirit by excluding from its operation vessels on which there were mortgages prior to the passing of the Act>
Mr. KIRKPATRICK. Not the vessels but the mortgages.
Mr. PATTERSON. That is the same thing. I think it was a retrograde step, and I am glad that the hon. the Minister of Marine has decided to wipe out that law from the Statute-Book. I have personal experience, as Proctor of the Maritime Court, of the great hardship inflicted on common sailors by the operation of that law passed in 1879, and have already, in former Sessions, protested against its continuance. I have known cases in which sailors at the end of a season did not receive one dollar of their wages. The sooner that law is repealed the better. I understand that this Bill provides to extend to Ontario the provisions already existing in the Maritime Provinces in relation to the summary obtaining of wages within a certain amount. As we have established a Maritime Court in Ontario, it is only reasonable we should have the benefit of the Seamen’s Act in Ontario to the same extent as in the Maritime Provinces. I suppose this Act is only intended to be a temporary Act, if we are to judge from the resolutions passed in the other House in relation to the uniform maritime jurisdiction in the Dominion. In the meantime, I think, it is a matter of the merest justice that this Act should become law.
Mr. McLENNAN. A most prominent feature in this Act is, not the question of the lien that is held by the sailor for his wages, but an unfortunate provision in clause 7, that on a seaman or other person on board such vessel making an affidavit or affirmation before a Police Magistrate, or any Justice of the Peace, where the vessel is lying, that the master of such vessel is indebted to him for wages or refuses to pfry them, the vessel may be detained.
Mr. McLELAN. Pending the result of the resolution moved elsewhere, and the carrying out of the intention of the Government to make some general Bill applicable to the whole maritime cases of the Dominion, I simply propose to make their wages a lien on the vessel and give them the right to recover that they had in the Act of 1873.
Bill read the second time, considered in Committee and reported.
It being Six o’clock the Speaker left the Chair.
Mr. Guillet,
After Recess.
SUPPLY—CONCURRENCE.
On Resolution 1,
Charges of Management............. $169,834 10
Sir LEONARD TILLEY. This is the item on which the hon. member for Centre Huron asked if we had any communication to show if the engagement made by the hon. Finance Minister in 1860, in respect to the English loan, was 1 per cent. I have a letter here which I will read :
“London, 17th January, 1860.
“ Gentlemen,—I think it desirable before my return to Canada to place in writing the arrangement agreed upon between us in relation to the new Canada loan. The financial agents are to charge the commission of 1 per cent, stipulated in former cases of loans negotiated by them for Canada, to be taken into account as the loan is realized. Brokerage of one-fourth of 1 per cent, to be charged where it has been claimed by and charged to the brokers.
“The small incidental expenses of- printing, postage, &c., to be charged to Canada.
“ No commission is to be charged on the exchange orfuture purchaser of the currency or Consolidated Municipal Loan Fund Bonds, made on account of, or out of the proceeds of loan, but where bonds are bought in the market the brokerage actually paid is to be charged.
“ No commission is to be charged on the conversion of the sterling 6 per cent, and 5 per cent, bonds, but brokerage of one-eighth of 1 per cent, mayjbe paid to brokers through vfhom such conversion takes place. | «
“ In lieu Of the commission to which the general agents would be entitled, on the redemption of the outstanding sterling bonds, a commission of 1 per cent, is to be charged upon the amount annually invested in the sinking fund, including the accumulated interest thereon.
“ In case any of the outstanding bonds shall not be converted before maturity, the agents will, in such case, be entitled to commission on their redemption (1 per cent.) ”
That is the letter of the agents acknowledging this communication and accepting it.
Sir RICHARD J. CARTWRIGHT. I do not, however, notice any express stipulation of 1 per cent, of final payment.
Sir LEONARD TILLEY. It says at the end if they are not redeemed in purchases for the sinking fund, then they are to pay 1 per cent, for their purchase.
Sir RICHARD J. CARTWRIGHT. “ In case any outstanding bonds shall not be converted before maturity,” does that refer to this mode ?
Sir LEONARD TILLEY. It refers to the 1 per cent, charged as in former loans, under former engagements which we know were entered into by Old Canada.
Sir RICHARD J. CARTWRIGHT. Of course, I would not, without careful consideration, choose to contradict the construction which the hon. Finance Minister puts upon it, but it seemed to me to bear some doubt as I heard it read. There were a lot of other securities, according to my recollection, at the time. Part of the arrangement made by Sir A. T. Galt had reference to a conversion into 5 per cents, of certain outstanding 6 per cents. I should think that with these outstanding bonds, which matured at different dates, ranging over several years after 1860, were what we referred to in this, and not the whole sum of £5,000,000 or £6,0f 0,(k0 sterling which constituted this 5 per cent. loan.
Sir LEONARD TILLEY. I think if the hon. gentleman reads the second letter he will see it refers to the $2,800,000 floated in 1860.
Sir RICHARD J. CARTWRIGHT. Those outstanding bonds to which I called the attention of the hon. Minister, which were collected, as the letter shows, with our old Municipal Loan Fund indebtedness, came due, I think, at odd periods ranging from 1860 onwards, and this agreement for 1 per cent, refers to that apparently, not to the amount paid bY the loan, as I read these two communications. I should judge, with only these two before me, that the point was
1882.
COMMONS DEBATES
left undecided except as regards the several outstanding debts of Canada, which came in in 1864 or 1865.
Sir LEONARD TILLEY. Does the hon. member recollect when the last 5 per cent, loan was issued by Old Canada ?
Sir RICHARD J. CARTWRIGHT. That was the last one. None was issued after 1860.
Sir LEONARD TILLEY. And that may? he redeemed
in 1885.	'
Sir RICHARD J. CARTWRIGHT. Yes.
Sir LEONARD TILLEY. Exactly. Then that refers to that loan.
Sir RICHARD J. CARTWRIGHT. As the bargain seems to have been concluded now, I do not know that it will affect our position materially one way or the other, but it would affect, to some extent, the terms which the agents had got. I would not venture, without further examination, to pronounce a positive opinion one way or the other upon it, but I think you had better put this on the Table.
Sir LEONARD TILLEY. Yes, I will do that. If I find to-morrow there are any other papers I will bring them down.
Sir RICHARD J. CARTWRIGHT. I am inclined to think that our legal friends will say that the matter was left in abeyance, that they had neither conceded nor waived the point. As regards that particular £50,000 or £60,000, I remember having had considerable discussion with Sir John Rose about it in 1874 or 1875, though whether he produced that letter, or whether the agents produced it, I cannot say from memory, but I know we both came to the conclusion that the matter had been left open.
Sir LEONARD TILLEY. The correspondence that has been placed before me has not been with reference to thei r right to claim 1 per cent, if they redeemed it. One point was whether it was a contract we were bound to carry out with them as a firm or a banking house.
On Resolution 44,
To meet expenses in procuring and taking care of
Archives..-........... ............. $5,000
In reply to Sir Richard J. Cartwright,
Mr. POPE. I have directed Mr. Brymner to make further enquiries regarding the documents in Boston, but the appropriation is so small that it has not so far been possible to obtain copies of them.
Sir RICHARD J. CARTWRIGHT. I think that at Albany also, valuable documents having reference to the early struggles between the French and British colonists, and the settlement of Upper Canada can be found. Our own archives are singularly deficient in these respects.
Mr. BLAKE. I would suggest that there should be a very full and ample index of the archives prepared and carried on from year to year, and printed in some journal. I think some sort of index or catalogue is now issued, but it does not appear to me to be at all as full as it ought to be. What I propose would not be expensive, while it would be extremely useful; so far as anything is known except to those in the Department, these archives might as well be sealed books altogether.
Mr. POPE. A full and complete catalogue is now in course of preparation.
Mr. CASGRAIN. I have been informed that the Government of the Province of Quebec is getting copies of all plans and maps of Old Canada which are in the library in Boston. I have been informed that application has been made to the Government here to obtain a duplicate of these maps and plans, for the library or the archives of the Dominion. Perhaps the hon. Minister could give some information on this subject.
Mr. POPE. My attention has been railed to this matter, but the appropriation is so small that I am no^ yet able to devote any money to that purpose. I hope this year, however, to be able to make enquiry into this matter.
On Resolution 47,
Expenses in connection with the Census..... $60,000
Mr. ANGLIN. Does the Minister intend to make any change in the Census returns to correspond with the gerrymandering of the constituencies in the Bill before the House ?
Mr. ROSS (West Middlesex). Will the Minister not find it convenient to publish a few volumes of the Census on better paper and with better binding than the Census of 1871 ? If it is the same paper, it looks very bad.
Mr. POPE (Compton). It is better.
Mr. ROSS. I would suggest a better paper and better binding, to make the volumes appear respectable. The United Stales work is far in advance of ours.
Mr. POPE. We have obtained the best paper we could find in the country, which I think very good. The answer to the question of the hon. member for Gloucester (Mr. Anglin) must depend on this House. We have distributed one copy to each hon. member, and it is intended to give each hon. member four as hitherto. It will take some time to get the other copies ready. One volume has been prepared much earlier than that of England or the United States, though the Census in those countries were taken a year earlier.
Mr. BLAKE. The hon. member for Gloucester enquired whether it was proposed to gerrymander the Census in the same way as the constituencies. If you have to go to three four or five political constituencies to get the facts in relation to the numbers of former political units, great difficulties will occur. Had the Administration always continued the course of dealing with the municipal organization as the units for electoral purposes, that difficulty would, perhaps, not have been so marked. But we have now neither political nor, in the units proposed to be used in any sense, municipal units, so that we have really no means whatever, without very considerable time and trouble, of applying any unit of any size larger than a township or town, and learning what the statistical facts of the Census are.
Mr. POPE. It must be understood that the Census was taken in April of last year, which will account for the nonappearance of certain bames and facts which would be included in any Census taken at present.
Mr. BLAKE. I pointed out that the redistribution was not arranged on the principle of counties, but on the principle of ridings, and as the ridings have to be all changed we have neither counties nor ridings.
Mr. POPE. The Census having been taken in April of last year could not refer to any divisions of constituencies that have been made since.
Mr. BLAKE. Certainly not.
Mr. POPE. The hon. gentleman will find that every village or municipality has been enumerated and dealt with in proper form.
Mr. BLAKE. My suggestion was that they should be aggregated with reference to one or other of two sets of aggregations in force in the Province—one set is the county aggregation, and the other set is the Federal political aggregation. We have had them here before in the Federal political aggregation of ridings or political districts. We have now not one of them in that form, or in the County form either; and unless something is done to remedy the difficulty, much trouble and expense will be the result in working the new scheme.
1310
COMMONS DEBATES
Mat 4,
On Resolution 39,
To meet expenses connected with health statistics.. $10,000
Sir RICHARD J. CARTWRIGHT. With respect to this, however excellent the object may be, there seems to be a very considerable divergence of opinion among the members of the medical profession in this House in regard to the utility of this vote. If I am not mistaken, many asserted no good results will flow from it. The hon. Minister himself had no very clear idea as to what value he could get for the money. He spoke of the vote as being experimental, and said he was going to confer with the Medical Council and ascertain what they would do. Has the hon. gentleman any further information on the subject?
Mr. POPE. I have no further information than what I gave when the item was first brought down. The Medical Board said that if a certain amount were placed at their disposal they could collect health statistics much cheaper than we. They will submit a plan for approval.
On Resolution 51,
Quarantine........ .................... $68,266
Sir RICHARD J. CARTWRIGHT. With respect to cattle quarantines in the West, have the sites been fully determined ?
Mr. POPE. One will be at Sarnia. It is possible there may be another one, but I am very loth to have another if we can avoid it. If we do it will be in a place where it can be run very cheaply, and will be for a short time in the year.
On Resolntion 128,
To provide for one year’s subsidy, to be granted at the rate of $50,000 per annum, to line of steamers to trade between Canada and West Indies and Brazil, provided a like amount be paid by the Brazilian Government....... $50,000
In reply to Sir Richard J. Cartwright,
Sir LEONARD TILLEY. A steamer belonging to this line left Halifax in February, I think. The Brazilian Government have formally agreed to pay the subsidy on their part.
Sir RICHARD J. CARTWRIGHT. Is the hon. gentleman aware, at this moment, whether any formal communication on the subject has been addressed by the Brazilian Government to Her Majesty’s Government ?
Sir LEONARD TILLEY. I cannot say positively. If the hon. member wishes I will allow that to stand.
On Resolution 131,
Subsidy to steamer between Campbellton and Gaspe,
and intermediate ports..	........... $8,000
Mr. ANGLIN. Has anything been 'done towards providing for this accommodation ?
Mr. McLELAN. Arrangements are being completed for placing a fortnightly steamer upon that service.
Mr. ANGLIN. This is a matter of much interest-to a large population. I endeavored, two or three years ago, to induce the Government to have these boats run also on the other side of the Baie des Chaleurs occasionally, where there is a large population far removed from a line of railway, and to whom the regular running of a steamboat during the season would be a very great advantage. Some attempts were made to create a trade, which were not very successful.
I think, at the time, parties tendering asked a higher sum for this additiona service than the Government were willing to give. As it is a matter of great interest to a large population in that part of the country,! would ask theMinister,whenever he does open negotiations on this matter, to turn his attention to that part of the subject, and make provision for supplying a pressing want to 15.000 or 20.000 people. If
Mr. Blak*.	r *
they were afforded facilities they could do a much larger trade than they do at present.
Mr. MoLELAN. Complaints have been made that the steamers put on the route last year were not sufficient for the work, and negotiations are about closed with a view to get a better boat to run in summer, to be succeeded in autumn by a screw boat.
Mr. ANGLIN. I speak mainly for the purpose of directing the Minister’s attention to the claims of this particular portion of the population on the main shore, who were really neglected in the old arrangement, the object seeming to be merely to accommodate Gaspe and Bona-venture. It is of great importance a boat should run there as late in the season as possible, because there is there a large quantity of fish and other produce waiting to be taken to market. I trust the hon. Minister will look at both sides of the Bay with an impartial eye, desirous, as I hope he is, of promoting the public service and affording facilities to all classes and parties and sections of the country. I find the necessity for this service is quite as great on one side of the Baie des Chaleurs as it is on the other.
On Resolution 132,
For steam communication from Port Mulgrave, at the terminus of the Eastern Extension Railway, to East Bay, Cape Breton............ $6,000
Mr. BORDEN. I desire some information from the Government with respect to this item. An offer was made to perform this service for $4,000 by CapL. Beaty, a man who has run a steamboat in that locality for a long time. This offer was made to the Government last year and refused. The Government employed a steamboat from Quebec, and brought her to this locality to perform the service, for $6,000. The vessel went there late in June and left in October, and complaints have been made that the service was not efficiently performed. I understand this year the same offer was made to perform the service for $1,000 by the same party. I would like to know from the Government why that offer was refused. The service should hare been offered to tender. It is said there are some political reasons why the members of the county of ' Cape Breton did not care to give the contract to Capt. Beaty; but certainly the public interests should not suffer to such an extent for this reason. The service should be offered to public competition, as I have said, as is done in other cases.
I believe, for example, the service at Gaspe is offered to public competition; and the mail service to which I have referred should be placed in a like position. I should like to know from the hon. Minister whether an offer was made last year to perform the service for $4,000, and why it was refused; and whether the same offer was repeated this year and refused; and whether any arrangement has been made for the service during the present season, and if so, to whom has it been given ?
Mr. McLELAN. This matter is under the management of the Postmaster-General. I know of no such offer.
Resolntion ordered to stand.
On Resolution 134,
For steam communication between Halifax and St.
Pierre............................ $2,000
In reply to Mr. Anglin,
Sir LEONARD TILLEY. There can he no doubt the position of St. Pierre is a very embarrassing one to the Dominion, and especially to the hon. Minister of Customs, whose duty it is to see that goods are not brought in without paying duty. This is one of the points from which it is difficult to prevent the introduction of smuggled goods, but arrangements have been made which have decreased the quantity largely. When the vote was first given it was for $4,000, but it has since been reduced to
COMMONS DEBATES.
1311
$2,000. There is a larger trade between Nova Seotia and this Island than is supposed. During the summer a large quantity of cattle and agricultural produce were sent over from Cape Breton and different parts of Nova Scotia, and business has considerably increased. The trouble has arisen with sailing vessels over which the Government has no control; and although the Minister of Customs has had secret agents on the Island to report the vessels which left with a cargo on board, it is quite evident that the existence of the steamboat line has nothing to do with the prevalence of smuggling.
On Resolution 135,
To provide for a subsidy of $1,500 a voyage for voyages of steamers from Prince Edward Island to Great Britain or Continental Ports.. $7,600
Sir RICHARD J. CARTWRIGHT. I desire to ask the Government how long is the arrangement with the Montreal Steamship Company, and what is their intention in regard to renewing it.
Sir LEONARD TILLEY. The arrangements made by the owners of that line with regard to the landing of freight were not very satisfactory last year, but they are in a more satisfactory condition at the present moment; and the agreement is terminable at one year’s notice.
Mr. ANGLIN. Last year, in making enquiry as to the growth and progress of the cattle trade in the Lower Provinces, of one who is largely interested, I was surprised to learn that shippers found	great	difficulty	in	getting accommodation on the	Allan
line, and had to engage room a long time in advance. He told me that he had to pay a rate, I think, of 10s. sterling higher-at Halifax than could be obtained at Boston. If these steamers were doing an ordinary business in their own way we would not perhaps have a right to complain. It might be said that competition would regulate it, but when we subsidize this line so largely, I think we have some right to interpose in the matter and ask that the rates imposed on our own people for the shorter voyage may be at least no higher than the American charge on the longer voyage.
Sir LEONARD TILLEY. I know nothing about the charges on cattle. The charges I referred to were those for freight on goods delivered in Halifax and the freight on goods delivered in Boston. There was a great distinction and great dissatisfaction resulted, but I believe this has been remedied. I did hear, last year, that the difficulty experienced by shippers of cattle from the lower ports was that space was engaged ahead at a high figure by certain parties, and that if other parties wished to ship they made them pay high prices, but before the season was half over the prices fell completely, so that the Allans and other steamers reduced their rates 83£ per cent, on the cattle shipped in their boats. My impression was that the difficulties which arose in this connection had been removed, and I am a little surprised to hear the hon. gentleman say that they charge more at Halifax than at Boston. It may be so, but the circumstances as they were presented to me, led me to suppose that they would have been glad to take cattle at almost any price at the close of the season.
Mr. ANGLIN. I am speaking of the early part of the season. >
Sir LEONARD TILLEY. I think that arrangements have been made now by which a large portion of the freight passes over the Intercolonial instead of going to Boston over the American lines.
Mr. McLELAN. The facilities for shipping cattle at Halifax during the past year have been largely increased, and the improvements will now compare favorably with those of any other port in the Dominion.
Mr. MILLS. If cattle can be shipped at Boston at 10s. a head cheaper than at Halifax, that is a good reason for going there, and the superior accommodation at Halifax will not secure the traffic over the Intercolonial as long as the subsidized steamers prefer the traffic at American ports.
Mr. ANGLIN. The shipper whom I mentioned complained loudly of the difficulty he experienced in getting space, and said that this hardship was calculated to prevent the growth of the cattle trade in the Lower Provinces.
On Resolution 137,
For the providing of a steamer to replace the
Oltndon ............................ $30,000
Sir RICHARD J. CARTWRIGHT. Is the vessel named the Fox Hound which I see mentioned as the one which is to take the place of the Glendon t
Mr. McLELAN. Yes.
Sir RICHARD J. CARTWRIGHT. What sort of a steamer is it, and what did the hon. gentleman do with the Glendon?
Mr. McLELAN. The Glendon was offered at tender, and the tender was accepted at between $4,000 and $5,000. She was condemned by the inspector. The Fox Hound is an iron vessel employed in the fishery service. She was purchased in England and is now at Quebec for repairs.
On Resolution 141,
Expenses in connection with Canadian registration
of shipping......................... $500
Mr. ANGLIN. Has this item any meaning at all? There was an old idea at one time about establishing a strictly Canadian system of classification, but that was abandoned.
Mr. McLELAN. This is in connection with the measurement and registration of shipping.
On Resolution 152,
Grant for Meteorological observations, including instruments and cost of telegraphing weather warnings................................ $40,000
Mr. CASEY. I hope the hon. Minister has arranged for a more thorough system of weather warnings for agricultural purposes than has heretofore been in force. The warnings have been issued at too late an hour in the morning and have not arrived at their destination until all good farmers are at work; and they have not been issued to a sufficient number of telegraph offices. They should be issued to all the telegraph offices in the country. If these warnings are worth anything, they are worth millions of money to the farmers, and I think the least that could be done would be to give them the benefit of the warnings during the months of harvest.
Mr. McLELAN. It is the hope of the Department to increase the service, and to give fuller, earlier and more frequent reports than hitherto. I am afraid we have not asked quite enough money to perform all that the bon. gentleman asks, but additional information will be given, and this valuable service will be gradually extended.
Sir RICHARD J. CARTWRIGHT. The evidence submitted by the weather observers in the United States tends to show that the great storms, lasting for several days, are usually indicated for a considerable time before their approach, and I have no doubt those in charge of this Department could similarly furnish information which would be of incalculable value to the farmers. Who is supposed to supervise the distribution of this money ?
Mr. McLELAN. The distribution is submitted by Mr. Garptnael and his officers to the Department and sanctioned here.
1312	COMMONS DEBATES
Mi*. CASEY. The weather is not reported in sufficient detail to be of any use in some parts of the country. The lake region is the smallest division covered by the reports, and in the summer, during harvest, the weather may be very different at different points in this region. Severe thunder storms sometimes rage in one part of Ontario, while laces not far distant are free from them. I think it would e well to ask the weather office to define when possible with greater particularity the districts likely to be visited by storms, say, for instance, eastern, central, western, or northern Ontario, and to ask those officers, when they can, to predict the general weather for a week in advance. That would be very useful to the farmers. It is often within the knowledge of the weather officers what the character of the weather for the next few days may be. They should try to give a longer forecast than for the next twenty-four hours only.
On Eesolution 114,
Manitoba.................... ......... $13,000
Sir RICHARD J. CARTWRIGHT. I wanted to know whether any steps had been taken to ascertain whether Lake Winnipeg, which lies north of the country adjacent to Winnipeg, cannot be permanently lowered. A very large portion of the country immediately surrounding it has been for a year or two flooded, and was formerly supposed to be of very considerable value. An examination was made, I believe, and reports were handed into the Government. It would be of some interest to know what the opinion of the Government is as to the possibility of draining those lands.
Sir LEONARD TILLEY. I think the hon. gentleman is quite right with reference to some enquiry having been made, and I think the hon. the Minister of Public Works reported that he thought it desirable to make some further enquiry before asking for a sum of money to cany on the improvements that ynight be found necessary after full investigation.
On Resolution 158,
Indian schools in Ontario, Quebec, Nora Scotia and
New Brunswick............................. $9,800
Mr; ANGLIN. Where are those new schools in New Brunswick to be ?
Sir LEONARD TILLEY. One of them is at Indian village, above Fredericton, one in the neighborhood of Burnt Church, and the other is in the northern part of the Province—I do not recollect the locality.
On Resolution 176,
To reimburse D. H. Waterbuir for loss sustained by
his removal from the St. John post office.*$4,500
Sir RICHARD J. CARTWRIGHT. I thought that item was to be altered in shape.
Mr. McLELAN. The change was made back again. It was thought the alteration would give it all to the lawyers.
Sir RICHARD J. CARTWRIGHT. The objection was this: that it is proposed to reimburse this gentleman for losses sustained by his removal from the post office. A good deal of objection was taken to placing in the Supply Bill a statement that we recognized the principle of reimbursing any man, appointed during pleasure, for the loss of his office.
Mr. ANGLIN. Would it not be better to say it was a gratuity—put it in some shape that would not commit us to a dangerous principle ?
Item amended by striking out the words “ for loss sustainedsby.his removal from the St. John post office.”
On Resolution 182,
To meet expenses nnder the Act respecting the
adulteration of food-..................... $10,000
Mr. MoLilaw,
Sir RICHARD J. CARTWRIGHT. Are there no other points at which analyses are made than Montreal, Toronto and Halifax ?
Sir LEONARD TILLEY. They are made at these places and at Quebec and St. John.
Sir RICHARD J. CARTWRIGHT, I suppose the analyses are purely voluntary ?
Sir LEONARD TILLEY. I think they are.
Mr. ANGLIN. I suppose there is no policy of restraining dealers from selling impure articles ?
Sir LEONARD TILLEY. It would be very expensive to have persons visiting every part of the Dominion for that purpose.
Mr. MACKENZIE. It seems to me that this is a matter which is entirely within the province of the Local Legislatures, and I think the Government should consider the advisability of expunging this item altogether from the Estimates.
Sir LEONARD TILLEY. I have never heard the right of the Government to deal with it questioned before.
Mr. MACKENZIE. We discussed the question years ago. We might as well undertake to examine the quality of leather to see if it is fit to make shoes.
Sir LEONARD TILLEY. We have inspectors of flour, leather, and fish and other articles of that kind, and I suppose this would come in the same category.
Mr. MILLS. It used to be the custom to have reports of the analyses of sugar sent to the Inland Revenue Department. I would like to know if any such report has been made lately, and if it has, whether it will be brought down.
Sir LEONARD TILLEY. I am not aware of any such report.
Mr. MACKENZIE* I have observed that the Inspector in Toronto has occasionally advertised the results of his inspection, in some of the local papers, showing the quantities of adulteration found in the various articles of food he inspected.
On Resolution 180,
Weights and Measures, and Gas....... $76,000
Mr. ANGLIN. What is the explanation of the decrease of $6,350 in this item ?
Mr. BOWELL. The Minister of Inland Revenue has found that there were more officers than were required to do the work,and he has been steadily decreasing the expenditure in that particular by not filling vacancies when they occurred, and by promoting members of the Weights and Measures branch to that of the Excise.
Mr. MILLS. At an early period of tbe Session, I called attention to the manner in which the duties on imported articles are collected, and I mentioned two or three cases which had come under my notice. Mr. James Dougall bought some nursery trees in the United States for the purpose of increasing his assortment, and reported to the Department that ho had purchased them at the same price at which they were sold to the wholesale dealers at the nursery, and the answer he said he received from the Department was that there were other nurseries in the United States where a higher price was asked for trees of the same sort. I also referred to the importation of mills for grinding sorghum and of vacuum pans which were purchased at Cincinnati. Upon enquiry,
I ascertained that tbe Canadian purchasers of tnese articles, Mr. Patterson and other.farmers in the West, who wished to make experiments as to the profitableness of engagingin this sort of agriculture, and the statement they made to me was that the Customs officer , at Amherstburg had charged
1882
COMMONS DEBATES.
1313
them duties on an increased value on the articles, that they objected to his valuation, that an appraiser was sent for who valued them at a higher price than was actually paid for them, and that they were not only charged the duty on this additional price, but were fined for not having agreed to the arbitrary valuation fixed by the Customs officer. Since then, the parties have forwarded to me the affidavits of the manufacturer and the shipper, which I sent to the Department, and I have not yet been informed what action has been taken on the matter. It appears to me that thi3 is not the way to encourage higher agriculture. The hon. Minister of Customs may be able to tell us now what course be intends to adopt with reference to importations of this kind.
Mr. BOWJGLL. The points brought before the House by the hon. gentleman involve the whole question of the Customs laws as they exist, the duty of the officers, and the principles involved in that law. The hon. member for Both well complains that Mr. Dougall of Windsor, who had bought trees in the United States, imported them in jO Canada; that he paid the ordinary market price in the United States, but that the Customs officer or appraiser in * Canada had decided they were undervalued, and set a new value upon them and charged duty accordingly. Then it appears the same course was pursued in reference to the question of vacuum pans and cane mills, and that the importer demurred to the valuation put on the article by the collector. In that case the law provides that in case of a dispute of that kind, appraisers shall be appointed who are acquainted with the value of the article to be appraised, and also that such appraisement shall be final, and if it be 20 per cent, higher than the price at which the article was entered, the importer shall bo subject to a return of the extra amount of duty imposed on the article. If those appraisers were appointed, and the value of the article 20 per cent, higher man the price at which it was entered, the law itself imposes the fine; nor doe3 the law give the power to the collector or Head of the Department to remit that fine unless there be extenuating circumstances. From the facts that were stated by the hon. member for Bothwcll, which, I have no doubt, ho related as he heard them, the collector has not gone beyond his duty.. The Department in Ottawa has nothing to do with this question, unless it be brought before it on appeal from the collector’s decision. In such case the Department will take all the necessary steps to ascertain the actual value of the article as far as possible. Frequently, however, people will go to the United States and purchase articles which come into competition with the manufactures of Canada at much lower rates than they are sold for in that market for home consumption; that is not the fair value on which to levy the Canadian duties, but the value at which the articles are sold to the home consumer. That is the principle on which all Customs duties are levied. Mr. Dougali may have purchased at lower prices than was charged American purchasers; but whether the vacuum pans can be classed under that head or not, I am not prepared to say.
Mr. MILLS. I think the hon. gentleman has scarcely apprehended my observations with reference to the trees. I stated that the price Mr. Dougall paid was the price universally paid in the United States, and that whether those nurserymen were charging a higher price in the United States seemed beside the question ; that the law was complied with ; that the cane mills and vacuum pans manufactured by this Company were sold to their American customers at tho same price charged Mr. Patterson, and that it did not seem to me that the Minister of Customs or his officer were at liberty to go beyond that price, assume they were entered below their value, and charge what he considered was the proper amount of duty upon the value which he chose to consider the correct one.
1«5
Mr. BOWELL. The hon. gentleman will see the difficulties that presented themselves to the collectors in the cases to which ho has just referred. There arc, it is true, some manufacturers of a particular article who will soil at less than others. There was, for instance, the case of the importation by tho Canadian Pacific Kail way of a large number of locomotives which were outered at a cortain price. All the evidence that could be produced was to tho effect that those engines cost the Canadian Pacific Kailway $9,500, only. At the time they were imported wo had entries for the same sized engines precisely, same sized fire-boxes and cylinder, and, as far as an invoice could indicate, of the same character, from another manufactory, however, at $14,000. The collector stopped tho onginos in transmission, and although every evidence possible was produced to show the actual value to the importer was $3,500, they wore increased to $11,000 each for duty for tho reason that that was tho fair market value at tho time of the exportation from the United States. It matters not what the article cost, its value for duty is that at the time it was exported.
Mr. MILLS. Supposing the price had diminished, would the Government have made a corresponding reduction ?
Mr. BOWELL. Certainly. I am surprised that a gentleman who pays so much attention to the business of this House, does not remember that during last Session 1 introduced an amendment to the Customs Act, which provided for this very case. Under the Act introduced by the lato Government no allowance could be made for reduction of price even should an article have gone down 50 per cent, before it was exported, while if the price went up the duty was charged on the increased value. I believed this was ‘ not fair to the importer, and introduced an amendment to remedy this injustice. As to tho case in question, we arrived at as correct a calculation of the actual value as possible. We have catalogues and price lists of all the nurserymen in the United States, who sell to this country, extending as far west as Delaware in the Southern States. Perhaps the hon. gentleman will be surprised to learn that many manufacturers have an export price list and a price list for home consumption. In this case we have to make a comparison always finding the export list much lower than the price for selling to their own people. They have a very perfect system of paying drawbacks in tho United States, and the manufacturers can afford to sell to foreign markets le3s the amount of the drawback, and make as much money as by selling in their own country. With regard to trees we have tried to establish a uniform price for certain qualities and standards. If Mr. Dougall has suffered in this case, and if any evidence be produced that he has been improperly treated, justice will be done to him.
Mr. PATTERSON (Essex). I have no doubt Mr. Dougull’s statements are correct. Mr. Dougall was annoyed at the manner in which his communication to the Department was answered, and he did not press the matter because he did not consider the amount involved was of sufficient importance to carry on the correspondence. I have no doubt, if it had been brought under the notice of the hoa. Minister of Customs himself, tho amount would have been refunded. Mr. Dougali felt rather annoyed, and very naturally so, that a man so well known as he is, who.se respectability and credibility are beyond question, should have received the uncourteous answer he received when he first made his complaint.
MESSAGE FROM HIS EXCELLENCY.
Sir LEONARD TILLEY presented two Messages from His Excellency the Governor General.
Mr. SPEAKER read the Messages as follows :—
Lorn®.
The Governor General transmits to the House of Commons, the additional Supplementary Estimates of the amounts required for the Service
1314
COMMONS DEBATES
of Canada, for the year ending 30th June, 1882 ; and in accordance with the provisions of “The British North America Act, 1867,” he recommends these Estimates to the House of Commons.
Government House,
Ottawa, 4th May, 1882.
Lornk.
The Governor General transmits to the House of Commons, Supplemeatary Estimates of sums required for the Service of the Dominion, for the year ending 30th June, 1883; and in accordance with the provisions of “The British North America Act, 1867,” he recommends these Estimates to the House of Commons.
Government House,
Ottawa, 4th May, 1882.
Sir LEONARD TILLEY moved that the Messages, with the accompanying Estimates, be referred to the Committee of Supply,
Motion agreed to; and (at 11:50 o’clock, p.m.) the House adjourned.
HOUSE OF COMMONS,
Friday, 5th May, 1882.
