 at Three o’clock.
Prayers.
FIRST READING.
Bill (No. 119) respecting the Shore Line Railway Company (from the Senate).—(Mr. Giilmor.)
97 h
3079
[COMMONS)
30*0
IRRIGATION IN THE NORTH-WEST TERRITORIES.
Mr. DALY moved for leave to introduce Bill (No. 120) respecting the utilization of the waters of the North-west Territories for irrigation and other purposes.
Mr. LAURIER. What is the nature of the amendments proposed ?
Mr. DALY. The first amendment relates to section 1. As it stands the word “ agent ” n.eans the registrar of land titles. It is proposed to amend the section so that people will be able to go to a Dominion lands agent, instead of having to go to the registration office, which, for instance, in the territory affected is in Calgary. There is a Dominion lands office* at Lethbridge, which will nearer at hand for some people. The next amendment is in regard to section 4. Under that section in the original Act the use of water, except where the contrary is specified, is vested in the Crown. It is contended that this might interfere with navigable and floatable rights on any of the rivers, and the amendment proposed is to remove that doubt. The next amendment is to subsection 1 of section 7. It is provided at present that any person who desires to use water-rights subsequent to the passage of the Act shall obtain a license, and that such license shall be obtained on or before 1st July. 1895. The provision as it stands is compulsory, and refers even to people requiring water for domestic purposes. The amendment is to make the Act not to apply to water for domestic purposes, and also to extend the time for obtaining licenses, by people • authorized to use the water, for another year. The next clause is in reference to the application for license. Under the present section men living on their own farms are put to great expense, because the Act provides that they shall tile certain plans and give certain notices, and the experience of one year has shown that this entails on property-holders too much expense and trouble. The amendment will simplify that matter, especially as regards tiling plans. The next subsection refers to the same matter. Under the present Act the maps, plans and book of reference must be signed and certified to by a duly qualified Dominion lands surveyor. It is thought in connection with the small ditches on individual farms to be unnecessary that the plans should be signed by a surveyor, but these may be submitted to an officer of the department, and if certified as correct, that will be sufficient. This amendment will relieve farmers or individuals from the expense of obtaining the services of a Dominion land surveyor.
Motion agreed to, and Bill read the first time.
Mr. Foster.
NORTH-WEST T E R R1 TOR IE S MENTATION ACT.
REPRE-
Mr. DALY moved for leave to introduce ! Bill (No. 121) to amend the Revised Statutes of Canada, Chap. 7, respecting North-west ; Territories representation.
Mr. LAURIER. In what particulars will ; the Act be changed ?
i Mr. DALY. The effect of the amendment i is this : Under the present law the quali-fieation of a voter at Dominion elections | in the North-west Territories is that he shall | be a British subject. 21 years of age, a resi-! dent of the Territories for 12 months prior 1 to the issue of the writ, and a resident of I the electoral district for 12 months prior | to the issue of tile writ. This Bill ! seeks to amend that law by pr«»vid-| ing that the qualifications should be iden-J tical with the qualifications of a voter bn*
I the local assembly, namely, that he should I be a British subject. 21 years of age. and that lie should have resided for twelve months in the Territories and three mouths in the electoral district. There is a further provision altering the oath to meet that.
Mr. LAURIER. I cannot help congratulating my lion, friend that he is coming to sound principles gradually.
Mr. DALY. It is the franchise that was laid down by this House some years ago.
Motion agreed to. aud Bill read the first time.
GENERAL INSPECTION ACT.
Mr. WOOD (Brockville) moved for leave o introduce Bill (No. 122) to amend the General Inspection Act. He said : The object of this Bill is to amend section 19 of the General Inspection Act by substituting the section that I have framed for subsection 2 of the Act, and also by adding an additional subsection as subsection 4. The purpose of the Act is to more completely regulate the inspection fees charged by the grain inspectors throughout the country. This subject was brought to the attention of the House by the lion, member for Winnipeg (Mr. Martin) some Aveeks ago. I then stated that the Avliole question had been engaging the attention of the Government, and that it was the intention to introduce legislation upon the subject during the present session. GAving to the rapid development of the export trade in grain, the fees collected at certain terminal points have been rather in excess of Avhat would meet the requirements of the service. This is so only in two places, Port Arthur and Montreal. In what may be considered as normal years, and under normal conditions, the fees which Avere payable as salaries to the inspectors were not more than should be payable, having regard to the im-
3081
308*2
[JUNE 20, 1895]
portant and responsible duties devolving upon these inspectors. The Bill provides that the Governor in Council may make such disposition of the fees, at any of the places where inspectors are appointed, as may to them seem right and proper. The amendment proposes to provide greater facilities for entering the elevators and examining the books kept there for the purpose of showing the quantities of grain exported, and all other particulars that may be necessary. I may say that the elevators are owned by private persons and not, as is supposed by some, by the Government. This amendment is to render clear any doubt that might exist; as to whether the Government had a right to examine the books belonging to the elevators. We have had no difficulty in doing that heretofore. I may add that the fees collected in all other places outside of the two points I have mentioned, are not excessive, and I doubt whether the service could be performed for anything less than the amounts that have been so received as remuneration. It must not be forgotten that in all matters of inspection, the policy of the Government has been for many years not to appoint salaried officers, the reason being obvious, that in years when the export of grain amounts to little, then the salaries to officers might form a tax upon the Consolidated Revenue Fund. The fixed policy lias been to pay by these fees, and ir is not intended to depart from it. But it is intended to so regulate the fees that when they reach a sum beyond what is considered right and proper for the officer to receive, then the surplus may be disposed of in such a way as the Governor in Council may think proper.
Mr. MARTIN. I wish I had drawn the attention of the lion, the Controller to an apparent discrepancy between the returns from Fort William and the amount of wheat which, according to reports, ought to pass through the elevators there. 1 understand that the gross receipts of that office are somewhat l**.ss than $10,000 a year. The fees amount to about $1 on a car of grain, and according to that there could uot have been more than six millions bushels of wheat passed through the elevator and inspected at Fort William. The report in the newspapers, given to grain merchants, presumably by the Canadian Pacific Railway, shows that we exported something like twelve or fourteen million bushels from Manitoba. I would suggest that it would be well for the Government to get reports from the Canadian Pacific Railway as to the number of bushels they haul, and check the returns from the inspectors in that way.
Mr. WOOD (Brockville). The hon. member for Winnipeg (Mr. Martin) has suggested just what I have stated. The elevators belong to private parties. The hon. gentleman evidently makes a mistake in supposing that
all the wheat that goes into the elevator is inspected. It is not. All the wheat that I is inspected is checked and carefully looked ! into, and I am bound to say that the Cana-i dian Pacific Railway has afforded our officer j every facility for verifying the report of the inspectors. In fact, since the hon. gen! tleman referred to it, I have taken the pains ; to send Inspector Morrow', of Toronto, to • verify the report. The salary of the officer | in question is far less than the lion, gentle-| man (Mr. Martin) supposed when he was j addressing the House before.
| Motion agreed to, and Bill read the first | time.
I
|	PUBLIC WORKS ACT.
i
j Mr. OUIMET moved for leave to introduce I Bill (No. 123) to amend -the Public Works Act. | He said : This Bill is to provide for the sale j by public teuder or public auction, of pub! lie works or property that are no more re! quired for public purposes.
I Mr. LAURIER. Can tlie hon. gentleman I at this moment inform the House what kind I of property he intends to cover by that ;
| whether it is plant or machinery or real j estate V
I Mr. OUIMET. Old plant, machinery, fur-| niture. and property that is no more used i as public property for the public service.
! At the present moment Ave have in Harnil-j ton. for instance, an old building which used 11> be a custom-house, which we advertised i for sale ; and the question has been raised whether the Public Works Act authorizes us to sell it. Of late, authority has always been obtained by Order in Council. In order to get rid of the doubt which has arisen, I introduce the present Bill.
Motion agreed to, and Bill read the first time.
REPRESENTATION ACT.
Mr. OUIMET moved for leave to introduce Bill (No. 124) further to amend the Act to readjust the representation in the House of Commons. He said : When the Act to readjust the representation in this House was passed two years ago, a mistake was made iu the description of the newly constituted county of Berthier, and by that mistake the north-east half of the township of .Toilette Avhich used to belong to the county of Joliette was merged into the new county of Berthier ; and, as the description of the old county of Joliette was lot amended, this half tow nship now belongs both to Joliette and Berthier. That part of the township of Joliette together with the other part and the township of Courcelles now form the parish of Ste. Emilie de 1’Energie. This Bill is introduced to declare that the w'hole parish of Ste. Emilie de l’Energie shall belong to the county of
[COMMONS]
3084
Joliette. When the electoral lists for the counties of Joliette and Berthier were revised last year, the revising officer in the county of Joliette did not make the electoral list of that part of the township of Joliette, but left it to the revising officer of Berthier. My first intention was just to place things in the same state that they were before, but it became very difficult to do that, on account of one single list having been made for the whole. Having consulted the parties interested in the matter, and especially the hon. member for Berthier, it wras thought that the best way to get out of the difficulty would be to return to the county of Joliette all that part of the township of Joliette which was taken away, and also the township of Courcelles, that is, the whole of the parish of Ste. Emilie de 1’Energie. It is further provided in the Bill that the list which has been prepared by the revising officer of Bertheir shall serve for the county of Berthier until a new list is made.
Motion agreed to, and Bill read the first time.
INTERNATIONAL FISHERIES COMMISSION.
Mr. GILLIES asked, Have the commissioners of the joint convention of the Governments of Canada and the United States completed their investigation into the subjects submitted to them to report upon ? If so, does their report suggest that an arrangement be entered into between both governments preventing purse-seining, seining and trawling beyond the three-mile limit upon the Atlantic coast ? If the work of the commission is not yet concluded, when is their report expected by the Government ?
Mr. COSTIGAN. 1. The joint commissioners have not yet completed their investigations of the subjects submitted to them for report. 2. The points of inquiry are covered by the convention, but, as the investigations are not yet completed, no reports on these subjects have been anticipated. 3. Nor could the department at present intimate any probable date for the receipt of the report by the Canadian Government, wdiich must in the first instance, either jointly or severally, be submitted to Her Majesty’s Government and that of the United States.
Mr. OUIMET. Mr. Brien’s building has not been purchased, but an expenditure of $350 has been made to fit it as a post office, so as to secure adequate postal accommodation for the people of that important tow’n.
PROHIBITION COMMISSION.
Mr. BORDEN asked, What was the total number of meetings held by the prohibition commission ? How many of said meetings wrere attended by each commissioner ? Have all the commissioners received pay for the meetings attended by them ?
Mr, FOSTER. I would ask my hon. friend to put that in the form of a motion for a return. The information Is not in the office., blit we have written for it, and will receive it by the time this motion is through.
PRINCE EDWARD ISLAND RAILWAY.
Mr. PER It T asked. Who has the contract for supplying cedar sleepers for the Prince Edward Island Railroad ? Was the contract let by tender ? How’ many tenders w'ere received, and from whom ? What was the amount of each tender ? What is the quantity contracted for ? Was the lowest tender accepted, and how’ much do the sleepers cost per thousand, delivered at Summer-side, F.E.I. ?
Mr. HAGGART. J. D. Windsor, New Mills. N.B., has the contract. Yes, the contract was let by tender. Five tenders were received, as follows, for cedar ties : —
J. D. Windsor, New Mills, N.B., 30,000 at.. $0.21 V2 Warren Taylor, Salisbury, N.B., 6,000 at.. 0.22*4 Sumner & Co., Moncton, N.B., 15,000 at.. 0.23*4 Sumner & Co., Moncton, N.B., 15,000 at... 0.23% I. & R. Young, Tracadie, 3,000 at. 0.30
Thirty thousand were contracted for. The lowest tender was accepted, and the sleepers cost $215 per thousand, delivered at Summerside.
MR. GEORGE WALLACE.
Mr. FRASER asked, Is George Wallace, of Woodbridge, Out., now, or has he at any time been in the employ of the Government? If so, (a) when was he employed ? (b) For w hat length of time ? (c) What remuneration did he receive, and (d) wffiat was the character of his employment ?
POST . OFFICE OF LAURENTIDES, P.Q.
Mr. CARROLL asked, 1. Has the Government purchased or bought from Ovide Brien or any other parties a building for the purpose of placing therein the post office of Laurentides, county of L’Assomptlon ? If so, when, and on what terms and conditions ? 2. Has the Government taken any steps, and if so, what steps to have the said building repaired and fitted to serve as a post office ?
Mr. Ouimet.
Mr. "WALLACE. He wras, but is not now, in the employ of the Government. He was j employed from 9th April to 16th June, 1S93, j at Brockville and Quebec, in rearrangement of a vessel, at $3.50 per day ; from the 1st to 31st of October, 1894, as an acting special preventive officer of customs, assisting special officer .Belton, at $2 per day ; from the 1st April to latter part of May, 1895, as an acting special preventive officer of customs, assisting special officer Belton, at $2 per day.
3085
3086
[JUNE 20, 1895]
WAYS AND MEANS.
Resolution <p. 2815) reported from Committee of Ways and Means, was read the second time and concurred in.
Mr. FOSTER moved for leave to introduce Bill (No. 125) for granting to Her Majesty certain sums of money required to defray * certain expenses of the public service for the financial year ending 30th June, 1805. and for other purposes relating to the public service.
Motion agreed to, and Bill read the first time.
COMMERCIAL TREATIES.
Mr. FOSTER moved that the order for second reading of Bill (No. 44) respecting commercial treaties affecting Canada be discharged. He said : After the discharge. I want to move for leave to introduce a Bill as a substitute. The Bill which is on the paper is general in its provision, the idea having been to make it applicable to all treaties that may take place hereafter. But, after thinking the matter over, we have concluded that it is better to pass a Bill relating to this particular treaty alone—that is, the French treaty.
Mr* LAITRIER. I do not know that the change the hon. gentleman contemplates is altogether an improvement. As I understand it. the Bill which the hon. gentleman is going to introduce is to be limited to the French treaty. As a consequence, in any future treaty we may have to negotiate, the same difficulties may arise as arose with regard to the French treaty. Unless the hon. gentleman has strong reasons for going back on what should belong to Canada at present, I cannot conceive that the measure he is going to introduce will give the same satisfaction.
Bill withdrawn.
Mr. FOSTER. I think it will give most perfect satisfaction. What we are really dealing with is a treaty which has been made and ratified by Parliament, and what we are going to ask the House to do is to pass the legislation which is necessary with respect to that particular treaty. I did not suppose I would meet any criticism from mv hon. friend, when I was not asking powers for the Governor in Council, in the way of proclamation, as to treaties not yet made. Parliament is always here, and it is impossible for us to have a treaty without the sanction of Parliament; and tvhen sanctioned, we can. in the same session, provide for what is necessary with regard to that treaty. It would be better to make each enactment refer to the particular treaty at that time in hand. I move for leave to introduce Bill (No. 126) respecting commercial treaties affecting Canada.
Motion agreed to, and Bill read the first time.
SALARIES OF JUDGES OF PROVINCIAL COURTS.
Resolution (p. 2180) reported from Committee. mi a certain proposed resolution respecting the salaries of judges of the provincial courts, was read the second time and concurred in.
Sir CHARLES HIBBERT TUPPER moved for leave to introduce Bill (No. 127) vinoial courts, was read the secoud time and judges of provincial courts.
Motion agreed to, and Bill read the first time.
DEVELOPMENT OF SEA FISHERIES.
Mr. COSTIGAN moved secoud reading of Bill (No. 74) further to amend the Act to encourage the development of sea fisheries and the building of fishing vessels.
Mr. DAVIES (P.E.I.) Will the hon. gentleman please explain.
Mr. COSTIGAN. I gave an explanation when I introduced the Bill. I will read a memorandum which briefly sets forth the object of the measure :
The object of this Bill is to give certain fishery officers standing power to take evidence under i oath, when making inquiries into alleged fishing ; bounty frauds. At present, when a case of al-j leged fraud is reported and referred to the In! spector of Fisheries for inquiry, such officer ?s,
: in many cases, unable to get at the facts, be' cause of the unwillingness of parties connected 1 with the irregularities, or of those in possession : of the facts, to tell the truth. It often happens ■ too when parties do give information with regard to alleged fraud, which, they say, they are • prepared to prove if called upon so to do, that 1 they refuse to substantiate their statements when > called as witnesses. If the officers had the power i to get evidence under oath, these difficulties i wcuId be removed, and better results would fol-i low the prosecution of such cases. Chapter 114 i of the Revised Statutes of Canada, as amended \ by the Act of 1889, provides for the appointment ! of a commissioner to inquire into matters of this kind, but, as frequent complaints of fraud are I made, it would be necessary, under this Act, to | go to Council for a commission in each case, and i considerable delay often follows j while the pro! posed amendment to the Bounty Act would en-1 able the officer to proceed, once a. complaint is { made, to obtain the facts under oath without ! delay.
j At present our fishery officers are given the i power of justices of the peace for the investigation of cases of infraction of the fishery law. But now, when questions of fraud are to be inquired into, in order to take evidence we must go to the Governor in Council and ask for the issue of a commission. The House will easily understand the inconvenience of this course. This simply extends the power of the fishery officers s*>
3087
[COMMONS]
3088
as to authorize them to take evidence in cases of fishery bounty frauds.
Motion agreed to ; Bill read the second time, considered in committee and passed.
On motion for third reading.
Mr. DAVIES (P.E.I.) Before the Bill is read the third time I would like to make an inquiry regarding a matter which I did not quite catch when we were in committee. This Bill confers these powers upon “any fishery officer.” Wliat class of officers is included in that term : Is there a definition in the statute which would show what class of officers is included under that term ?
Mr. COSTIGAX. The inspector would naturally be selected wherever possible, blit this is not always possible.
Mr. DAVIES (P.E.I.) What other officers, what other persons than the inspector might be selected under this clause V I heard the lion, gentleman’s explanation and I think the object he has in view is a good enough one ; but I think such an inquiry ought to be entrusted to men of a certain intelligence. I think it likely that that class would be indicated by the expression “ any fishery officer.” but that term might also include men of a class not fitted to conduct such inquiries.
Mr, COSTIGAX. The only answer I can give to the lion, gentleman is that the department will select only permanent officers, the inspector by preference. But there may be cases where it would be inconvenient and unduly expensive to send the inspector. We must ask Parliament and trust the department to exercise a wise judgment in these matters.
Motion agreed to ; read the third time and passed.
DOMIXION XOTES ACT AMEXDMEXT.
Bill <Xo. further to amend the Dominion Xotes Act. was read the second time, and House resolved itself into Committee.
(In the Committee.)
< »n section 2.
Mr. DAVIES (P.E.I.) Is there any section of the Act requiring a return to be made to Parliament showing the extent to which the power conferred by this clause is exercised ?
Mr. FOSTER. The returns are published every mouth in the “ Gazette.” This Bill ist simply to remedy a defect in last year’s legislation.
Mr. Costkjax.
Sir RICHARD CARTWRIGHT. Incidentally, you might tell us how the defect occurred.
Mr. FOSTER. I have not been able to find that out myself.
Bill reported, and read the third time and passed.
JUDGES OF PROVIXCIAL COURTS.
House resolved itself into committee on resolution <p. 2U»."b respecting judges of provincial courts.
(In the Committee.)
Sir CHARLES IIIBBERT TUPPER. There is practically no change. This is really to remove a doubt and settle a question which occurred to the mind of the judge who is affected, that is the judge of the maritime court, and to put him in the position which he desires to be in. He himself has suggested doubts, as a local judge in admiralty—and the same with all the other judges in admiralty—one being that there was no mentiou of the maritime court of Ontario. He was left as judge of the maritime court, that position was not affected, but when we constituted the admiralty jurisdiction of the Exchequer Court, and provided that tin* local judges bo judges in admiralty, we simply provided that the judge of the maritime court should be the judge in admiralty. In all the other provinces the judges in admiralty courts come within the terms of the Superannuation Act, and this is to bring in the maritime court.
Mr. DAVIES (P.E.I.) I do not see how any one Parliament came to put the local judges in vice-admiralty on superannuation. How did they get an ordinary local judge in admiralty on superannuation ?
Sir CHARLES IIIBBERT TUPPER. Section 14 provides for that.
Mr. MCCARTHY. How does that apply to judges of maritime courts in Ontario V
Sir CHARLES HIBBEItT TUPPER. The doubt that arose was whether the judge of the maritime court, who is the local judge ii; admiralty in Ontario, was on the same footing as all the other local judges in admiralty, and as the maritime courts had not been specially mentioned, the object of this is to remove that doubt by putting after the words “ vice-admiralty ” in the present Act, the words ‘* the maritime court of Ontario,” because he discharges the same duties.
Mr. DAVIES (P.E.I.) What statute contains that subsection 2 that you are amending by adding the words “ maritime court of Ontario ” ?
Sir CHARLES HIBBERT TUPPER. Section 14 of the Revised Statutes. .
3089
[JUNE 20. 1890]
’>090
Mr. DAVIES iP.E.I.i Was not that passed before we established vice-admiraltv courts at all ?	‘
Sir CHARLES HIBBERT TUPPER. Yes.
Mr. DAVIES (P.E.I.) When those courts were established, and the local judges in vice-admiralty courts were appointed, was any provision made to bring them under the Superannuation Act. this new class of judges't
Sir <’ll ARLES HIBBERT TUPPER. Under the provisions of that Act they remained entitled as judges in vice-admiralty. Then the Act constituting our admiralty court, threw upon those courts these duties, and so the judges in admiralty in other provinces were mentioned as such, and the judge of the maritime court in Ontario was empowered to do the work of the local judge in admiralty in Ontario. So it stands in this position, that we have assumed all along that they were on an equal footing as to the superannuation, but the judge of the maritime court in Ontario expressed his fear that there was a doubt through his not being considered as coming within the meaning of the Act as a local judge in admiralty, but merely as judge of the maritime court authorized to do the work of a local judge in admiralty. There is no reason, as it seems to me, for distinguishing his case i'rcm that of the other judges who do the same work.
Mr. DAVIES (P.E.I.) I quite agree with the hen. gentleman that there would be no reason for distinguishing a judge of the maritime court of Ontario from the local judges I of the vice-admiralty courts in other parts i of the Dominion. But the assumption he ! draws is directly at variance with that ! which I drew*. 1 understood from our Re-1 vised Statutes that the judges of the old ; vice-admiralty court came within the Super-; animation Act, but when the new’ Admi-1 ralty Act w as passed in 1890, I think, and | the Exchequer Court was made an admiralty ! court with local jurisdiction and local judges, | the salaries of those men were entirely j altered and largely increased, but no pro- j vision, that I recollect, was made bringing j this new class of judges, with their increased ] salaries, under the Superannuation Act. My | impression w*as, and remains so up to this I time, unless the lion, gentleman can show 1 something to remove it, that it was not the intention of Parliament that these local judges should be brought within the superannuation clauses of that Act at all. If that impression is correct. I certainly see no reason wiiy w*e should put them on now. On w’hat ground ? They do not do a large amount of business, they receive salaries wilieh, in my humble judgment are a very good compensation for the work they do, but I am not going to quarrel with "their salaries. But that they Should get an addi-
tional compensation, wiiich I never under stood up to this moment they had got. is something that I cannot agree to at present. I quite agree with the lion, gentleman that there is no reason wiiy the maritime court; judge should be accepted.
Sir CHARLES HIBBERT TUPPER. We can take a discussion on that general question, wiiich, of course, was one 1 did not intend to deal with, on another stage of the Bill. But I may point out to the lion, gentleman that it seems to me at the moment there was a good reason for this legislation, because otherwise w*e wrould have affected the positions of those judges unfairly. They were judges in vice-admiralty.
Mr. DAVIES (P.E.I.) Was our Exchequer Court in admiralty established in 1890 ?
Sir CHARLES HIBBERT TUPPER. In I 1891. They w*ere judges in the vice-ail in I-| ralty court, and by law they had a right | to superannuation quo ad their salaries as | judges in vice-admiralty ; and I take it that | the British Parliament, in transferring the j jurisdiction of their courts within the purview* of the Canadian Parliament, would not seek to alter their standing and say to them : Under the Imperial system you were regarded as entitled to superannuation, but now* that we are going to deal with you. we shall cut off that right. I think that in that particular they have vested interests.
Mr. DAVIES (P.E.I.) Oh. no ; and I tell the hou. gentleman why. The old viceadmiralty judges were Imperial officers, and held their position by Imperial patent. Now*, wheu we introduced the new* Exchequer Court Act, and appointed new judges of the new* court, w*e also subdivided the districts, if I remember aright. For instance, in the old time there wras one vice-admiralty court for the w*liole province of Nova Scotia. I think the late Sir Wm. B. Young was the vice-admiralty judge, and he discharged the duties for the whole of the province. His jurisdiction was large, his duties w*ere onerous, and a great many cases came before him. His successor, now* Chief Justice McDonald, also filled the same position, and my recollection of it is that w*hen we established our new* courts of admiralty in connection with the Exchequer Court, we subdivided this district and appointed a number of smaller judges.
Sir CHARLES HIBBERT TUPPER. We made these judges local judges under the Exchequer Court. There is an appeal to the Exchequer Court, and the judges who formerly exercised the jurisdiction of the court of vice-admiralty exercise the same jurisdiction as local judges in admiralty. Take the Quebec judge in admiralty, he has no other judicial function, and there would be this curious position if the law* was not as it is. that a county court judge would be entitled to superannuation and a judge in
3091
[COMMONS]
3092
the vice admiralty court would be entitled to nothing. There was no reason for that distinction when both had served in their responsible positions for fifteen years.
Mr. MCCARTHY. I had the impression that the judges of our maritime courts were not entitled to superannuation before the Act was passed.
Sir CHARLES HIBBERT TUPPER. I think the lion, gentleman is right; but the judges of the vice-admiralty court are. That is the point being made. When all these judges were made local judges in admiralty the construction was given that they would come within the general clause of the old Act and as it seemed they were on the same footing, and there was no dispute that the other judges have a right of superannuation, it was proposed to make the whole matter clear by this Bill. This simply places the judges in the admiralty court in Ontario in the same position as other judges in that province.
Mr. DAVIES (P.E.I.) The hon. gentleman will see I was right in my contention, as I find by the Act of 1S91. There was introduced a Bill to confer upon the Exchequer Court admiralty jurisdiction within Canada. The jurisdiction of the old admiralty court w*as vested in the Exchequer Court, and it w*as declared to be the admiralty court for the Dominion of Canada. Then we vested the jurisdiction formerly resting in the vice-admiralty court in the court of Exchequer, and in the fifty-fifth section of the Act power was given to the Governor General in Council from time to time to constitute any part of Canada an admiralty district for the purposes of the Act and to provide for the establishment of a court therein. So these local judges in admiralty may be very petty judges] they may be appointed for a county. The Goveru-, ment for the time being may take the county : of Cape Breton, Richmond or Inverness and ' establish a court in each county and appointj a local judge in admiralty. 1 do not think Parliament ewer contemplated that petty judges of that kind should come within the provisions provided for superannuation ofI judges of the superior court. The old Act ■ applied to judges of the vice-admiralty court,: Why ? Because the position of a judge was equal almost to the judge of the superior; court, and the jurisdiction was eo-extensive ; with the province. I ask the hon. gentleman, : if he has not given consideration to this! point, to think it over, for I doubt whether I it ever wTas the intention of Parliament to j extend the superannuation provision to judges whose jurisdiction may be cotermin-. ous with the county and who may not have i a case before them for five or ten years. j
Sir CHARLES HIBBERT TUPPER. No ! doubt that is a matter of great importance, I and I approached the question onlv from j the point of view* I have indicated. Before j
Sir Charles Hibbert Tupper.
: the second reading I will consider the points raised and if necessary have them discussed.
| Mr. MCCARTHY. What is the salary ?
I Sir CHARLES HIBBERT TUPPER. $000 | in Ontario.
j Resolution concurred in.
j
THE LOBSTER FISHERY.
Mr. COST1GAN moved second reading of Bill (No. 91) to amend the law respecting the lobster fishery.
Air. DAVIES t P.E.I.) Will the hon. gentleman state what he proposes to effect by this Bill ?
Air. COSTIGAN. 1 do not propose at the present time to discuss the merits of the Bill, and I may say that the principle is generally accepted by all the lobster canning establishments. Two principal changes are proposed. The first is with respect to the marking and stamping of packages. Great trouble and inconvenience have been coin-plained of by the packers in regard to the : system of marking as carried out. because it must be remembered that after all this ■ is only an experiment. It is now proposed to adopt a more simple method, and one which appears to meet with the views of the trade. Instead of having a package labelled with the name of the manufacturer, the place where it is put up and the year, it is proposed to adopt a label to be attached to every package simply declaring that they are Canadian lobsters and that they have been packed in the proper season. It is provided in the Bill that every case shall contain such label before it is allowed to ho shipped from the premises, and penalties are provided for the non-enforcement of th ‘ law.
Mr. DAATES (P.E.I.) Is the stamp to be put on the tin ?
Air. COSTIGAN. On the case containing the tins.
Air. DAATES (P.E.I.) The present law requires. I believe, that the stamp shall f>e on the tins.
Air. COSTIGAN. On tlie packages. The change proposed is in regard to the kind of label to be used, and it is now proposed to use a simple label declaring that the contents are Canadian lobsters packed In the proper season. The next change is with regard to the fees charged for these licenses. I might give extracts from reports I have received from lending factors, especially in the lower provinces. all agreeing to the principle of issuing a license, and, in some cases, suggesting that a very considerable fee should be charged. That was considered by my predecessor in dealing with the matter. It looked to be a generous offer on the part
3093
[JUNE 20, 1895]
5094
of the large factories to say that high fees should he paid by them, but it might mean, also, that it would tend to close up the smaller factories which could not afford to pay that high price for the licenses. The receipts from these licenses may be estimated at about $6,000 a year as the Act is now. I do not propose to lose any revenue by the change suggested. There may be rather an increase, but I propose to redistribute that The change I make is, that instead of fixing a fee of $10 for every license as is the rule to-day, I propose to put a license upon every hundred cases packed, so that the large packer will pay in proportion to the amount of business, and the smaller packer pay in proportion to the extent of his industry. The principle I take it is not disputed, and from the best advice I can get, I think the regulation will work fairly well in practice.
Mr. FORBES. It does not take effect this year ?
Mr. COSTIGAN. No. because the fees are paid in this year, and we cannot make it retroactive. My officers have calculated that we are pretty certain to receive the same revenue, or perhaps a. little more. The object of the Bill is to distribute the fees more equally on the persons who get the licenses.
Mr. YEO. It is very unfair to make the smaller factories pay as much as the larger ones, and in that respect the change is a proper one. Is the label to be put on at the stations where the lobsters are packed, or at the port of shipment ?
Mr. COSTIGAN. The labels are to be affixed at the place of packing, and before removal. There is a clause which provides that where there are several packing establishments, that they may be removed from one branch of a packing establishment to another, which will be considered the shipping point. There will be no export without this label being attached.
Motion agreed to ; Bill read the second Time and House resolved itself into committee.
j Mr. FRASER. It is $10 for any number : of cases. One man would pay $10 for live hundred cases, and another for 2<um0 ■ cases. There is no scale.
i Mr. WHITE (Shelburne). As I under-i stand it, it covers any number of eases I up to the year 1896. After 1896. then $10 ; will have to be paid and a sum additional ; for a certain number of cases ?
! Mr. FRASER. Even in that case there ! would have to be an alteration made in the ; Bill.
; Mr. WHITE (Shelburne). Yes, I think so.
' Mr. COSTIGAN. Of course, the Bill sets forth that the license fee is $10 for this year, but that after the 1st day of January next it shall be at the rate of $2 per lot) cases, so that the packer who packs ten hundred cases and the small packer shall pay just : the same rate. The schedule is only used to continue the license for this year : but ; 1 will ask permission to change the Bill, so | that it may be clearly understood that after | the 1st of January next the fee shall be | $2 for each hundred,cases.
! Mr. FLINT. Suppose a packer applies for I a license to pack 1.000 cases, and after he j has packed that number of cases, he wants | to go on packing more. I see no provision | here to enable him to get a new’ license or | to have his license renewal.
| Mr. COSTIGAN. That has been consider; ed. We fix a certain rate per hundred ; eases, so that the fee may accompany the j application for the license. If the door is ! opened too wide, the result would be that ! with an application for a license to pack five hundred cases the fee would be sent for ; that number, and the packer would then • consider that he had the right to go on and ! pack 5.000 cases, and the department would ; have to collect the balance of the fee. We do not want to do that. If the packer expoets in good faith to pack 1,000 cases, his : application should be fonvarded for that i number of cases ; and then, if he finds that , he is going to exceed that number, he has only to notify the department.
| Mi\ FERRY. I understand that on the
(In the Committee.)
On section 1,
Mr. FRASER. The schedule makes no reference to the number of cases, and how* is the Minister going to arrange that ? The Act does not provide for any maximum quantity as referred to in the schedule. Where is the schedule of cases that are to be used, and wiiat is the fee ? It may be 100 cases, or a thousand cases, but the fee is $10.
Mr. KENNY. I should think that wTould depend upon the application. A man would apply for a license to pack so many cases, and he would recite that in his application.
15th of July the close season will be in effect on the coasts of Prince Edwrard Island. Therefore I contend that the Bill will be useless this year, so far as the Island is concerned. But I protest against this license fee altogether; it is wrong to'compel the packers to pay one cent. These people have hard times enough to carry oil the industry of packing without being compelled to pay this tax. It is a direct imposition upon these poor people, meant to cripple the industry they are trying to carry on. I say there is no statesmanship in this kind of thing at all. If it is wrong to exact $10 for a license in 1S96, it is equally wrong to exact it in 1895 ; I say it is wrong in either year. In the name of the fishermen and the packers

3096
[COMMONS]
of the lower provinces, I protest against this injustice which is about to be perpetrated upon them.
Mr. COSTIGAX. I am very sorry that the lion, gentleman thinks that this Bill is all wrong—that $10 is too much, and that $2 is too much. 1 know the warm sympathy which the lion, gentleman has for the fishermen of his province : but he should remember that this Parliament has declared in favour of a license, and the Act is in opera lion to-day. The Act in force to-day requires the payment of $10 a year for a license, and the present Bill proposes that on and after the first day of January, 3890. the fee shall 1x3 at the rate of $2 per 100 cases, or fraction of 300 cases. As to the poor fishermen, while I cannot go the length the hon. gen-leman wishes, instead of their having to pay $10. I ask that they may have to pay not more than $8. or $0, or $2, according to the privilege they enjoy. The lion, gentleman says this will only come into force next year. That is true, but if 1 do not ask Parliament to pass this Bill now. next year we will find that we are too late again. I propose that the Bill pass now. so that it may take effect as early as possible. You could not make it take effect tit once, been use you would have to return money to some people who have paid too much, and collect from those who have nor paid enough, and I should not like to undertake that task.
Mr. FORBES. There are certain regulations as regards tin? marking of cans. Does that affect the law as it is to-day V
Mr. COSTIGAX. Yes. that goes into effect the moment this Act passes. The portion that does not go into effect at once is that regarding tlie license fees.
Mr. FRASER. I think the Minister will find some difficulty in collecting the evi-deuce required to fulfil the conditions of subset*!ions ;{ and 4—that is with regard, to the return of the number of fishermen . employed, the number of lobster traps used, the number of persons employed in each factory, distinguishing the sexes, ami all that.
Mr. COSTIGAX. They are bound to keep that record under the present law, ami make those returns.
Mr. FRASER. IIow many cases of lobsters are packed in the lower provinces each year ?	i
Mr. COSTIGAX. There are over 080 canneries. I cannot give the number of cases.	I
Mr. FRASER. These new fees may lie even more oppressive than the present fee.. Two dollars for every hundred cases may be double	and	treble	as much as is paid now j
under the	$30	license.	j
Mr. Perky.
Mr. COSTIGAX. We made the calculation. and I was careful to see that we should not lose any revenue by it.
Mr. FRASER. I have no doubt the hon. gentleman was careful about that. . How much more revenue is the hon. gentleman going to get ?
Mr. COSTIGAX. We do not contemplate any great increase.
Mr. FRASEIt. The bon. gentleman says he has calculated the number of cases put up last year, and this fee is graded on that number of cases. Assuming the same number would be put lip this year, will the amount collected be about equal to what was collected under the $10 fee V
Mr. COSTIGAX. Yes.
Mr. PERRY. I see a clause under which a man who only packs 100 cases may pay $10 as well as the man who packs 1.000 cases.
Mr. COSTIGAX. In order to give hon. gentlemen time to study the matter aud become ‘‘iiiigitiened on its pcmis. 1 would suggest that the committee rise and report progress.
Mr. DAVIES (P.E.I.) I want the hon. gentleman to consider, before we agaiu meet in committee, whether ii would not be well to introduce into the Bill that which was promised by his predecessor, and which, in my opinion, is a vital point of the lobster season—that is to have a close season arbitrarily fixed, and which cannot be extended by the Minister. As it is now, our lobster fisheries, in the opinion of those whose opinion I value very highly, are being absolutely destroyed by the extensions which are made of the time from twenty to thirty days beyond that prescribed by law. during which extension lobsters of a very bad quality are caught and thrown upon the market, and the whole catcli of the season is deteriorated in the opinion of the purchasers aud enormous losses accrue to those whose capital is invested in this business.
Mr. COSTIGAX. That is a very important subject.
Mr. YEO. It is absolutely necessary in some parts of the island that an extension of the time should be given. For the first month very few lobsters are caught, and it would close the factories if the extensions were not given. I would like to call attention in tin* third clause, which provides that labels must be put on the packages before they are removed from the canning establishment where they have been packed. In Prince Edward Island, many of the small establishments, as soon as they get a few cases packed, send them to market, aud the purchaser has to open the packages to see if the lobsters are
3007
[JUNE 20, 1895]
3098
good. It would be impossible for these men to apply for a permit to remove the lobsters on every occasion, and it will be impossible to carry this regulation our.
Mr. FLINT. I wish to ask the hon. Minister “lie question. Is there any regulation or arrangement by which these licenses can be obtained from the fishery inspectors in the counties, or must the application be made direct to the department here ?
Mr. COSTIGAX. Applications must be made to the department.
Mr. FLINT. It would be worthy the consideration of the Minister to see whether he could not supply the inspectors with tin‘so licenses, so that that delay could be avoided.
Committee rose and reported progress.
SUPPLY.
House again resolved itself into Committee of Supply.
(In the Committee.)
The Office of the High Commissioner for Canada—
Salaries........................... $8,900 00
Contingencies, rent and insurance on office, income tax, fuel, light, stationery, &c., and the amount ($2,000) required towards the contingent expenses (water, light, fuel, carriage hire and railway fare) of the High Commissioner, and $1,200 for contingencies (rates, taxes, insurance, ground rent, &c.) of the official residence, including the income tax on the High Commissioner’s salary......... 11,143
avoiding the loading of this year’s *’ Hansard ” with a similar explanation. At that time I went into an exhaustive statement of the duties performed by the High Commissioner and his staff, in every par-j tieular. It is a stated department and is | being conducted exactly the same to-day as i it was then. The work of that department, as my hon. friend knows, is the carrying out of the varied duties that fail upon the High Commissioner as the representative | of Canada and of Canadian business in the ! city of London and at the seat of the j British Government. The item is in every | respect for the same sendees as have been | estimated for as in years past. The principle ! °f the establishment of a High Commissioner’s office lias been approved over and over again, and I do nor imagine that my hon. friend wants to lead the House into a long discussion as to the principle underlying j the appointment of a HigTi Commissioner. ! That is interesting enough in its way. blit j after tin* exertions of a sitting lasting until j four o’clock in the morning, possibly it is j not such—l do not know exactly what term j to use bin, at any rate, it * is not cou-j dueivo. 1 think, to any great pleasure or any I great How of spirits. Another year we may j get at this item in a fresher condition, when j I shall be very glad to go at length into the matter and give my lion, friend all the information he demands. And, on the other ] hand, if his fond anticipations are realized,
| and he sits here clothed with ministerial resjioiisibility, he will have the great pleasure, of continuing the same policy and of giving in the main, the very explanations j I have given.
50 j
Mr. McMULLEN. We want to get some explanation with regard to the duties per- | formed by the High Commissioner during the past year. I have not seen his report among the blue-books brought down. I would like to know also what the hon. Minister of Finance anticipates will be the results of the efforts of the High Commissioner in relation to immigration dining the past year, and whether, from the experience thus far and considering the increased drain upon the resources of the people, it is considered wise to continue the office in the shape in which it now is. I think we should have some extended explanation with regard to the duties undertaken, the services rendered by the High Commissioner and the hopes of results from this office for the future, before we are asked to continue this expenditure for another year.
Mr. FOSTER. My hon. friend has had the fullest explanation of this item for a number of years past. It is the same item as for the last eight or ten years ; and if my hon. friend will only do me the favour to look at the “ Hansard ” of three years ago, he will read there all that I could possibly tell him now, and this will have the effect of
Mr. McMULLEN. No doubt the hon. Minister thinks it a very opportune moment, when we are all pretty well stupified with a sitting lasting a whole night and not disposed for any long discussion, to light upon this item. No doubt he hopes by that means to get it through without much criticism, though from past experience he has come to the conclusion that if we were in a fitter condition for debate, it would cost him six hours of discussion before he got it through. Notwithstanding the statement the hon. Minister has made, we know, with regard to this office of the High Commissioner, that we have been led from year to year to hope that additional duties would be performed so as to make the good results bear some proportion to the money that the department costs the country. We know that the establishment of the office was urged upon the House in the first place by Sir John Macdonald on the ground that he had not the slightest doubt that the High Commissioner would render services to Canada as financial agent that would repay the country more than double the amount of money it would cost. Under that very great inducement, it was that Parliament first assented to the establishment of the High Commissioner’s
3000
[COMMONS]
3100
office. When the Finance Minister went last to London to make financial arrangements, he reported to this House on his return that he had not been able to utilize the High Commissioner as financial agent whatever ; that he had to make his arrangements with the Bank of Montreal. I notice that the High Commissioner does render some service. When we send across lecturers for the purpose of addressing meetings of people in Great Britain on the subject of immigration to Canada, the High Commissioner is a handy man to secure a vote of thanks and to make a very glowing and nattering report of the eloquence of the lecturer and the able manner in which lie presented the claims of Canada, just as he did in the case of the reverend gentleman of this town who went across last year. The High Commissioner took a very active part in moving a vote of thanks and ig having that gentleman well noticed in the papers. He performs duties of that kind admirably, but I do not see anything else that he has done to warrant a country in the financial condition in which Canada is to-day continuing an office of this kind that costs $25,000 a year, when we consider everything connected with it. When wo had this matter before the House last year we had a very extended discussion on the $2,000 additional for contingencies. I see that item is still included in the vote we are asked to pass. It was suggested last year that if it was really thought desirable that the High Commissioner should have his salary increased to $12,000 instead of $10,000 it ought to be put in the shape of an addition to the salary and not continued in this form. That point was pressed upon the Minister last year. I would like to know if he still continues to hold the opinion that the salary should be $10,000, and that this $2,000 should be continued to be voted as contingencies as before, and if he ihinks that that course should be continued from year to year.
Mr. FOSTER. It is so put down in the Estimates this year, as my hon. friend will see, and we do not propose to make any change during the present year.	*
Post Office Department—	j
Amount required to pay those officers	j
of the Savings Bank Branch engaged in the balancing of and computing interest on depositors’ accounts, to June 30th, 1895.... $2,650
Sir RICHARD CARTWRIGHT. The Post-! master General is not here, but I will say ! to the Minister of Finance that I see no j reason why these officials should not have j the depositors divided into classes, as was | done in the savings bank, so that that in-i formation could be readily available. They j ought to have all these things duly classified, I I do not ask for too many classes, but some i such division as I suggested or was asked j for the other day, would do. three classes. !
Mr. McMullen.	1
I
Mr. FOSTER. I will bring it to the attention of the Postmaster General.
Amount required for salaries of Board of Examiners and other expenses under the Civil Service Act.......... $2,000
Mr. DAVIES (P.E.I.) What is the reason of the large decrease this year V
Mr. FOSTER. We dispensed with some of the expenses. The intention is to have two examiners instead of three, to dispense with the secretary, and to appoint one of the clerks who is at present in the Secretary of State’s office to do that work, and to do it completely under the control of two commissioners. So that we will save the salary of the secretary and the salary of one of the commissioners. Reductions have taken place in the item of rents of rooms, and other outside expenses, which make the $2,000.
Mr. DAVIES (P.E.I.) In all other respects is the examination to continue as at present ?
Mr. FOSTER. No change.
Mr. MILLS (Bothweil). I understand some of the examinations have been dispensed with. I understood there had been a promotion of quite a number of parties in the Civil Service, and that an opportunity for examination had taken place, but that in other cases, the parties have been refused promotion on the ground that they could not be examined.
Mr. FOSTER. Of course we have the regular promotion examinations, and if they have not passed them, they may not be able to be promoted until the regular promotion exatni-nation takes place. That is once a year. But no promotions have been made without promotion examinations.
Mr. MILLS (Bothweil). I understand that , a promotion examination ought to have taken ■ place which has not taken place.
Mr. FOSTER. I think every regular exanimation has taken place. There may have been an application for a special promotion j examination, which was not granted.
Contingencies—Department of Militia and Defence ............................. $7,100
Mr. DAVIES (P.E.I.) $1,500 for clerical and other assistance, seems to me an enormous sum in a department like this.
Sir CHARLES HIBBERT TUPPER. There is a decrease of $350.
Mr. DAVIES (P.E.I.) I should imagine that in a department of that kind the regular officials would do all the work. I can understand that in some of the other departments extra clerical assistance would be required, but in a routine department such as the Militia Department, it would appear to an outsider as an unnecessarily high amount.
I think it could be cut down to $1,200.
3101
3102
[JUNE 20, 1803]
Contingencies—Department of Secretary
of State............................ $5,000 i
Mr. DAVIES (P.E.I.) There is an item of $1,(>00 for clerical assistance. Now. in i tliis department, of all others, where the j work is absolutely routine, 1 do not see how ; so much clerical assistance is needed.	;
Mr. FOSTER. My lion, friend must take the estimates as a whole. He will find that when the Secretary of 8 "ate conies with his main Estimates, there is a reduction of $8.000 or 810,000. I went over the matter with him. and we agreed that he should have this amount for temporary clerical assistance.
Mr. MILLS (Bothwelb. I notice there is an increase in the number of employees of from 19 to 40 since 1877.
Mr. FOSTER. Not in the temporaries.
Mr. MILLS (Bothwell). The amount has increased from .$33,000 to $33,000. But 1 am pointing out that there is an enormous increase in the permanent staff. I think that staff could be cut down two-thirds.
Mr. FOSTER. The staff is to be cut down.
Mr. MILLS (Rothwell). That being so, there ought to be less necessity for voting this sum.
Mr. FOSTER. The Secretary of State will give good explanation from the main Estimates.
Mr. DALY. It is partially owing to returns asked for by the hon. gentleman himself. In addition, the Auditor General has imposed extra duties on the department, which necessitates clerical assistance at different periods of the year.
Mr. MILLS (Bothwell). Of course it is possible to arrange the work in a department in such a way that it may be doubled or quadrupled. In 1878 there were eight clerks, besides two extra clerks employed, and the cost was less than $10,000 annually. Last year there were 52 clerks employed, at a cost of $34,880. There is no justification for that expenditure. I propose, however, to discuss the whole subject on a motion, of which I have given notice.
Contingencies — Department of Public
Works .............................. $7,000
Mr. DAVIES (P.E.I.) Has the Minister received any report from the Department of Justice with respect to a matter in examination before the Public Accounts Committee. regarding an officer suspended for alleged misconduct ?
Mr. OUIMET. 1 was informed by the Minister of Justice that the department yesterday sent their report to my department. It has not come before me yet, but will probably do so to-morrow or the next day. and I will let the hon. gentleman know the result.
Mr. DAVIES (P.E.I.) Has the individual in question received any portion of his pay ?
Contingencies—Department and Stationery...........
Mr. DAVIES (P.E.I.) that ?
of Printing
I Mr. OUIMET. $5,000: missed.
i
Xo ; he is practically dis-
What department is j
i
Mr. DAVIES (P.E.I.) The rumour has abroad that he is receiving $2 per day.
got
Mr. FOSTER. That is under charge of Mr. Dawson.
Mr. MILLS (Bothwell). That department used to be under the control of the Secretary of State.
Mr. FOSTER. It is uow.
Mr. MILLS (Bothwell). In the figures I gave of 19 clerks instead of 40, those of that department were included.
Mr. FOSTER. We have a large printing bureau now.
Mr. MILLS (Bothwell). Yes, but still the j old duties are to be discharged, and the j Minister will see that those duties repre-1 sent a certain amount, so that leaving out j the extra work arising from the Printing Bureau, the Secretary of State’s Department has doubled in expense.
Contingencies—Department of Indian Affairs .............................. $7,350
Mr. McMULLEN. Why is such a large sum required for clerical assistance in connection with Indian Affairs ?
Mr. OUIMET. In the case of employees i not on the Civil Service list suspension means dismissal, because they are only paid by the day, and the moment their services are dispensed with their pay ceases.
Mr. DAVIES (P.E.I.) I understand the hon. gentleman to say that this person has not received any pay.
Mr. OUIMET. Not to my knowledge. I am quite convinced he has not.
Contingencies—Department of Agriculture. $16,500
Mr. McMULLEN. Is there any real reason why the Archives Branch should be continued, and is it really necessary ? Does the Minister propose to make any change in regard to it ?
Mr. FOSTER. It is intended to continue the Archives Department. It is a department with which we cannot dispense. It is doing most excellent service in the matter of collecting and arranging old historical documents from the libraries of London, Eng., and Paris. I do not suppose the hon. gentleman is such an iconoclast that he
3103
3104
[COMMONS]
wishes to do away witli the service altogether, although he may desire to criticise it. The Archives Branch has been for a long time under the Department of Agriculture. and there is no reason why it should not continue under that department.
Mr. MILLS (Bothwell).	Objection has
always been taken to the place where the branch was located as being very inaccessible. It should be in the vicinity of the library, and if the library were larger it should be them but there is no room for it. At all events it should be in some position convenient to this building, so that it may be easy of access to members who desire to consult the documents. A few years ago it was in the basement of the western block, and a man visiting there might as well go into a prison.
Mr. FOSTER. It is evident the lion, gentleman has not visited the branch lately. It has been removed to the new building, and the quarters are fairly convenient, and indeed good. It is in the basement.
Mr. MILLS (Bothwell). Then it is a scandalous place in which to keep books.
Mr. FOSTER. I do not think Mr. Brymuer would allow anything of that kind to go on.
Mr. MILLS (Bothwell). But the hon. gentleman and his colleagues have allowed it. to go on for some time. Books become mouldy and moth-eaten there, and covered with rust spots which will in a little while render them of no use. You spend thousands of dollars in making copies of documents that are inaccessible except in certain quarters in England, and after you have spent a large sum of money you put them where they soon become worthless. That is a very mistaken course to take, and it would be infinitely better they should be in a second or third story where there is air and light, than be put in a basement.
Mr. FOSTER. I think my hon. friend (Mr. Mills) is right, if that be the condition of thiugs. although I thiuk he has painted it a little darker than it is. The Government is now taking under consideration the whole matter of the archives of the country. Hitherto there have been three divisions of the archives and records. Some of them in the Privy Council Department, some of them in the Secretary of State’s Department, and others in the Agriculture Department, and the Government is taking into consideration the amalgamation of those three, so as to avoid a duplication of work and separation of records. The whole matter will be considered and I hope we shall be able to put the archives in a better position than they are. It is quite true that such valuable works should be kept where they can be easily consulted by literary men, and the best possible quarters given them. It is the intention of the Government to take the whole matter up and to see if better con-
Mr. Foster.
ditions cannot be made in connection with the whole of the archives.
Mr. SCRIYER. I am very glad to hear what the lion, the leader of the House says in regard to the intentions of himself and his colleagues, but 1 know that the road to a certain place is paved with good intentions.
Mr. FOSTER. We are not going there.
Mr. SCRIYER. I hope not.
Mr. DAYIX. But you would like to send them there.
Mr. SCRIYER. No. I would not.
Mr. DAYIX. I mean metaphorically.
Mr. SCRIYER. Xo, not even metaphorically. I consider the language used by the hon. member for Bothwell (Mr. Mills) none too strong in regard to the manner in which those valuable books are now housed. Having visited that place as I have done several times, I confess I am surprised that such intelligent men as the members of the present Government, and men who I may say take a deep interest in matters of such great importance to this Dominion as the proper preservation of the archives, have not done something other than has been dime to house these !>ooks in a proper way. I may say, if it would have any influence to encourage the Minister in the course he has promised to take, that some distinguished literary men who have come here from the States, and have asked almost in the first hours of their visit to see the place in which we keep what they admitted are documents of rare inportauce and value ; I have heard them express wonder that we should keep these books in such an apartment. I learned to my surprise and my regret that it was seriously proposed to transfer the books from the cellar in which they are, to the basement of the Langevin block, and I am told on good authority that that would be anything rather than an improvement. Iam glad to hear the Minister speak so encouragingly about the matter. I do hope that some arrangement will be made which will provide a creditable place for keeping these documents, and not only a creditable place, but a place in which a man like the hon. member for Bothwell (Mr. Mills) and the members of the House generally can consult the volume's. Before taking my seat, I wish to say a word by way of bearing testimony to the admirable manner in which Mr. Brymner is discharging his duties. He is the right man in the right place.
Some hon. MEMBERS. Hear, hear.
Mr. SCRIYER. Mr. Brymner ought to be sustained in every reasonable way in his efforts to take care of the books under his charge.
Mr. DA YIN. I echo the gratification with which my hon. friend (Mr. Scriver) has heard
3105
[JUNE 20,1895J
3100
the remarks of the Finance Minister, an-l I think that the Minister ought, to contemplate a. policy that would lay the foundation of a national museum where these valuable documents and archives would be properly kept.
Mr. DAVIES (P.E.I.) I call the attention of the Minister to some remarks made by; I>r. Marinette, in connection with the place j where the archives are housed. In the book ; published of the Royal Society’s transac-; tions this year, he says :	:
It is much to be desired that the Government soon take measures to provide the department with accommodation more suitable for a library, already so important in the way of manuscripts and printed books. The three small rooms set apart for the archives are already so encumbered that we are at straits to place the new collec-lions that we are constantly receiving. Indeed, the dampness of the quarters, which are situated in a basement, is injurious not only to the health of the staff, but also to the preservation of the valuable documents which are under its care.
Mr. McMULLEN. We vote $54,000 for clerical assistance in all these departments over and above the ordinary statf, and it appears to me that the Government could cut that down if they tried. I am sure that there is not a return prepared in the Department of Trade and Commerce, or at least I do not remember of any order for a return in that department this session.
Mi*. FOSTER. My hon. friend is wrong. If he will look at that item, he will see that the $3,000 includes both sundries and clerical assistance, while in the case of the other departments these two items are separate. So that, taking that into account, this is a small sum compared with what many of the other departments get.
Mr. MUXS (Bothwell). Of course, this is merely a branch of a department. The Department of Customs and the Department of Inland Revenue are now under the Minister of Trade and Commerce, and you have $<>.-2(H) for clerical assistance in this department.
The council adds this recommendation :
The council hope that the Government of the Dominion will soon find itself in a position to provide suitable accommodation for books and manuscripts collected at such large expense, and so invaluable to the country, and indeed to the world at large. If it were possible to build a national museum worthy of the Dominion, then j a section of it could be properly devoted to this ; service. In the meantime, care should be taken to prevent any damage or deterioration to these valuable manuscripts, and to enable the stall to ;
Mr. FOSTER. That is scarcely a fair way of putting it.
Charges of Management .............. £104,15-3
Mr. DAVIES (.P.E.I.) I asked for some information.
Mr. FOSTER. I have the information here. What we have doue is to add $15u to Mr. Pope’s salary, making it $1,950, $100 to Mr. Leitch’s, and $100 to Mr. Loughran’s.
make the best possible arrangements for purposes of reference.
I do not propose to discuss the question ’Of a national museum in the present state of the finances, but both these suggestions will, I am sure meet the approval of the Finance Minister, and ought to be adopted. The utmost care should he taken to prevent deterioration of the manuscripts, and in addition to that the best possible arrangement should be made to facilitate reference to them.
Mr. DAVIES (P.E.I.) I think Mr. Leitch deserves better treatment than that. He has been for many years in that office.
i
Mr. FOSTER. I will look at that matter again.
Mr. McM ELLEN. I notice an increase of $2,500 in the item of commission for payment of interest on the public debt. I would like to know where the principal portion of this money goes ?
Contingencies—Department of Trade and
Commerce .......................... $3,000
Mr. McMULLEN. This seems an exorbitant sum for clerical assistance in that department.
Mr. FOSTER. This department has a very small permanent staff, and there is a good deal of clerical work in preparing commercial roturns of all kinds. That cannot be done without help. The permanent establishment of the department is kept very small, and it is intended to keep it small, so that it is necessary the work should be done by temporary clerks.
Mr. DAVIES (P.E.I.) I should have thought that in the institution of a new department like this, a new departure would be made and economical principles begun at least.
Mr. FOSTER. It goes to our agents in London under the terms of the contract entered into in 1892, by which terms my lion, friend will remember we saved a large amount as compared with the preceding arrangement with Glyn, Mills, Currie & Co. The increase arises from the increased amount of the transactions. Sinking funds increase every year, and consequently the brokerage increases.
Administration of Justice—To pay two
Official Arbitrators $1,000 each.... $2,000
Mr. DAVIES (P.E.I.) I thought these official arbitrators were done away with V
Mr. FOSTER. One was done away with. He died.	.	*
Mr. DAVIES (P.E.I.) I thought the Exchequer Court judge did all the work now.
98
REVISED EDITION.
3107
[COMMONS]
f» 1 Art
OlUO
Sir CHARLES HIBBERT TUPFER. These i faction to every one concerned in the con-are assistants whom he may call in. They ! duct of business by the wiping out of are referees of the judge.
Mr. DAVIES (P.E.I.) They are not ‘ad
hoc * referees, but nominees from year to year ?
dockets and preventing arrears of cases. Supreme Court of Canada........... $21,050
Mr. DAVIES (P.E.I.) There is one point
O-	uTPDPDm rnmnrD	i1 want to bring to the attention of the
Sir CHARLES HIBBERT TL1 PER. les. j ^mister of Justice with respect to the
Mr. DAVIES (P.E.I.) I fancy they are j Supreme Court, and wThick we may as well about as much use to the Exchequer Court ; have talked of first as last. The manner judge as the masters in chancery were to | in which the reports are issued to the profile Chancery Court judges. They took up : fession does not reflect any credit on some a great deal more time to dispose of cases | one—I cannot say where the fault lies, than the judges, and in fact, they wen* a j Those gentlemeu who take the reports from capital scheme for putting fees into the law- j England know that every month the Eng-‘	"	lish reports are published, and they have
the reports of the Courts of Appeal almost
yers’ • pockets.
Circuit allowances, British Columbia.... $7,500
Mr. MILLS (Bothwell). Why is this sum
up to date. In the case, however, of the Supreme Court of Canada, some of the judg-
so large, when Manitoba has only $2,500 V ; meats given two years ago are not reported That appropriation,	it	seems to me, arose :	aip	j am not going to charge the reporter
from the condition	of	things that existed j 0r the	assistant reporter.
before there were any facilities for travel.	_________ „
T	^	! Sir CHARLES HIBBERT	TUPPER. I
Sir CHARLES HIBBERT TUPPER. It • a0 not	think it is the fault of	the reporters,
is owing to the very heavy expense of	.
travelling over large portions of country,!. Mr. DAVIES (P.E.I.) I know the fact whore travel is difficult, and the expenses , *s discreditable to some one, and is giving are groat.	intense dissatisfaction to the profession. It
__	_* r<_,	, {is most unjust to those who live a thou-
Mr. MILLS (Bothwell). Has the lion. ; sand miles away from Ottawa, and cannot gentleman any statement to show the dis-; come down here to learn what the jiulg-tauces they have to travel .	. i ments are. We cannot find out what the
Mr. I OS1LR. Ihe Cariboo district is : judgments of the Supreme Court are on an immense district.	j points in cases pending in our local courts,
Mr. DALY. They have to travel 300 miles and which must necessarily be governed by stage.	j	by the decision of the higher court. The
Travelling expenses of judges, weekly	t	Minister of Justice should take measures
sittings of High Court of Justice at	j	to inform the reporters that the reports
London and Ottawa................... $1,500	= must be out almost simultaneously with the
Mr. DAVIES (P.E.I.) You have intro- decisions. They are no good when they are duced a new item for the travelling ex- published only two or three years later, penses of the judges from Toronto to Lon- In England these reports are published don and Ottawa for the purpose of hold-j monthly : and with the exercise of a little ing weekly sittings. I have no opinion to ; vigilance I am sure that could be done offer as to the propriety of holding weekly I here. If the fault, as it is hinted, lies with sittings, but if we pay $1,500 a year for i the judges, if they keep back their judg-these two cities, that system may be ex- • ments, we ought to know it. We ought to tended to other cities in Ontario, and the ! know where the blame lies, and have it question presents itself whether we will I put on the proper shoulders. I hear the not require to have resident judges in complaint generally expressed in the por-these places. Otherwise, we may have j tion of the Dominion from which I come to pay considerably more than $1,500 a I that the manner in which these reports are year, as once you establish the principle, ! published is most unsatisfactory, you may have to apply it to other import- | Mr. WELDON. I rise to endorse
ant towns which -will claim the same prlv ilege.
Sir CHARLES HIBBERT TUPPER. As I have already explained to the House, we agreed with the Ontario Government that in these particular cases we would ask a grant for this expenditure in order to facilitate the conduct of the work. The hon. gentleman fears that this may lead to an extension of the system, and heavy expenditure, but all these cases must depend upon local conditions. I do not think any other parts of the country could make the demand unless the circumstances were similar. I believe this system is giving great satis-
Mr. Davies (P.E.I.)
_ the
complaint made by my hon. friend from Queen’s, P.E.I, (Mr. Davies). The view he expressed I have heard frequently expressed in similar terms. In the nature of things, there is no reason why the profession in our province should have to wait so long to get the Supreme Court reports. As the hon. member has said in the English reports you can find in the May publication cases reported which were decided February or March in the appellate courts, while here you have sometimes to wait a jrear and a half to know what is decided in the case. If the fault is with the judges, I hope that pressure may be
3109
[JUNE 21, 1895]
3110
applied by the Minister of Justice to obtain greater speed in publishing the reports. The present practice is very unsatisfactory with the profession, very unfair, and not at all necessary.
Sir CHARLES HIBBERT TUPPER. I understand the importance of the suggestion, and I know that the two bon. gentlemen who have spoken understand some of the diliiculties that present themselves in dealing with a question of that kind. I have no doubt that this discussion will reach the proper quarter. We have control over the reporters, and it is only fair to them to say—for I have heard sometliiug of this before—that they do their work efficiently and quickly, and if all the judges were as prompt as the Bar desire, if the judgments were delivered and handed down at once to the reporters, I am sure there would be no complaint. But I have heard it stated that the judges consider it their privilege to hold over their notes, after giving judgment, before finally handing them to the reporters for publication. I shall, so far as I am able, endeavour to lay in the proper way the views of the House before the Supreme Court, and I hope that something different from the present practice may result.
Mr. McMULLEN. I notice there is a sum set down for travelling expenses for the judges of the Supreme Court What is the j explanation of that ?	j
Mr. CURRAN. I understand this is for the judges ad hoc—for the judges of the Supreme Court when one of them takes a place in the Exchequer Court.
Mr. DAVIES (P.E.I.) X do not see how | that can be. Is there any provision in the i statute allowing that ? If the judges of j the Supreme Court have jurisdiction to ex- j ercise Exchequer Court powers it must be j by virtue of a statute.	j
Mr. MILLS (Bothwell). This must be a ! mistake. I think this must be for the Su- | 1»rente Court judges before the introduction I of the Exchequer Court Act—there was an j appeal from the sitting judge to the Supreme ! Court. This must be a continuance of ail j appropriation that was voted under different circumstances.
portrait of the Chief Justice of Canada, just as in the case of the Speakers and other dignitaries. That rule, of course, applies to the present Chief Justice as to his predecessors, and the additional $250 is for that purpose.
Mr. DAVIES (P.E.I.) Has anybody been appointed in Mr. Duval’s place ?
Sir CHARLES HIBBERT TUPPER. No.
Mr. DAVIES (P.E.I.) You intend to fill that place, of course ?
Sir CHARLES HIBBERT TUPPER. Yes ; that is necessary to the complete organization of the court.
Mr. DAVIES (P.E.I.) As to the item for printing, binding and distributing the Supreme Court reports, I see you are asking for an increase of $1,750.
Sir CHARLES HIBBERT TUPPER. That was found necessary on account of the cost of printing. This is wholly in connection with the publication of the Supreme Court reports.
Mr. DA\ IES (P.E.I.) I hope that as we are voting $1,750 extra we are going to get better service next year.
Sir CHARLES HIBBERT TUPPER. A great deal of that comes back to us.
Mr. DAVIES (P.E.I.) Not much.
Sir CHARLES HIBBERT TUPPER. Some of it.	*
Committee rose and reported resolutions.
Mr. FOSTER. Mr. Speaker, the House having sat to so early an hour this morning, I have no doubt all are very tired, and I think it would possibly meet the wish of the House if we were to adjourn and have a good night’s sleep before to-morrow’s work I move, therefore, that the House adjourn. *
Motion agreed to ; and House adjourned at 0 p.m.
HOUSE OF COMMON’S.
Mr. DAVIES (P.E.I.) Before we continue this vote the House ought to know what it is for.
Sir CHARLES HIBBERT TUPPER. I confess it. I will get the information before the item comes up on concurrence.
Mr. McMULLEN. My reason for asking the question is that there is an increase of $250 in the item this year.
Sir CHARLES HIBBERT TUPPER. Hie object of that increase is this : Parliament has always provided for painting the
98J
Friday, 21st June, 1895.
