 at Eleven o’clock a.m.
Prayers.
PILOTS’ BILL-REFUND OF FEES.
Mr. GUAY moved ;	- -*
That as it appears from the minutes of* proceedings of the Senate of the 18th June, 1897, that the Senate have adopted a resolution that no further proceedings be taken with regard to' Bill (No. 67) to Incorporate the Pilots
4735
[COMMONS]
4736
serving between Quebec and Montreal, the Ac- I ADJOURNMENT—THE QUEEN’S DIA-countant of this House be authorized to refund j
the fees paid on the said Bill, less the cost of I	«IUJ5I1jEE.
printing and translation.	|	„___________
,, ..	, ,	The MINISTER OF TRADE AND COMMotion agreed to.	j MERGE moved :
HENRY MUMA, OFFICIAL REFEREE.
Mr. SOMERVILLE asked .
it
4>
Is Henry Muma, of Drumbo, Official. Referee, now in the employ of the Government ? If not, has he been dismissed ? Has the office been abolished ? Has he been superannuated ? If so, what is the amount of his superannuation allowance ?
The SOLICITOR GENERAL (Mr. Fitzpatrick). The party here mentioned is not now in the employ of the Government. He has not been dismissed, but the office has been abolished. As to the superannuation, that is a matter that is now under the consideration of the Governor in Council.
i That when the House adjourns this day, it do ] stand adjourned until the following Wednesday ; at II a.m.	.
| Motion agreed to.
SUBSIDIES TO RAILWAYS.
The MINISTER OF RAILWAYS AND | CANALS (Mr. Blair) moved that the House, j at its next sitting, resolve itself into Com-iinittee to consider the following resolu-; tions
WHALERS, MACKENZIE RIVER.
Mr. OLIVER asked :
1.	Is the Government aware that a considerable trade is done by United States whalers at the mouth of the Mackenzie River without duty being paid ? 2. Is it the intention of the Government to protect Canadian trade revenue by establishing a customs office here ?
The CONTROLLER OF CUSTOMS (Mr. Paterson). 1. The Department of Customs has been informed that illegal trading is being carried on at the mouth of the Mackenzie River by United States whalers. 2. The question of establishing a customs office there will receive consideration.
LOAN OF $15,000,000.
The MINISTER OF TRADE AND COMMERCE (Sir Richard Cartwright) moved that the House, at its next sitting, resolve itself into Committee to consider the following resolutions
1.	That it is expedient to authorize the Governor in Council to raise by way of loan, in addition tc the sums now remaining unborrowed and negotiable of the loans authorized by Parliament by any Act heretofore passed, such sum or sums of money, not to exceed in the whole the sum of fifteen million dollars, as may be required for the purpose of paying the floating indebtedness of the Dominion of Canada and for the carrying on of the public works authorized by the Parliament of Canada. 2. That the sums of money hereby authorized to be raised by way of loan shall be so raised in accordance with and under the provisions of that portion of chapter twenty-nine of the Revised Statutes of Canada relating to the public debt and the raising of loans authorized by Parliament ; and the sums so raised shall form part of the Consolidated Revenue Fund of Canada : Provided always, that the rate of interest to be paid on any loan to be raised hereunder shall not exceed four per cent per annum.
Motion agreed to.
Mr. GUAY.
1. Resolved, That it is expedient to authorize the Governor in Council to grant a subsidy of $3,200 per mile towards the construction of each } of the undermentioned lines of railway (not ex] ceeding in any case the number of miles herein-| after respectively stated), which shall not cost more on the average than $15,000 per mile for j the mileage subsidized, and towards the construction of each of the said lines of railway not exceeding the mileage hereinafter stated, which shall cost more on the average than $15,000 per mile for the mileage subsidized, a further subsidy beyond the sum of $3,200 per mile of fifty per centum on so much of the average cost of the mileage subsidized as shall be in excess of $lo,000 per mile, such subsidy not exceeding in the whole the sum of $6,400 per mile. The expression “ cost ” used in this resolution means the actual, necessary and reasonable cost, and shall include the amount expended upon any bridge forming part of the line of railway subsidized not otherwise receiving any bonus, and such actual, necessary and reasonable cost shall be determined by the Governor in Council, upon the recommendation of the Minister of Railways and Canals and upon the report of the Chief Engineer of Government rail-I ways, certifying that he has made or caused to be made an inspection of the line of railway for which payment of subsidy is asked, and careful inquiry into the cost thereof, and that in his opinion the amount upon which the subsidy is claimed is reasonable, and does not exceed the true, actual and proper cost of the jonstruction of such railway ; the lines of railways being as follows, that is to say •
To the Ontario Pacific Railway Company, for 53’57 miles of their railway from Cornwall to Ottawa, in lieu of the subsidy granted by 55-56 victoria, chapter 5. (Revote.)
^To the Kingston, Smith’s Falls and Ottawa Railway Company, for 101 miles of their railway from Kingston to Ottawa, in lieu of the subsidy
CRevote) ^ tlie Ac* 55-56 Victoria, chapter 5.
Po!laDrnlway from a point on the Canadian Railway, at or near either Welsford or
?r }^tween the said two points, to Mhe county °f Queen’s, N.B., not exceeding 30 miles, in lieu of the subsidy granted by 53 Victoria, chapter 2.
To the Cobourg, Northumberland and Pacific Railway Company, for 50 miles of their railway from Cobourg to the Ontario and Quebec R&fl-
vSrtJ11	subsid5®s granted by 55-56
Victoria, chapter 5. (Revote.)
To the Ottawa and Gatineau Valley Railway
Company, for 20 miles of their railway from the
4787
[JUNE 21, 1897]
4738
end of 62nd mile subsidized towards Ddsert, in lieu of the subsidies granted by the Act 57-58 Victoria, chapter 4. (Hevote.)
To the Great Northern Railway Company, for 9 miles of their railway, being shortage in distance from Montcalm and St. Tite.
To the Joliette and St. Jean de Mat ha Railway Company, for 20 miles of their railway from St. F£Hx de Valois to Ste. Eradlie de l’JSnergie, in lieu of the subsidy granted by the Act 57-58 Victoria, chapter 5. (Revote.)
To the Central Railway Company of New Brunswick, for 15 miles of their railway from Chipman Station to Newcastle Coal Fields, county ot Queen's, N.B., in lieu of the subsidy granted by 57-58 Victoria, chapter 4. (Revote.)
To the Gulf Shore Railway Company, for 5% miles of their railway from the end of the section subsidized to Tracadie and thence to Big Tracadie, New Brunswick.
For a railway from Campbellton, on the Intercolonial Railway, towards Grand Falls, New Brunswick, a distance of 20 miles, in lieu of the subsidy granted by 57-58 Victoria, chapter 4. (Revote.)
To the Pontiac Faeific Junction Railway Company, for IVz miles of their railway from Hull to Aylmer, in lieu of the subsidy granted by the Act 53 Victoria, chapter 2. (Revote.)
To the Schomberg and Aurora Railway Company, for 15 miles of their railway from a point on the Grand Trunk Railway between King and Newmarket to Schomberg, in the province of Ontario.
To the Tilsonburg, Lake Erie and Pacific Railway Company, for 3*50 miles of their railway from present terminus through Tilsonburg to Michigan Central Railway, in the province of Ontario.
To the Ottawa, Arnprior and Parry Sound Railway Company, for 42 miles of their railway from crossing of the Northern Pacific Junction Railway to 55 miles west of Barry’s Bay, and also for 14 miles of their railway across Barry Island.
To the Pembroke Southern Railway Company, for 20 miles of their railway from Pembroke to Golden Lake, in the province of Ontario.
To the Ontario and Rainy River Railway Company, for 80 miles of their railway from the Port Arthur, Duluth and Western Railway to Rainy Lake, in the province of Ontario.
To the Strathroy and Western Counties Railway Company, for 7 miles of their railway, commencing at a point at or near Caradoc Station on the Canadian Pacific Railway and extending to the town of Strathroy.
To the Phillipsburg Railway and Quarry Company, for 66-100tbs mile of their railway from the end of the sqbsidized section to the Government’s wharf at Phillipsburg.
To the United Counties Railway Company, for 1 mil© of their railway from Johnson to St. Grdgoire Station, in the province of Quebec.
To the St. Lawrence and Adirondack Railway Company, for 13% miles of their railway from Beauharnois to Caughn&waga, in the province of Quebec.
To the East Richelieu Valley Railway Company, for 24 miles of their railway from Iberville to St. Thomas, boundary of Misalsquoi County, in the province of Quebec.
To the Portage du Fort and Bristol Railway Company, for 15 miles of their railway to a
149
point at or near Shawville, in the county of Pontiac.
For a railway from a point at or near Windsor Junction, on the Intercolonial Railway, to Upper Musquodcboit, for a distance of 40 miles.
To the St. Stephens and Militown Railway Company, for 1*14 miles of their railway from Militown to St, Stephen, In the province of New Brunswick.
For a railway from Sunny Brae to Country Harbour and thence to Guysborough, in the province of Nova Scotia, a distance of 65 miles.
For a railway from Port Hawkesbury, Nova Scotia, to Port Hood and Broad Cove, 53 miles, for 53 miles of their railway, in lieu of the subsidy granted by the Act 57-58 Victoria, chapter 4. (25 miles revote.)
For a railway from a point on the Central Railway in the county of Lunenburg, Nova Scotia, to the town of Liverpool, via the village of Caledonia, or to the village of Caledonia, via Liverpool, or for any part thereof, the whole distance not exceeding 62 miles. (35 miles revote.)
For a railway from Indian Garden on the line of the last mentioned railway to Shelbourne, Nova Scotia, a distance of 33 miles. (Revote.)
To the Coast Line Railway Company, for 61 miles of their railway from Yarmouth to Port Clyde, in the province of Nova Scotia. (35 miles revote.)
For a railway from Brookfield Station on the Intercolonial Railway to Eastville, 30 miles. (Revote.)
2.	Resolved, That it is expedient to authorize the Governor in Council to grant the subsidies hereinafter mentioned to the Railway Companies, and towards the construction of the railways also hereinafter mentioned, that is to s&y :—
To the Great Northern Railway Company, foi 67 miles of their railway between Montcalm and its junction with the Lower Laurentian Railway near St. Tite In the vicinity of the St. Maurice River. (Revote.) The balance remaining unpaid of the subsidies granted by the Act 56 Victoria, chapter 2, and 57-58 Victoria, chapter 4, between these points, a subsidy not exceeding $3,200 per mile, nor exceeding in the whole $182,400.
To the Pontiac Pacific Junction Railway Company, for 84 miles of their railway from Aylmer to Pembroke, also for bridging the Ottawa River. (Revote.) The balance of the subsidy remaining unpaid granted by the Act 47 Victoria, chapter 8, and 57-58 Victoria, chapter 4, not exceeding $114,272.
To the Ottawa and Gatineau Railway Company, for 62 miles of their railway from Hull towards Desert, in the provincp of Quebec. (Revote.) Balance remaining unpaid of the subsidy granted by the Act 56 Victoria, chapter 2, not exceeding in the whole $35,872.
To the Grand Trunk Railway Company, for a subsidy towards the rebuilding and enlargement of the Victoria Bridge at Montreal over the St Lawrence River, 15 per centum upon the amount expended thereon, not exceeding $300,000.
To the Montford Colonization Railway Company, for 33 miles of their railway from Monl-ford Junction to Arundel, in the province of Quebec, a subsidy not exceeding $2,000 per mile, nor exceeding in the whole $66,009.
3.	That the subsidies hereinbefore mentioned as to be granted to companies named for that purpose shall, Sf granted by the Governor In Ccuc-
BES VISED MMTXOHo
4739
[COMMONS]
4740
cil be granted to such companies respectively ; the other subsidies may be granted to such companies as shall be approved by the Governor In Council as having established to Mb satisfaction their ability to construct and complete the said railways respectively ; all the lines for the construction of which subsidies are granted, unless they are already commenced shall be commenced within two years from the first day of August next, and completed within a reasonable time, not to exceed four years, to be fixed by Order in Council, and shall also be constructed according to descriptions and specifications and upon conditions to be approved by the Governor in Council, on the report of the Minister of Railways and Canals, and specified in an agreement to be made in each case by the company with the Government, which agreement the Government Is hereby empowered to make ; the location also of every such line of railway shall be subject to the approval of the Governor in Council.
4.	That the granting of such subsidies respectively shall be subject to such conditions for securing such running powers or traffic arrangements and other rights as will afford all reasonable facilities and equal mileage rates to all railways connecting with those so subsidized, as the Governor in Council determines.
5.	That the said subsidies respectively shall be payable out of the Consolidated Revenue Fund of Canada, by instalments, on the completion of each section of the railway of not less than ten miles, proportionate to the value of the portion so completed in comparison with that of the whole work undertaken, to be established by the report of the said Minister, or upon the completion of the work subsidized—except as to subsidies with respect to which it is hereinbefore otherwise provided.
'6, Any company receiving a subsidy as aforesaid, in excess of $3,200 per mile, shall be bound to carry Her Majesty's mails for a term of ten years free of charge over the portion of railway sut^idized.
Mr. FOSTER. I may suggest to my hon. friend that it would be a great convenience to the committee if the officers of the Department of Railways and Canals would inform the House, in each case, as to how much money we are expected to vote. They seem to be disposed to make us do our own calculations. It would save us a great deal of trouble, those of us who are not adepts at calculating.
The MINISTER OF TRADE AND COMMERCE. If my hon. friend will look at the terms of the resolution he will see that in each of those cases it is a simple multiplication of the number of miles by $3,200.
Mr. • FOSTER. Then if my hon. friend will have the minimum and maximum sum placed there, it would be some guide.
The MINISTER OF TRADE AND COM-. MBRCE. That would be impossible, under the terms.
Motion agreed to.
SUPPLY,
The House again resolved itself into Committee of Supply.
Sir RICHARD CARTWRIGHT.
(In the Committee.)
Kingston Penitentiary ................ .$97,500
Mr. 8PROULE. I understood the Government would make a statement as to what they intend to take on the report.
The SOLICITOR GENERAL. If my hon. friend will examine the report, and that portion of it which refers to recommendations, I will be happy to answer any questions he may ask in regard to them.
The SOLICITOR GENERAL. Take the recommendations towards the end, pnge 3.*!, you will find recommendations there in reference to discipline. I have prepared answers which refer to each paragraph. Paragraphs 1 to 6, are as follows
1.	That in order to command the services of a man fully qualified to discharge the duties of warden of the penitentiary the remuneration of that officer should not be less than $3,000 per annum, with the official residence unfurnished, heating, lighting and water, and such portion of the prison ground and such convict labour as may be assigned to him by the department.
2.	No time should be lost in revising the present prison regulations (sanctioned in 1888) and adapting them to the altered condition of things in the penitentiary.
3.	The duties of every officer should be clearly and distinctly defined in the regulations, so as to prevent any possible clashing in their work.
4.	Every officer of the prison should be supplied with a copy of the regulations, and required to make himself familiar with them, especially with those relating to his own duties.
5.	Befor_- any permanent rules respecting the prison of isolation and the dungeon cells are sanctioned, full Information should be obtained, either by personal visit or by correspondence, from the authorities at the head of the leading prisons either in the United States or Belgium, where the cellular system has been for years in successful operation.
The answer to paragraph one is : There Is no present intention of increasing the salary of the warden.
Mr. BERGERON. What is the salary now ?
The SOLICITOR GENERAL. $2,500 a year.
Mr. BERGERON. And he has a house free, heated, lighted and everything.
The SOLICITOR GENERAL. No. 2. The present regulations will be revised, and the carrying out of them will be insisted upon.
Mr. SPROULE. In regard to No. 1, you say it is not the intention-to increase the salary of the warden, but the recommendation is that a man who is fully qualified should be secured to discharge the duties, and presumably the present man is not qualified.
Mr. FOSTER. The Government is of the opinion that a man fully qualified can be got for the salary and perquisites now paid ?
4741
[JUNE 21, 1897
4742
The SOLICITOR GENERAL. That is our opinion at the present time.
Mr. FOSTER. I think so, too.
The SOLICITOR GENERAL. We have taken the trouble to read the evidence upon which the report Is drnsed, and we do not consider ourselves bound to any great extent to accept the findings of the commissioners. We find, ourselves on the evidence independently of the commissioners, and we give the findings of the department to the committee. It is intended that the present regulations shall be revised. The regulations we have now were established in 1884. Since that time new officers have been added and new industries created, for instance, the binder twine industry, and in consequence it is necessary that new regulations shall be made. As to these regulations I have consulted with the inspector and the intention is that the inspector shall prepare a set of rules after a full examination into the pent tentiary at Kingston and the penitentiaries elsewhere. When these regulations are adopted it is the intention to see that they are properly enforced. That disposes of paragraphs 1 to 5. As to paragraphs 6 to 13 the same thing will apply. They are as follows
6.	No officer of the prison should be allowed to purchase any articles from the prison stores, or to have any work done for him in the prison shops.
7.	No officer should be allowed to keep any animals, or feed for the same, on the prison premises.
8.	Married officers should not be permitted to reside within the walls of the prison.
9.	Officers closely related or connected with each other by blood or marriage should not be employed in the prison at the same time.
10.	In no case should firearms be used in dealing with a convict in his cell. Should it be necessary to remove from his cell a violent or refractory convict armed with a dangerous weapon, no attempt should be made to enter his cell against his will until he has been made to give up Ms dangerous weapon. This could be don© in a short time by putting him on bread and water •diet, or in a few minutes (if necessary) by turning the hose on him.
11.	With a view to economy and the other advantages stated in their report, the three classes or grades of convicts should henceforth be distinguished, not by different suits of clothing, but simply by stripes upon the sleeves of their coats, in the military way, the same cloth being used for all the grades.
12.	It should be a strong incentive to industry and good conduct if special privileges were secured by the convicts in the higher grades, and especially if a system were introduced, such as is now Sn force in the central prison, by which a convict might by good conduct and special industry earn money, to be given to him under certain conditions when leaving the prison.
13.	The officers who give the convicts marks for good conduct and industry, should be most careful in performing this duty, so that the convicts should feel that their promotion from one grad© to another, and the amount of remission of set-
i4s% ,.	» i . ■! i omidi
tence which they can earn thereby, depends entirely on themselves.
14.	The organization of a Prisoners’ Aid Association at Kingston, on the same lines as the Prisoners’ Aid Association at Toronto, with the object, among others, of assisting by advice and otherwise convicts at the critical time when they are leaving the prison, and the appointment of a special officer at the prison for this purpose, would be the means of saving many a poor creature and preventing him from returning to his evil courses.
As to paragraph 14 we approve generally of its terms, but as to the appointment of a special officer for the purpose mentioned that will not be done until we have had an opportunity of reducing the number of employees in the penitentiary.
15.	Every communication addressed to the inspector of penitentiaries on matters relating to the prison, whether from the officers of the prist'n or convicts, should be forwarded to that officer through the warden, who shall transmit it to the inspector with any remarks he may see fit to make.
16.	The lunatics now confined in the building within the walls cf the penitentiary, which is utterly unsuited for the purpose of an asylum, should be removed either to the public asylums of the different provinces, if satisfactory arrangements for that purpose can be made between the federal and provincial governments, or failing that, they should be transferred to an asylum erected outside the prison walls.
17.	The female convicts now within the walls of the penitentiary (a building in nearly every way most unsuited for the purpose) should be removed to the Mercer Reformatory, at Toronto, if satisfactory arrangements for that purpose can be made between the Federal Government and the Government of Ontario.
18.	The general admission of the public to the prison is objectionable and should be discouraged. It is thought that two or three hours on a fixed day in each week would be ample for the purpose. All visitors should be in charge of one of the guards, and no guard should have charge of more than six visitors at one time. The guard should take care that the visitors in his charge do not communicate with any of the prisoners.
19.	For the reasons fully set forth in the forego-
ing report, the commissioners recommend that the services of James H. Metcalfe, warden William Sullivan, deputy warden ; Patrick O’Donnell, storekeeper, and N. P. Wood, assistant storekeeper, be dispensed with ; and that James Devlin, the engineer, and James C. Weir, the steward, be summarily dismissed.	.
We approve of paragraph 15 in its entirety. As to 16, correspondence is now being exchanged with the provincial governments for the purpose of having criminal lunatics removed to the provincial asylums. Seventeen ; there is also correspondence as to that. Paragraph 18 is approved of. Paragraph 19, that more particularly concerns hon. gentlemen on the other side, refers to retirements and dismissals. In substance this paragraph is approved of except as to the warden. I may say that we have no present intention of removing the warden, Mr. Metcalfe.
Mr. BERGERON. No present intention ?
4743
[COMMONS]
4744
Mr. HENDERSON. When is it intended to remove him ?
The SOLICITOR GENERAL. It is not intended to remove him at the present time.
Mr. HENDERSON. I suppose his re mova! depends od when the Ontario elections come off.
The SOLICITOR GENERAL. X am quite sure that that was not the intention, hut that is a valuable suggestion. We are dealing with this matter very seriously, and there is no reason at the present time to justify Mr. Metcalfe’s removal.
Mr. BERGERON. What about Mr. Sullivan ?
The SOLICITOR GENERAL. As to Sul livan he must go ; O’Donnell must go ; Wood must also go ; Weir also. Devlin undoubtedly must go ; he has already gone.
Mr. FOSTER. How much farther are you going to send him ?
The SOLICITOR GENERAL. That is an inquiry which I think is quite pertinent I may say that it is quite possible that he may have to go back.
Mr. FOSTER. On salary ?
Mr. BERGERON. That is a great recom mendation for a man if he wants to get work elsewhere.
The SOLICITOR GENERAL. I think It is proper to say, that that requires explanation. But it is a fact that so far as Devlin is concerned the charges contained In the report are of such a serious character that we would not be justified in allowing him to remain. We give him an opportunity to explain, and we must give him that opportunity either by way of evidence to be given by him in answer 'to charges to be formulated or by way of a trial. It has not been decdded yet, but he will have one or the other.
Mr. CLANCY. I wouid like to ask the Solicitor General if the committee is to understand, that so far as the evidence contained in the report of the commissioners is concerned, the Government see no reason why Mr. Metcalfe should be dismissed.
The SOLICITOR GENERAL. In so far as the report is concerned, I will state, now, again, that there is no intention at the present time of removing Warden Metcalfe. We will not adopt that conclusion of the report.
Mr. COCHRANE. What is the explanation as to paragraphs 20 and 21 ?
20.	In view of the advanced ag© of Dr. Strange, the present prison surgeon, the commissioners think that his retirement would be in the interest of the prison.
21.	While the commissi oners have reason to believe that the present chief keeper, William S. Hughes, Js a zealous, active and intelligent ofB-
Mt. FITZPATRICK.
eer, and a good disciplinarian, they think (in view of the friction which has for some time existed between him and some of the other officers of the penitentiary), that it would be in the interest of the penitentiary that he should be transferred to another prison, or to some other branch of the public service.
The SOLICITOR GENERAL. Twenty refers to Dr. Strange. A change may become necessary, but there is no intention at present to make the change.
Mr. FOSTER. What is the age of Dr. Strange ?
The SOLICITOR GENERAL. He is a very old man.
Mr. BERGERON. The hon. member for Kingston, Mr. Britton, ought to know how old he is.
Mr. BRITTON. He Is about 72, I think.
The SOLICITOR GENERAL. I think he is in the vicinity of 70 years of age.
Mr. FOSTER. I suppose the Solicitor General would be stopped from disposing of any man’s services on account of age until he reaches that fixed maximum established in the case of Mr. Gunn who has been appointed to an office at Kingston. Officials may attain to that age in the service, but does not the hon. gentleman think it a good experiment to appoint non-officials who are of advanced age ?
Mr. BRITTON. Whatever may be done in the case of Dr. Strange by the present Government, I have not the slightest doubt that had the late Government remained in power the recommendation in regard to his superannuation would have been carried out.
The SOLICITOR GENERAL. As to 21, in reference to the transfer of Hughes, it is not probable that he will be transferred. The evidence goes to show that he is a faithful and good officer, and that he may be of great use in the penitentiary.
22.	The commissioners are of opinion that the number of keepers and guards (56) now employed in the prison is unnecessarily large, being more than one to every eleven prisoners ; and they believe, for the reasons given in their separate report, that with judicious arrangements, the number might safely be reduced (even while the farm is retained) to forty-eight, or one guard to twelve prisoners, and if the farm be not retained, to one guard for fourteen prisoners.
Number 22 refers to the reduction in the officers. That certainly will be carried out as soon as it is possible to properly reorganise the penitentiary. The recommendation In paragraph 23, will, as far as possible, be carried out.
Mr. CLANOY. At what price was the binder twine sold to Mr. Hobbs ?
The SOLICITOR GENERAL. I cannot give the figures now, but >X have them I© my office and will give them later on. I
4745
[JUKE 21, 1897J
4746
may say that tenders were called for in the regular course, and that one-half cent was obtained from Mr. Hobbs better than the best other tender put in.
Mr. BERGERON. Is it the intention of the Government to continue the manufacture of binder twine in the Kingston Penitentiary ?
The SOLICITOR GENERAL. The whole question of the employment of prisoners is being considered with a view of ascertaining the most profitable employment they can be put^to. As the binder twine plant has cost the country something in the vicinity of $50,000, it would be very hard to expect that without very careful consideration we should set that industry aside.
Mr. SPROULE. In this report I find the following
28.	All the prison industries and all branches cf trade conducted by the prison should be placed under the supervision of a thoroughly competent chief trade instructor, one if possible, who has had experience in manufacturing and as a successful man of business, who should be given authority, under proper regulations, to purchase all manufacturing and engineering supplies, and to sell all prison products.
29.	The storekeeper should purchase all maintenance supplies not used in the trades or industries or engineering departments ; and should be selected for his established character as a competent and upright business man, having had experience in dealing in the class of goods required for prison maintenance. .
9
Is it the intention of the Government to carry out that recommendation ?
The SOLICITOR GENERAL. These are parts of the general scheme of reform which we are now considering. It Is intended to carry out the recommendation as regards a thoroughly competent trade instructor, but there will be no unnecessary increase in the staff so far as the balance of that recommendation is concerned.
Mr. SPROULE. Is it the intention to invest that man with power to buy all supplies and sell all products as recommended here ?
The SOLICITOR GENERAL. There is no such intention at the present time. This recommendation would necessitate that for the present system of tender we should allow a man to buy In the open market at the time the goods are required. That is the system that exists at the Central Prison at Toronto, and if we consider the results obtained, that system has certainly very great advantages; but, on the other hand, It is undoubted that It has very serious disadvantages also.
Mr. CLANCY. The Solicitor General.will bear in mind that one of the commissioners who make these recommendations is connected with the Central Prison, and his recommendation cannot be without strong
feeling of defending the system which prevails in this institution. It seems to me, the Government should go very slowly in endorsing the conclusions of that gentleman.
The SOLICITOR GENERAL. I quite appreciate that My hon. friend (Mr. Clancy) must bear in mind that the compariooin between the Kingston Penitentiary and the Central Prison, in this respect, is based upon the actual figures of results obtained, and not upon what this gentleman may have said.
Mr. CLANCY. If the hon. gentleman (Mr. Fitzpatrick) depends upon the printed reports with regard to the maintenance of the Central Prison he will find himself very far afield. The same services are not taken Into consideration at all in making the comparison.
The SOLICITOR GENERAL. The remarks of the hon. gentleman (Mr. Clancy) cannot apply so far as the purchase of supplies are concerned.
Mr. SPROULE.	Did I understand the
hon. gentleman to say that these goods would be purchased on the open market ?
The SOLICITOR GENERAL. That Is the recommendation, but there is no present intention to do that I may stite that we have at the present time asked for tenders for supplies for the coming year.
Mr. BRITTON.	The Solicitor General
has stated in reference to some of these matters, that there is to be an inquiry by the inspector. I call his attention to page 21 of the Teport, which refers to the present inspector, and in view of that, some care might be taken as to whether the Inspection is to be under the present officer or not. Certainly, according to the report of the persons who investigated the matter, the system of inspection as it has been carried on of late years—I am not referring to particular persons—seems to be manifestly Insufficient and entirely ineffectual as to preventing things that the commissioners complain of.
The SOLICITOR GENERAL. Naturally, all these matters are directly under the control of the Minister of Justice (Sir Oliver Mowat), and especially penitentiaries, are under his exclusive control. Therefore, before I came here to answer the questions that might be put to me, I had a conference with the Minister of Justice, and which conference resulted In reducing to writing what I should say here as representing him. Dealing with the inspector of penitentiaries, there are some portions of this report that rathe? reflect on him, but I have also to draw the attention of the committee to this fact; the inspector has only been an officer for a year or two, and within that time it was impossible for him to bring about the reforms which really he
4747
[COMMONS]
4748
has recommended from time to time to the department. I must say on his behalf that since he has been in office the annual expenditure has decreasd from $468,000 in 1804-95, to $389,000 last year. We have almost saved $100,000 in the last two or three years so far as penitentiaries are con* eerned. I may say, speaking on behalf of the Minister of Justice, that the intention is, in so far as the prison, regulations are concerned, to confer with the inspector of penitentiaries, and I further desire to say that if we had no confidence in the inspector of penitentiaries, of course he should not be in the position he occupies. But, we have confidence in him at the present time, and we mean to consult him and take him into our confidence for the purposes of discussing these regulations.
Mr. QUINN. Before the item passes I would like to draw the attention of the committee to the manner in which this commission has been conducted. I do not think that the officers complained of, and against whom findings have been made by the commissioners, have been given anything like a fair show or British justice in th's matter at all. The commissioners, as I am 5i formed and have reason to believe, and in fact as I know, to a certain extent conducted their investigation in a manner (that outrages our ideas of justice or of investigations conducted by commissioners appointed by a Government or by a depart meat such as the Department of Justice. Not only did they not set about their work regularly, that is, in a manner that a judge or a proper commissioner would ; but they seemed to take the position rather of detectives or spies. They seemed to be there for the purpose of finding out something that was wrong, according to their idea, whether in reality it was wrong or not. They went to persons who they thought could furnish information, and who they perhaps thought could furnish this information without having any ground for believing they
the parties who had been accused asked to be allowed to hear the evidence which was given against them, to have counsel to represent them at the investigation, to give any explanation, or to examine witnesses on their own behalf, not only were their requests refused, but they were kept in perfect ignorance of any charge that had been made against them until the report had been sent in, and until the fact of the existence of such a report had been brought out in this House. Now, it is not my intention to attempt to apologize either for the misconduct of officials or the misconduct of the commissioners. Nor is it my purpose or my duty to make any charges against these commissioners or against this secretary. I think it is sufficient simply to draw the attention of the Solicitor General to the facts which I have stated in order to have justice done to these men, The hen. member for Pictou (Sir Charles Tup-per) has examined this report very carefully, and I think it was his intention to say something on this subject, had he been present. Unfortunately, he is not able to be here ; but I think that in this case the same system should have been followed that had been followed in the case of commissions in other departments—for example, the system that had been followed in the case of the commission of investigation into the affairs of the penitentiary a$ Kingston in 1848. In that ease the commissioners reported :
*
After the most mature deliberation, we resolved that the fairest and most satisfactory mode was to conduct the investigation in the first place in private, and, after maturing our inquiries, to draw up from the evidence formal charges against any officer who might appear to be implicated, and furnish him with a copy of such charges and the testimony to sustain them ; and should such officer deny the allegations made to his prejudice, we determined that he should have the opportunity of recalling the witness for re-examination, or summoning such additional witnesses as he might think proper, for his defence.
could ; averted that these persons were in a position to furnish the information ; asserted that they had been guilty themselves of certain offences, and that the best thing for them to do would be 'to make a clean breast of the w hole matter; and thereby save themselves and other persons Implicated* from prosecution or other consequences. Not only was this done, but I have reason to believe that the Department of Justice was placed in possession of certain facts concerning different members of the committee, the secretary, d think, in particular. I think the Solicitor General will bear me out in that. Letters written by the secretary were placed in the Department of Justice, in which letters the secretary asked certain individuals to help him out in bringing home charges to different Individuals in the penitentiary, who were then accused. But, stranger than all, when Mr. FITZPATRICK.
I think that will strike any member of this committee as not only the reasonable thing to do, but as the proper and just mode of procedure. Further on, they say :
Wo conceived this mode of proceeding was highly advantageous to the accused ; for though the preliminary evidence would thus be taken in his absence, the benefit for having the testimony in writing, with time to scan every hue of it, instead of cross-examining on the moment, greatly overbalanced any slight disadvantage which might attend It. The main objection to this mode of proceeding, however, was the length of time it would occupy, and to this consideration we gave full weight ; but we felt that In dealing with such an institution, it was most desirable that there should be no room for complaint that injustice was done to any one, and that the fullest opportunity for explanation should fee afforded to all.
These extracts are from the report of the commissioners appointed to inquire In the
4749
[JUNE 21,1897J
4750
affairs of the provincial penitentiary at Kingston on June 23rd, 1848. In this case the commissioners, instead of following that procedure, sat, one might say, with closed doors. It was a star chamber investigation. One witness at a time was brought in, and was examined privately. The person whom he accused knew nothing of the evidence which was adduced against him. Incompetent stenographers were employed, I am informed, and only portions of the evidence suitable to the views or ideas of the commissioners were taken down by the stenographers, and under the direct instruction of the commissioners. That is, it was not the exact words of the witness that were taken down ; but, after a statement had been made by the witness, the commissioners would instruct the stenographer to take down such and such a statement as having been made by the witness. The deposition was not read over to the witness, and the witness was given no chance to correct any mistakes or misunderstandings taken down in the course of the statement he had made. Extracts were taken from these supposed depositions and made up to form the report on which the commissioners based their report—that is, not made up by the stenographers, not made up by the witnesses, but made up by the commissioners themselves. Another thing:	the persons
who were accused were not allowed to be present during the examination of any of these witnesses, nor were they allowed to cross-examine any witness. Nor were they allowed to have counsel to represent them at the examination of any of these witnesses, nor even to know that there were any complaints against them. When they asked, after having been themselves examined as witnesses, if any complaint had been made against them, the commissioners replied : “ You are not charged with anything, consequently we cannot allow you to be repre seated or have counsel to cross-examine any witnesses.” So that these men found themselves in this position, that until the report of the commission was brought before this House, they actually did not know, except through public rumour in the public press, communicated no doubt by the commissioners themselves or their friends, that there was any charge against them. Not only this, but the sources of information of the commissioners were such as to condemn their course in the eyes of any unprejudiced judge. During this commission, the members of it. particularly the secretary,—and 1 base this statement, not upon mere casual information, but on the sworn testimony of those who have been examined and whose depositions are now in the hands of the Minister of Justice—were in constant communication with one of the convicts, a man of undeniably bad character, who had been punished by this very officer against whom complaints were made. On the evidence of this bad character, these men are about to
be or have been dismissed. With this man, the secretary of the commission was in constant communication and frequently closeted. This prisoner was the confidant of the secretary of the commission, and as a reward for the services which he rendered in that capacity, I am informed, he has since been pardoned. If I am incorrect in that statement, the Solicitor General will probably set me right. He will probably tell us if this man named Mathewson, who figures very prominently as witness in this place has since been pardoned, and in that connection, I would ask my hon. friend also to give us the prison record of Mathewson. Not only was this convict a man notably of bad character in the penitentiary, the principal informant and agitator, but other means were adopted to obtain information which, I think, will not meet with the approval of the Minister of Justice or the Solicitor General. Here, for example, is a letter written by the secretary of this commission in order to obtain evidence, and I read it to show that the object was not to obtain evidence in the public interest, but to ferret out, by fair or foul means, evidence which would support the charge which, In the secretary’s own mind, had already been substantiated against the accused. The letter is paper J of the record and is headed “ private ” :
Kingston, January 29th, 1897.
Dear Dave,—Some years ago. when you were traveller for our oil company, you told me it was absolutely necessary to pay the engineer in tho penitentiary a commission in order to be able to ao business with him. You can help me out by telling me how much commission, and how to go about it. If so, put me on the way. Are you doing anything in British Columbia mines?
Yours truly,
R. J. EILBECK,
British North American Hotel.
Hon. gentlemen will remark this phrase : “ You can help me out by telling me how much commission and how to go about It” Help him out This is the secretary of the commission appointed by the Department of Justice to investigate the affairs of the Kingston penitentiary regarding its administration. Why should he ask anybody to help him out ? He occupied a judicial position, and why should he ask any one to help him to convict a criminal. Is it the duty of a person occupying a judicial position to convict the prisoner brought before him ? How is this man to help him out ? You can help me out, he says,,by telling me how much commission you paid and how you went about it.
Mr. BRITTON. Eilbeck was not one of the commissioners.
Mr. QUINN. He was the secretary of the commission, and that makes the ease infinitely worse, that he should, while secretary, occupy the position of detective as well. What confidence can be placed upon
4751
[COMMONS]
4752
the report or the minutes he will make of any of the meetings or the report he may make of the evidence taken if we find him making a matter of personal Interest to himself that this man to whom he wrote should furnish the means of convicting the accused of accepting bribes or commission.
Mr. HAGGAET. Who was this man ?
Mr. QUINN, His name is Eilbeck and I will tell you in a moment who he was. The point I want to make in this connection is that no reliance can be placed on his action either as secretary or reporter of that commission, because by that letter he shows he had a personal interest in obtaining information in every possible way for the purpose of ruining this man whom he intended afterwards to judge. What happened afterwards ? The gentleman to whom this letter was addressed came before the commission and made the following declaration
I. David John Roy, in the city of Toronto, county of York, do solemnly declare, that the only business I ever did with the penitentiary wa« tbv sale of two barrels of lubricating ^il, and me barrel of seal oil, some yvars ago, and that the order for the same was given me by the warden, no other person being mentioned, nor do I remember having mentioned to Mr. Eilbeck, that to do. any business with the penitentiary, some t'ne had to be paid.
And I make this declaration, solemnly believing the same to be true, by virtue of the Act respecting Judicial Oaths.
The SOLICITOR GENERAL. Before you read the statement from the newspaper give the authority on which it makes that statement.
Mr. QUINN. I will give all the authority in proper form.
Mr. BRITTON. That is not on the authority of the “ Record ” but of—p-
Mr. QUINN. The Solicitor General (Mr. Fitzpatrick) and the hon. member for Kingston (Mr. Britton) are deeply interested in defending the character of Mr. Eilbeck. 1 can understand that in the ease of the hon. member for Kingston, but why the Solicitor General should display such anxiety to defend Mr. Eilbeck, I do not kr.ow. I shall give my authority ; I shall give everything in connection with the matter. It is not my desire to hide or cover up this matter in any way. What I want is a proper investigation and the truth. I have no desire to vilify Mr. Eilbeck before this committee. I do not know him ; and. if what I hear about him is true, I shad take very good care not to know him unless I have a chance to prosecute him in a court of justice. Now, I say I will read from the “ Catholic Record ” of February 13th, 1897, an article in which, while the appointment of Mr. Fraser is commended, the following expressions occur
Here is the man to whom the letter was i addressed, swearing that he never gave Mr. i Eilbeck to understand that he had to pay j any bribe or commission to any employee of! the penitentiary before he could do business | with them. We do not know how many of ] these letters were sent out by this industn-j ous secretary, but we find this letter and j we have every reason to believe it was not j the only one. An hon. gentleman has j asked who that Mr. Eilbeck is. I do j not know the gentleman personally, but I i have a little information concerning him ! here. I will read a statement about Mr. ! Eilbeck, which, I think, will interest the ! committee and may give hon. members some ! idea of who he is. This is taken from the! “ Catholic Record,” of February 13th, 1897. j in which they speak with approval of the ! appointment of Mr. Fraser as one of the j commissioners-—	j
The SOLICITOR GENERAL. Who are! “ they who speaks of Mr. Fraser in that j way ?	j
Mr. QUINN, He is spoken of in that wav ! in the “ Catholic Record.”	* !
The SOLICITOR GENERAL. Give the signature of the letter you are going to read from.
Mr. QUINN. I am going to give all-Mr. QUINN.
The presence of Mr. Fraser would, very probably, have had the effect of preventing one, at least, of the commissioners from acting the role of a detective and resorting to means which no man of honour or fine feeling would stoop to in order to gratify his own anti-Gatholie feeling and that of the Kingston bigots by whom he is influenced. Mr. Fraser would have, however, been a check upon Mr. ** Bob ” Eilbeck, the secretary of the commission, whose conduct during* the prolonged absence of Messrs. Noxon and Meredith, at Toronto, has been as unprecedented as it v/as unwarrantable and illegal. This person, from his bucket-shop experience, is an adept in all those low tricks and expedients so familiar to “ smart ” men of his type. Eilbeck played a mean part for his masters by collecting, inside and outside the prison walls, for their informa-t}on, all manner of falsehoods, slanders and exaggerations from the most questionable sources. His chief confilant, companion and informant was a convict named Mathewson, who has served at least three terms In Kingston, the Central Prison and St. Vincent d© Paul, and who was recently released from the former place. Eilbeck violated the law by taking this convict from his allotted work without the warden’s knowledge or consent, and by being closeted, with him for hours together. Never before, in the history or traditions of the Kingston or any other penitentiary in Canada, have proceedings so flagrantly disgraceful been tolerated. A convict betimes had been accepted as a sworn witness to corrob-borate the evidence of an officer ; but it has been a standing rule, observed by all concerned in penitentiary administration, not to interview convicts in private, or receive their very questionable and unsupported statements against any member of the staff. In fact, “ Bob
4753
[JUNE 21, 1897]
4754
This is this Mr. Eilbeek, I understand.
—has been exercising plenipotentiary powers far greater, indeed, than the commissioners could lawfully relegate to him. He Is the tool—so far as they can use him—of the extreme bigots of both political parties in Kingston. While ** Bob *’ has proved himself a thoroughbred sleuth-hound in hunting down Catholic employees, it is rather a singular fact that he has failed to bring to light the peccadilloes of any of the oath-bound 13 brethren ” who have been levying a little blackmail; and there are such ! Is this the result of mere oversight, or sympathy, or what?
The MINISTER OF MARINE AND FISHERIES (Mr. Davies). Is that an editorial of the 44 Catholic Record ?”
Mr. QUINN. The hon. gentleman (Mr. Davies) must not allow his anxiety to over- | leap itself. I will tell him in a moment.
It can be hardly possible that the Minister of Justice—if cognizant of the mode of acting carried out by the commissioners and their clerk— would or could approve of such exceptional proceedings. No character, however pure and clean, could escape being smirched and injured by means of the dark, underhand and star-chamber machinations and plots which have, thus far, characterized the inquiry. By the way, the commissioners are bent on making the best of their opportunity to do a little quiet business on their own behalf. They are about three months ostensibly engaged in searching for 33 mares' nests ” at Kingston, being paid at the rate of $10 a day each, and expenses. This is a nice little bon-bon to dally with and hold in grasp. Our octogenarian friend, “ E. A.”—*
I think that refers to Mr. Meredith.
Mr. BRITTON. Who is a good Conservative.
Mr. QUINN. But surely, the hon. gentleman (Mr. Britton) does not think this is a matter of politics. Surely he does not think that I am speaking of this case as a matter of politics.
Mr. BRITTON. By no means, hut the4 hon. gentleman’s friends on the other side are.
Mr. QUINN. I do not care whether he is a Conservative or a Liberal, whether he has any politics or whether lie has not. I want to know whether he is an honest man and whether he has conducted this investigation honestly and disinterestedly. I do not say that there could not foe such a thing as a dishonest commissioner a Conservative, but if he he dishonest as a commissioner, I am glad to have an opportunity of saying what I have to say about his conduct.
—is fond of such precious windfalls, and will not soon or readily abandon the crib s-o well supplied with golden pap. It is quite likely Mr. Noxon has no squeamish qualms about following the example of a senior colleague, and enjoys “a good thing,” when it " falls in his iish.” Two things may be safely said of tho commissioners : first, that they have not performed a fair month's work since the inquiry opened ; secondly, that the result of their very trying and “ pecooli&r ”
task will go a short way in reimbursing the treasury for their pay and pickings.
Now, this article Is dated February 6th, 1897, and is a communication addressed to the ” Huron Expositor ” the 29th January, it seems.
The SOLICITOR GENERAL. And signed by---?
Mr. QUINN. Signed by “ An onlooker.”
The SOLICITOR GENERAL. Yes, an 44 onlooker.” I do not know who the gentleman is. Probably the hon. gentleman for Kingston is acquainted with 44 Onlooker.”
Mr. BRITTON. No, and I do not know anybody who is acquainted with him.
Mr. QUINN. At any rate, two respectable newspapers in Ontario have taken the responsibility of publishing this, the 44 Huron Expositor ” and the “ Catholic Record,” and I have not heard of any proceedings having been taken against either of them. Both these newspapers published this. The hon. member for Kingston evidently knew about this before, and my hon. friend the Solicitor General knew that they were not editorial notices, and knew that they were publish^ by 44 Onlooker.” I do not know that he has displayed his knowledge or his interest in the matter by taking warning from what has been said there, or investigating to see if these things are true. For example, there is one statement made there which I think is very important, and which might have been inquired into by the Solicitor General and the truth ascertained as to whether this man Eilbeek violated the law by taking this convict from his allotted work without the warden’s knowledge or consent, and by being closeted with this man for hours together.
The SOLICITOR GENERAL. I did not verify that, but it was done. He had the consent of the warden.
Mr. QUINN. It was only true, then, in so far as his having been closeted with him for hours together ?
The SOLICITOR GENERAL. That is quite true.
Mr. QUINN. Now, I may say here, by way of parenthesis, that my only acquaintance with Noxon was derived from an interview that I had with a client of mine concerning this investigation, at the time that Mr. Noxon was interested in finding out evidence about this penitentiary ; and I am informed by this gentleman, a gentleman of standing in Montreal, that in course of conversation with Mr. Noxon, the latter asked blip if it was not a fact that he had been paying commissions to different officers of the penitentiaries. This man said : Well, Mr. Noxon, from what yon tell me, you are the official connected with the department of prisons, I think, one of the inspectors in Ontario, and you know how these things are
4755
[COMMONS]
4756
done. Now, yon purchase large quantities of stuff for the penitentiaries yourself ? Yes. Well, you understand how it is with people “who buy these large quantities. Of course, if you came down here to buy from me you know I would be glad to treat you personally very well, and I think if you are in good company here you will find it to your advantage, I will treat you personally very well. Mr. Noxon did not resent it, but he said, “ Very well, I will see about it, I think I will be able to buy from you.” This. Sir, is the man who was sent to investigate the honesty of other people. Now, without reading any more extracts from these papers many of which would be very interesting, let us take the report as it stands, and let me say one or two things in connection wth it. In the first place, Mr. Chairman, find the commission was appointed for—what purpose ? We find in the first sentence of their report that the object was “ to Investigate and inquire into the affairs of the Kingston penitentiary with special reference to matters relating or pertaining to economy in the management thereof.” Now, that is the first object of the commission— “ and into all such other matters and questions as may from time to time be authorized or directed by the order of His Excellency the Governor General in Council or by the Minister of Justice, and to report the result of their investigation to the Minister of Justice, at his office at Ottawa.” Now, this would not indicate a judicial position at all. My hon. friend from Montmorency (Mr. Casgrain) reminded me that this commission did® not occupy the position of judges, that it was simply what would have been called, and what has been called in Great Britain, a smelling commission. They were there for the purpose of ferreting out anything that might be wrong. They were not endowed, possibly, with the powers or with the dignity of judges. They were there for the work they had to do, and were selected from the population for their fitness, possibly, in smelling things out, and in acting as detectives in their investigation that was to be conducted by them. But they were appointed for the purpose of inquiring into the affairs of the Kingston penitentiary, with special reference to matter relating or pertaining to economy in the management of the penitentiary. Now, what is the first thing they do ? The first thing they do is to send in six or seven reports, not concerning the economical management of the affairs of the penitentiary, or anything of that kind ; but evidently on questions which were subsequently submitted to them by the Department of Justice, after they had received this general commission. Now, in this report what do they do ? They arrogate to themselves, as I maintain, the position of judges. They do not take the position of investigators, because we do not find in this report the evidence upon which they based their conclusions. They arro-Mr. QUINN.
gate to themselves the position of judges, and virtually decide as to the official life or death of several of the officials of the penitentiary. They do not give any grounds for it. They do not say, Here is the evidence, and such and such a thing is sworn to; they do not send to the Department of Justice a copy of the depositions which have been taken and sworn to by these men, and say, We ask you now to render judgment. But they take upon themselves the responsibility of judges, putting aside altogether the evidence that had been taken by them, as I am informed and have reason to believe— because 1 have sw’orn testimony to prove that they did not take all the evidence that had been given, but took such portions of it as they deemed proper and right for their own purposes ; and on that they based a judgment which they, as judges, afterwards rendered. Now, is this a proper position for these men to occupy before this House? Let me here ask the Solicitor General if it would not be well to let this committee have the benefit of the other reports which have been sent in by these men. There are very important matters that were submitted to this commission to inquire into. For example, the Solicitor General, and probably the member for Kingston might think it of greater importance to find out whether a particular article was bought at one shop or another, they might consider it of greater importance to find that out, and might not think it of any importance, for example, to know anything about the shooting of Convict Heweli by Chief Hughes, on the 9th of October, 1896. Evidently the Solicitor General did not think much about it. because there is no report of the kind before the House. We have reports against other individuals, but none concerning the shooting of the prisoner Heweli. But other things have been inquired into by these gentlemen, for example the escape of the convicts, Morris and Macdonald from the penitentiary, but no report concerning them is brought down. But we have this report here, which, I presume, is the great work of the commission, the work for which they were appointed, to find out some individuals against whom they could establish something upon which to hang a charge, in order that the official lives of these men might be sacrificed to make way for some of their own friends.
Mr. BRITTON. I can assure the hon. gentleman that I had no such desire.
Mr. QUINN. I would not charge my hon. friend with that, certainly ; but it is evidently the intention of the commission. Now, let us see what they say. They are very anxious to get little jobs for themselves, and, of course, they do not lose an opportunity of any kind in order to find out. They recommend certain improvements in the penitentiary ; they recommend that certain things be done, but I cannot lay my
4757
[JUNE 21, 1897]
4758-
hands upon the clause at the moment. I remember it so well; it struck me as peculiar at the time. It struck me that this course would not have been advised if it had not given an opportunity for an inspector, or somebody else appointed by the Government, to visit the penitentiaries of the United States, Germany, and possibly Russia, to find out what was the custom in the institutions in these countries. The object, of course, was to provide an occupation extending over a year or two for somebody who is possibly very much in need of it. The commissioners in their report state :
At the present time there are a number of officers who are closely connected by family ties, and, as might be expected, the members of this family compact are naturally regarded with suspicion and dislike by the other officers. That a number of relations or connections shsuld hold office simultaneously in any prison seems, on general grounds, mosi objectionable.
I have nothing to say about that, but the commissioners, after having smelt out this fact, ought to have put the Minister of Justice in a position to show to the satisfaction of the committee that this statement is so. I mention it as a general principle that these gentlemen ought to have put before this committee, and ought to have put in the hands of the Minister of Justice the evidence upon which they have arrived at the conclusions they have arrived at in the report. and if such evidence was put in the hands of the Minister of Justice it ought to have been brought dowa and placed before this committee. It is not my desire to defend any persons who have done wrong in the penitentiary ; I bar e no desire t© shield those who have robbed the public and the Government by receiving commissions from persons selling articles to the penitentiary, but I have a desire to see justice done in matters of this kind. I have a desire to see fair, British justice meted out to everybody whether he be a public official or whether he occupies the humblest position in society when his conduct is being investigated by the Department of Justice. What do I find ? The engineer, against whom charges have been made. has. I understand from the Solicitor General, either been dismissed or is about to be dismissed, and he is going to be brought before the courts, I understand. I am very glad to hear this, because I think it will furnish an opportunity of having the truth proven in this case. The engineer put before the Department of Justice a statement of what he believed to be the truth, of what he believed to be the conditions and circumstances connected with his administration of his department, and this statement was supported not only by his own affidavit, but by the affidavits of many officers of the penitentiary. These asm on record in the Department of Justice. I only ask the Department of Justice, before any action Is taken, to remember Rial to these men, although occupying humble positions
| in the community, and to their children,. ; their reputations are as dear to them as the ! reputation of the Solicitor General is to him.
| They are entitled to an investigation. It Is-j not a right or proper condition that they | should be condemned until they have been i condemned on legal evidence. Such a thing would not be tolerated before any court m ! this country ; why, then, should it be toi-j erated before the highest court in the counI try, by the Parliament of Canada, I ask ; then, Mr. Chairman, that the Solicitor Gen-j eral shall take no step in this matter until | he has been furnished and can furnish this | committee with evidence of such a eonclu-sive character as will leave no doubt of the guilt of these men who are charged by these * commissioners. I ask him to give his peri sonal attention to this matter and that ne will act fairly and justly by these men. I I ask him to do justice in this case in the interests of justice, in the interest of the j House, in the interest of the public^ officials of this country, and in the interest of the Department of Justice.
| The SOLICITOR GENERAL. The horn | gentleman has thought it necessary, for what i possible purpose I cannot say, to make an attack upon the personal character of the commissioners appointed to investigate the ! affairs of all the penitentiaries of Canada ; with the exception of the one at Dorchester.
! He has called them spies and detectives, and I he has said that they were a smelling com-j mission. He has applied these words to
■	men of the reputation of Mr. E. A. Mere-| dith and Mr. O. K, Fraser, not to say any-
| thing about Mr. Noxon, who is known to j the majority of those present. He has \ thought proper to employ these expressions | upon what evidence it has not pleased him I to make known to this committee. I shall I not say anything in answer to that, but the | hon. gentleman referred the committee to a \ letter of Mr. Eilbeck, which he read a rao-j ment ago. This letter purports to have been | written by him to a gentleman in Toronto,
! and refers to a previous conversation he had | had with this gentleman, and ‘asking him i whether he correctly remembered that pre-| vious conversation, and whether he remem-i bered what he then stated was true. Mr.
| Eilbeck was appointed secretary of the com! mission and, in the course of the Investiga-i tion, he was reminded of a conversation | which he had had, and which, in my opln-
■	ion, would go far to justify a charge against j one of the employees. Upon such evidence I as this, the charge we have listened to for j the last half hour has been made. It is not | necessary at all for me to characterize such
j action or such conduct as that. Every j right-minded man In this House will know ! how to appreciate such a charge as that As to the system which was followed in this investigation, I may say that we have in the penitentiaries of Canada some 1,373 Inmates each year. There is expended the sum j of $400,000 for the maintenance of these in-
4759
[COMMONS]
4760
mates. We have discovered that within the last yeas* or two the expenditure connected with oar penitentiaries was reduced by $100,000. We pat to ourselves this ques-lion : Is It not possible by an Investigation to ascertain how this decrease was made so as to come to a conclusion whether or not a further reduction may be possible. That investigation was held by three commissioners. We not only have th^r reports, but every bit of evidence that was produced before them. We have also every document upon the subject, and these are hied in the Department of Justice. The bon. gentleman (Mr. Quinn) took the position that this evidence should have been before this committee. This committee asked for the pro* duetion of the report, and it asked for nothing else. A request was made that the report be produced and it was printed at the request of the House. That was the course that was followed, and if the hon. gentleman (Mr. Quinn) desired to get further information he should have asked to have the evidence produced. He never asked for It, .and now he seeks to make an argument on such a ground as that We have the evidence of the commissioners in this matter. They hied their report, and if the hon. gentleman (Mr. Quinn) before getting up and attacking it and the commissioners, had condescended to come into the House and hear what took place he would have heard what I previously stated, that the report of the commissioners was considered by the Department of Justice and that we only adopted the conclusions as far as we thought they were tenable and based on the evidence. In regard to the persons against whom charges have been made by the commissioners we have to adopt either one of two courses, either formulate charges against the parties incriminated where they are of such a character as to necessitate an explanation, so as to give the man op* portunity of explaining, or else prosecute them on a criminal charge. I am going to do one or the other In reference to one man who has been attacked. As to the employees of the department that we simply intend tx> remove without depriving them of any advantages to which they would be fairly entitled, in the way of a retiring allowance; that is a matter over which we must exercise our own control If we think, in the interests of the public, and in the interests of the administration of the penitentiaries, one man should be removed, and we simply remove him, that is our business and we take the responsibility for it. But, if we dismiss a man, charging him with dishonesty, then we are in duty bound to do one of two things: ■either to give him an opportunity of explain-Sng the charges made against him before the commissioners or before the Department of Justice, and give him an opportunity to explain so that the House may be informed of the explanation ; or It Is our duty Mr. FITZPATRICK.
to prosecute him as a criminal, and we will, as I have said, do one of the two things.
What was the condition of things existing in the Kingston penitentiary ? And here It is proper to say that these charges made against the commissioners, based upon the statement that they have meted one measure of justice to a Protestant and another measure of justice to a Catholic ; these charges should not have been made upon the authority of the anonymous ecrib-bier in the paper to which the hon. gentleman (Mr. Quinn) refers. I do not wish to make any trade of my religion, I do not wish to make any trade of my nationality ; I do not wish to use either one or the other as a stepping-stone on which to reach power; but no matter what the position of a man may be, if he does not do honest and faithful service to the state, he must pay the penalty, no matter what religion he belongs to. Let us see how the management of the Kingston penitentiary was conducted from the point of view of economy. Take, for instance, the purchases that were made for the last seven or eight years. We find that the purchases for the Kingston penitentiary were made at a figure varying from 16 to 205 per cent above -the market value. We find that to have been the general result in so far as purchases were concerned.
Mr. CLANCY. Can the hon. gentleman (Mr. Fitzpatrick) find, from one end of the evidence to the other, anything to substantiate that charge, beyond the bald statement contained in that report ?
The SOLICITOR GENERAL. Yes, I will give you that. Take the invoices. They were submitted to a witness that was examined before the commissioners, a gen tieman from Kingston named McKelvey.
Mr. CLANCY. A good Liberal.
The SOLICITOR GENERAL. None the less truthful for that.
Mr. FOSTER. An exception to the general rule.
The SOLICITOR GENERAL. That my hon. friend (Mr. Foster) must decide for himself. This gentleman was examined as a witness, the invoices were submitted to him----
Mr. CLANCY. What Invoices 7
The SOLICITOR GENERAL. Invoices of purchases made from Garth & Co., of Montreal, Clendennlng A Sons, James Ms&rk-um, Chanteloupe, Parker A Evans, James Wilson & Co., the Hamilton Packing Company, and Frank Gormley.
Mr. CLANCY. Do I understand that these are invoices of his own, compared with the same class of goods precisely, purchased for the penitentiary ?
4761
[JUNE 21, 1897]
4762
The SOLICITOR GENERAL. I state it and I repeat it now, he took the invoices, lie took the market prices at the time ; the invoices of purchases that were made, and comparing them with the market prices this Is the result.
Mr. CLANCY. Has he compared two sets of invoices, one of his own as the purchaser, with the invoice of a similar class of goods that were purchased for the penitentiary ? Is that the kind of invoice now before the committee ?
The SOLICITOR GENERAL. I am not discussing the question of invoices before the committee.
man (Mr. Quinn) now refers to was for goods purchased from Frank Qormley.
'Mr. QUINN. Yes.
The SOLICITOR GENERAL. Then how does it come to pass that that invoice was made out in the name of John A Rafter & Company ?
Mr. QUINN. What has that to do with it ?
The SOLICITOR GENERAL. Where i® the fraud there ?
Mr. QUINN. My hon. friend (Mr. Fits* Patrick) will probably tell m where the fraud is.
Mr. CLANCY. The Solicitor General will see that it is important to do so.
The SOLICITOR GENERAL. I stated that he took the market prices at the time, and it is indifferent to me what the market prices were.
* Mr. QUINN. He has a competitor in business with these men. The horn, gentleman (Mr. Fitzpatrick) has no evidence of the market prices at all. They were simply in this gentleman’s head, and be took up the invoices and looked at them.
The SOLICITOR GENERAL. He took, for instance, the price lists of the very establishments that furnished these goods, and what more do we want than that ? The hon. gentleman shakes his head, but I will take the invoices if he likes that were supplied to the customs upon which the entry was made of these goods, and in one ease an Invoice was supplied to customs for $908, and these same goods were sold to the penitentiary for $2,100.
Mr. QUINN. Does the hon. gentleman now refer to the purchase of the pump ?
The SOLICITOR GENERAL. When you are quite done I will go on with my speech.
Mr. QUINN. I now wish to state before this committee, to show the ignorance of these commissioners, that In estimating the cost of that pump, they took only one portion of the pump that Is charged for, and they only took the customs entry on that, amounting to $908. As a matter of fact, the actual cost of the pump that was supplied was over $1*800.
The POSTMASTER GENERAL. Why do they charge $2,000 ?
Mr. QUINN. It was sold for $2,000, and I suppose people must make a profit on what they selL This man actually paid nearly $1,700 for the pump, and ©old it to the penitentiary for $2,000.	$1,700 was the
wholesale price ©f the pump, and that shows how the Solicitor General is mistaken.
The SOLICITOR GENERAL. Oh, yes, it will show very much how I was mistaken. That invoice that the hon. gentle-
The SOLICITOR GENERAL. At King®, ton, inside of three months we will hear where the fraud is.
Some hon. MEMBERS. Oh, oh.
The SOLICITOR GENERAL. Let me explain that a little. The hon. gentleman (Mr. Quinn), in answer to this charge, says, that the invoice having reference to this pump does not include the whole of the invoiced article that was sold to the penitentiary. I have in my possession here, accessible to the committee, the invoice on which these goods were entered at the custom-house, and I have the invoice which was made out to the penitentiary. It is easy to m&k§% comparison and to establish before this committee immediately the question of veracity. At the time these goods were entered at the custom-house It was found that they were undervalued. There was then ^ report made to the Controller of Customs—not the hon. member for West York (Mr. Wallace), but his predecessor— that the gcods were undervalued to the extent of $100. The goods were seized for undervaluation, an examination was made of them, and they were assessed with $10© added to the valuation. They were valued at the custom-house at $908, and the same goods were turned over to the penitentiary at $2,100.
Mr. WALLACE. The statement made by the hon. member for Montreal Centre* (Mr. Quinn) was that the whole of the goods were not included in that invoice.
The SOLICITOR GENERAL. My answer is that they are included.
Mr. QUINN. The point I make is that the item of one pump was not all that was supplied by Mr. Gormley to the penitentiary* but that there were several other articles supplied, the names of which I do not remember. I am informed, however, that this pump, which was invoiced simply alone pump, had with it several valuable attachments the cost of which amounted in the aggregate to nearly $1,700, while the invoice which was furnished to the penitentiary simply mentioned one pump; and, of
4763
[COMMONS]
4764
■course, when the investigators asked the price of this particular pump, they were given the list price, $908, but not the prices of the attachments. I would ask the Solicitor General to say whether there are not attached to this pump several valuable attachments, which would bring the price up to $1,600 or $1,700. This is not a matter of trying to shield any one ; it is simply a matter of getting at the truth.
The SOLICITOR GENERAL. My answer to the hon. gentleman is this. According to the invoice in our possession, the actual cost of pump, condenser, governor, and revolution counter, is, per invoice, $908 ; duty at 27^ per cent, $249 ; freight, $42.30 ; in all, $1,200. The invoice to the penitentiary is : bought of John A. Rafter, the same things, $2,260.
Mr. BERGERON. Are they the same ar tides ?
The SOLICITOR GENERAL. I was not there at the time. The description agrees.
Mr. QUINN. I would ask the Solicitor General to let us see the invoices.
The SOLICITOR GENERAL. No, I will not.
Mr. QUINN. Is the hon. gentleman afraid to let us see the invoices ?
The SOLICITOR GENERAL^ I am naturally very much afraid of the hon. gentleman.
Mr. FOSTER. That will not do. The hon. gentleman comes down as a Minister of the Crown with evidence which he has mt given to the House, but which he uses to destroy an argument made by an hon. member of this House; and when an hon. member asks for that evidence, it must be given to this House, and given immediately.
The SOLICITOR GENERAL. I have not the slightest objection to communicate it to the hon. member. In fact, I intended to hand it to him.
Mr. QUINN. Then, what was the object of the hon. gentleman’s remark ?
The SOLICITOR GENERAL. Of course, the hon. leader of the Opposition will understand that it is impossible for me to proceed if I am constantly interrupted.
Mr. FOSTER. The hon. gentleman has a right to object to interruptions, but having used that pump invoice as evidence, he has a right to send it to my hon. friend.
Mr. QUINN. I would like to know what the hon. member means when he says he v^ould be naturally afraid to send It to me 1
The SOLICITOR GENERAL. I did not say I would naturally he afraid to send It to the hon. gentleman. He asked what 1 would be afraid of, and I said that naturally I would he afraid of the hon. gentleman.
Mr. QUINN.
Mr. QUINN. I asked the hon. gentleman to send me the invoice, and he said : “ I am naturally afraid to send it to the hon. gentle* man.” I would like to know why he is afraid. I think we can proceed in this matter without a show of such strong personal feeling on the part of the Solicitor General. I am asking for a proper investigation, a ad that justice should be done to the men who are accused ; and in that it is the duty of the Solicitor General to assist me. If the hen. gentleman wishes to make this prosecution a personal matter, he* is welcome to do so ; but for all the glory he will get out of it or all the benefit he will do to the country, it will be very little indeed.
The SOLICITOR GENERAL. I do not know that I am after glory; I am endeavouring to satisfy the committee. The hon. leader of the Opposition says he would like to see the papers. I am willing to hand them to him. Of course, I would like to have them all returned.
Mr. FOSTER. I will not put any in my pocket.	*
The SOLICITOR GENERAL. Let us look at another item—the transactions in Montreal. For instance, it was intended to substitute six-inch pipe for eight-inch pipe, and the engineer of the penitentiary thought he would notify his friends, Messrs. Garth & Company, of the intention to make the substitution. He asked what would be allowed in the exchange for the pipe he was handing over, and what charge would be made for the six-inch pipe that was to be substituted. Messrs. Garth & Company wrote a letter in which they said that they would furnish to the penitentiary six-inch pipe at 66 cents a foot. They sent in an estimate, and undertook to supply it at that price. This is but a small matter, but only one of a dozen. Mr. Devlin wrote to them in reply, saying that the department would give 69 cents a foot. The invoice was furnished at that rate by Messrs. Garth & Company and was certified to by Mr. Devlin, and the Government were made to pay 3 cents a foot more for this particular item.
Mr. BERGERON. That is a fair case.
The SOLICITOR GENERAL. It is clear, no question about it, and there are others equally clear. We have worse than that. I have in my possession a letter written by Mr. Devlin to Mr. Garth & Co., telling them of the intention of the Government to adopt the electric system of lighting for the penitentiary in substitution for the gas, and in which he tells them what the amount of the estimate Is to mt it the cost of this scheme. In the concluding paragraph of this letter he says:
I may be of some assistance to help the profits, if you get the work, and shall most willingly do
SO.
4765
[JUNE 21, 1897]
4766
Mr. FOSTER. Who signs the letter ?
The SOLICITOR GENERAL. Devlin.
Mr. QUINN. To whom is that letter written ?
The SOLICITOR GENERAL. T. Garth & Co., and it is written to them by a man who was supposed to look after our interest, who was supposed to watch the# contractors and see that we got the best value for our money. There are other charges, and I may say this to the committee. The condition of things there, not only from the standpoint of public interest, but of what is absolutely fair and honest, requires a thorough investigation. Let me give another instance of what has occurred. The plant for lighting the penitentiary with gas was purchased in 1887, at a cost of $34,346. Of that amount we paid $21,552 for material. Mind you, this was in 1888, and in 1894 that gas plant was disposed of for $675. It cost $21,000, and six years later was sold for $675. It seems to me that when I state, one fact of that sort, I have said all that is required to justify the investigation. And more—there is the pump I mentioned which was paid for at a cost of $2,100, which was bought at the time I mentioned, and is still lying unused in the yard of the penitentiary—not even taken out of its case.
An hon. MEMBER. How long ago was that ?
The SOLICITOR GENERAL. 1894-95. Those things show clearly that an investigation was required and that something has to be done. It is with the greatest reluctance that I make these statements before the House, because I know they must go to the country, without this man being given the opportunity of replying to them.
I never said a word of these things when first questioned ; but in self-defence, in defence of the department, in defence of the commissioners, I think I am bound to mention them, though I had intended keeping them in reserve until an investigation was held and an opportunity given this officer to defend himself.
There is one item contained in that report which, I think, I ought to explain, and that is the charge made, in connection with the purchase from Messrs. Chanteloup & Co., that a post office order was sent to Mr. Devlin which was not accounted for and of which it was supposed he got the benefit. I made a thorough investigation, and so far as that particular charge is concerned, I must withdraw It unqualifiedly, because I traced the order la the Post Office Department and I found that Messrs. Chanteloup & Go. got it back and I now absolve Mr. Devlin from the charge of having appropriated it to his own use.
"l do not want to go into details. I have taken all the care possible to have a
thorough investigation. I did not want to accuse this man, and kept him where be was, although we have had the report over two months, I kept him in the employ of the Government Sn the penitentiary until Saturday when he was suspended but not dismissed, so that every opportunity might be given him to explain those charges. I do not think, under the circumstances, that the Minister of Justice (Sir Oliver M<rwat) or myself ought to be blamed for harsh or precipitated action. I think we have dealt very leniently with this man, but we had a duty to perform, and it must be performed, let the consequences be what they may.
The committee rose and reported progress.
The MINISTER OF TRADE AND COMMERCE (Sir Richard Cartwright) moved the adjournment of the House.
Motion agreed to, and the House adjourned at 1 p.m.
Second Sitting.
Monday, 21st June, 1897.
