 at Eleven o’clock, a.m.
Prayers.
THE LOBSTER FISHERY.
Mr. GILLIES. Before the Orders of the Day are called, I desire to ask the Minister of Marine and Fisheries (Sir Louis Davies) what decision his department has come to with reference to the extension of the lobster season in the eastern part of Nova
Mr. CLANCY.
Scotia. I have received several letters from individuals interested in that industry, stating that dire distress might result if the season is not extended, because this season has been a most inclement one for the prosecution of the industry and generally unfavourable to the fishermen.
The MINISTER OF MARINE AND FISHERIES (Sir Louis Davies). I am glad the hon. gentleman (Mr. Gillies) has mentioned this matter. I have received communications from all parts of the coast stating that the season lias been an unfortunate one, that storms have broken the lobster traps, and all that kind of thing, In conjunction with officers of the department I have given this matter a great deal of consideration. I would like to see my way clear in the general interest to extend the time. The Minister of Finance (Mr. Fielding) and I are discussing these telegrams as received from hour to hour. I can only repeat what I stated on a previous occasion, that my own inclination is strongly against any extension of the time, though I know it will subject me to a storm of protest, if not abuse, from many parties. Still, I think that the general interest of the industry will be best served---
Mr. GILLIES. The hon. Minister must not forget that this has been an exceptional year.
The MINISTER OF MARINE AND FISHERIES. I never saw a year that was not an exceptional year for some reason. We must put our foot down some time or other, and unless my opinion is altered by the telegrams received to-day, as to the "effect of these storms, I have determined to take the responsibility of adhering to the law.
Mr. MACDONALD (P.E.I.) While I know that there is strong pressure being brought to bear upon the hon. Minister of Marine in regard to this matter, and wrhile I know’ that the refusal to extend the season may affect many people concerned in this industry, still I think it is of much more importance for this country as a whole, that the Minister of Fisheries should carry out his present intentions with a strong hand, in order to prevent the industry being completely destroyed.
SUPPLY—CONCURRENCE.
The House proceeded to consider resolutions adopted in Committee of Supply.
Public Works—Chargeable to collection
of Revenue....................... $171,700
Mr. SPROULB. I respectfully submit that we are going through these items in a Tray that was never before done, so fftr as my remembrance goes. It makes it utterly impossible to call attention to any of the items that we left over for further explanation on concurrence. The amounts only are mentioned and not the objects for which they are to be spent. We are going so fast
5417
[JUNE 28, 1897]
5418
that it is utterly impossible to turn up the Items and find out what these votes are for.
The MINISTER OF MARINE AND FISHERIES. Of course the hon. gentleman (Mr. Sproule) is quite within his rights. I assume that we have to read them over seriatim, only it takes up time. If the hon. gentleman puts his Votes and Proceedings before him he will be able to follow the items. .
Mr. SPROULE. It is utterly impossible to turn to the Votes and Proceedings at the rate we are going.
The MINISTER OF MARINE AND FISHERIES. The resolutions are called in order and. you will see each item in the Votes and Proceedings.
Mr. SPEAKER. If the hon. gentleman (Mr. Sprorle) wishes delay at the Table there will be delay while he turns up the items, but of course we want to go on as quickly as possible.
The MINISTER OF MARINE AND FISHERIES. If you take the Orders of the Day, in one hand, and the Votes and Proceedings in the other, you will have no difficulty.
Post Office—Outside service.....$3,636,657
Mr. FOSTER. Before that item passes in concurrence, I would like to ask the Postmaster General (Mr. Mulock) if he has yet brought down the return I have asked for. If it is not brought down I shall object to the passage of this item.
The POSTMASTER GENERAL (Mr. Mulock). What return is that ?
on that return and get his officers to make it. If he cannot he can wait a little for his estimate.
j The POSTMASTER GENERAL. I do j not know what the hon. gentleman (Mr. I Fester) means by saying that I can put my hand on the return. I have stated the fact which is simply that the secretary informed me that he could not find the papers.
Mr. WALLACE. Parliament has ordered this return to be brought down, and Parliament is very much larger than the Postmaster General. The order of Parliament must be obeyed. If the Postmaster General had stated six weeks ago that he could not fiud these papers, and if that was the reason for not making this return and that his officers were making an effort to find the papers that would have been a proper thing for him to do, but he has made no such explmation. On the last day of the session he says that the papers cannot be found. That is no information for Parliament. The papers should have been brought down or the Postmaster General should have stated three months ago, after the order was made, that he had made diligent inquiry and that the papers could not be found. It is an extraordinary thing, when the Postmaster General has 300 clerks to kck after these papers and keep them in order, that they cannot l>e found. Tne Postmaster General should have come to Parliament months ago with the statement that he has made to-day. Such a statement is of no use to this Parliament.
The POSTMASTER GENERAL. I will send for the deputy and see if he has been more successful.
Mr. FOSTER. The return I asked for e. dozen times.
The POSTMASTER GENERAL. About Mr. King ?
Mr. FOSTER. Yes.
The POSTMASTER GENERAL. I explained to the hon. gentleman (Mr. Foster) j the last time he mentioned the matter that I could not comply with the order of the House at present, because the papers in question had been mislaid. I thought perhaps the Deputy Postmaster General might know where they were. He has been away six weeks at Washington. He has returned, but I do net understand that he has been able to lay his hands upon them.
Mr. FOSTER. I suggest that we allow this item to stand over, for the present, and go on with the others. It is an odd way that after a return is asked for, at the beginning of the session, it cannot be brought down up to the last day of the session. There are certain rights that an Opposition does have, and that an independent member of the House has, and I certainly propose to ask that those rights shall be maintained. The Postmaster General <!an put his hand
Mr. FOSTER. Well, then this item may stand in the meantime. I would not be so strenuous upon this point if it had not been tion, when I was trying to get this information, the Postmaster General blocked me on a puerile technicality thus showing his intention not to give the information. I have remembered that, and consequently it has made me less charitable to the hon. gentleman in regard to this case.
The MINISTER OF MARINE AND FISHERIES. I think that the hon. gentleman (Mr. Foster) will accept the Postmaster General’s unequivocal declaration that the papers cannot be found. If the papers are lost, with all due respect to the power of Parliament, he cannot bring them down.
The POSTMASTER GENERAL. I think a question was put once before and my deputy gave me the substance of the papers, in answer to the question, so that the information is practically on record.
Mr. McMULLEN. I admit it is quite right, when orders of the House are given for returns, that the papers should be brought de<vn, but this is not the first time that this thing has happened. I can draw
5419
[COMMONS]
5420
the attention of the ex-Controller of Customs (Mr. Wallace) to the fact that two years ago an order of this House was passed for a report of the investigation into the irregularities in the customs office at Winnipeg. The customs officer there was named Mr. Scott. I pressed for this return to be brought down. I urged it in the session before last, as well as last session, and it has never been laid on the Table of the House.
Mr. SPEAKER. The remarks of the lion, gentleman (Mr. McMullen) are not quite relevant to this question.
Mr. WALLACE. I altogether deny that there was any such order agreed to when I was Controller of Customs.
Mr. MAC .LEAN.	Surely the hon. gentle-
man (Mr. McMullen) is not going to set up the doctrine that because something has been done in the past which is bad, it will be done in the future.
Mr. SPEAKER. The question is whether this item should be allowed to stand.
Mr. MILLS. I would like to draw the attention of the Postmaster General to the fact that the returns I have asked for, time and time again, have not been brought down.
The POSTMASTER GENERAL. I think they have all been brought down.
Mr. MILLS. No. I have just received vord from the proper officer saying that they are not there.	*
Mr. FOSTER. The hon. gentleman (Mr. Mulock) is too busy going over private correspondence to attend to the orders of the House.
Mr. SPEAKER. I think if the Deputy Clerk would read the head line, such, for instance, as mail subsidies and steamship subventions, and then go on, it would be better.
Mr. SPEAKER. The item stands.
Steam communication during the season of • 1897, i.e., from the opening to the closing
of navigation, between Baddeck, Grand
Narrows, and Iona, daily ; between Port
Mulgrave and St. Peters ; between Grand
Narrows, East Bay and Irish Cove.$7,000
Mr. GILLIES. I wish to bring to the attention of the Minister of Marine (Sir Louis Davies), in the absence of the Minister of Trade and Commerce (Sir Richard Cartwright) some facts with reference to this service, which is being performed upon the Bras d’Or Lake, in the Island of Cape Breton, between the railway terminus at Port Mulgrave and ports intermediate between that and Sydney. I wish to impress upon the Government the necessity of having a contract entered into with the Bras d’Or Lake Steamship Company, as to the proper performance of this service immediately.
Mr. McMullen.
Formerly a written contract existed between the Department of Trade and Commerce and the Bras d’Or Steam Navigation Company, for the performance of a service daily from Mulgrave to St Peters ; the steamer continuing from there to Irish Cove, thence across to the Grand Narrows, and back again through the canal to Mulgrave. That is really the important part of this service, because these people living there are deprived of all communication with the outside world, and the only means within their reach to have communication with the railway is through this subsidized company. My hon. friend (Mr. Foster), who was in charge of that service in 1891, before the creation of the Department of Trade and Commerce, was about to reduce the subsidy to that company, because the service performed by them was so much less in consequence of the opening of the railway through Cape Breton, but, upon strong representations made to him by myself and other members on this side of the House that the service east of St. Peter’s to Bras d’Or Lake would be diminished, and therefore the people would suffer great hardships, he agreed to continue the subsidy of .$7,000 to that company, in consideration of their performing the service in the Bras d’Or Lakes to which I now refer. Well, Sir, what is the fact ? Although we are now entering the 1st of July, not a boat has gone down from St. Peter's through the Bras d’Or Lakes and no contract has been drawn up between the Government and the company.
The	MINISTER	OF	MARINE	AND
FISHERIES (Sir Louis Davies). Was there any money voted last year up to the 1st of July ?
Mr. GILLIES. Oh, yes ; voted every year since 1883.
The	MINISTER	OF	MARINE	AND
FISHERIES. Was	the	contract a	yearly
contract ?
Mr. GILLIES. Yes, entered into at the commencement of every season.
The	MINISTER	OF	MARINE	AND
FISHERIES. Have the boats been running this year?
Mr. GILLIES. Yes, but the boat I speak of runs from Mulgrave to St. Peter’s only, and the boats from the other end is running in a perfunctory manner up to the Grand Narrows and Whycocomagh, and sometimes to St. Peter’s. But the boat running from Mulgrave to St. Peter’s which should continue down—perhaps the hon. gentleman is not familiar with the geography there ?
The MINISTER OF MARINE AND FISHERIES. Oh, yes, I am quite familiar with the locality.
Mr. GILLIES. That boat should go down to Irish Cove and across to the Grand Nan-
5422
5421
[JUNE 28, 1897]
sows, and then back to Irish Cove on to St. Peter’s on the return trip, as formerly. The service was four times a week in the past. I brought the matter to the notice of the Minister of Trade and Commerce (Sir Richard Cartwright), and he said to mo, it was certainly a reasonable request that the company should be compelled to do in the future as in the past. Really this company are doing as they please now, and my hon. friend (Sir Louis Davies) will understand the manner in which these corporations are apt to treat the public if they are not checked and brought to some sense of reason. What I wish to impress upon my hon. friend (Sir Louis Davies) is : that he should immediately compel that company to enter into a contract for the due and proper performance of the service from Mulgrave down to St. Peter’s, through to Irish Cove, and through the Grand Narrow’s and back again to St. Peter’s. They are getting their $7,000 for that; and heaven knows it is a large subsidy, and they should perform the service. These people who are shut out from communication should not be treated by the company in the way they are now being treated.
The MINISTER OF MARINE AND FISHERIES. What is the name of the company ?
Mr. GILLIES. The Bras d’Or Steam Navigation Company. It is now the 1st of July, and certainly the contract should be entered into.
The Minister of Trade and Commerce told me that he found it impossible to attend to these small matters because of the rush of business, and I can quite understand that; but now when the session is brought to a close, knowing as I do the desire of the Minister of Trade and Commerce (because he himself assured me of it) to have a proper service performed there, I would again ask the Minister of Marine, in the absence of the Minister of Trade and Commerce, to press this matter immediately on the attention of his confreres. It is a hardship as it exists now, and it is a hardship that should not be permitted.
The MINISTER OF MARINE AND FISHERIES. I will take a special note of the complaint of the hon. member (Mr. Gillies) and take care that it is laid before my hon. friend the Minister of Trade and Commerce (Sir Richard Cartwright) when he returns this afternoon.
Railways and Canals—Chargeable to Capital—Intercolonial Railway—To pay for
land and damages, Oxford and New Glasgow and Cape Breton divisions.... $2,000
Mr. GILLIES. Is it intended that this sum shall cover all the railway land damages in Cape Breton district ? I know that there are several claims before the Railway Department, and I would like to know whe-
ther this sum is intended to cover all these claims.
The MINISTER OF RAILWAYS AND CANALS (Mr. Blair). My impression is that it will cover all that we have any knowledge of up to the present time.
Mr. GILLIES. I have in my hands several claims for damages in the Cape Breton district. I wrote several letters to the department in reference to them, but received no reply. An official was sent from the department last winter to investigate them. I would like to ask the hon. Minister whether he has a return of all the claims for land damages resulting from the construction of the Government railway in the Cape Breton district, and if so, can I have a copy of these claims ? I want to ascertain whether the claims on behalf of which I have made demand are in the department, as I cannot find out otherwise.
• The MINISTER OF RAILWAYS AND CANALS. I would be very happy to give the hon. gentleman any information he requires. I have not it in my hand at the present moment. I think the sum put in here is the usual amount. The claims are coming in from year to year, and we are endeavouring to settle them as soon as they come in, and I think they have averaged about $2,000. Whether the claims the hon. gentleman refers to are included I cannot say, but I shall be glad to allow the hon. gentleman, at any time, to have access to any information we have if he will call at the department ; but there is no return in my possession.
Mr. GILLIES. There was a claim for damages at a place called Jamesville, near the Grand Narrows, which I wish to mention specially, as it has been hanging for some time. I wrote to the hon. gentleman’s department four or five times, but, for some reason, I could not get a reply.
The MINISTER OF RAILWAYS AND CANALS. Did the hon. gentleman write to me ?
Mr. GILLIES. I wrote once or twice to the Minister himself last winter. I was a little surprised at not receiving any reply. However, the department sent an officer down there to inspect the claim, and he visited the place. I happened to see him when he was there, and I directed him to go to the person whose land was damaged, and who would give him all the information he required. This was some time last January. I have not heard a word since, although my client has been frequently importuning me to get the matter settled in some way or other, or to get some decided answer. I would like to know, In this particular case, among several others, what decision the department has come to, and I will avail myself of the invitation now offered me by the Minister, to call at the depart-
5423
[COMMONS]
5424
ment and see the papers, if I shall be accorded that privilege.
The MINISTER OF RAILWAYS AND CANALS. Certainly, I shall be very glad.
I would be sorry to have the hon. gentleman think that any letter he wrote to me I would not answer. I may say that when any such letters are received by me they are passed over, with instructions to reply to them, and I do not see them again. If there is any information for which the hon. gentleman has asked and which has not reached him, I shall take pleasure, if he will remind me of it, in seeing that he gets it
Dominion Lands—Chargeable to Income.............. ................$90,938 25
Mr. FOSTER. Before we pass this item, there is some information I would like to have. The Minister of the Interior (Mr. Sifton) is not here, but I imagine that the Minister of Marine and Fisheries (Sir Louis Davies) could give the information I desire. We have some notice of a call for tenders for certain mining franchises in seine districts, and I am not quite sure whether in the Yukon, but I fancy somewhere up that way. It was mentioned once in the House—that was the first information the House had of it—that an advertisement had been issued calling for tenders for the purchase of these franchises or privileges. The statement of the Minister of the Interior then was that no contract had been entered into. I believe he also stated the condition upon which tenders were asked, and if so, that will appear in “Hansard.” I would like to ask the Minister of Marine and Fisheries if the (Government have gone further in this matter. It is a pretty grave question as the hon. Minister will see, to give up large tracts of that country to any company under tender in that way. I would like to know whether anything further has been done, or I would much rather get the information that nothing will be done until the House has bad an opportunity of discussing the question of the conditions. This is a matter in which the people at large are vitally interested.
The MINISTER OF MARINE AND FISHERIES (Sir Louis Davies). I am not aware that anything further has been done, nor is my colleague (Mr. Fielding), but 1 will send oyer to the Deputy Minister of the Interior and will Inquire of him and later on I will let the bon. gentleman (Mr. Foster) know.
To meet cost of arbitration respecting the accounts between the Dominion of Canada and the provinces of Ontario and Quebec. (Fayments on account of services rendered may be made to members of the civil service, notwithstanding anything in the Civil Service Act).......$7,500
Mr. SPROULE. I believe that the hon. Minister of Finance (Mr. Fielding) said,
Mr. OILLim	•
when this item was under discussion in Committee of Supply, that he would be able to give us some further information on concurrence as to these accounts and the progress that has been made by the arbitrators.
The MINISTER OF FINANCE (Mr. Fielding). If my hon. friend (Mr. Sproule) will turn up the Public Accounts of last year, he will find out quite a lengthy statement covering the matter, which, I think, he will find quite satisfactory, as it explains the whole situation and gives a number of documents. If the hon. gentleman finds that this does not cover what he wants and will call my attention to it later. I will be glad to supplement it.
Mr. SPROULE. But the Finance Minister will see that the public accounts only bring the ease down to 30th June, 1S96. Work has been going on since then of which we have no information.
The MINISTER	OF FINANCE.	There
has been nothing material since.
Mr. SPROULE.	They are not	making
much headway.
Mr. FOSTER. Are the salaries still going on ?
The MINISTER	OF FINANCE.	These
cases do not move very rapidly. I have some information with regard to it, but it is virtually a repetition of what appears in the Public Accounts.
Mr. SPROULE. What is in the Public Accounts we can see, but we would like some information as to wbat has been done since.
The MINISTER OF FINANCE. One of the matters of importance that is standing over is an appeal, and substantially no progress has been made. This is a very slow matter, as my hon. friend must have learned in the years during which it has been in progress.
•
Mr. FOSTER. What position does the bon. Minister of Justice (Sir Oliver Mowat) take of the matter ? I know the position he took two or three years ago, and I wonder whether the reversible patent applies to the Minister of Justice on these questions as well as on others. I hope my hon. friend (Mr. Fielding) will be able to tell me that the Minister of Justice Is standing strongly for the Dominion contentions.
The MINISTER OF FINANCE. These gentlemen of the legal profession do not seem to have any difficulty in standing strongly for their clients for the time being. At present the Dominion of Canada 5s the client of the Minister of Justice, and he" is standing for the interest of the Dominion with all the loyalty that members
5425
[JUNE 28, 1897]
5426
of the legal profession show for their clients.
Mr. FOSTER. Tempered, I suppose, in some slight degree, by the fees he receives.
The SOLICITOR GENERAL (Mr. Fitzpatrick). In order to avoid any such suggestion as that made by the leader of the Opposition, the Minister of Justice has thought proper to continue the lawyers recently employed in the ease, Mr. Christopher Robinson, Mr. Ritchie, and Mr. Coste, leaving them in absolute control of the case.
Mr. FOSTER. That is very wise, because they were in it from the first.
Mr. SPROULE. Does that apply to the commission of interprovincial accounts only or does it apply to other questions between the provinces and the Dominion ?
The SOLICITOR GENERAL. What other question ?	.
Mr. SPROULE. I understood that there was a question of Queen’s Counsel.
The MINISTER OF MARINE AND FISHERIES. That has nothing to do with this question.
Mr. SPROULE. No, but I understood the Solicitor General to speak of all questions that have arisen between the provinces and the Dominion. Has the same policy been pursued in connection with this question of Queen’s Counsel ?
The SOLICITOR GENERAL. This matter of the appointment of Queen’s Counsel is now on the verge of solution as between the provinces and the Dominion. There is a tentative proposal that both sides shall accept the suggestion of the Supreme Court in the matter.
Mr. SPROULE. I was wondering if the lawyers in the case on one side would turn around like* the Minister of Justice and argue the other way. But the Minister of Finance 1 understood, proposed to give us some information with regard to the interprovincial accounts.
The MINISTER OF FINANCE. I have a memorandum, but it does not contain very much in addition to what is already known. The memorandum which I have obtained in answer tc* my hon. friend s question, is that practically all matters in dispure between the Dominion and the provinces have been settled, with the exception of the follow- < lugi
I.	The Common School Fund.—In regard to ^
this, Ontario and Quebec have appealed from the awards made by the arbitrators, and the appeals : are standing for argument before the Supreme * Court of Canada.	<
II.	The Robinson Treaties.—In regard to those, the decision of the arbitrators, In their award of the 13th February, 1895, that Ontario should be 1 liable for payments made by the Dominion to the i Indians, was set aside by a payment of the Judi- <
rial Committee of the Privy Council, and, as a consequence of this latter payment, the matter has again been submitted to the arbitrators to determine whether Ontario and Quebec are not jointly liable for the payments.
III.	Payments after Confederation.—The arbitrators have before them claims made by the Dominion against the old provinces of Canada for liabilities incurred and work done before confederation, but not paid for till after confederation. These claims amount to about $60,000.
IV.	Treaty No. 3.—There is also a claim before the arbitrators against Ontario for expenditures made by the Dominion in connection with Indian Treaty No. 3.
Practically, however, the matter has not irade very much progress since the date of the public accounts.
Mr. MACLEAN. I hope that in this matter the Solicitor General will give not only his passive support but his active support in maintaining the Do-minion view on all these questions, especially in view of the fact that the Government is now largely made up of ex-provincial premiers who declared when they were at the head of their respective provincial governments that they proposed to vindicate the rights of their provinces and get as much of this money in dispute as they could. Now, I trust they will take the federal view, and not only in a passive way, as the Solicitor General stated, but in a most active way, vindicate the Dominion’s rights on these questions.
! Defence of Esquimau, B.C.—
Dominion contribution towards expenditure for works and
buildings... ...............$24,000
Pay and allowance of a detachment of Royal Marine Artillery
or Royal Engineers.......... 42,500
—------$76,500
The MINISTER OF FINANCE. In that item the amount is correct, but the division of the item is incorrect. I propose to change the division—of course without changing the total, which we cannot change. I move that the item read $29,000 and $47,500, and that would not affect the total.
Mr. FOSTER. Are we able to do that ? We are not dividing, in a sense, the total amount, but we have the item given to us in two parts.
The MINISTER OF FINANCE. At first I had, myself, some doubt, but after looking closely into it, I see it is not a division that ought to be objected to, because it is for the same purpose, simply two items of the same purpose, for the defence of Esquimau—that is the purpose. 1 am informed it is the practice of the House that where we do not change the amount of the item, the division can be made.
Mr. FOSTER. There is another little peculiarity in this. Stripped of all its explanatory part, the vote could run, “ defence of Esquimalt, $76,500.”
5427
[COMMONS]
5428
The MINISTER OF FINANCE. The first part of the item would read $29,000, and the second $47,500, the total being the same, $70,500.
To pay E. St. O. Chapleau in full of all claims in connection with his patented poll-book, in use since 1891......$1,000
Mr. FOSTER. I have not had the pleasure of a return from the Minister of Agriculture.
The MINISTER OF AGRICULTURE (Mr. Fisher). I must apologize.
Mr. FOSTER. I want to have that wonderful book so that I might make some edifying remarks upon this vote. Now 7 have been baulked in my desire in that direction. You may absolve me, but how shall we absolve the Minister of Agriculture ?
The MINISTER OF AGRICULTURE. I shall cry peccavi.
Mr. FOSTER. In addition to peccavi, will the hon. gentleman bring this down this afternoon ?
The MINISTER OF AGRICULTURE. I will bring it down.
To provide for the payments to collectors of customs for services in connection with the issuing of fishing licenses to United States vessels during 1896. $479 32
Mr. CASEY. I am sorry to occupy the time of the House, bat this is the only opportunity I shall have of asking certain explanations from the Minister of Marine and Fisheries (Sir Louis Davies). It appears that he has seen fit to reduce the price of licenses for pound-net fishing, in Essex, to $25. My constituents, as well as those of other members along the Lake Erie coast have urged that the same reduction should be extended to those localities. I have conversed with the Minister of Marine and Fisheries on that subject, and I wish to give him this opportunity of stating publicly why he has been unable to extend the reduction, which he has made in Essex, to other localities along the shore of Lake Erie. I am compelled to do this, in justice to my constituents.
The MINISTER OF MARINE AND FISHERIES. I may say that this matter hardly comes up on the item before us, but I will have no objection of giving the hon. gentleman (Mr. Casey) an answer. He is not exactly correct in saying that this reduction has been made in the county of Essex, if by that he means to imply that it embraces the whole county. There was a small locality where I was informed there had been great difficulty in recovering the fees from the fishermen. My adviser, Mr. Prince, brought to me the information that last year they were not recovered at all, and the consequence was that I had to dismiss Mr. FOSTER.
the officer there. He pleaded that he had done all lie could but the fishermen were so poverty-stricken in the locality that they could not pay. I could not accept that as payment, or as an explanation, although it was, to some extent, an excuse. I had an investigation made by Commissioner Prince into the matter and he recommended to me that, under the peculiar circumstances of these few men, we should make a reduction in the amount of the fees. The moment we made it. as I had anticipated, the same thing was demanded all along the line, but I have declined because the circumstances in this case were of a special character.
Mr. CASEY. To what locality did It apply ?
The MINISTER OF MARINE AND FISHERIES. It covered.a small locality between Pelee Island and the mouth of the Detroit River.
Mr. KAULBACH. I desire to draw’ the attention of the Minister of Marine and Fisheries to a matter-
The MINISTER OF MARINE AND FISHERIES. We are not on the subject of fisheries generally. I will be happy to answer any question the hon. gentleman (Mr. Kaulbach) desires tc put, but I beg him not to go into the whole question of fisheries.
Mr. KAULBACH. I am not going to make any lengthened remarks at present. I had intended doing so, but I have not been able to carry out my intention, because I had not the necessary information I was expecting. I propose to ask the attention of the Minister of Marine and Fisheries to the subject of the industry of fishing more particularly in regard to the introduction of artificial fish culture by the establishment of hatcheries and incubators in the maritime provinces, more particularly in Lunenburg, which is a fish centre. I hope that the Minister, or his commissioner, will give this his careful attention, during the recess, so that he may give us valuable information upon It when Parliament meets again.
The MINISTER OF MARINE AND FISHERIES. Does the hon. gentleman refer to any particular species of fish ’/
Mr. KAULBACH. I refer to lobsters and codfish. The introduction of artificial fish culture would be obviously in the interest of these fisheries, and 1 think it would be the best investment that the Government could apply money to. It gives a big return, and adds greatly to the commerce and trade of the country. I did intend to go into the* matter very carefully, but I have not had an opportunity of doing so.
The MINISTER OF MARINE AND FISHERIES. I will promise the hon. gentleman (Mr. Kaulbach) to consider this matter very carefully. So far I have not been able to bring my own views into unison with
5429
[JUNE 28, 1897]
5430
y
those of Commissioner Prince upon this particular matter.
To provide for the expenses and salaries of
commissioners appointed to investigate
charges against Government officials, including witness fees............... $2,000
Mr. SPROULE. I want to ask a question of the Minister of Marine and Fisheries. Has that any connection with the trouble between the Noble Brothers, of Colling wood and Killarney and the department, or is there any information as to how that case stands ?
The MINISTER OP MARINE AND FISHERIES. Judge Johnson was appointed some years ago to investigate that mater. He made an investigation in reference to the complaint in the time of »uy predecessor in the department. He reopened the case, and when I came into the department I found it hanging. The case had been reopened at the instance of the Nobles, and then they would not go on. There has been a great deal of correspondence between the lawyers of the Nobles and myself. They wn&ted*to put the department in he position of defendants, requesting that *he department should admit certain things and then go on and excuse themselves for seizing the Nobles’ nets. We do not admit that we should take that position. We claim that the department was right in the course it pursued, and if they desire to give any explanation we say we will reopen the ease and hear their witnesses. In the middle of this correspondence the decision came frcm the Supreme Court of Canada raising the whole question as to whether we ever Lad any jurisdiction in these waters at all. The Noble Brothers would then say to us : Well, we don't care now whether you are going on or not; if that decision holds we will sue you in law for damages for your illegal seizures, and if it does not nold we will be in no worse position than we are at present. I ordered the investigation sit once to be closed, and there is $190 due to Judge Johnston. I have sent the account to the Department of Justice for taxation, but it is not embraced in the $200, and will be paid out of the general vote.
Public Buildings, Ottawa—Fire protection,
electric lighting, &c.............. $75,000
Mr. FOSTER. I wish to ask the Minister of Public Works if it is not true that the Government has a contract at the present time with the Ottawa Gas Lighting Company, which has still some three years to run, and which is current of course at the present time; whether that contract was not entered into after certain conditions agreed to on both sides, one of which was that the price of gas should be very largely reduced, and that the company should be compelled to supply a maximum quantity. In order to fulfil these conditions and to supply the quantity of gas that
was required, it is represented to me that the company went to some $50,000 of extra expense to put themselves in a position to compass that cheapness and that supply. I am also informed that the price of gas not only has been reduced from $4 to $1.50, which is a very great reduction, but with the improvement in new burners you get a 40-candle light, and consume only about half the gas compared with former consumption. If these things be true, it modifies to a large extent the proposition which the lion, gentleman (Mr. Tarte) put before the House ; and 1 myself had forgotten the circumstances at the time, and did not allude to it when the item was being discussed. If you are going to take the alternative of being in a position like that— and we must carry out contracts as fairly as we possibly can—you have got to go to the expense of wiring a large portion of the buildings, and you have to go to the expense of having a technical and efficient staff in order to carry this out, neither of which expenditures are needed if you light by gas ; because of course the company looks after that. I bring this matter up becaus it is additional information which probably the House did not possess at the time, and I think it would modify the action of the Minister of Public Works. I do not make it a plea that because you are using gas now, therefore you' should not make the change. But I do make this plea : that when the Government revises a former decision, and by conditions made on both sides, large expenditures are entered into, and a contract based upon them, it becomes a matter of great moment whether or not* the Government is justified in destroying ttie investment to that extent, of the company with which it made the contract. Certainly the very best reasons should be given before that is done, and even then, it would be a question whether or not a consideration should be given to the contractor who entered into the contract in good faith. If my hon. friend (Mr. Tarte) will view the circumstances in that light, and if he were to make a proposal to that company in certain directions he may find that he can make a much more advantageous arrangement in connection with the conditions as they exist, than by undertaking this very large expenditure of $75,000 for installing an electric light plant. I am sorry that the information was not at hand and the question discussed when the Minister had his estimate before the committee ; but that does not render the information any the less pertinent. I want to ask my hon. friend to take that into his consideration; and I am sure he will see the force of it. If I might express an opinion, it would be that, under all the circumstances, it would be well to go a little slowly in the interim between now and January; and the hon. gentleman can obtain full information, and have his plans
5431
[COMMONS]
5432
perfected by the time the House meets again.
The MINISTER OF PUBLIC WORKS. I may say that my intention is to go slowly. As I explained to the House, it is proposed to supply these buildings with a suitable fire system, anc to change the mixed system ol gas and electric light which we have at present. 8ince the discussion took place here, I may say, that I have met Mr. Coates, the president of the Gas Company, who said that he would be glad to meet me later on.
Mr. MACLEAN. I hope the Minister of Public Works will consider this matter carefully, and go in for the state having its own system of electric lighting. In Toronto we have had some experience of gas, electric light and power companies, which are all monopolies entrenched there, and the citizens cannot get their rights from them. We have heard a good deal about the vested rights of these companies. While they are entitled to consideration, the public are also entitled to consideration. The whole tendency of the day is to wipe out these monopolies, and to have such things municipalized, or managed by the state or the city. I trust that the Minister will not have too many negotiations with the monopolies which are entrenched here, but will go in for a state system of lighting. If there must be a combination, let him form a combination with the city of Ottawa, and let the state and the city together provide themselves with the cheapest light supply they can get.
«2£™MINISTBB OP marine AND IISHERIES (Sir Louis Davies) moved the adjournment of the House.
Motion agreed to, and the House adjourned at 1 p.m.
Second Sitting.
Monday, 28th June, 1897.
