 at Eleven o’clock.
Prayers.
MONTREAL HARBOUR WORKS.
The Resolution adopted in committee on the 3rd instant, respecting an advance to the Harbour Commissioners of Montreal in addition to the amount authorised by Chapter 10
REVISED EDITION.
7011
[COMMONS]
7012
of tlie Statutes of 1896 (first session), was reported, read the second time, and concurred in.
FIRST AND SECOND READINGS.
Bill (No. 163) to grant further aid to the Harbour Commission of Montreal.—1(Mr. Fielding.)
THIRD READING.
* Bill (No. 155)—from the Senate—to amend Chapter 11 of the Statutes of 1897, intituled, “ An Act to restrict the importation and employment of aliens.”
IN COMMITTEE—THIRD READING.
Bill (No. 157) respecting the payment of the moneys advanced to the St. John Bridge and Railway Extension Company.
SUPPLY.
The House again resolved itself into Committee of Supply.
(In the Committee.)
.	-	9
Additional amount for publishing de- $20,000
bates (re-vote $($,949) ....... $20,000
Additional amount to cover expenditure during recess for French translation (including Experimental Farm Report,
$468, and report of Dairy Commissioner, $250) .................   3,000
Additional amount for sessional clerks,
including two clerks for Whips' rooms 3,568
Mr. MONTAGUE. We might, Mr. Speaker, say a word this morning as to wliat are the duties of the sessional clerks as regards the requirements for work for the members.
that I could get it done, but I am here to state that there are members of this House who simply have clerks of their own on the sessional staff. I do not hesitate to refer to names ; I refer to the member for King’s, N.B. (Mr. Domville). The young man whom lie has brought here has been, if 1 am not very much mistaken, practically a clerk for the member himself. There ought to be some method of measuring the hours of attendance of those clerks and the work that a man does, and if Parlia^ ment is going to give each man a private clerk it would be a splendid thing no doubt if the country wants to do it. I go into my own room and work my fingers off writing, while another member has practically a private clerk. There is no doubt about that and it is known to be so.
Mr. MONTAGUE. That is the point I wish to discuss, because it certainly is the case that some members of the House use these sessional clerks as secretaries, while others are regarded as having no right to do so.
Sir CHARLES HIBBERT TUPPER. I may say that my experience is somewhat in the other direction. II have never had anything to do with the clerks directly, but I have found Mr. Stewart, who is in charge, singularly obliging, and very prompt with the work I have given him to do—for instance, in malting extracts from some report in the library for the purpose of a debate here, or copies of returns to the House.
The MINISTER OF MARINE AND FISHERIES. That is not private work.
Sir CHARLES HIBBERT TUPPER. .On every occasion when I have sent to him, I have been surprised at the promptitude with vrhich he has performed the work, and I supposed that was the purpose for which these clerks were there.
Mr. SPEAKER. I had not the pleasure of hearing the objections that were raised last night, but briefly speaking there are 25 sessional clerks appointed between the provinces as they used to be before I became Speaker. Among those there are eight who are employed exclusively in doing the work of the Post Office during the Session, and In that way we avoid having permanent clerks appointed there. The sessional clerks are under the direction of the Clerk of the House, but under the immediate direction of Mr. Stewart, who distributes the work among them that may be required to be done during the session for the convenience of committees and of members.
Mr. FOSTER. Could we get an idea as to what are the privileges of members with reference to these sessional clerks ? I have been in Parliament since 1882 and for my part I have never had a line of writing done by a sessional clerk. I have never thought
Mr. FIELDING.
The MINISTER OF MARINE AND FISHERIES. I made a statement across the House that I had not got any work done; but if the hon. gentleman understood me as saying that I had never had any return copied, that is a mistake, for I understand that that is what the clerks are there for. I have had dozens of returns copied.
Mr. LaRIVIERE. That is my experience also. I have had returns copied ; but 1 understand that some of the clerks are employed in private rooms as private secretaries. At any rate, they are not in the sessional clerks’ room.
The MINISTER OF MARINE AND FISHERIES. We will inquire as to the fact. The bon. member to whom reference has been made is not here to answer.
Mr. SPEAKER.	My information and
knowledge on the point is quite different from what the hon. member for Provencher
7013
[JUNE 4, 1898]
7014
(Mr. LaRiviOre) states. Attempts have been made by members who thought the clerks were not busy, and could be taken into their rooms, to have the use of them in that way ; but the Clerk of the House and myself, after talking the matter over, have absolutely forbidden that. There was one attempt of this kind rather persistently made. It was mentioned by the hon. member for York (Mr. Foster). Tlie hon. member referred to is not in the House ; he thought, X suppose, that that was the use of the clerks. My own experience, before I was in the Chair, and when I sat on the opposition side of the House, was exactly the same as that of the hon. member for York. I really did not know that members could properly get as much work done in that office as they can ; and I think it is quite proper that any member who desires to have copied public papers or returns or anything to facilitate the public business of the House, should have the right, not to get a clerk and take him away, but to go to Mr. Stewart and place the matter in his hands ; and he will attend to it very promptly. X think the clerks are quite efficient too, because it has been our effort, in filling vacancies, to get stenographers and typewriters. I think the efficiency of the staff is a good deal greater than it was.
Mr. CLANCY. It seems to me that there might be some restriction imposed in this respect. The work of copying returns seems to be well understood. There is many returns that are not ordered to be printed, because they are not of sufficient public interest; but they may be copied. With regard to individual members getting other work done, there is great danger of going ever the line. I confess that it is very difficult to draw the line at the right place; but there is no doubt that no member Should use a clerk for his own private work.
The MINISTER OF MARINE AND FISHERIES. The hon. gentleman knows that often a return is brought down whieh is not of sufficient importance to be printed. He wants it, X want it, somebody else wants it; we cannot all have it at the same time ; and unless copies are made by Mr. Stewart, the return would be useless. So that I think members have a right to have copies made of such return.
Mr. CLANCY. I quite agree with that.
Mr. SPEAKER. Since I have been in the Chair, I think It was last session, I found that members were in the habit of sending their voters5 lists and other things to the office to he copied and entered in pass-books. I will not say *on which side of the House the hon. members to whom I refer sat; but I thought that should not be allowed, and I stopped it.
The MINISTER OF TRADE AND COMMERCE (Sir Richard Cartwright). X think
220* 1
it is quite reasonable—and I speak without prejudice, because in all my life I have never used a clerk for any purpose. Gentlemen in the position of the hon. member for York (Mr. Foster) and other prominent members of the Opposition, should be allowed some clerical assistance. I would have found that useful myself on some occasions when sitting opposite, and I think none of us would object that it should be fairly and fully understood that the leading members of the Opposition should have one or two clerks put at their disposal. Their position is becoming a recognized one, I hope they will long continue to fill it, and I want to make them comfortable.
Mr. ELLIS. I understand that this item covers “ Hansard,” to which I would like to call the attention of the House. I do not desire to make any attack on “ Hansard.” but I would like to call the attention of the committee to the steadily increasing expenditure for it. As I stated last evening, in the last three years “ Hansard ” has cost the country $177,000 ; and since 1891, it has cost altogether $364,000. The expense steadily grows, and I think there ought to be some effort made to limit it. I do not want to pronounce a sweeping judgment on the speeches ; I do not want to be a censor as to what speeches should be published and what not; but we know that in the committees of the House there are long discussions which are really not of great importance, and which take up time. Sometimes, I think they are simply made to occupy time; and the question is whether these pught to be printed or whether any restraint should be put upon them. There is no doulbt that among a great many members on both sides of the House there is a feeling that “Hansard” has become too expensive, and I know of a great many members who would vote for its abolition. The hon. member for Western Assinibola (Mr. Davin) thinks “Hansard” is a part of the history of the country. There may be a difference of opinion about that; but if It is a part of the history of the country, these ar© times in which a condensed history is more valuable to the people than one extending over many volumes. I would like one or two hon. gentlemen who are prominent in the House to give some expression of opinion on this subject, because the evil has become so great that some day or other it may have to be grappled with in a summary way.
Mr. FOSTER. How is that extra expense incurred—because more volumes are printed, or because there is a larger staff ?
Mr. BERGERON. In one year there have been two sessions. Taking the hon. gen-
ilei22?,J?J?g,ires since 189i» the cost -would be $37,900 a year.
Mr. ELLIS. I will give the details of the expenditure. In 1890-91, it was $31,369; 4a
7015
[COMMONS]
7010
1891-92, $72,252 ; in 1892-93, $50,605 ; in 1893-94, $32,202 ; in 1894-95, $49,733 ; in 1895-96, $69312—that would apparently in-elude two sessions ; and in 1896-97, $58,050. It is really a very large expense. I may say that the reporters’ salaries have not increased. They have run at about $17,500 a year since 1891. The expense of translating was $17,575 in 1892, and $20,304 in 1896-97. j There is a much greater variation in that, j The expense of printing is also subject to fluctuation on account of the number of words used in the session. For instance, last year it was $15,556, and the year before, apparently including two sessions, it was $34,130.
As a member of the Printing Committee j and of the Committee on Debates, of which ; my hon. friend (Mr. Bergeron) is also a j member, we find that there are constantly j increasing little demands for these additions, ! which it seems almost impossible to resist j and "which, in the number of years I have ! been here, have added considerably to the ! cost.	j
mittee of both Houst b was appointed to consider the propriety of publishing a full report of the debates in the British Parliament. The “ Hansard ” at that time only covered the debates that took place after 12 o'clock at night, and during the sittings of the House in committee. These were compiled with the reports in the leading newspapers, and the whole was published in a concise form. That, however, proved unsatisfactory, and an inquiry was made by a special committee, before which several of the leading English statesmen, including Lord Salisbury, gave their opinion that the fullest and most complete reports of the proceedings of both Houses should be printed for distribution. (In fact, most of these men insisted on not only a full report but a verbatim report, giving the exact words of the speaker. This, of course, brought out some objections. It was even stated that it might so happen that in a British Parliament some members had not mastered the English grammar sufficiently to speak the language as it should be
Mr. LaRIVIERE. This question is one that has been brought to the attention of hon. members from session to session. 1 do not agree in what my bon. friend has said in regard to the continued increase in the cost of “ Hansard ” being a criterion of its actual cost. If an increase has been made in the ccst, it is simply because of unavoidable circumstances. In one of the years mentioned by my bon. friend, we had two sessions. In another we had a very long session, and in order to satisfy the members of this House extra copies of a very long debate—the debate on the school question— had to be printed so as to distribute to the members of this House a certain number of copies. The bulk of the increase in the cost of “ Hansard ” is simply in the printing. And my hon. friend has just shown, by giving the figures, that the salaries of the reporters have not been Increased nor those of the amanuenses, and the cost of translation was only increased by the fact that we had two sessions in one year, and by the extra allowance given the translators in the long session of 1896.
This question of publishing the debates of Parliament has attracted the attention not only of this House, but of the Imperial Parliament as well. In the Imperial Parliament, before they had what is now called the “Hansard.” after the name of Mr. Thomas *Curzon Hansard, who founded that institution, they had to make up a parliamentary history of the proceedings of both Houses compiled from the reports of newspapers and other historical accounts of what took place in the Imperial Parliament from the year 1066 until 1803. It was only In 1803 that a regular official report of the debates was published in England, and this work was afterwards entrusted to Mr. Hansard, who published the official report from 1878 to 1888. »In 188S, a special joint com-Mr. ELLIS.
1 spoken, but it was stated that such faults I might be corrected, but that the report ! should, with that exception, be verbatim, j Here is a portion of the report :—
i
! Such a system exists at present in many for! eign countries (that of giving full reports) and in i many of our colonies, and there is much to be ! said in its favour. It would undoubtedly secure i a complete and accurate record of parliamentary I debates, which might be of historical value and ! interest.
| It is, however, necessary to realise and, if I possible, to formulate clearly the nature and j character of such official report. The committee j have arrived at the conclusion that an official report must be verbatim, and, except, perhaps, j as to gross grammatical errors, uncorrected.
t
| This "was the opinion of the committee.
I That the reports must be verbatim, because the length at which each member should be officially reported cannot be left to the discretion of the reporters, nor would it be desirable to impose on any committee of Parliament or department of Government the responsibility for condensation of speeches.
The report must be uncorrected, except as to grammatical errors, because, if produced as it should be, under conditions ensuring as nearly as possible absolute accuracy, further corrections might involve the alteration of what has actually been said, and would eo far prejudice the credit and interest of the report.
It will be seen by this that not only was it decided that a full report of the debates, in spite of the cost of the same, shonldT be published, and I may say that the cost there is a great deal more in proportion than it is here. It costs a great deal more, even taking into account the proportionate lengths of the reports and the lengths of the session, to report the debates in England, and in the United States as well. The officials in connection with such reports receive larger salaries in Great Britain and the United States, and even in some of our
7017
[JUNE 4, 1898]
7018
eister colonies of the British Empire. Therefore, I say that our “ Hansard ” is, on the whole, not costing more than it should, under the circumstances. I have here the evidence of Lord Salisbury,* given before that commission, and with the permission of the House I shall read a portion of it, which is not very long. But before I give that, let me refer to a very interesting part of the report of the committee itself, which is as follows
The debates In Parliament form a most Important, if not the most important, part of our history. It seems absurd and false economy on the part of a great nation to leave to chance the records of the most important factor in the making of its history. As time goes on, the materials for such a record decrease instead of augmenting. There is a steady deterioration, we will not say in the character, for that in some papers is still very high, but in the amplitude of the parliamentary reports in the daily press. Some thirty or forty years ago, the reports of the speeches in Parliament were almost verbatim in every single one of the morning journals ; now the reports of even important speeches, except in the case of the 44 Times,” are brief, almost to lines.
The historical student will find an almost verbatim report of the maiden speech of the late Lord Beaconsfield on 7th December, 1837, in almost every one of the morning papers of that period. As Lord Beaconsfleld was but a private member when he made that speech, and for many years afterwards, the speech, if delivered now-a-days, would be unrecorded, or recorded in but a few lines.
But the committee do now ground the desirability of an official and full report upon the material thus supplied for the history of the leading members of Parliament, though the growth cr change of their opinion is an important and interesting part of the history of their country. A proper record of parliamentary proceedings would likewise be an excellent guide to the study of the changes in the manners, ideas, opinions and legislation of the country. The history of a parliamentary debate is similar to the description given of a newspaper. The first day it is read with eagerness, the next day it is thrown away ; after the lapse of some years it is worth its weight in gold. The ancient volumes of “ Hansard,” imperfect as they are, are often intensely interesting reading, for the light they throw on dead statesmen or past condition of society, legislation and controversies. In an age which has seen the growth of a truly scientific method of historical study, it is curious to find that the desirability of a full report of parliamentary proceedings should still be In question.
The proposal that the reports should be mainly made up, not by independent reporting, but from reports culled from the different newspapers, means the whole dependence on newspaper reports, in face of the undeniable and universally acknowledged deterioration of these newspaper reports.	j
The existing reports collected by Mr. Hansard, though perhaps as good as could be expected under the circumstances, are yet. so far from excellence that many members have ceased to even open the reports of their speeches which are sent to them for correction. Knowing that the reports, in any case, would be travesties of what they had said, they were indifferent as to whether the travesty was great or small, and re-
fused to take interest In, or accept any responsibility for, the report. Such a state of things deprives ” Hansard ” of almost any authority.
Under any system but that of a verbatim report, the majority of speeches—all those, in fact, except the speeches of Ministers of great position and of great oratorical power—will be usually reported in the third person. A report in the third person is a bad report, not merely, nor indeed so much, because it is unduly brief, as because it is an incorrect report. The third person report has the tendency to bring down all speeches to a monotonous and dull level, for It ia the individual reporter who is represented in j them, and not the different speakers, diverse in temperament, thought and diction. Behind the report in the first person the reader can see the personality of the speaker. Such a report of a speech has colour, reality, the variety of life, while a report In the third person is bad, not only because U is too brief, but because it gives a false impression, and is, therefore, in the higher sense, an incorrect report.	-
This will enable lion, members to appreciate more fully the value of a verbatim report from a historical point of view. Recurring to the statement of Lord Salisbury, of which I spoke a moment ago, 1 quote the following question and answer Lord Salisbury was asked, “ Have you any observations to make to the committee with regard to the effect of the imperfect reporting of the House upon observations made by you in your official capacity ? ” And his answer was, ” I think the reporting of the House is defective, and that its defects frequently have injurious effects upon the public interests. The observations made by Ministers in either House of Parliament are taken as official statements of the most precise and formal character, and they are, consequently, if they affect any questions of importance, telegraphed at once to any part of the world which may be interested in the subject-matter to which they relate. Those Ministers, therefore, whose departments concern external affairs, Ministers for Foreign Affairs, for India, or for the Colonies, frequently find that the statements whiich they make in Parliament are telegraphed at once, as reported, either to foreign courts, to the colonies, or to India. With respect to the colonies. I know nothing : but it has sometimes happened to me that statements of mine, misreported either to India, or to foreign courts, have produced considerable misconception, and it has more than once happened, though not frequently, that that misconception, before it could be corrected, has produced results which I regretted/’
Now, Sir. this is just on account of the fact that the portion of the debate published up to 12 o’clock was taken from the newspapers, Instead of being reported by the official reporters of the ‘House. The committee then not only decided that the reports should be verbatim and uncorrected, but that they should cover the work in committee. which is found there to be as Important as 'the debates with Mr. Speaker In the Chair. This investigation took place In
7019
[COMMONS]
7020
1888, and it was decided that from that date all the reports should he in full and should cover debates on : 1. Private Bills. 2. Debates in committee on Public Bills. 3. Debates in Committee o<f Supply. 4. Post midnight debates. So as it has been found in the British House of Commons that the fullest and most accurate report of their proceedings ought to be published in the ” Hansard,’’ I do not see why we should go back on an institution that, I may say, is cited as a model in other countries; for in his report in 1888, Canada is mentioned as hav-in a full report of the debates of its House of Commons, and cited as on example. As we have been cited as an example in the mother Parliament, I think it will be a very bad step on our part to undo what has secured to us such a good reputation.
•Now, there may have been complaints about certain parts of the work, but I believe—and I may say 1 speak from experience, having hail the honour of occupying the chair of the Debates Committee during the last Parliament—we have the best staff of reporters that can be secured in Canada. Our reports, I may say, are a model ; and it must be a surprise to other members, as it has been to me that the poor speeches sometimes made by them are turned out so well and so nicely in the reports of the debates— not that the reporters change the sense of the speeches, but that they put them in such an acceptable shape that the members may be proud of them. The members of our staff of reporters have been selected, irrespective of their politics, from among the best men on the staffs of the newspapers. They are men who received a good training even before their appointment, and since they have been grouped together they have improved by experience, and now a member cannot notice any d/lfference between the part of his speech reported by one reporter and the part reported by another. They run, as it were, in the same groove, and they have gained such experience that their reports, as I have said, are a model.
Now. with regard to the cost of the Of?!-clal Report of Debates. I repeat that the cost is mainly in the printing of the same. The printing of the debates. I may say, has not been controlled by the committee. We send our copy to the Printing Bureau and. i whatever charges are made by that bureau -we have to stand, whether they are high or whether they are low. Whether those charges can be reduced is a question which I intend to bring before the Debates Com- « mittee next session If I have the honour of -atill being a member of the House and of the committee. I shall look carefully into fhls matter and I hope, with the co-operation of ray bon. friend from St John (Mr. Ellis) that we may. perhaps, find a means of re- ' during .he expense of the printing of our ; debates	J
__	i
Mr. LANDERKIN. I may say that I sup- i ported the Introduction of “ Hansard ” in ] Mr. LaRIVlERB.
this House some twenty-two years ago. 1 thought at that time It wrould be well to preserve for future reference the speeches that were made here. I do not know 'that I have changed my views very materially since, although I notice that the expenses are increasing very largely. I have an idea that this vote has an important bearing upon the cost of legislation, and influences it very largely. The hon. member for York (Mr. Foster) asked for explanations as to the cost of “ Hansard.” I think that in various w ays the cost . f ” Hansard ” not only increases in itself, but it increases the cost of legislation generally. It is said by some, although <1 will not say so, that it prolongs the session, that it means the multiplication of speeches, that many speeches are made on the some subject and are almost identical in character and are recorded in the “ Hansard.” Comparing the “ Hansard ” in this country and in the old country, I And that in this session so far—I do not know how many pages of “ Hansard ” there will be before the session is over—in May, however, it numbered (>486 pages. I find that in the British “ Hansard ” last year there were 6151 pages.
Mr. CDANCY. How long w*as the session in each case V
Mr. LANDEILKIX. The session in the old country generally runs six months ; I believe sometimes seven or eight months. The hon. gentleman (Mr. Clancy) knows the length of the session there, probably, as well as I do. I would not undertake to state it definitely. But there Is a less copious-
Mr. MILLS. Do not they count by columns here and by pages dn the British “ Hansard ” ?
Mr. LANDERKXN. I do not say whether they counted In columns or pages, I am giving you what X have got as to the cost of these prolonged sessions and the increased cost of legislation. If there is an Increase In the cost of legislation it is largely due, perhaps, to the existence of “ Hansard.” The hon. member for Y"ork is anxious to know about the increased cost of " Hansard.” 1 think 1 can satisfy that hon. gentleman. I have had special actuaries engaged in looking over the 44 Hansard,” I believe they were conscientious men, computing the number of speeches that were made in the House. They have made a report to me and they report that they did not find a single day, in which the member for York had not spoken.
Mr. FOSTER. May i ask the hon. gentleman if It was late in the evening ?
Mr. LANDERKXN. It was late la the evening. I understand they found that the member for West Assinlboia (Mr. Davia) had not spoken for four days this session, and they came to me in breathless alarm to ask if there was anything the matter with him during that time. I believe there should
7021
[JUNE 4, 1898J
7022
be an allotment of space in the “ Hansard,” there are some gentlemen in the House who monopolize nearly the whole of “ Hansard.” I can point out three gentlemen on that side of the House who have taken over a fourth, nearly a third, of the whole “ Hansard ” during this session, and I will give you their names. I suppose they are proud of their efforts. I notice the hon. member for York, on one subject, made 37 speeches, and they were all long, and were all taken down in the “ Hansard.” And they were very good speeches. They say that he doesn’t often speak without saying something, but he says it over and over and over again. Now, I will give you the result of that hon. gentleman’s labours during the present session and the session of 1897. In 1897 the member for York made 1,453 speeches in this House, that is an average of 25 speeches a day. That is a pretty good effort for a man of his size. I don’t wonder he is thin. I don’t wonder that he looks like Cassius ; he is long drawn out He filled 363 pages of
Hansard.” He spoke as much as 30 and 3-7ths of the members of the House during that session.
Mr. BERGERON. Three-sevenths ?
Mr. LANDERKIN. Is the hon. gentleman asking me who was the three-sevenths ?
Mr. BERGERON. I see what you are after.
Mr. LANDERKIN. The hon. member for West Assiniboia (Mr. Davin) spoke 1.023 times, he was a good second. He is eligible for the Queen’s plate next year, but he did not win last year. He occupied over 250 pages last year. The hon. member for East Grey, my colleague (Mr. Sproule), made a very good third. I think with a little coaching, which X will be able to give him during the recess, he will overtake the member for York. He spoke 290 times last session, and filled over 100 pages of “ Hansard.” So that between these three illustrious statesmen they occupied nearly a third of the “ Hansard” of that session. Now, Is that fair to their colleagues over there ? There is the member for Both well (Mr. Clancy), he is thirsting for fame, why not give him a chance ? He only spoke 250 times this session. There is the member for Plctou (Sir Charles Hibbert Tupper), he is getting his spurs whetted. Why not give him a chance ? I believe on all law questions he advises the Opposition. Now, there is an injustice in this. I will just ask the members of the House whether they think it is right that three members should monopolize nearly a third of the “Hansard” •when other members have an equal right with them ? Now. the cost of legislation, in 1897. was $1,134,772.04. Of this, t^ie hon. member for York Is responsible for $162,110. The “ Hansard ” cost $70,000, and he Is responsible for $10,000 of that sum. He is going to be the most expensive member in
the House. Now, we will take this year. The session is not ended, therefore I cannot furnish complete figures. But hon. gentlemen opposite threaten us with more speeches. They say : If you don’t do so and so we will make more speeches. They have been making speeches and speeches, and after a while we will see how they total up. I will show you the practical results, so that they may (be published in the constituencies. For 1898, the actuaries who were engaged in the compilation of these figures, told me that they could not find some copies of the “ Hansard,” and they do not make a full report ; but so far the results are very gratifying to these three gentlemen. I find that the member for York spoke this session, and that was up to about the middle of May, 1,066 times.
Mr. FOSTER. I am not yet up to the standard.
Mr. LANDERKIN. I think, though, that when we get a full report—there has been some pretty good days lately—that he will get up to the old standard. The member for West AssinSboia came a better second this time, he spoke 792 times, I think in the last few days he has been gaining very rapidly. The member for East Grey has made 409 speeches this year. 1 understand these three gentlemen have taken up this year a third of the “ Hansard.” I think if we were to add the member for Bothwell (Mr. Clancy), we could safely say that the four of them have taken up a third of “ Hansard.” Now, Is this not a serious matter ? 1 notice this session that the member for York made 47 speeches on one subject, and they were all the same. That is a pretty good record, they are all down in the “ Hansard.” I will not say they were not good speeches. But It was time the gentleman should give others on that side a chance. There is the hon. member sitting opposite me (Mr. McDougall), he is burning with speech. Sometimes he is crowded out. The hon. member for Beauharnois is not in it, so to speak, either, he has no chance. These (three gentlemen ! have mentioned take up almost the whole of the time of the House, about one-third of the “ Hansard ” is filled with the efforts of those gentlemen. Well, if this Is going to continue, I don’t wonder at the cost of legislation ; I do not wonder at the session being prolonged when hon, gentlemen, not feeling just as gentlemen should feel when they are associated with other gentlemen In the legislation of this conn-try, want to crowd all the others out. I do not believe in this monopoly of “ Hansard.” It will come to this, that there will have to be a committee, and there will have to be an allotment of space, if such things go on much longer. I think the innate sense of right and wrong should govern the members of this House, and they should not intervene in debates on
7023
[COMMONS]
7024
every conceivable occasion. How is it in England ? I have not made a calculation, nor have I had one made for me. but I venture the statement that if you take the English “Hansard,” you will not find a member of the Government nor a member of the Opposition who have intervened in debates nearly the number of times that those hon. gentlemen have done here, and the English sessions are twice as long as ours. Now I think the member for West Assini-boia has told us several times this session that if certain things were not done he would keep the session a month longer. I think I have heard others say the same. The hon. member for West Assiniboia made a long speech. Going home he was standing by the gate, when a reporter passed, and he heard this soliloquy :
My name Is O’Davin,
I soon will be havin’
The House to myself If I keep on this way.
' My words are abundant.
My speech is redundant—
I can speak from the morn Till the close of the day.
If we heard the soliloquy of the hon. member for York, it would be the same as that of the liou. member for West Assiniboia and also of the hon. member for East Grey. I rather take pride in the hon. member for East Grey—I think he is running the race with talkers. Sometimes it has been said that language was given to conceal thought. That is the view the hon. member for York takes of it.	With his dis-
play of language he can conceal his thoughts just as well as any one I have ever heard of. I hope after this time the hon. gentleman will endeavour to conceal some of bis language so that it will not appear so often in “Hansard.” Hf he would only conceal his language as he does his thoughts, he would become an admirable statesman. It is continuous talking. It may be considered by these hon. gentlemen that they are forging to the front, and that by the number of speeches they deliver they are going to outclass others. I do not know how the country will take it, but they are very expensive members of the House, and if there is any increase for legislation, the blame for that increase must fall on those hon. members.
Mr. BERGERON. You had better repeat your remarks in regard to the hon. member for East Grey, who has Just come In.
Mr. LANDERKIN. I was praising the hon. member for East Grey when he was not present. His arrival has spiked my guns. After all the herculean efforts on the part of hon. gentlemen opposite we have had a general election and thirty-one by-eiectSons, a list of which I have here.
Mr. BERGERON. What about the election In Bagot ?
Mr. LANDBRKIN.
The PRIME MINISTER. It is aU right.
Mr. LANDERKIN. The hon. member for Bagot died in March. The hon. member for Beaubarnois (Mr. Bergeron) was here.
Mr. BERGERON. I have been here every day, and you have not been here. *
Mr. LANDERKIN. You have been here day after day and month after month.
Mr. BERGERON. Has the hon. member forgotten the parliamentary rule ?
Mr. LANDERKIN. I do not mind the House taking exception to my wasting my time on the hon. gentleman, and I will come to order. As the hon. gentleman has referred to the election for Bagot, I will give some facts. The hon. gentleman was here at the time when the late lamented member for Bagot died. He hesitated day after day and week after week, and a month and a half elapsed before he officially mentioned the death of that respected member, and then blamed the Government for not bringing on an election. If the constituency is disfranchised temporarily I lay it at the door of the hon. member for Reauharnois, who had not the courage to make the official announcement of the vacancy caused by the late member’s death. When he did call attention to the vacancy, Ue wanted the election brought on so that the old list might be used, which had been prepared by themselves. He did not think of the new voters, he wanted the election held on a list four or five years old. That is what I have to say about the Bagot election. We have had thirty-one by-elections since the general elections. Hon. gentlemen opposite have had the advantage of the “ Hansard ” for the purpose of recording their speeches; but they have lost eight seats since the general elections. The wave or reaction that set In swept their friends away at every by-election, with the exception of two. In twenty-nine out of thirty-one by-elections the people have come to the support of the Government led by my distinguished friend, Sir, Wilfrid Laurier. They know and the country knows that It is 1n the interest of Canada to perpetuate that reign, and I must tell hon. gentlemen opposite that they can go on and speak by the hour, by the day, by the week and by the month, so long as this Government conducts the affairs of the country in the business-like manner in which they have commenced, so long will they continue to preside over the destinies of the Dominion.
Mr. BERGERON. Have you got your promise ?
Mr. LANDERKIN. I heard the hon. gentleman say, and he did so In a boasting manner, that Sir John Macdonald promised to make him a Senator.
Mr. BERGERON. No, he offered It to me.
7025
[JUNE 4, 1898]
7026
Mr. LANDERKIN. The hon. gentleman boasted of it in this House and in his speeches, and now he says to me: “ Have you got a promise ? ” I do not look for promises, I look for performances.
Mr. BERGERON. We are having one now.
Mr. LANDERKIN. I believe it was Sir Mackenzie Bow ell that offered him a seat in the Cabinet, after the seven angels had gone out of it. I like to drop that name “ traitor the Premier used it, but 1 am not so bitter in politics as he, and I simply say that when those seven angels fell from the Cabinet then a place was offered to my hon. friend. I have heard him interfering in debates occasionally on that subject. I would advise the hon. gentleman, who has been promised so many things and got nothing, to hold his tongue.
Mr. BERGERON. Promise and offer are not the same thing.
Mr. LANDERKIN. In regard to this- item under consideration I think there should be some supervision exercised over “ Hansard/’ —some fair-play over the distribution of the speeches in “ Hansard.” I do not believe In three members monopolizing one-third of that beautiful volume. I think the other members should have a chance. I have known hon. members rise half a dozen or a dozen times behind one of those hon. gentlemen, who would look back and say “ Sit down, I have the floor,” or words to that effect ; and the poor supporter would crouch down, while little Billy Bennett had not a chance to speak for a month-
Mr. FOSTER. I rise to a point of order.
Mr. LANDERKIN. I mean the hon. member for East Simcoe. I take it back.
Mr. FOSTER. I rise to a point of order.
I have no objection, if the leader of the Government Is willing at this time of the session to have time wasted on altogether irregular matters, that he should take that ground ; but the very discourteous way in which the hon. gentleman has gone into the subject will very likely lead to reprisals. The Chair would consult the Interests of the leader of the Government if he would keep hon. gentlemen opposite to the point under discussion. I have noticed the Chairman has been very particular in keeping gentlemen on this side of the House to the point.
The PRIME MINISTER. The hon. gentleman knows as well as I do that every member has the right to speak in the way he thinks proper so long as it Is within the rules. If the hon. gentleman (Mr. Foster) imagines that it is part of my duty as leader of the Government to supervise in advance speeches which are delivered. 1 have not that view. My hon. friend (Mr. Landerkin) I
lias made a speech in which there was a good deal of reason and in which there was a good deal of general good-natured badinage, over which there is no reason to gei angry. Of course, he made use of an expression which was not parliamentary, and for which he expressed regret and withdrew at once.
Mr. LANDERKIN. That is another speech which the hon. member (Mr. Foster) has got embalmed on “ Hansard.” It is about the best speech he has made, because it is the shortest, and if he continues in that line it will be very acceptable to the House. What 1 would like the member for York (Mr. Foster) to do, and what I would like my friend and colleague from East Grey (Mr. Sproule) to do, and what I would like my hon. friend from West Assiniboia (Mr. Davin) to do, is to give the other members of the Opposition a chance to see what they can do. Let them make their speeches for *• Hansard.” but do not do it all themselves. This is one of the most important Rems in the Estimates. It is for the House to consider the increasing cost of ” Hansard.” If there is not to be some regulation of the “ Hansard ” which will prevent hon. gentlemen on one side or the other repeating and repeating their remarks, and getting them printed at the expense of the country. I think the time has come when the subject should receive the serious attention of the House. It is all right that members should have their views placed before their constituents, but I believe there is a grievance in the present system. I do not say that I am opposed to the continuance of “ Hansard,” but if two or three men are to monopolize the “ Hansard,” such a state of things should not exist, and I ask the House and the Government to consider this question with a view to remedy the wrong.
Mr. LaRIVlERE. The impression appears to exist that the length of the session depends upon the ” Hansard.” Now, to refute that I wish to put on record a statement of the length of the different sessions of Parliament since 1841, that is, for 56 years, with the number of days that the session lasted, and the difference between the length of the session before '* Hansard ” was published, and the length since “ Hansard ” has been published. The sessions were just as long before “ Hansard ” was established. This work has been prepared with a great deal of labour by Mr. Alphonse Desjardins, one of our official reporters, and prepared at my request, when I was chairman of the committee in the last Parliament. Mr. Desjardins has since completed the work of bringing it up to date. This table will be very valuable for the information of members of the House, and I would ask the privilege of handing it to the official reporter without reading it so as to save time. It is as follows	.........
7027
[COMMONS]
7028
SESSIONS OF PARLIAMENT OF CANADA UNDER THE UNION ACT OF 1841.
No Official Debates Published then.
Sessions.
Date of Opeuing.
Date of Prorogation.
Length.
lst-2nd-3rd-4th-5th-6 th-
1841 .... -1842.... -1843.... -1844-45..
-1846.....
-1847.....
June 14. Sept. 18.
h 28.
Nov. 28. Mar. 20. June 2.
-1848.........Feb.	25.
8th—1849...........Jan.	18.
9th—1850............May	14.
Sept. 18. Oct. 1£. Dec. 9. Mar. 29. June 9. July 28. Mar. 23. May 30. Aug. 10.
97 days. 35 11
10th-	-1851		11	20..	M	30
11th-	-1852-53		Aug.	19..	J une	14
12th-	-1854		June	13 .	IP	22
13th-	-1854-55		Sept.	5..	May	30
14th-	-1856		Feb.	15..	July	1
15th-	-1857		11	26..	June	10
16th-	-1858		it	25..	Aug.	16
17th-	-1859.		Jan.	29 .	May 11	4
18th-	-1860		Feb.	28..		19
19th-	-1861		Mar.	16..	M	18
20th-	-1862		1!	26..	A une	9
21st—	-1863 		Feb.	12..	May	12
22nd-	-1863 		Aug.	13..	Oct.	15
23rd-	-1864		Feb.	19 .	TTune	30
24th-	-1865		Jan.	19..	Mar.	18
25th-	-1865		Aug.	8..	Sept.	18
26th-	-1866		June	8..	Aug.	15
73 122 82 57 27 133 89 103 300 10 268 137 105 173 96 81 65 .! 76 .1 90
•!64 . jl32
59 42 69
Average length of sessions; 99 days and a fraction. Members of the Parliament of Canada under the Union Act of 1841: 84.
Number of Provinces; Two—Upper and Lower Canada.
Population: 2,200,000.
SESSIONS OF PARLIAMENT OF CANADA UNDER THE CONFEDERATION ACT OF 1867.
No Official Debates Published.
Sessions.
Date of
Tr I Length.
1st—1867-68			Nov. 6..	May 22..	198 days.
2nd—1869		April 15,.	June 22..	69
3rd—1870		Feb. 15..	May 12..	87
4th—1871			Feb. 15.,	April 14..	59 »i
5th—1872 			April 11..	June 14..	65 h
6th—1873			Mar. 5..	Aug. 13 .	162 ..
7fch—1873.				Oct. 28..	Nov. 7...	16 .1
8th—1874		Mar. 26..	May 26..	62 »»
Number of Members, average.......
Provinces.......................
Population.......................
Average length of sessions.......
Mr. LaRIYIER®.
.... 200
.....	7
3,500,000 .89 days.
WITH HANSARD.
Date j Date of '
Sessions. j of j Proroga- j Length, j Opening, i tion. j
9th—1875 		Feb. 4..	April	8..	64 days	
10th-1876 		it 10..	M	12..	62	
11th—1877 		.. 8..	11	28..	80	1»
12fch—1878 		n 7..	May	10..	93	1 1
13th—1879 		.. 13..	ti	15..	92	I »
14th—1880		.. 12..	If	i * .	85	If
15th—1880-81 		Dec. 9..	Mar.	21 .	103	11
16th—1882 		Feb. 9..	May	17..	98	It
17th—1883 		f. 8..	11	25..	107	I *
18th—1884 		Jan. 17..	April 19..		93	»f
19th—1885 		29..	July	20..	173	1 1
20th—1886 		Feb. 25 ..	June	2..	98	If
21st—1887 		April 13..	It	23	72	11
22nd—1888.. .	Feb. 23..	May	22..	89	M
23rd—1889		Jan. 3i..	II	2..,	92	11
24th—1890 		i' 10..	M	16..	121	tl
25tn—1891		April 29..	Sept.	30 .155		If
28th—1892 		Feb. 25..	July	9 .	135	t»
27th- 1893 		Jan. 26 .	April	1..	66	tfr
28th—1894 .. 		Mar. 15..	July	23..	131	tl
29th—1895 		April 18..	U	22..	90	u
30th—1896 		Jan. 2..	April 23.. 112			11
31st—P96		Aug. 19..	Oct.	5..	48	11
32nd—1897		Mar. 25..	June	29..	97	11
Average length of sessions under the publication of the “ Debates ”. .98 days ana a fraction.
Average number of members................213
Provinces (including a large territory to
govern)................................ 7
Population.......................... 5,000,000
Mr. CLANCY. After the speech we baVe heard this morning from the hon. member for South Grey (Mr. Landerkin) the House might well consider whether it would not be a proper thing to abolish “ Hansard.” I am comparatively a new member of this House, and therefore will not pretend to dictate as to wihat should be done, nor offer an opinion upon it, but I say that the “ Hansard ” would become a very useless record of the House if it were to be devoted very seriously to such speeches as we have heard from the hon. member (Mr. Landerkin). I am not disposed to say that the speech has not been delivered with a great deal of characteristic humour that belongs alone to the hon. gentleman (Mr. Landerkin). He really has no parallel, and I do not know any other hon. gentleman that we could compare him with. I appeal to hon. gentlemen on both sides of the House if the hon. member for South Grey (Mr. Landerkin) has ever seriously devoted himself to a Bill or a measure in this House, or has risen in his place to offer any useful suggestion as to legislation. He certainly has not done so since I have come to the House. The hon. gentleman has been in the House, I am told, for 25 years, and I do not believe that he can show that he has made one useful or serious speech, or that he has applied himself earnestly
7029
[JUNE 4, 1898]
7030
to bring about useful legislation. It ill-be-eomes him to set himself up as a critic. I do think we should consider whether we should maintain “ Hansard ” any longer, if it is to be the receptacle for such things as we heard this morning.
Mr. MONTAGUE. It is a pity that when we were discussing a serious question, seriously as to the “ Hansard,” that a measure ol party feeling should be brought in. For my part I want to put myself on record as being favourable to the abolition of the “ Hausard ” entirely. The local legislatures, especially that of Ontario, have no “ Hansard.” and 1 find no fault amongst the members as to the manner in which the debates are published by tbe enterprise of the daily press. On going to the library I find that a very good record of the debates of the House exists in clippings from the daily press before the ** Hansard ” of this House was published. There can be no comparison made between, this Parliament and the Parliament of Great Britain as regards its “ Hansard.” The debate of the Parliament of Great Britain is real debate, and if this House could be brought to the level of the Parliament of Great Britain as regards the length of speeches, and as regards the character of its debates—I mean as to condensation—I should be favourable to the existence of “ Hansard,” but as it is I am opposed to the existence of “Hansard” and will vote for its abolition. I think this House may very well next session appoint a committee of inquiry into the whole matter, when I feel that a majority of the members who desire to promote business will be found to hold the views which I am expressing now.
Mr. LaRIVIERE. My hon. friend (Mr. Montague) has referred to the record of the debates which took place before “Hansard ” was established. He must remember that in these days the newspapers devoted a good deal more of their space to political matters, but to-day, with the exigencies of giving news from all parts of the world, and with the facilities for obtaining that news, the newspapers are compelled to condense the reports of Parliament. You will notice that the reports published in even the leading newspapers of to-day are condensed In such a manner that in fact only a very few important speeches are published, and even these are shortened. They do not, and cannot devote the same amount of space to us that they were able to do in former years, on account of the diversity and the amount of news they have to publish in order to satisfy their readers. Therefore, if " Hansard ” were abolished, the newspapers: could not afford to give more extended reports than they do to-day. In fact, I wonder how they can give to the proceedings of I this House so much space as they do, with! the number of subjects they have to deal
Mr. TALBOT. I simply rise to say that I give my entire approval to every word that has been uttered by the hon. member for Haldimand (Mr. Montague), and il tbink the country at large Is back of him in what the has said. The “ Hansard ” would be all right if it were a correct illustration of what is said in this House ; but unfortunately we have a revised edition, in wThich members who have said things they are sorry for take means to have those parts of their speeches struck out. I consider that the revised “ Hansard ” is not a correct proof of what is said in this House, because I find that some members strike out almost entire columns of what they have said.
Mr. SOMERVILLE. I wish to say that the hon. member is mistaken with regard to that, because it is well known that the “ Hansard ” committee have a rule that enforces on the reporters the necessity of not allowing any alterations to be made in speeches. Corrections are allowed, but no alterations are allowed to he made, and no member is allowed, to strike out any portion of a speech which he may have delivered.
Mr. McMULLEN. I desire to say a wrord on (this question. I believe it would be quite proper to abolish “ Hansard ” altogether unless we can bring the expenditure within a reasonable limit. 1 concur in what has been said by the hon. member for Haldimand (Mr. Montague). A very respectable account is published in the newspapers of the utterances in the Ontario legislature on both sides of politics. A very fair report of what was done in this House was published in the newspapers before we had a “ Hansard ” at all, and it would be done again. With regard to the staff we have, I desire to say that I think a more efficient staff could not possibly be got. I quite agree with the remarks of the hon. member for Haldimand in that regard. 1 think our reporters are equal to any who can be produced in any part of the world. With regard to the shortening of debate, if we could apply the closure in this House, as is done in England and in the United States and prevent long speeches on all subjects, and bring a debate to a close,, it might be possible to reduce the expenditure of “ Hansard.” Certalny something should he done in that direction, or else “ Hansard” should be abolished altogether. I think a great deal of the printed material which is sent to the members of the House might also, be done away with. Since I have been a member of this House il have received as much stuff as would fill a very large library, a large proportion of which is useless -to me. I was in the office of a member of Parliament a short time ago, and H noticed that he had about a cord of stuff there which wras never opened, because it was still tied In strings. I asked
7031
[COMMONS]
7032
him why he did not open it He said he had not time, and that the stuff was a nuisance to him, and he did not know what to do with it. The printing and paper for all that has to be paid for. In the statement of the cost of “ Hansard,” I presume that the cost of printing and material, such as paper and ink, is not Included. Unless a considerable reduction can he made, I would be in favour of abolishing “ Hansard ” altogether, and leaving the publication of reports of the proceedings of this House to the enterprise of the press.
Mr. SPROULE. I think hon. members would like 'that very much, if we could make it retroactive, to extend for about fifteen years back.
Mr. CASEY. I have very little sympathy, in fact I have none, with this cry about the expense of “ Hansard.” It is the easiest thing in the world for any one to get up and say that such and such a thing (is expensive and we ought to abolish it. That is no way to approach a question of expenditure. The question is, whether <the thing obtained is worth what it costs, T have no hesitation in saying that the publication of our debates has been worth what it costs, even while I admit that those debates contain a vast amount of rubbish, to which /I have probably contributed my share. But, Sir, with all the rubbish, the absolutely needless stuff that has been crammed into them, they do furnish the means of holding men to what they have said in this House, and maintaining a record as between the Opposition and the Government and individual members of the House. It is absolutely impossible to preserve that .in any other way. The (talk about the press reporting us is merely nonsense. The press only reports what the reporters in the gallery believe will be interesting to their readers, and that report is again cut down by the editors before if gets into the papers.
Mr. WOOD (Hamilton). It would not be so if “Hansard” were out of the way.
Mr. CASEY. It would be exactly so if “ ‘Hansard ” were out of the way. ‘it was exactly so before “ Hansard ” existed, and when the ihon. gentleman was not in this House.
Mr. WOOD (Hamilton), i beg the hon. gentleman’s pardon.
Mr. CASEY. The first year the hon. gentleman sat in this House was 1874, and that was the first year in which we had a “ Hansard.”
The MINISTER OP TRADE AND COMMERCE (Sir Richard Cartwright). We had no “Hansard” in 1874.
Mr. McMullen.
Mr. CASEY. I't was inaugurated during that session. Perhaps it did not come into operation until the next session. I was here before 1874, and I know that the papers did then just as they do now ; they reported what they thought their readers would take an interest in, without reference to what importance the matter might have afterwards as to Government policy or individual action. That is not their business ; they are not expected to look after that. They would be very foolish to waste their time and space in 'reporting what they did not (think their readers would want. It is absolutely necessary for us to have such a report as “ Hansard.” In England it is supplied by private enterprise, because the people there want such a report, and I believe the Government there also contribute to 'the “ Hansard ” reports. But here it is absolutely necessary for us to maintain such a report, if only for the purpose of enabling public men to have published in the local papers or in 'the larger papers of the country an accouut of what they say on Important questions. As to the manner in which the reporting is carried on. I do not think there are two opinions in this House. I can hardly suppose that there is anywhere a more perfect report furnished than that which has been furnished by the staff of this House for many years past. I have seen a great deal of copy coming from these gentlemen for revision, and precious little revision in it was needed. My hon. friend from Belle-obasse (Mr. Talbot) says he has seen whole columns struck out.
Mr. TA.LBOT. Parts of columns.
Mr. CASEY. Parts of columns struck out. I have no doubt at all that many of us would like to strike out a great deal of what we said : but it has been my experience that if you struck out anything more than what was reduplications, the editor of “ Hansard ” would refuse to accede to your striking ;it out.
Mr. TALBOT. Have you tried ?
Mr. CASEY. Yes, I have tried. If your words were misunderstood, you have a perfect right to change them, but if there is a total change of sense attempted to be made by a member, I have found that the change has not been carried out. A man may revise his .remarks so as to perhaps put them in somewhat better shape or make them more clear, but no alterations in the sense are allowed. I have every confidence in the perfect fairness of the reports of this House, and I have the highest possible opinion of the honesty and value of this publication, even though it cost as much as it does. The question of economy in the publication is another thing, and if anybody can suggest a way by which the cost can be reduced, without impairing the value of “ Hansard,” his proposition will have my support.
7033
[JUNE 4, 1898]
7034
Mr. RICHARDSON. I shall merely take up the attention of the House for a very few minutes. I wish to refer to what the hon. member for Bellechasse (Mr. Talbot) has said. I am a member of the Debates Committee, and I was very sorry to hear him say that the revised edition was really a farce.
Mr. TALBOT. I did ifot say anything of the kind.
Mr. RICHARDSON. I beg the hon. gentleman’s pardon. If what he said were true, it will be worse than a farce, and what he said was that members, in the revision, struck out whole columns. I must say that his statement is utterly unfounded, because so far as my experience goes, members are only allowed to make immaterial alterations by striking out repetitions and improving, perhaps, the phraseology, but if cliey attempt to do anything more than that, the editor of “ Hansard” invariably declines to allow the alterations. With regard to the expense, I am not disposed to cavil at the amount we actually pay for “Hansard” yearly, which I think is some $40,0001 That amount I do not consider too large, because I believe we have as excellent a report as could possibly be obtained of the proceedings of this House. I know intimately almost every member of the staff, with some of them I have worked on newspapers in years past, and I know that they are clearheaded, clever newspaper men, with an excellent idea of the politics of the country, and I do not think it would be possible to find in Canada a better staff to do this work. * The question of expense is not the issue, as I see it. If the existence of “ Hansard ” prolongs the sessions two or three weeks or a month, I would feel that we would be better without it. There is no doubt a great deal of matter in “ Hansard ” that is of no use to the country or to any person in existence, and if we could get rid of that sort of thing, it would be in the best interests of the country. I am disposed to agree in the suggestion of the hon. member for Haldimand (Mr. Montague) that we should appoint a committee to take this matter up and go fully into it next session, in order to see if some amendment may not be suggested which would have the effect of making it more concise and reducing the expense.
Mr. MONTAGUE. I wish to say that in my remarks I had not the slightest desire to reflect upon the staff, because I believe it is a first-class staff, but simply to discuss the question of the necessity of continuing “ Hansard.”
Mr. MeNEILL. I am quite sure that we have all contributed a good deal of rubbish, as my hon. friend from Elgin (Mr. Casey) says, to the columns of ** Hansard.” but on the other band I venture to say that there is to be found In it an immense deal of
most valuable information upon questions which are constantly coming up. When hon. members desire to inform themselves with reference to those questions, the most natural mode that suggests itself of getting into the track, if I may say so, of the subject is to refer to the “Hansard” and see what has been said in the past, and I know that in my own case the result has been to throw most valuable light upon many subjects I wished to discuss. As to the opinion that the session will be shortened by the abolition of “ Hansard,” my own view is that the very opposite would be the result. I think that we would, in that case, have needless discussions as to what any member has said in this House. There would be a statement made from the one side that an hon. member had said so and so, and he would rise to contradict that statement. Another member on the opposite side would corroborate the statement of the first speaker, then members in sympathy with the hon. gentleman whose remark was quoted, would rise in his support, and we would have endless discussions of that kind which would prolong the sessions very much more than they are prolonged by the existence of “ Hansard ” as it is. It seems to me that the suggestion that the newspaper press can take (the place of “ Hansard ” is simply absurd. It is absolutely absurd to suppose that the press, however desirous of giving as full reports as possible of the proceedings of the House, could possibly give the public the information contained in the columns of “ Hansard,” and how much that information is valued by the public every member is aware. Because we all know how frequently requests are made to us for copies of “Hansard” which we cannot supply. There is another point of view from which I think we ought to regard this matter. We have at present a most valuable and efficient staff of stenographers for the purpose of producing this report. If we should abolish “ Hansard,” what would be the result ? At the end of a session or two, we would have to reestablish it, and in the meantime our present staff would be scattered to the four winds of heaven, and we would find great difficulty in supplying this House with so valuable and efficient a staff again as the one we have now. I do not think that the proposal to abolish “ Hansard ” is one that ought to he entertained by this House for a moment.
Mr. SPEAKER. The hon. member for York (Mr. Poster) asked me about the cost of sessional clerks and messengers. The average session is 100 days, and in the Supplementary Estimates we have added 25 days to that as the additional number for which we will have to pay the sessional clerks and messengers, and the amount in the supplementarles was added bn an exact calculation made by the officers of the
7035
[COMMONS]
7036
House of what we require in order to pay these officials for the extra 25 days. That will only bring us up to and include Tuesday next, and there will probably have to be provided an additional small sum for a few days more.
Mr. FOSTER. What about the item with reference to the leather trunks ?
Mr. SPEAKER. A balance of 59 of the whole number of leather trunks to be supplied at the beginning of Parliament was not delivered at the close of the last financial year. The calculation is $22 for each of these 59 trunks allowed. Provision is made for ten new members who have since come in, each to have a trunk.
Mr. FOSTER. I have just one suggestion with reference to that. I think it would be altogether advisable, if the practice is to be continued of members in each Parliament having trunks, to have the whole matter in the hands of the Serjeant-at-Arms and the Speaker instead of in the hands of private members.
Mr. SPEAKER. I do not quite understand the hon. gentleman (Mr. Foster). .
Mr. FOSTER. The practice has been, I think, that the Printing Committee, or a committee of the Printing Committee, has had control of this matter, until finally, as a matter of practice, it is left in the hands of one man, and he a member of the House, who takes it upon himself to get the business done by contract or in some other way.
I do not think that is a kind of business that a member of the House ought to be asked to do. Stationery comes to us through the regular channel of the economy of the House of Commons, and 1 think this ought to be treated in the same way. I know that the practice is the same as it was in our time, but the practice is not a good one.
Mr. SPEAKER. As I understand, by resolution of the House moved by the right hon. leader of the House last session, the supplying of leather trunks to members ceases with this Parliament.
Mr. FOSTER. That is all right.
Mr. BERGERON. Just before this matter came up, I was going to say a word in support of what my hon. friend from North Bruce (Mr. McNeill) has said as to the briefness of the newspaper report of many important debates of tbis House. The other day we had a very important discussion upon the remodelling of the judicature of the Dominion. It covers a great many pages of “ Hansard,” but I find that in one of the most important papers in the Dominion, the Montreal “ Gazette,” it occupied only half a column. 1 suppose that other hon. members have the same experience that X have, so it is not too much to say that every day we receive requests from people outside to send them copies of “ Hansard.” And, Mr. Chair-Mr. SPEAKER.
man, it is always the unrevised “ Hansard ” that is wanted. And, since I am on my feet, I would make the suggestion that we should be allowed more than one copy of the unrevised edition. Sometimes, by applying to a colleague who does not happen to need his copy, we can get two copies of an issue. I would like to propose that we should have at least ten copies each of the unrevised “ Hansard.” This would not add much to the expense, as we know that, when the type is on the press, extra copies are easily run off, and the paper is not expensive. Many judges and members of the legal profession have applied for copies containing the debate I have referred to, and, already, applications are coming in for copies containing yesterday’s debate on the Montreal Harbour Commissioners.
Mr. INGRAM. Are we to understand that no leather trunks will be distributed after this ?
Mr. SPEAKER. My recollection is that that is the effect of a resolution that was passed oh motion of the right lion. Premier.
Mr. INGRAM. Did Mr. Speaker say who was the person who contracted for the last leather trunks ?
Mr. SPEAKER. X do not know; I think they were procured on the authority of one of the committees, and I think that a contract was made. I know that I did not have anything to do with it.
Mr. INGRAM. I wish to say that the leather trunks which were contracted for during last session of Parliament, as well as those of the last Parliament are simply frauds. The prices paid last term and this term are out of all proportion to what the trunks actually cost. The workmanship is inferior, and $22 apiece should buy much better trunks than those supplied.
Mr. McDOUGALL. They are not worth
$10.
Mr. INGRAM. No ; I have never seen trunks of more inferior manufacture, and I have had some experience where trunks are manufactured. If a contract is to be made again some person with technical knowledge of the matter should have, something to say about the prices.	’
Mr. ELLIS. I am a member of the committee that had the matter in charge, and I am able to say that the hon. gentleman at the head of that committee, the hon. member for Lincoln (Mr. Gibson) gave personal attention to the matter and endeavoured to get the best trunk that could possibly be got for the money. He gave the matter an amount of attention that, probably, no other man would have given; and, if the results have not been satisfactory, lam very much surprised. I think there was some trouble with regard to the failure of the contrac-
7037
[JUNE 4, 1898]
7038
tor. It seemed to me that a very good trunk was furnished.
Mr. McMULLEN. The first leather trunks were contracted for by an h6n. member who is not in the House with us, greatly to our regret, the late Dr. Bergin, who was chairman of the Printing and Stationery Committee. The last contract was made by the hon. member for Lincoln and Senator Sir John Carling. As to what has been said, I quite agree with it, at any rate in part. I never saw a greater fraud than the first trunks. 1 have not examined the second to see how they are made. They look fairly well, but the others also looked fairly well. I agree that great care should be taken in getting the trunks if they are to be continued. But I am glad to know that this giving of trunks will be abolished, because they cost altogether too much.
Mr. BERGERON. I would ask, Mr. Speaker, if every trunk has been taken away by the member to whom it was addressed, or have our Patron friends refused to accept theirs ?
Mr. SPEAKER. The Speaker has nothing to do with that matter; it is in the hands of the chairman of the Printing Committee, and the Serjeant-at-Arms certifies before they are paid for. I do not happen to know whether Hie trunks were taken away or not.
Mr. BERGERON. I desire to call attention to the stationery provided for us, which is really of a very inferior kind. X think it would be just as well not to have any. I do not call it economy to save on an item such as this when we are voting money by the millions.
In the old days we had very good stationery that cost but little more than we are paying now, but the stationery to-day is useless. We might as well not have any at all as to have what is given us in the boxes supplied at the beginning of the session. I think the right hon. gentleman who moved at the commencement of this Parliament that the stationery should not cost so much, might change that rule and give us better stationery again.
Mr. McNMLL. X agree that the stationery at present supplied us is very inferior, not worthy of the stationery which is supposed to come from the House of Commons. Now, I want to make the extravagant proposal, that in place of having that stationery supplied in pasteboard boxes which come to pieces in taking them home, it should be put in a plain deal box, such as are used to send us the “ Hansard ” in, such boxes as we can take home without their going to pieces on the way. May I be allowed to add this to what I said before with regard to the value of “Hansard”? X think we can very often appreciate the value of “ Hansard ” when we desire to discover what has been said
with reference to some important subject which has been discussed in the local legislatures where there are no “ Hansards.” When we go to the library we find that an abortive attempt has been made to secure a record of the proceedings. We find a few clippings from newspapers pasted into a book which has to take the place of a “ Hansard.” These newspaper clippings are most meagre and they are unreliable. That example will show us the value of “Hansard” by showing us in what position we should be placed if we had no “ Hansard.”
•Mr. SPROITLE. I wish to sajr one word with regard to these trunks, because the reference made by Mr. Speaker might be misunderstood in the country. The reference might lead to the impression that I had applied for and got an extra trunk.
Mr. SPEAKER. The hon. member misunderstood what I said. I said that one was sent to the hon. member by mistake, and when the mistake was discovered it was sent back.
Mr. SPROULE. That puts a different face on it. I knew nothing about the trunk until it was left in my room, nor did I know there was one coming.
Post Office Department—For clerical assistance, 11,500 ; for printing and stationery, $3,000 ; total.....________ $4,500
Mr. WrOOD (Brockville). Is that item for clerical assistance necessary ?
The POSTMASTER GENERAL. We have increased the number of money order offices during the year from 1,349 to 1,742. There has been a general expansion in the service. The increase in the number of money order offices involves further books and accounts, and further stationery. There has been an increase of nearly 33 per cent in the number of offices opened during the year. X have all * the details of the clerical assistance, if the hon. gentleman desires them.
Post Office........................ $732
The POSTMASTER GENERAL. The explanation of that is that a temporary clerk only has $360 a year, and when he becomes permanent, he is entitled to a larger salary, $480.
Mr. MONTAGUE. In regard to this $100 for Mr. B. F. Shepheard, third-class clerk in the Victoria post office, there is an Item for him in the Supplementaries for 1890.
The POSTMASTER GENERAL. Mr. B. F. Shepheard is a clerk in the Victoria post office who goes out to meet the steamers from Japan when they are in quarantine. He is obliged to supply himself with a special suit of clothing, and It is a very disagreeable task.
7039
[COMMONS]
7040
Mr. MONTAGUE. But there is no fumigation going on now.
The POSTMASTER GENERAL. Yes,
a car to do the work that one good man could do. One of the mail clerks who underwent an examination recently failed, I
PVP.-V vp«sp1 i‘« Tmnmnrinpri for a time Tlie understand, to get a single mark, did not plf'LT?!?!*	seem to know where to put one single let-
hon. member for Victoria (Mr. Prior) brought this case to my notice, and I think it is a
put one single ter without having to tarn up his directory.
very meritorious case, and this gentleman is
entitled to indemnity. This $1(M) Is probably I	^
not more than enough to indemnify him for 1 ^ ^	^
the destruction of his clothing. The item I
my hon. friend refers to in the other Esti- j 'V°,1A Jji
mates is to increase his salary by the sum j 3m-iiP*iVliere tlie *Gtt 18 are *°	<*6S"
of $50. and it is for the next year. This is p\viA . nU for the current veor	While perhaps it would not be fair all at
•'	*	I once to subject the present appointees to a
Mr. INGRAM. Has not the hon. gentle-1 system of promotion solely on the results man several temporary railway mail clerks j of the examination, at the same time I that have been in the employ of the depart- trust such examination will in time come to
ment for years ? How long must they serve * to be considered permanent ?
The POSTMASTER GENERAL.
be regarded as the sole ground for promotion. There occurs to me the case of an old officer, who is nearly sixty years of age, 1 here j aucj ]je complains very much at being sub-
are a good many temporaries. I have not | jected to a competitive examination for pro-increased tlie number of permanents. This motion. Whilst I wish the result of the Mr. C. J. Hollister, who is made permanent, j examination ultimately to be the sole test has been an officer^ on the temporary list i of the right of promotion, I do not think for some time. W e cannot put them all | j can apply it fully during the next year or on-	|	two. Taking the maximum of marks as
Mr. INGRAM. I know there are many! 100, any one coming within a reasonable temporary railway mail clerks that are en-1 range of the maximum would be eligible, gaged every day they run, and it seems	viavtapt^	a
unfair to keep those gentlemen as tem-\
porary when they should be appointed as j	percentage . is it the
permanent, and when they actually have be-1 ^	wW1 be required to
come permanent.	up agdm .
The POSTMASTER rF\FR4T Wo'	POSTMASTER GENERAL. flhat
cannot	once i would be a ver^ ***** regulation. These
^ vacancierrccura i "se Shetempo* |	“ left ^ the ^
aries will gradually be transferred into the {	’
permanent list.	Mr. INGRAM. Take a man who has
Mr. INGRAM. How much longer will! {*£»bTuniusf™°S£
permanent ^men baTe serve f° be made | examination and obtain, say, 90 per cent ?
The POSTMASTER GENERAL. We cannot deal with them faster than vacancies occur.
Mr. MONTAGUE. The examination is partly on the distribution of mail matter in the cars.
Mr. INGRAM. They are now filling the position of railway mail clerks and have been for years ; the only difference is that they are not permanent. They are quoted as temporary mail clerks, and by that means are deprived of any Increase of salary.
The POSTMASTER GENERAL. That is a state of affairs I found in the department. I am meeting the hon. gentleman's views to some extent in transferring this gentleman to the permanent list.
Mr. MONTAGUE. The hon. gentleman is going to subject the mail clerks to an examination ; what is to be the standard ?
The POSTMASTER GENERAL. We have not adopted any standard. The plan I contemplate is this: Some of the mail clerks did not understand the distribution, and we would have to put three clerks into
The POSTMASTER GENERAL. Largely so.
Mr. MONTAGUE. It is hardly fair to examine a man who is on the main line of the Grand Trunk or Canadian Pacific Railway, and who gains experience every day, and at the same time examine a man whose experience has been on a local line.
The POSTMASTER GENERAL. I think all the employees in the different classes should be subjected to the test of that class. Some regard should be had, however, for the opportunities possessed by men to qualify themselves.
Mr. CLARKE. Is it the Postmaster General’s intention to give the statutory increases to junior clerks and letter carriers ?	1 understand a saving has been
made by reducing the number of clerks employed.
Mr. MULOCK.
[JUKE 4, 18981
7042
The POSTMASTER GENERAL. There has heen a red notion in the number of mail clerks, there being now thirty-six less than formerly ; but I do not suppose that doing away with the services of these men should have an effect otherwise than the application of the money to meet the proper needs of the service. In the main Estimates, there is an item to increase the salaries of a large number of the staff clerks and letter carriers, all drawing less than $480 a year.
Mr. CLARKE. I suppose that will apply to letter carriers drawing less than that sum. Will they get the statutory increase ?
The POSTMASTER GENERAL. They will receive $30 increase. It happens to be the same sum as w as formerly called ° statutory increase.”	,
Mr. HUGHES. I desire to inquire if a temporary clerk would have to serve six months before he could commence to be on the permanent list. Suppose a competent mall clerk.who is now temporarily employed in the service, desired to become permanent, would he have to serve six months on probation at the rate of $300 before he could be placed on the permanent list ? In such a case would the Postmaster General be prepared to afford such man an opportunity of being placed on the permanent list ?
The POSTMASTER GENERAL. There has been no change in the law of late. I understand the law Is this. If a man is appointed as a probationary mail clerk, at the expiration of six months he can be made permanent, at $480 a year. If he commences as a temporary clerk, his years of service does not count technically as probationary service for permanent appointment. That is the rule laid down by the Auditor General, and it is a very illogical rule. My hon. friend from North Victoria (Mr. Hughes) brought to my attention such a case as he now refers to, and I am looking into it If the Auditor General continues to hold that view, It will probably suggest the desirability of the Act being amended.
Mr. HUGHES. No doubt the Postmaster General is aware that the Government of New Zealand has a right to place a mail clerk on steamers running from there to Canada.
Resolutions to be reported.
The PRIME MINISTER moved the adjournment of the House.
Motion agreed to, and the House adjourned at 1.10 p.m.
HOUSE OF COMMONS.
Second Sitting.
Saturday, 4th June, 1898.
