 at Eleven o’clock.
PlIAYEIiS.
EXPENDITURE ON PRIVATE PIERS AND WHARFS.
Mr. MARTIN. Before the Orders of the Day are called, I would ask the hon. Minister of Public Works when the return he promised of the expenditure by the Federal Government on private piers and wharfs will be down.
The MINISTER OF PUBLIC WORKS. I promised my hon. friend to bring that down to-day. I will take a note of it, and as soon as my deputy is here, I will instruct him to have It brought down.
THIRD READING.
Bill (No. 163) to grant further aid to the Harbour Commissioners of Montreal (Mr. Fielding).
SUPPLY.
The House again resolved itself into Committee of Supply.
(In the Committee.)
Kingston Harbour—Dredging ....... $6,000
Mr. FOSTER. In the last discussion the hon. Minister promised to give the cost of the ordinary dredging.
The MINISTER OF PUBLIC WORKS. If my hon. friend would kindly wait until the Supplementary Estimates are being voted and my deputy is here, I shall give him the information. I have had a full statement prepared, but have not got it under my band.
Stikine River—Examination, ftc... $14,000
The MINISTER OF PUBLIC WORKS. Mr. Coste has gone up with the boat “ Sampson,” which was employed on the Fraser River to remove snags. He has brought out all the material necessary to Improve the channels and make a survey. My intention is to give him a credit of $30,000 for a survey of the Stikine River and for improvements on the Stikine and the Hoota-linqua and Lewes Rivers. He is starting from, the Stikine River en route to Dawson in order to make a survey of the navigable rivers and the most urgent improvements.	"
Mr. FOSTER. You have practically given him carte blanche.
The MINISTER OF PUBLIC WORKS. Yes, I could not do otherwise. We are working in an unknown country, and I gave him carte blanche recommending him to be very careful.
Mr. SPROULE. By this vote you could only use the money for the Stikine River ?
The MINISTER OF PUBLIC WORKS. My hon. friend is right. The wording should be changed to make it read “ on the Stikine and other rivers in the Yukon district.”
Mr. EARLE. I know something of the Stikine River ; $14,000 will do all the work necessary on that river. Fourteen thousand dollars will pay for all the work that is necessary to be done on the Stikine River this year. The work is not heavy, but it is expensive work, and certainly work necessary to be done.
The MINISTER OF PUBLIC WORKS. I thought so.
Dredging—Nova Scotia, Prince Edward
Island and New Brunswick......... $10,000
Dredging—Quebec and Ontario........ $10,000
The MINISTER OF PUBLIC W ORKS. I move iliat the first Pera be reduced to $8,000
7243
[COMMONS]
7244
and the second to $3,000. Having looked in- tiie department, as we have not expended
to the matter, I find that with this we shall have enough to work our dredges.
•the sums voted by Parliament I hope 1 shall be able to have the temporary officers
Mr. HUGHES. Where is this 53.000, ap-! Pa8S the examination and be appointed as propriated for Ontario and Quebec, to toe!	no
spent ?
The MINISTER OF PUBLIC WORKS. It
is for dredges already at work. One of them __ _____ _________
is at Midland. I cannot recall the names of, ^ent that hon. members do not want to get
longer have to pay them in tails way.
Some hon. MEMBERS. Carried.
Mr. WOOD (Brockville). It is very evi-
the other places at the moment.
To pay W. C. Harris, architect, for professional services rendered, 1887 to 1894, in connection with the construction and maintenance of Public Buildings, Harbour Works, &c., in Prince Edward Island......................... ........$142 05
away and if they are willing to stay, I am. But the hon. Minister lias only gone over the revenue and expenditure of his department. How many temporary officers are there ?
The MINISTER OF INLAND REVENUE. There are 22 in the excise branch ; 11 ap-Mr. FOSTER. How is it this was not paid pointed by my hon. friend (Mr. Wood, before ? Tlieres was a vote.	; Brockville) When he was head of the de-
The MINISTER OF MARINE AND Partme^» and 11 by myself. We cannot get
FISHERIES (Sir Louis Davies). I "went to the then architect, Mr. Fuller, at Mr. Harris*
these officers appointed permanently as the examination, which they must pass is held
reauest and he told me tint- the hill’	nil onI-v in November of each year. I was go
request ana ne Mia me that the bill was all ing t0 not!fr tliem	if ttoey -will not
qualify themselves by passing an examination next fall, they will have to look for
right and he had been trying to get it through the Estimates. When, last year, my hon. friend asked me to look into it, I
was able to say that I knew all about it; some other employment, that I had been trying to get it for Mr. I Mr. MILLS. The Minister and the House Harris.	\ |j€,jn*r iu such a good humour, I think I
Mr. FOSTER. It is all right, is it ?
FISHERIES. Yes, hie is a good Tory.
should not allow this opportunity to pass without pressing upon the Minister some-The MINISTER OF MARINE AND thing to which I have already called his
! attention, that is, the appointment of an ! excise officer at Springfield, by the name of ! Lambert McNayr. I know very well that a recommendation coming from me will meet with tlie approbation of the Minister, and
Excise—
Further amount required for contingencies................................. $4,500
Further amount required for preventive
service.......................... 3,000 \110 doubt he will accede to my request.
The PRIME MINISTER. Hear, hear.
Mr. WOOD (Brockville). I would like to
know how this $3,000 for preventive service is paid.
The MINISTER OF INLAND REVENUE.
Mr. "WOOD (Brockville). This appears to be a very large amount for contingencies.
Will the hon. Minister kindly explain.
The MINISTER OF INLAND REVENUE (Sir Henri Joly de Lotbini&re). I am glad my hon. friend (Mr. Wood, Brockville) has As my hon. friend knows, the raising of the asked for an explanation, as I would not tariff, both on spirituous liquors and on like to take up the time otherwise, but I de-i tobacco, has given rise to a great Increase '	‘	“	in smuggling. We have been obliged to act
with much more activity than heretofore, and this is the reason why we have been
sire to lay* the facts before the committee. Some hon. MEMBERS. Carried.
The MINISTER OF INLAND REVENUE.1 obliged to ask for this extra amount When
There is no deficiency in the department Some hon. MEMBERS. Carried.
one compares the number of seizures made during this last year with the number that are generally made, one can see the ground
The MINISTER OF INLAND REVENUE. I fPr this increase. I may add that in 1894-95 I suppose it is all right.	"	'	- -	-	-
sthe amount voted for the preventive service cjmii t	! was $15,800, which is $800 more than we are
Still, I would asking this year, with this additional sum of ; $3,000. The difficulties we have to encounter The MINISTER OF INLAND REVENUE.! are so much greater, that the House will It will only take one minute. We have a understand why we have felt obliged to ask number of temporary employees who can- • *or Ibis sum.
Mr. WOOD (Brockville). like the explanation.
not be put on the salary of permanent officers and we have been obliged to take from contingencies In order to pay them. But though this has to he voted there is no deficiency but, on the contrary, a surplus in Mr. TARTE.
Mr. WOOD (Brockville). I am not altogether satisfied with the explanation the Minister has just given. When the duties were increased upon tobacco, it was pointed out from this side of the House what the
[JUNE 7, 1898]
7246
result would likely be. I have no doubt it has to some extent led to an increase in smuggling that article, without a corresponding increase in the revenue. That was pointed out. I think the hon. Minister will find that this vote in 1895-96 w’as reduced down to about $7,000 or $8,000, and it would have been just as well if the Minister had said that in 1895-96, under the old regime, •that vote stood at about $7,51)0. Now, in the last session of this Parliament the hon. gentleman raised that to $10,000, and he gave the very same reason for the increase he has given to-day, that is, that, owing to the increased duties upon tobacco, there was an increase in smuggling. In the main Estimates an additional vote of $2,000 has been asked for, bringing the vote fcr the preventive service up to $15,000. Now, I do not think myself that this vote ought to be adopted by the committee, because it forms a very convenient fund for the Minister to avail himself of in order to supply the pressing demand of political friends for appointments. Persons appointed to do that 'Work are not required to pass any examination. I wish to point out to the Minister that the policy of the department at the time the old Government resigned wms to impress upon the permanent staff in each of the inland revenue districts the necessity for acting in the interests of the service in the way of detecting smugglers. It is as much the duty of the permanent staff to do that as it is of the preventive officers. A circular was sent to all the officers notifying them to that effect, when the vote was reduced in 1895-96, and I think, with very gcod results. The committee will understand that in the matter of smuggling tobacco and of illicit distillation, there is seldom a case detected. But it comes down to this, that it is only to protect the department in enforcing the regulations regarding the importation of tobacco in packages, that this work is necessary. I think the increased vote since the hon. gentleman assumed office is larger than necessary for the proper protection of the revenue service.
The MINISTER OF INLAND REVENUE. I wTill not try to exculpate myself from the charge of employing those votes for political purposes; I think it would be perfectly useless to try to do so. When, last year, in good faith, I asked for an increase, it was because last year the duties were raised both on tobacco and on liquors ; therefore, I foresaw that we would eventually have much more work to do in order to protect the revenue. Since then we find the work we have to do is in excess even of what we anticipated, and that is why we are obliged to ask for this increased amount I need not say that I have tried to the best of my ability to do my duty fairly, and to serve the country. I am sorry that we have had to exceed the amount which was allowed to us last year. I would like to notice, however.
that notwithstanding the increased smuggling of tobacco and liquors, the revenue has actually increased on tobacco especially, owing to the increase in the tariff on tobacco from 10 to 14 cents. We have actually collected more on tobacco than we collected the year before. We have about $150,000 collected on tobacco more than the year before, notwithstanding the smuggling incident upon the increased duty.
Mr. WALLACE. Would the Minister give us the figures for the two periods ?
The MINISTER OF INLAND REVENUE. I have a statement up to the end of March, because it will be remembered that this question came before the House early in the month of April, and my hon. friends mentioned the great deficiency we must expect in the collection on tobacco, so these figures are only for the first nine months. I have taken three years, beginning with the first nine months from the 1st of July, 1895, to the 31st of March, 1896. The collections on tobacco, cigars and cigarettes were $2,230,000. For the same nine months in 1896-97, the collections were $2,308,000. For the nine months of the current year, we got $2,634,000 on tobacco and cigars. Furthermore, we got $100,000 through the customs collected on tobacco in virtue of the new tax, so that altogether, for the first nine months of the current year, we got $2,735,000. So the excess of the collections this year on tobacco and cigars over 1895-96 is $502,000.
Mr. WALLACE. Would the Minister give us tobacco alone, separate from the cigars ?
The MINISTER OF INLAND REVENUE. I have got them together. I would have to make a new circulation. I may explain why the difference now is not so great as it was theu. In May the revenue fell very much as compared with the revenue for the preceding nine months. So that at the end of last month, Including cigars and tobacco, the revenue only exceeded that of last mouth by $133,000. The idea of raising the tariff was not only in the hope of getting a higher revenue, but in order to meet the wishes of the agricultural class and encourage the growth and cultivation of tobacco. To give an idea of the results, I may say that for -the first nine months of last year only 300,000 pounds of Canadian tobacco were manufactured, while the quantity for the last nine months exceeded 1,200,000 pounds. The result has been an increase four-fold in the production of Canadian tobacco, and not only Canadian tobacco consumed by the farmers, but the quantity manufactured in factories. It may be said that this increased quantity of Canadian tobacco will reduce the revenue from Imported tobacco. It will no doubt displace 900.000 pounds of imported tobacco, on which a duty is collected of 35 cents, compared with 5 cents on the Canadian article.
7247
[COMMONS]
7248
Mr. WOOD (Brockville). I wish to refer to a matter left over in the main estimates in relation to the establishment of wheat standards in Manitoba and the Northwest. Has the department made any changes in the standards as they found them when they assumed office ?
The MINISTER OF INLAND REVENUE. The principal change is in regard to excluding frozen and smutty wheat from the third class. When I entered the department I was carried away by the enthusiasm of some hon. members of the House who wished the department to raise the standard of wheat, first class from GO to 62 pounds and second class from 50 to 60 pounds. Fortunately before the project was carried into effect I realized that it would be a mistake, so we left the standard and classification as we found them, and only strengthened the restrictions in relation to smutty and frozen wheat.
Mr. WOOD (Brockville). I regret that time does not allow the committee to go into this important subject which has caused much agitation among the farmers in Manitoba and the North-west for many years, a difficulty which the Minister apprehends more now than when he assumed charge of the department. Smutty wheat was never allowed in Manitoba No. 1 hard. Is it the intention of the department to sanction any changes being made at the meeting of the Board of Standards at Winnipeg ? Has the Minister had any correspondence with the Winnipeg Board of Trade on the subject ?
The MINISTER OF INLAND REVENUE. It is not the intention of the department, unless very good cause is shown, to sanction any change in the standards. In my opinion they are high enough already. I tried to make them higher, but fortunately I stopped in time, and acknowledged the mistake I made. It is important there should hot be too much red-tape in matters of this kind. Providence has given / such bountiful harvests and rewarded the work of our farmers by giving them such good prices for their produce that I would be very sorry to do anything that would interfere with the success they have achieved. About six weeks ago a deputation called at my department and they suggested that we should appoint a commission in order to investigate the whole question, but after consulting with my officers I hesitated in view of the cost that a commission would entail, and more especially as we know pretty well where the difficulty lies. The principal complaint is about mixing the grain after it leaves the elevators at Fort William and Port Arthur, but when once the grain in inspected we cannot help the mixing of it and in many cases the grain is Shipped without being inspected. I do not think if right to meddle with the standard of weight without having very Sir HENRI JOLT DE LQTBINXERE.
strong cause. I nearly burned my fingers by meddling with it the first year and prudence dictates that I should look into the matter very carefully before taking action.
Mr. MgDOUGALL. What about this weights and measures vote ?
The MINISTER OF INLAND REVENUE. The Auditor General refuses to pay temporary officers out of the salaries voted for permanent officers and so we have to pay ■them out of contingencies.
Mr. WOOD (Brockville). We will assume that the total amount voted by Parliament last session was not expected by the hon. gentleman on the general administration of the department, as happened every year I had any thing to do with the department. There is always a large surplus, comparatively speaking, over and above the general | expenditure wfhich Parliament voted for the I Inland Revenue Department. I want to I point out that during my time we always | estimated in such a way that we never required so large an amount as this to be voted for contingencies. Is this large excess required to meet the expenditure necessitated | by the appointment of new officials V
I The MINISTER OF INLAND REVENUE.
I It will be seen from the accounts of the i weights and measures branch that our receipts this year were considerably higher than last year, and, as my hon. friend (Mr. Wood) knows if you want to swell your receipts in that department you have to increase your expenditure. You are obliged to send your officers, travelling into the remotest parts of the country in order to inspect. As my hon. friend (Mr. Wood) did, we have not exceeded the total vote of that department.
Mr. WOOD (Brockville). It means that this large addition to the contingencies account is caused by the addition of extra ; men, because the hon. gentleman (Sir Henri i Joly de Lotfoini&re) estimated sufficiently at | the last session of this Parliament to meet ! the general expenditure of that branch. X would like to know how many extra men have been added to this branch since the last session ?
The MINISTER OF INLAND REVENUE. We have not got extra men. We have the same temporary men we had last year but we have extra expenditure. Those temporary men are paid out of the contingencies and their salaries amount to about $4,500, and the remainder Is for the expenditure in connection with the revenue. In last year’s Estimates the salaries of the weights and measures branch were $7,000 less than the last year. In last year’s Estimates we asked $49,010 while this year we are asking only $42,010. We are doing our best to reduce the expenditure in the department, but it is not so easy to make reductions as in other departments which are carrying on
7249
[JUNE 7, 1898]
7250
considerable work and making great outlay. All our outlay in the Inland Revenue Department is to pay salaries or travelling expenses and matters of that kind. East year we superannuated 11 officers in the department of weights and measures, and this accounts for the diminution in the vote.
Mr. WOOD (Brockville). A year ago the hon. Minister asked for a reduced amount for his branch on the ground that he was
saving expenses by lessening the number	,	.	...	,	,
of officials. The increase this year is caused! e,™?5nt’	* str°n» opposition to the
by an increase in the number of officials. \ ^o^tion of that branch, undertook to place
| it on a better footmg by decreasing the ex-
very an in
ought not to exist. The people of this country ought not to pay all the expenses of keeping up a culling branch for the benefit of the exporters of square timber going down to Quebec, because that is what it amounts to. There was a period in the history of the country when there might have been some necessity for its existence : but like everything else that obtains a strong foothold, it has been easier to establish it and continue it than to uproot it. The late Gov-
Miis year I ask for $42,010. So we are continuing to decrease the expenses. If I had been allowed to take from the money voted for salaries the amount required to pay the temporary officers and the extra expenditure required on account of our more active
the item of contingencies.
The MINISTER OF INLAND REVENUE. My hon. friend is sorry to find that increase of expenditure, and I would feel very sorry _ _ _ too if I were not glad ; because I have the inspection of weights and measures, ! would !’best reason in the world for explaining it. not have required to ask for this vote, but I f During the first nine months of last year the could not mix the two things together; and I revenue was $6,380. This year, during the since we have borrowed from contingencies i same time, the revenue has been $12,372, in order to pay our temporary officers, I am i double what it was the year before. The obliged to ask that this monev be recouped.! second point is this : Perhaps my lion, friend At the same time, deducting this $6,000 from I has forgotten a detail which I mentioned to the amount allowed us, it still leaves a i House last year when I asked for the balance in favour of the department.	I	increase of this branch by getting two new
__ r TvArn irr	T	. ,	} cullers appointed. We received petitions
Air. AicDOL GALL.	I wish to	call	the at-j from all the leading houses connected with
tention of the hon. Minister to a vacancy j the timber trade, representing that there m the weights and measures inspectorship: were only four cullers left by the late Gov-*or tne distract of Cape Breton.	I	ernment, who were quite unequal to the ex-
The MINISTER OF INLAND REVENUE. Iwork that had to be done, and offering I have undertaken to replace Mr. Tremaine : |t0 tax themselves 25 per cent more in the hut there have been some difficulties in the fees ^ey Paid for culling if we would ap-way, and in the meantime I send an officer i point two cullers named by themselves. One from Pictou in order to make the inspection i was O’Brien and the other Kelly, two men of the scales at the coal mines. According i who were so favourably known to the tim-to law the inspection	is	to be	made	oni'v: *>er trade that they actually proposed to in-
onee in two years ?	But	I think it	is	per-5 crease the fees they paid for culling in
feetly ridiculous to inspect only once in j order to meet the salaries of these two cul-two years the scales of coal mines which are |iers*
so severely tried by enormous weights being | ,Afr. POUPORE. Would the Alinister say dumped upon them every day. Last year 1 whether the office is self-sustaining under I took upon myself to send an officer to in- j the new provisions ? spect those scales, and in the Weights and
Measures Bill this year I have provided for! The MINISTER OF INLAND REVENUE.
a more frequent inspection of all scales subject to severe strains, such as those used in elevators, at coal mines, and in connection with railways.
Culling timber ......................... $1,345
The office would be much more than selfsustaining this year but for the fact that the revenues have to pay not only all the working expenses, but $6,200 for the retiring allowances of the twenty-two cullers who have been removed.
Air. WOOD (Brockville). I am very sorry to observe that the expenditure in this very effete and useless department shows an upward tendency. It has been, 1 think, well understood by this House for many years that the expenditure of that department should be decreased, to say the least. Four or five years ago, we introduced some very important changes, largely reducing the expenditure of this branch. It is an expenditure which I have never hesitated to say
Mr. POUPORE. Does the Alinister expect that under this arrangement the office will be self-sustaining in the future ? Because the square timber and deal trade had diminished so much in Quebec that it was thought unnecessary to have so large an expenditure for this service, and that the office should be made self-sustaining.
The MINISTER OF INLAND REVENUE. There are only six cullers now, after the
7251
[COMMONS]
7252
addition of the two I have mentioned. Those two are paid for by the timber men, and my hon. friend must be aware of the petition for their appointment, and no doubt signed it himself. /In the first nine months of this y^ear we have collected $12,372, and if it were not for the retiring allowances of $6,200 which we have to pay, the institution would be self-supporting.
To provide for the printing of law stamps..	$500
The MINISTER OF INLAND REVENUE. There has been no expenditure for law stamps since 1892. The revenue is from $4,000 to $5,000 annually, and the stock now purchased will last several years.
Mr. McMULLEX. I find that the clerks of the Supreme and Exchequer Courts get a commission for selling law stamps. I should like to know why that is allowed. The registrar of the Supreme Court gets $2,600 a year and $600 a year as editor of the reports, and a commission of $132 on the sale of law stamps. The registrar of the Exchequer Court gets a salary of $2,000, and an additional $225. and a commission on law stamps sold last year of $174.85.
Mr. HAGG ART. There should be no commission paid an officer who receives a salary.
The MINISTER OF FINANCE. My hon. friend will have to renew his question when the Solicitor General is in his place.
Amount required to cover the expense
of fencing, &c., in the Rocky Mountain
Park of Canada ..................... $25,000
The MINISTER OF THE INTERIOR. This is for the purpose of keeping in a herd or* buffalo. The range is 400 or 500 acres, fenced partially by the mountain, partially by water, and the balance by this fencing. We have three buffaloes there, presented by Mr. Blackstock, of Toronto, and there is a herd of seventeen or eighteen presented by Lord Strathcona, which is at present at Winnipeg, and fourteen of which are to be moved to the park.
To provide for expenses of commission in
Crow’s Nest Pass Railway inquiry____ $6,500
Mr, ROSS ROBERTSON. 1 had intended to speak last week, when my hon. friend the junior member for Pictdn (Mr. Bell) raised the question of the Crow’s Nest Pass work ; but I am not notoriously friendly to the Canadian Pacific Railway, and I thought I would give careful reading to the report of the commission, and thus escape the eharge of prejudging the case. I have read the report of the commission very carefully, and, as the Government is apparently not contemplating any immediate action, I am going to say what I have to say here and now. I suppose that this House will be asked to accept the theory that the sufferings of these unfortunate men on the Crow’s Nest Pass work were unavoidable accidents.
Sir HENRI JOLY DE LOTBINIERE.
I am convinced that the outrages which the report of the commissioner records were not accidents. These outrages were incidents in a conspiracy to steal the labour of hundreds of our fellow countrymen for the- benefit of the Canadian Pacific Railway. Apologists for the Canadian Pacific Railway can talk as they please about Mr. Haney and the sub-contractors of the Crow’s Nest Pass road ; Mr. Haney and his understrappers may be more or less responsible agents of tha t conspiracy, but the real authors of that conspiracy are the rulers of the Canadian Pacific Railway. What have we to do with Mr. Haney and his understrappers V The Government did not negotiate with Mr. Haney, but dealt with Sir William Van Horne and Mr. Vice-President Shaughnessy. It is all right for these gentlemen to hide themselves and their corporation behind Mr. Haney and his assistants. The Canadian Pacific Railway did not hide itself behind Mr. Haney last session, when it was trying to tap the treasury for enough money to build this railway". Parliament has to accept the responsibility of giving that money to the Canadian Pacific Railway, and Parliament has the right to ask that the Canadian Pacific Railway, including its president. Sir William Van Horne, and Mr. Vice-President Shaughnessy", yes, and every director of the road—shall accept responsibility for the crimes and outrages which have marked their use, or rather cruel misuse, of this .country’s money. If these men were underpaid, and starved, and in some cases left to die, they were wronged as a result of the policy adopted for thfc construction of the Crow’s Nest Pass Railway. This policy which doomed its unfortunate victims to starvation and death was not the work of Mr. Haney or his assistants. They were merely the hands entrusted with the work of carrying out the policy which originated in the greed of the Canadian Pacific Railway government at Montreal. I cannot believe for one instant that Mr. Haney was sent out to the Crow’s Nest Pass road to improvise a system of stealing enough labour to build that railway. I am persuaded that he had to accept a ready-made system of tyranny, cruelty and oppression. Mr. Haney had to look for his orders to the men who employed him, and, in this Crow’s Nest Pass work, Mr. Haney with the other tools of the company was simply working out the plans of those who sent them. I find in the report of this commission proof that the Canadian Pacific Railway proposed to take the labour of human beings at wages which would allow a hard working man to pay his own way, without one single cent for his wife or children, and, at the end of a year’s hard work, he would have a profit of something less than $6 over and above all expenses. I maintain that when the Canadian Pacific Railway decoyed, enticed and entrapped men to the Crow’s Nest
T253
[JUNE 7, 1898J
7254
Pass work on these t&ms, its proceedings amounted to 'a conspiracy to steal the labour of helpless men. I only use the word conspiracy to describe the method of the Canadian Pacific Kailway because I cannot find any stronger word in any dictionary in the Parlimentary library. I am not, however, interested in Mr. Haney or humbler individuals. It seems to me that they simply carried out a system of oppression, tyranny and robbery. They seem to have worked the system to the very limit; but I do not believe that they created that system. That system was created by the magnates and rulers of the Canadian Pacific Railway. Let me say again that the Government of this country did not make any agreement with Mr. Haney or his hired help. The Government dealt with Sir William Van Horne and Mr. Vice-President Shaughnessy ; and the Parliament which voted such an enormous subsidy to the Canadian Pacific Railway which these men represent has a right to fasten full responsibility. yes. the fullest responsibility* upon them for the terrible wrongs and atrocities that have been done by their agents.
The Crow’s Nest Pass road bargain, Mr. Chairman, ought to have satisfied even the gluttonous greed of the Canadian Pacific Railway, apart from the coal lands which Messrs. Cox & Jaffray and other friends of the Canadian Pacific Railway grabbed from British Columbia. The Canadian Paei-fie Railway itself got over three million dollars of cold cash from the treasury of this country to build a railway for its own profit and, incidentally, for the benefit of the country. The Canadian Pacific Railway got the price of the road from the country, and yet it must start in to plunder the poor, helpless labourer. That great corporation puts one hand in the national treasury and the other in the pockets of its victims. The Canadian Pacific Railway is big enough to snatch the dollars of the country* and is small enough, contemptible enough to steal the pennies of the workingmen. It is as clear as daylight; it is perfectly clear to me that the plunder, the swindling of the workingmen was the head and front of the Canadian Pacific Railway programme for the building of the Crow’s Nest Pass road.
I suppose that the Government is to blame, but how could the Government be expected to know that the Canadian Pacific Railway would he guilty of the crimes and atrocities that are disclosed in the report of the Crow’s Nest Pass Commission. I have never shared the admiration for the Canadian Pacific Railway which inspires both political parties in this House, but until I was confronted with evidence from which there was no escape, I was not prepared to believe that so great a corporation could be so short-sighted as to adopt a policy “which forced its agents to do what has been done for the benefit of the
i Canadian Pacific Railway in this Crow’s Nest Pass work.
There seems to be no limit to the grasping s greed of the Canadian Pacific Railway. The country has gorged it with money until it has accumulated power to rob the country; and it appears to me, after reading the evidence that it has accumulated power to murder the citizens of this country. I suppose the only satisfaction this country will get will be that, some day or other, we shall see Sir William Van Horne in the attitude of the late Boss Tweed asking “ What are you going to do about it ? ” That is the question—What are we going to do about it ?
> 1 appeal to the Government, to every honest member of the Government, to act in regard to this matter in such a way that the people of this Dominion, the people of this continent—yes, the people of the world at large, may know that the Parliament of Canada has a care for the humblest of Her Majesty’s subjects. I have read carefully of the sufferings of my two young fellow-countrymen of Nova Scotia, and I felt humiliated as a Canadian that Canada should be disgraced by such barbarity. As a member of this House I feel humiliated that Her Majesty’s Government through the apathy of the Deputy Minister of Justice should sit with folded arms while the agents of the Canadian Pacific Railway were using the technicalities of the law to browbeat and silence the honest men who were trying to expose the cruel neglect by which these young men were done to death. I am strongly in favour of economy in the expenditure of every department of Government, but, Mr. Chairman, I am prepared to vote for any appropriation that may be necessary to track down the perpetrators of these crimes of the Crow’s Nest Pass. I hope that this Government will make and quickly make a searching and drastic inquiry into the question of the responsibility of the Deputy Minister of Justice for suppressing the inquest into the death of these young Nova Scotians ; and. if he has failed in his duty,
I for one shall be prepared to vote for his instant dismissal. I trust that the Government will act courageously in the whole matter regarding what has already been done, having given this report my most careful consideration I am surprised that the commissioners have not suggested some definite means of bringing the offenders to justice. I am not singular in holding this view, there is a considerable amount of criticism in the country, that the report of the commission is lacking in this particular.
I should look, Mr. Chairman, for the real criminals at the head office of the Canadian Paofic Railway, at the Windsor station in Montreal, some day when the hoard of directors is in session. And if justice were done, the president and vice-president and every single director would, at the very
7255
[COMMONS]
7256
least, be brought before this House to answer to the question why the country’s children should be robbed and murdered by their greedy handling of this country’s money. I? any hon. gentleman thinks that robbery and murder are words too strong to be used in this connection, I can only say that my belief is founded on the evidence I have read that the way the Canadian Pacific Railway paid these men was robbery and the way it used these men was murder.
I find that there are precedents in the records of the Imperial House of Commons which Would justify Parliament in calling on the Canadian Pacific Railway directors to account for the wrong done under their auspices.
• The MINISTER OP TRADE AND COMMERCE (Sir Richard Cartwright). I would suggest to my hon. friend (Mr. Ross Robertson) that there generally sits beside him a director of the Canadian Pacific Railway. He might begin with him.
Mr. ROSS ROBERTSON. I do not bar any director of the Canadian Pacific Railway.
The INISTER OF TRADE AND COMMERCE.' But the hon. gentleman ought to begin with the gentleman beside him.
Mr. ROSS ROBERTSON. The director of the Canadian Pacific Railway who sits in this House is amenable to you as well as he is to me, and he is as open to criticism by me as he is to the hon Minister of Trade and Commerce. In 1881 a Select Committee of the British House of Commons was appointed to inquire into the question of the hours of labour in the railway service. The committee took the evidence of a man named Hood, station master on the Cambrian Railway. This station master in his evidence stated, as to the work of signalmen on the road, in connection with an accident that occurred, and that he had to work for thirty-six hours at a stretch.
The select committee adjourned for recess, I suppose that means prorogation, and in May, 1892, the attention of the committee was called to the fact that Hood had been dismissed from his position as station master on the Cambrian Railway. His dismissal was summary, and Hie had served this company faithfully for over twenty years, the select committee decided that his dismissal was in consequence of the evidence given by him before the commission at the session of 1891. The select committee decided to report -the entire matter to the House of Commons. The chairman of the select committtee, Sir Michael Hicks-Beach, presented the report of the committee, and it was agreed that the dismissal of this man Hood constituted a breach of the privileges of Parliament, and the directors of Mr. ROSS ROBERTSON.	^
the Cambrian Railway were summoned before the bar of the House to receive a reprimand at the bands of Mr. Speaker. You will find these facts in the diary of the Salisbury Government 1886 to 1892, by Henry W. Lucy. (I do not know, Mr. Chairman, much about the technicalities of constitutional or parliamentary law • but fit seems to me that if the Imperial Parliament could call the directors of the Cambrian Railway to account for the dismissal of one employee this Dominion Parliament ought to have something to say to the directors of the Canadian Pacific Railway for the robbery, for the death and murder of so many of its employees in the work on the Crow’s Nest Pass Railway. Their method of spending the money so freely voted to the Canadian Pacific Railway by Parliament, constitutes, to my mind, as grave a breach of parliamentary privilege as was committed ■by the officials of the Cambrian Railway, w ho dismissed the station master Hood because of the evidence he gave before the parliamentary committee. I would sooner see the authors, the perpetrators of these crimes on the Crow’s Nest Pass road serve a term in jail at the hardest kind of hard labour than receive a reprimand at the bands of the Speaker, but if the arm of «the criminal law is not long enough to reach them, I think that at the very least they ought to be brought to the Bar of this House.
Mr. CLARKE. I will occupy the time of the House for but a few minutes, recognizing the desirability of expediting the business of the House as much as possible. Unlike my bon. friend from East Toronto (Mr. Ross Robertson), I have not had the opportunity or advantage of reading the report wiiich has been presented by the commission appointed by the Government to investigate the methods adopted in the construction of the Crowds Nest Pass Railway ; and 1 have bad to depend upon a synopsis which has appeared in one of the papers of the report which was presented to the House.
I cannot, therefore, speak as definitely or as positively as my hon. friend Who has just addressed the committee can speak, but I am bold to make this assertion, »Mr. Chairman. that if the analysis of the report which I have read correctly epitomises the report itself, the methods adopted on that wmrk are the most disgraceful that have ever been written in the history of the development of this country. I have no hesitation in saying that the record which has been presented to the public in the report of the royal commission discloses a condition of affairs in connection with the construction of this railway that is a disgrace to Canada that is a disgrace to civilization. Why, Sir. the hon. gentleman who has just spoken has told us what the net result would be on an able-bodied man working on that road for twelve months. . According to the synop-
7257
[JUNE 7, 1898]
7258
sis Which appears in one of the papers, If I may be permitted to quote two or three lines front it:
A man living in this city, Ottawa, and working the average number of days per month that it is possible to work, 21and receiving $1.50 per day for every day which he worked, would, at. the end of 12 months, when he returned to Ottawa, have only the miserable pittance of $5.19 left.
This is the condition of affairs brought about by a system of tyranny introduced and practiced by the contractors and sub-contractors that is an abomination and a disgrace. The findings of the commissioners are of themselves sufficient to justify the Government and Parliament in taking the most drastic measures that are possible or that can be devised, to compel the contractors and sub-contractors to recoup those poor workingmen and their families for some at least of the losses which they have sustained by the treatment which has been meted out to them. The commissioners’ findings, as I see in this report, are practically as follows:—
The company and its contractors have not lived up to their agreement with the workingmen.
No arrangements were made to receive the men upon their arrival at Fort Macleod.
The men were compelled to sleep on frozen ground in the open air without blankets or shanties, open cars or tents, without fire of any kind.
No measures were taken to keep the men clean —in fact, the surroundings were simply disgusting. They were kept in filthy hovels, swarming with lice and vermin, and without ventilation or light.
The contractors were undoubtedly to blame for having allowed the men to sleep under tents in January, with thermometer down to 30° and 40° below zero.
The food given to the men was in many cases frozen, and in any case bad.
The men were subjected to all kinds of bad treatment when they dared complain.
The men were charged for the transportation of mail which they never received.
The men were left at Fort Macleod many weeks without work, and when put to work were charged for board during the time they were idle.
They were made to pay railway fare both from and back to the east, in contravention of the contract 'by the agents.
Some of the contractors and sub-contractors charged exorbitant rates for the food and goods furnished the men.
It is clearly established that the men were deprived of medical care when sick.
The men were dismissed without any reason given, and were left hungry, cold and moneyless to find their way home.
Sick workingmen were refused food, and in some cases sub-contractors, when they refused to work when ill, dismissed them.
The wages paid the men were not high enough to meet their expenses.
Now, -surely, Mr. Chairman, that is a finding on the part of the royal commission
that justifies the use of the strongest possible language with regard to the treatment which has been meted out to these men. I think the finding of the commission will justify the Government of Canada in taking prompt and energetic measures to correct the abuses and the evils which 'have characterized the construction of this road up to the present time. I say that whatever action the Government takes they would be 'heartily supported by both sides of this House, and by the people of this country, although I suppose that nothing that can be done will wholly right the wrongs which have been perpetrated on hundreds, if not thousands of the people of Canada who have not been able to make their voice 'heard as potently as it ought to be heard, and whose grievances remain up to the present time unredressed. I do not wish to prolong this debate, but I desire to emphasize the view that the Government would be justified in resorting to almost any measure, not only agaiust those who have been the authors of those grievous wrongs upon those poor labourers, but against any official of the Government who has been so negligent in his duty as to have made no effort to prevent these wrongs -being perpetrated, and by whom no inquiry has been made up to the present time into the sad circumstances surrounding the death of those two young men from Nova Scotia, who were allowed to die like dogs without medical attendance and without fire, in the depth of a Northwest winter. It is a sad and disgraceful story, Mr. Chairman, and I repeat that 1 hope every power that is available to the Government will at once be put forth to redress the wrongs of those who have been so grievously outraged. The Government may rely, I repeat, upon the hearty support of members on both sides of this House in bringing to speedy justice those whose conduct has been so reprehensible.
Mr INGRAM. I think that the Government ought to appoint a commission for the purpose of inquiring into the general management of railways throughout this country. I heard a statement made by the Minister of Railways and Canals yesterday that is not in accordance with the facts. Some discussion has arisen with respect to the rules and regulations that are about to be enforced on the Grand Trunk Railway system throughout the country. He stated that the only objection the men had to these rules and regulations coming into force was that they had not had sufficient time to understand them. Now, I know, as a practical man who has had experience with the different railways of this country that certain of those rules and regulations are inhuman. I would like to ask any hon. gentleman an this House how he would like to stand on a box car for miles in cold winter weather, when there is no necessity for doing
7239
[COMMONS]
7260
so. I know that men are forced to do so on j there and give justice to those men who have the Grand Trunk Railway, the Canadian j been so inhumanly treated. When we rePacific Railway, and other leading railways I member that for the construction of the in this country ; they are compelled to do j Crow’s Nest Pass Railway, the Canadian two men’s work in place of one, and if they j Pacific Railway Company has been given the decline to do so, they are dismissed from j enormous bonus of $11,000 per mile, and the the service. I know, as a fact, that in j Government when they proposed to Parli'a-years gone by men were employed as bag- meat that amount were aware the contract gage men and express men, each having a j would be given to another company or to
separate department; but to-day the same man does both express work and baggage work, and it is impossible for any one man •to do that work satisfactorily.
They make mistakes with respect to express packages and are held responsible, having in many cases to pay for losses, the result of the men being overworked. A commission should be appointed to inquire as to the excessive amount of work these companies are compelling the men to perform. Reference has been made to the Crow’s Nest Pass road and to recent occurrences there, and no doubt every bon. member has received letters complaining of the way the labourers employed on that road were treated. As, however, the matter has been fullv explained by the hon. member for East Toronto (>MT. Ross Robertson), I have nothing further to say on that point. But 1 desire to ask the Government, if they are aware that rules and regulations respecting the railways are changed almost from day to day. Even men who have been employed twenty or twenty-five years on a road are not able to carry out the rules and regulations of any company. Certain rules are placed in the rule book that the company knows no practical man can carry out; in fact, if he attempted to carry them oht be would be dismissed from the service. They are put there for the purpose of protecting officials of the compaay from actions for damages, and so on. It is impracticable to carry them out. So I say that when the Governor in Council is called on to approve the rules of a railway company, the persons who are to carry out those rules and regulations should be consulted, as well as the railway corporation, before the Governor in Council sanctions them.
Mr. WALLACE. I think this is a matter than Involves the most serious and prompt attention of the Parliament of Canada. The hon. member for East Toronto said the Government Should see the directors of the company about this matter. I think we should rather see the Government direct, it being responsible to Parliament, and the Government, having the facts before them, because the commission went west many months since and made an investigation and returned long ago. The very day they returned they were able to give the salient facts of the case and a general statement of the case to the Government, and the Government were bound to take immediate action and protect the lives of our citizens
Mr. INGRAM.
some middlemen, and when, by its charter, the Canadian Pacific Railway Company obtained the control and ownership not only of the timber lands and such agricultural lands as might lie in the locality, but also enormous coal areas unequalled on the continent of America, the property being subsequently acquired by a syndicate composed of Cox, Jaffray & Co., and their colleagues, it is evident that the Government should have safeguarded the public interest. From statements brought out in the committees and in the newspapers it appears that the Canadian Pacific Railway and this syndicate which acquired the coal lands obtained property far more than sufficient to build the Crow’s Nest Pass line. Men went out there and became sick ; it was considered the best think to do was to allow them to die and be buried and then they could no longer be troublesome. I hold the Canadian Pacific Railway Company directly responsible as well as the Government, which well knew these facts months ago, and yet they made no effort to protect the lives of the men working on the road. We have all heard statements of the ill-treatment to which these men were subjected. Every hon. member no doubt has received correspondence with respect to the matter, but until the report of the commission was published by authority, we were not in a position to realize the cruel barbarity perpetrated on these workingmen. We can fairly demand from the Government that steps be taken to remedy the gross injustice done to these men who have been lured out west to build this road, many of them going at a time of the year when the greatest precautions ought to have been taken to protect them *in the arduous work they were called upon to perform. But we have received no information from the Government in respect to this matter.
I	should like to hear from the right hon. First Minister what steps have been taken or are proposed to be taken in order to remedy a state of affairs that has proved a disgrace to the Dominion of Canada.
Mr. McMULLEN. I am exceedingly sorry to think that the men sent out to the Crdw’s Nest Pass road have been treated in the very barbarous manner stated and proved by the investigation which has taken place. In justice to the Canadian Pacific Railway
II	am bound to make a statement. I wrote to Mr. Shaugimessy, the vice-president of the Canadian Pacific Railway, asking him if at number of men from .my constituency
7261
[JUNE 7, 1898]
7262
w ent out to work on the road he would give them employment. He said he would ask Mr. Haney to do so, and stated what wages were being paid. He sent instructions that enabled them to get out there at the rate of 1 cent pea* mile, with the understanding that they would give them a return ticket at the same rate. I forget the arrangement in detail. After arriving out there within a few days they telegraphed to me that they could not stand the work, that the general treatment was not at all what they expected. I immediately wired Mr. Shauglinessy and asked him to immediately forward instructions to the manager to have these men sent home and give them free transportation. He complied with my request at once. He telegraphed Mr. Haney to give free transportation to the men as were not satisfied. He furnished it, and »the men returned. I cannot say whether the Canadian Pacific Railway Company have been fully cognizant of all the wrongs perpetrated there or not. I 'would hardly think they would be, but certainly the man who has been guilty of the inhumanity that has been outlined by that report deserves some punishment. There is no question about that. It is hardly fair to load the officials of the Canadian Pacific Railway with the entire responsibility. They may not have been aware of all that has "taken place. I know that in my case Mr. Shauglinessy treated the men I sent out most liberally. They were not satisfied with the work and with the board, and he immediately ordered that they should have free transportation, home.
Mr. WALLACE. All the workmen have not a prominent supporter of the Government at their backs.
Mr. RTJTHERFQRD. The Speeches which we have heard from hon. gentlemen this morning are worthy of the most earnest attention of this House. That this great Canadian Pacific Railway corporation, which has for long been made almost free of the public purse of Canada, which has been so largely bonused and endowed by the people of this country, and which for the building of the Crow’s Nest Railway received such munificent assistance from the Parliament of Canada, that this corporation should have been guilty of such conduct as has been proven by the report of the commission to investigate the grievances of the men employed, is, to me, beyond comprehension. I do not wish to dilate upon this subject, but it certainly appears to me to be very remarkable that there is not & remedy in view, and I hope that the Government and the members of this House will not allow the matter to drop.
Some hon. MEMBERS. Hear, bear.
Mr. RUTHERFORD. I trust that there will be a full and free investigation so that the responsibility may be placed upon the proper shoulders. If there is no legal
punishment that can be inflicted upon the men who are guilty, I trust that they will be held up to the obloquy and the contempt of all the people of Canada.
The PRIME MINISTER (Sir Wilfrid Laurier). I think that the House will at least be of the opinion that the Government have not been dilatory in this matter, and that they have proceeded as hastily as it was possible for them to do. Complaints were made some time last fall of the treatment which the men were receiving on the Crow’s Nest Pass Railway construction work, and the Government at that time thought it advisable without losing a moment’s time, to have a commission appointed to proceed to the Rocky Mountains and to Investigate the matter. The selection of the commissioners, I think, gave universal satisfaction, and judging from their report they acquitted themselves efficiently. I must observe to my hon. friend (Mr. Wallace) that when the commissioners came back from the west they had not completed their labours but continued their investigation here, and examined witnesses in Ottawa, Hull and Montreal. It is only a couple of weeks ago that the Government received the report of the commissioners. Now, I believe everybody will admit that in the pressure of business incidental to the closing of the session, the Government has had no time to look into this report and to take action. But, it must be one of the earliest duties which will engage the attention of the Government as soph as the session is over to consider this report, and to see what steps can be taken to further the ends of justice. Unfortunately whatever may be done at the present time, yet as is always the case under similar circumstances, there are wrongs which are beyond the power of being remedied; there are wrongs which must ever stand against the good name of Canada. For these, I cannot see any possible remedy whatever. In some cases, however, it may be possible to bring the culprits to justice, and if that duty devolves upon the Government certainly the Government should not hesitate one minute to perform It.
Some hon. MEMBERS. Hear, hear.
The PRIME MINISTER. I had not the opportunity of hearing all this discussion, but as I came into the Chamber I understood that I heard the hon. member for Toronto (Mr. Clarke) imputing blame to some officer of the Government, I do not know to which officer he particularly referred. The words I took from the hon. gentleman were: He hoped that if any officer of the Government had been instrumental in preventing justice from being done that officer would be dealt with. I can assure the hon. gentleman (Mr. Clarke) that that is a duty which la in the hands of the Government. I can assure the hon. gentleman
7263
[COMMONS]
7264
(Mr. Clarke) that if any officer of the Government has iii any way contributed to the ill-treatment which was inflicted upon these men, or contributed to prevent justice from being meted out to the guilty parties, that officer can expect no mercy at the hands of the Government and he must be treated as he treated others in this respect. I would like to have from my hon. friend (Mr. Clarke) or from any other gentleman who has given attention to this matter, some particulars, and I would like to know if they can tell me where the blame lies, which is the officer of the Government who has been guilty, which is the officer of the Government who has been negligent in this matter.
Mr. CLARKE. If the right hon. gentleman refers to the discussion in this House a few days ago and which was introduced by the hon. member for Pictou (Mr. Bell), I think he will find some remarks made by the hon. member for Alberta (Mr. Oliver) in relation to his efforts to get an investigation into the death of these two young men.
The PRIME MINISTER. So far as I understood the discussion the other day, I understood some blame was attached to Mr. Justice Rouleau for having interfered with the coroner holding the investigation.
Mr. POSTER. That was not stated by the hon. member for Pictou, because in the conversation 1 had with that hon. gentleman, he intimated to me that as a matter of law he would not be prepared to say that Judge Rouleau had not done his duty.
The PRIME MINISTER. I do not say that the statement was made by the hon. member for Pictou, but I said that from the discussion which took place on that occasion I inferred that blame was attached to Judge Rouleau, for having issued an injunction against the coroner. Judge Rouleau has acted in the discharge of his duty and I do not see that we can interfere with him, and in a sense Judge Rouleau is not an officer of the Government; he is not responsible to us. If there is any other officer of the Government implicated I would like to have my hon. friend tell me.
Mr. CLARKE. The officer of the Government so far as I have referred to him, is an officer in the Department of Justice.
A recital of the facts in the House the other day related here that efforts had been made by a gentleman in this House to have an investigation take place and the paltry information that he got was that there was no appropriation for the purpose.
Mr. OLIVER. As reference has been made to the discussion which took place the other day, and as there has been a reference to my action in this matter. I say that l am not in a position to state what are the duties of the officers of this Govem-Sir WILFRID LAURIER.
i ment, but I will say that in my humble estimation—and I make the charge on my fullest responsibility as a member of this House—that the reason that justice was not done in the case of the two men. Macdonald and Fraser, was because the Deputy Minister of Justice, Mr. Newcombe, refused to put the machinery of justice in motion in that behalf, although requested to do so by myself repeatedly.
Mr. INGRAM. Will the right hon. the Premier give a promise to this House that in future commissions appointed to inquire into matters concerning railways, he will appoint some practical man on the commission. I will state my reasons for this request. 1 have a case in point now of an engineer on one of our leading railways who was a great many hours on duty, and when he asked to be relieved from duty he was Tefnsed permission, and in consequence of refusing to go out was dismissed from the service. We must all recognize that when employees, especially engineers, are a great many hours working on a railway they are liable to fall asleep, and thus not only endanger their own lives, but the lives of the travelling public. For that reason 1 think it is only fair that a practical man should be put on such a commission. Judge Dugas or Mr. Pedley were certainly not practical men, aud it would have been very serviceable to them if they had associated with them a third party who understood something about the construction of railways, and the way in which men ought to be treated in the construction of railways.
The PRIME MINISTER. Perhaps it would be well to dispose of one item of the discussion before we go to another. I may say, in answer to the hon. member for East Elgin (Mr. Ingram), that the Government, in the commission they appointed on this subject, endeavoured to carry out the very suggestion which the hon. gentleman now offers to the House. The commission was presided over by Mr. Justice Dugas, and everybody will admit, I suppose, that to carry on an investigation of this kind, a judicial gentleman, with legal training and accustomed to such work, is most acceptable. Then we asked the labour organization to have a representative to represent them ; and on their representation we appointed Mr. Appleton to look after the interests of the organization, as this was chiefly an investigation into an alleged wrong committed on labouring men. Coming back to the question put by my hon. friend, I understood that the party he had in his mind and whose name he did not utter, is the very officer who has been just named and designated by the hon. member for Alberta (Mr. Oliver)—the Deputy Minister of Justice. Do I correctly understand the hon. gentleman ?
Mr. CLARKE. That is quite right.
7265
[JUNE 7, 1898]
7266
The PRIME MINISTER. I am not prepared to say at this moment, as I have already said, that we shall be in a position to deal with this question in the dying days of the session ; but, as I have said, this is one of the subjects that must engage our attention as soon as the session is over, and, of course, the first duty of the Government, before any other is undertaken, will be to call the Deputy Minister of Justice and make him acquainted with the grave charges which have been made against him today on the floor of this House.
Mr. WOOD (Brockville). I may be allowed to say one word appropriate to what the lion, member for East Elgin (Mr. Ingram) has brought to the attention of the House. I am in receipt of a communication. which to my mind is of very great importance on that subject, and one which ought to be brought to the immediate attention of the hou. Minister of Railways. It appears that in the old rules the following rule or regulation was inserted
Xo excuse for neglect of duty on the ground of overwork can be accepted. No man is compelled or expected to work if he reports himself as unfit for duty, either from want of sleep or from any other cause. But when trainmen report themselves for duty and take out a train, they are expected to keep wide awake and continually on the alert, and it must be distinctly understood that a violation of the rules or failure of duty cannot be excused on the ground of want of rest.
It appears that in the new rules, which have received the sanction of the Government, that rule, so important to the public safety, is omitted. I have discharged my duty*in drawing the attention of the Government to that fact, so that they may take prompt action to see that that very important rule, the most important to my mind of all the rules governing the train service of the men, is re-inserted.
Mr. BELL (Pietou). In bringing this matter before the House, I did not intend to reflect at all on Judge Rouleau. I merely pointed out the fact that he had delayed his decision for two months. I did not attribute any motive to him for this delay, because I have no right to do that; but the result of his delaying his decision for two months was to make it impossible that the inquest should be continued. Another coroner, two months after the death of those men, could not ask a jury to view the bodies, so that the interruption of the action of Coroner Mead practically put a stop to the inquest. Where I think the responsibility lies is in the Department of Justice. I do not at all mean to say that I am going to blame the Deputy Minister of Justice. I think the Minister of Justice is responsible. It is rather extraordinary that this House should be asked to believe that the Department of Justice are going to throw the responsibility of their neglect, if neglect has occurred, upon their deputy. I will briefly
fK>§
~	REVISED
recite the facts of the case. Early in March I put on the paper a notice of motion for ail the papers in connection with this matter. I waited a month in order to get an opportunity to make that motion. At last I formally iqade the motion. A month afterwards, I called the attention of the Government to the fact that I had not received the papers, and I gave the Premier ; a memorandum in regard to them. Two or three weeks afterwards I repeated that I had not received the papers and again sent a memorandum to the Premier. A fortnight afterwards I wrote a letter to the ; Minister of Justice, saying that I had moved for these papers and that I was very anxious j to get them. I have never received the papers, and I have never even had the courtesy of a reply from the Minister of Justice. It is evident that the effect of all this conduct on the part of some one connected with the Department of Justice, lias been absolutely to quash this inquest, i It has absolutely destroyed all the evidence on which the friends of the men who were murdered—I do not think that is too strong a term—could secure redress in some form.
• The great object on the part of the Canadian Pacific Railway, or Mr. Haney, their contractor, was to protect the company from money damages, and they have suc-< eeeded, largely in consequence of the inaction of the Department of Justice. The cardinal moment was when Judge Rouleau | took the very proper course of telegraphing to the department for assistance. That assistance was never received, and in the j presence of the lion, member for Alberta was refused. There is great blame attaching to somebody connected with the De-| partment of Justice.
j The MINISTER OF MARINE AND j FISHERIES (Sir Louis Davies). Is it not | fair that Mr. Newcombe should be heard j before be is absolutely condemned ?
I Mr. BELL (Pietou). I am not charging Mr. Newcombe. I am not. nor is any per! son in this House, disposed to charge any! one but the Minister of Justice and the I Government of which he is a member.
| The MINISTER OF TRADE AND COM-i MERCE (Sir Richard Cartwright). That is not correct. Mr. Newcombe was expressly charged and named by one hon. member.
Mr. BELL (Pietou). I am not charging him.
Mr. FOSTER. The hon. member for Alberta (Mr. Oliver) did.
The MINISTER OF TRADE AND COMMERCE. And the bon. member for Toronto.
Mr. BELL (Pietou). I am sure it is not creditable to the Government to try to shoulder the blame for this upon the deputy. That is not what we are disposed to do. We have nothing to do with the deputies. My
EDITION.
[COMMONSJ
7268
'267
remarks with regard to my attempt to j secure information from the Department of i Justice did not apply to the deputy. I have j never spoken to the deputy at all. I dealt! entirely with the Department of Justice j through the Government, an4 so far I have j never had even the courtesy of a reply. |
Mr. MONTAGUE. No one has been at- { tacking the Deputy Minister of Justice, and j all the little anger shown by the members j of the Government on that score, if not j assumed, comes in virtually in defence of j their Minister of Justice. No one in this j House supposes for a moment that the j Minister of Justice was not acquainted j with the facts. When telegrams were sent! to the Minister of Justice on such an im- j portaut matter, the deputy would undoubt-1 edly consult his Minister, and the Minister is j responsible for the acts of his deputy in such j
tions which may have taken place, we are not in a position to give to the public.
Motion agreed to, and the House adjourned at 1 p.m.
IIOUSK OF COMMONS.
Second Sitting.
Tuesday, 7th June, 1{*9S.
