 at Three o’clock.
Prayers.
PROCEDURE IN CRIMINAL CASES.
Mr. McCARTIIY, in introducing Bill (No. 2) to amend an Act respecting procedure in Criminal Cases and other matters relating to Criminal Law, said:	The Bill
which I have the honor to introduce deals with three subjects: the first being the subject dealt with in a B’ll which I introduced last year, that is the giving to every person accused the liberty to give evidence in his own behalf. I have limited this power to those who are charged with misdemeanor, and have not allowed it in all cases, and 1 have added a provision suggested by one of the learned judges last year. The Bill provides that if the criminal does not tender himself as a witness, that fact should not be the subject of comment by the counsel for the Crown, and the judge shall direct tho jury that it should not weigh against tho accused. The second part of the Bill is also proposed on the suggestion of one of the judges from the Province from which I have the honor to come. It is a matter of form simply, and provides that in the event of a judge appointed to hold ass ze not being able to keep his appointment, the court shall stand adjourned, ipso facto, until ■he ai rivep. It happened recently in one case that the judge was not able to attend the court, and the sheriff, whose duty it was to adjourn the assize, failed to do so. The result was that several criminals had to be tried twice, it being thought that all the trials which took place at that assize were illegal. The third provision of the Bill is for the purpose of doing away with the right of the Crown to a peremptory challenge. My attention was called to this subject by a discussion which took place ir. the courts of Ontario upon the question of where the power l’ests to deal with the matter of juries. By the Act of 1869.right is given to the Crown to challenge peremptorily, but I doubt whether that is in the power of the House to confer, and I think, therefore, it is better to remove the assumed power from the Statute-book until the question is determined. But beyond that,in my humble judgment, it is an unfair right for the Crown to have. The Crown now has the
REPORT.
Mr. SPEAKER presented a statemont of the receipts and disbursements of the Accountant of the House of Commons for the year ending 30tb June, 1882, signed by the Auditor General.
INLAND SHIPPING DISASTERS.
Mr. DAWSON moved for a Return of all correspondence) relating to the disasters which havo occurred to Canadian vessels navigating the Great Lakes and the Georgian Bay, within the past three years; together with the reports of persons appointed to enquire into the causos of these disasters ; the names of the vessels lost or stranded, and tho ports from which they sailed. Also, a statement of the reported loss of life in each case. He said: In making this motion, Mr. Speaker, I believe that it is incumbent upon me to draw the attention of this House and the country to the great loss of life and property which has occurred on the Great Lakes, and more especially on the Georgian Bay, within tho past three years. It is something frightful; and from whatever cause it may have arisen, the unseaworthiness of the vessels, or the want of inspection, it is a matter which should certainly be enquired into. To enable the House to understand the position of the matter, I need only read a list of the losses which have occui’red during that time. In 1879, the Wauburn foundered in the Georgian Bay, and all hands were lost. It is not known how many perished, but it is supposed twenty-five. In 1880, the Simcoe foundered off Providence Bay, Island of Manitoulin, and there were some twelve persons drowned. Some escaped to the shore, in quite a small boat, showing that it was not from stress of weather that the steamer went dowD, but from some other cause, and I believe the cause was overloading. The steamer was freighted with wheat, and the cargo shifted. In 1881, tho Jane Miller foundered off Wiarton, and not a person escaped. The whole crew and passengers were lost. In this case, as in that of the Waubuno, it was not known how many went down. In these cases there is always an attempt to conceal the number. In the case of the Jane Miller, it was said that twenty-five were lost; but it is well known that in the fall of the year—this disaster took place in November—vessels running up Georgian Bay are always crowded, and it is highly probable that more than twenty-five perished on that occasion. In 1881, again, in the same month, one of the Colliog-wood line of boats running to Chicago, loaded with wheat,
30
COMMONS DEBATES.
February 13,
went down in Lake Michigan, after colliding with another vessel. Fortunately only one man was lost on this occasion. At the same time the Northern Queen, a very fine boat, running from Collingwood to Chicago, was stranded in Lake Michigan and became a total loss. In 1881, the same year, the Winnipeg, a very fine and large steamer, running from Collingwood to Duluth, was burnt at Duluth. Four lives were known to have been lost on this occasion, there may possibly have been more. There was no time tor escape. It would be well to enquire into the causes of these accidents. In 1881, again, the Columbia, another vessel belonging to the Collingwood line, and plying between Chicago and Collingwood, foundered in Lake Michigan off a place called Frankfort. In this, as in the case of the Simcoe, the vessel was proved to have been overloaded. The cargo, composed of grain, shifted. A number of the passengers and crew escaped in a boat, which could not stand a very heavy sea. Still, they say the Columbia went down through stress of weather. Fifteen lives were lost on that occasion. All these losses form a terrible record, for one summer, of loss of property and life, and the question how those casualties arose should be enquired into. Where did the fault lie ? Did the officers charged with inspecting steamers do their duty, or was the law defective? Coming to 1882, about the 16thMay, last year, the Manitoulin, a very fine steamer, running between Collingwood and Sault Ste. Marie, was burnt in Manito-waning Bay. She took fire approaching Manitowaning; the captain headed her for the shore, but before she could reach it the passengers had to jump into the water and there was a great loss of life. But for the promptitude, decision and energy of the captain there would have been a much greater loss. Fortunately, many escaped, but still many perished. What remained of the hull was taken to Manitowaning, and it is reported that on being cleared a quantity of human bones was shoveled out, so that the actual loss was never ascertained. In September, 1882, the Asia foundered in Georgian Bay. Almost every one knows of that terrible disaster. The boat was crowded not only with people going up to Eastern Algoma but with many going to the lumber camps, and I have heard the loss esti mated as high as 260, never less than 100, and probably it was 150. In June, 1882, in the north channel of Lake Huron, the Vanderbilt was burnt. In November of the same year, another steamer, the Josephine Kidd, was burned off Wiarton. Here is a terrible record of no less than twelve vessels in three years foundered or burned, and of a loss of life which was something dreadful. I believe there is a very perfect system of inspecting machinery. The inspector is, I understand, a competent man, and the machinery is always inspected ; but it is also necessary to inspect the hull, for if the hull is bad the ship will go down in the first storm, though the machinery may be perfect. I am very glad to see, by the Speech from the Throne, that legislation will take place in respect to this. It is certainly very much needed, for the law, as it now stands, has not been enforced. There is a law now, but there are no inspectors, and no inspection of the hulls, that I am aware of, has taken place. The consequence is, a great loss of life and vessels. This question has been very much discussed in Algoma, and I have had a good many suggestions from captains of vessels and others, as to the best mode to be followed. It is evident that vessels navigating the lakes should have a line marked as in ocean vessels, beyond which line they should not be loaded. That depth line ought to be regulated by the inspector. There should be a line for the fall as well as for the summer season. I have some letters here from captains of vessels which, I think, it will be interesting to read. One of these is signed by two captains well known on the lakes, who navigated the Quebec and Manitoba of the Sarnia line for a long time, one of them being now in command of the fine Mr, Dawson.
steamer Compana, Capt. Anderson. They writo me as follows:—	.
“Sarnia, January 3l3t, 1883.
“S. J. Dawson, Esq , M.P , Ottawa.
‘‘Dear Sir,—According to your request, we hereby submit a few d? the reasons why we think our Parliament should pass a law compelling all masters and mates of passenger Bteamers to undergo an examination before a competent Board of lake sailor men, and obtain a certificate of competency before being allowed to fill either of these positions.
“ 1st. Every master to retain his position should have successfully commanded a boat say three or fire years, and those not haring done so, should undergo an examination proving themselves worthy of a trial, such examinations to consist of such questions as follows :—
“2nd. What would you do in case of an accident to the engine daring a storm ?
“ 3rd. In case you thought your boat was going to founder, how would you proceed to care for your people, in regard to lowering your yawl boats or otherwise?
“ 4th. What would you do in case of fire ?
“ 5th. In regard to foggy weather what would you do, and in case your boat goes ashore, what, in your opinion, is the first thing to be done?
“ 6th. Do you understand handling sails, anchors and charts ?
“These questions, Mr. Dawson, are very important, as we know we hare a good many masters to-day that do not know any of those things ; also a good many men now in charge, that, supposing their rudder Bhoula break, would be completely at a loss what to do We have had several instances of this, and also of those who, if their boat got into the trough of the sea in bad weather, would not know how to got her out of it, and the result might be disastrous.
“ Now as regards mates, we think they should prove, to the satisfaction of the ‘ Board of Examiners,’ that they have served a reasonable time in that or other positions on the lakes, and that their qualifications are such as to enable them to fill the position.
“ As to who is to compose the Board of Examiners, we think there ought to be three men who have commanded steamers on our lakes for say ten or fifteen years, and would recommend one for Lakes Ontario and Erie and the other two to take the Detroit and St. Clair River, Lake Huron, Georgian Bay and Lake Superior.
“ Also we wish you to impress upon the Government the necessity of all passenger steamers on our lakes being supplied with life rafts capable or carrying at least fifty people.
“ We consider something should be done respecting the buoys and beacons in the Sault Ste. Marie River and North Channel, as there ha3 been a great deal of dissatisfaction since Captain Joseph Wilson gave up the charge of them. As they have beeq placed lately it h is been extreniviy dangerous for strangers.
“Now, Mr. Dawson, these are a few of our ideas in the rough, please put them in proper shape and present them, and if you require our services any further command us.
“ Yours truly,
“ Jas. B. Symes,
“ E. B. Anderson.
“ P. S.—The Beard of Examiners, in ( ur opinion, should be the Hull and Equipment Inspectors.”
Now, I have another letter from a steamboat captain who has sailed on the 1-Jkes half his life, and who has had a great deal of experience—I mean Captaia Dick, of Toronto. He says:
“ Several steamers have been lost from overloading For instance, the Waubuno was overloaded, and no doubt her false sides were rotten. The Columbia en Lake Michigan overloaded, and for the cause of the disaster see particulars in .Scrap Book. The Jane Miller overloaded ami was unfitted for the service she was engaged in. In the Asia case it is not probable that the exact number lost will be ever known ; her losa cannot be attributed to unseaworthiness nor overloading, the Vessel was not properly ballasted or trimmed. Had the Asia been drawing eight feet forward and nine ieet aft, I feel safe in saying there would have been no loss unless she had struck a rock, and there Was no evidence to the effect that she did. More care than formerly Should be used regarding the strengthening of bulwarks and th-i supports of the upper cabins and engine room. It is not the fault of our models or build of onr vessels alone that has caused so many losses, but overloading, imperfect loading, old age, and little or no repairs. The inspection never called for the steamers to be laden to any safe line, nor do I believe the last Steamboat Act demands it. It is very necessary, and I would sargest.a summer load line and a spring and fall line. The loss of the steamer Manito lin was supposed to be caused by the breaking of a lamp and spilling of the oil. All steamboat lamps should be made with brass bowls, such as Piper’s Safety Marine Lamp, that cannot be broken or spill oil. N > glass lamps should be used on a Steamboat. Steamboat oil rooms and lamp rooms should be lined with zinc or tin, and also the floor. They should be kept scrupulously clean. This department should be strictly looked after. Passenger steamers ought not to carry any combustible material. Steamboats ought to be inspected early in order to give owner's an opportun'ty to do the tequired lepairs to make their vessels Seaworthy and pass the reqaired inspection. In many cases it might be found oecefSary to raise the boilers to ascertain the condition of
1883
COMMONS DEBATES.
31
both hull and boilers. This work should not be imposed on a steamboat owner at an unreasonable time. Steamboats are usually too heavy and not easily handled; lighter boats wot Id be more useful and easier handled ; a sufficiency of life rafts should be earned. There should be no difficulty in having a register of all passengers on steamers; the ticket agent could give his number sold and name of passengers. The purser could also ascertain ail names of those coming on board, and leave the list with Customs officers, and any discrepancy might be reported at the next port of call. This applies to lake boats. Ferries would be an exception.
“ The Simeoe, of the Georgian Bay Navigation Company’s line rebuilt from the remains of an old burned barque, was not suitable for lake navigation, her loss occurred from not being seaworthy. A great deal has been said of the dangerous navigation of the Georgian Bay. I never saw it any worse or as bad as Lake Ontario. Our ordinary lake boats, in good repair and condition, are quite safe for the navigation managed by competent officers. A new survey should be made of the Georgian Bay. From the short time occupied by Capt. Bayfield m making his survey, and the inadequate meanB at his command, it is hot to be wondered at that there are many omissions. In the interest of navigation, for the above reasons, the north Bhore of Lake Superior should also receive the attention of the Government. I would recommend close, careful inspection of all steamers at least once a year, and in the event of accident, a second examination. Masters and engineers should promptly report to the proper quarter any accident to hull or machinery.”
Now, Sir, these opinions are very valuable, coming as they do from men of great experience, and I have no doubt that the Department of Marino and Fisheries will avail themselves of the information given. The fact of so many vessels having been lost from the carrying of wheat, shows the necessity of adopting some means of inspection on the Great Lakes, such as they have on the oceaD, which obliges skippers to have the wheat put in sacks, or to have shifting boards in the vessel. 1 have myself boen on board vessels where the wheat shifted from one side to the other to such an extent as almost to make them unmanageable. It is dangerous to carry wheat in the fall of the year, when it is put in bulk on the boat and with nothing to prevent its shifting and rolling. I know it is very difficult in a country like ours, where we have only six monthn of navigation, to get experienced sailors who for six months of the year must be out of employment. That must be admitted on all hands, but still somewhat more care might be exercised than at present in the choice of crews. I have been myself on these lakes in a storm, when tho g eater part of the crew, instead of being on hand to help the captain, ran down to the hold to say their prayers. Where you have men of that kind who are not acc tstomed to navigation, accidents must occur. I have heard a captain say that on one occasion when he intended to anchor in a storm there was not a man on Inard who was able to help him to put out the anchor, tho pilot and engineers, of course, being occupied at their respective posts. While I am on this subject, I may say that it is necessary that a better hydrographic survey should bo made of the Georgian Bay and the north coast of Lake Superior. There are shoals and sunken rocks on these lakes. Experienced captains know where they are, but many of these shoals and rocks are not laid down in the charts, or are but imperfectly laid down. I have seen maps on which the shoals were marked down by the captain, and these maps were sent to the Admiralty as reliable, without any hydrographic survey having been made at all. Now, that is worse than if they had not been marked at all. It would not cost a great deal, the shoals being now well known, to have a survey made that would indicate their exact position. This is a very serious matter indeed. I have just read a list to the House of a large number of vessels foundored and a large number burnt. People in my constituency have no way of reaching their homos except over the watcisof Georgian Bay, and ovory time they g° out they have to encounter these dangers. Of the ves-els of the Georgian Bay lino which navigated these lakes three years ago, not a single one, except one propeller, the Northern. Belle, is now in existence. Not only does the country suffer in the loss of life, but there is a great loss of property as well. The people lost on those vessels were not those who were
seeking homes, but comprised men who had established themselves in the country, and although we do not know how many are lost, lot anyone passthrough Eastern Algoma and he will find almost every other house in monrning and desolation for the loss of member's of the family by shipwreck. Among the passengers lost by the burning of the Manitoulin were many of great value to a new country. Among these Mr. Robert Henry, who possessed considerable wealth, and around whom a settlement of a thousand souls had grown up on the Island of Manitoulin, was lost on the burning of the Manitoulin; and a. brother, Mr. William Henry, of Toronto, who was also possessed of considerable wealth, and went up in the fall to look after his dead brother’s affairs, was lost on the Asm. Here are two members of one family lost in different vessels, and these are no solitary instances. There are many families, as I have said, on the Island of Manitoulin and Eastern Algoma who have lost members of their families in vessels foundered or burned on those waters.	Something should bo
done in order to procure a proper inspection of boats, both as regards hulls and boilers, so that property should not be sacrificed to tho cupidity of vessel owners who might send rotten tubs and old craft to run on tho Georgian Bay. There should be some system of registering vessels. It could be very easily done by tho Custom House officers at the different ports, whose duty it should be to see that vessels are properly loaded, and they are quite capable of judging as to whether they wore overloaded or not. This is not the first time the subject has been before the public. The newspapers have called attention to it frequently, and I will read a short extract, which is very much to the point, from a letter signed “ Old Salt,” published in the Toronto Globe, of November, 1831. The writer says:
“ To show the importance of a better method for grain cargoes, I quote from the Globe of September 16th, 1881, the following from the statement made by one of the survivors of the Columbia, which left Chicago with 20,000 bushels of corn :—‘ A. very heavy sea struck us, causing the shifting of the cargo, and making the vessel careen so much that she became unmanageable. Every possible effort was made to get her unright again, but without avail, the sea running so high that she would not answer her helm.’ The Columbia went down in three-quarters of an hour; and five families were orphaned, while ten or twelve unmarried men lost their lives.- A boat from the Columbia got through several miles to land, bo that the sea, though very high, could not have been so high that th' Columbia would not have lived. She would have live! had the cargo not shifted. Who is responsible for the loss of these men’s lives ? Can we escape responsibility in the matter, if vessels are allowed to go out without proper precaution and equipment ? ”
Again, the Mail, a journal supporting the Government, in an editorial article dated November 27th, 1879, said:
“Just how the ill-fated passengers and crew of the Waubuno met their death, whether they went down with the old tub or took to the boats only to be swallowed up, will probably never be known: nor can any chronicler tell what happened during the agony of the crisis. Tho master of the Waubuno is said to have been a man cf courage, and no donbt he did his duty; but it is a fact that be was anything but an experienced navigator. Captain Burkitt was a storekeeper five years ago, and rose to the post of master with a rapidity paralleled only in Canadian lake navigation, where the purser ot to-day is to-morrow tho captain, with the responsibility of human life on his hands. The system, or perhaps it would be better to say the want of system, that permits this sort of promotion is a blot on our humane legislation. Shipowners seem to think that any man may command a vessel, and passenger steamers were plying their trade on the lakes daring the season which has just closed under the command of wholly incompetent officers. No qualification is reqnired bylaw. The owner may appoint whom he pleases, and there is nobody to object but the underwriter, who is more concerned about the bull and cargo than for the human freight. It is true that running a steamboat on the inland waters is not a difficult business in fine weather and within sight oftheshoie, but when a sudden storm arises or a collision threatens, it is a task demanding not only nerve and coolness, but trained seamanship, and of that three-fifths of the passenger steamer and propeller masters know little or nothing. The Dominion Government, with whom it rests, should take up this subject forthwith and adopt a modification of the English Shipping Act of 1854. A Board of Marine Examiners should be appointed to examine and grant certificates to masters and mates, and violations of the Act should be punished with the utmost severity. We are aware that a measure of this kin3 has been introduced before, and that the ship owners strangled it, their main contention being ^hat it would involve a heavy outlay, as trained seamen would expect higher wages than
32
COMMONS DEBATES.	February 13,
amateurs or greenhorns. But are the pockets of ship owners to be considered before the safety of human life ? ”
I believe I have said enough to draw the attention of the Government to this very important question. People cannot travel over those waters without running the risk of being burned or drowned. Not a single vessel which was on the Georgian Bay line three years ago, except one, is now in existence, and that is a very sad state of matters. I beg to move the Resolution.
Mr. McLELAN. The papers in connection with tfiis important subjfcct will be brought down at an early a day as possible. I regret very much I was unable to hoar all the remarks of the hon. gentleman. I know it is a question in which he has taken a very deep interest; it is a question, too, in which the people have a great interest, an interest that is increasing in proportion as the traffic on our western waters increase*; and the attention of the Government, and more particularly to the Department over which I have the honor to preside, has been drawn to tho importance of the subject, and to the disasters which have occurred on those waters and which have been attended with such serious loss of life. Our attention has been directed mainly to the point which the hon. member, so fur as I could gather, has brought up: how far we can make tho vessel* more seaworthy, how far we can improve their management, and how far we can improve the loading of the vessels upon those waters. The attention of the Government and of my Department has been turned to those various points, and it is proposed that we should ask the House for some legislation which we think necessary in order, if possiblo, to make the vessels more seaworthy, that life may be more seenre on board of them. The hon. gentleman has referred to the inspection of hulls, and I understood him to say that we had no inspectors. There were two engaged in Ontario during last summer, but one unfortunately was off duty for some weeks owing to severe illness. It is probable that the legislation which will be asked for will require some different qualifications on the part of the inspectors from what was required by the legislation of last Session, and therefore we do not provide the complement of inspectors for that district until we should see whether the House would grant such additional legislation as we believe is required. But two have been employed during the past season since tho Act came into operation. The hon. gentleman has referred to the fact that several shoals have been discovered on Georgian Bay. The attention of the Department also has been called to this matter, and wo have been in communication with the Admiralty, to learn on what terms we can have an officer, or if they can furnish an officer, to lake charge of the survey of those western waters, and place on their charts all the shoals and rocks that may be found there not already laid down on the charts. As the hon. gentleman says, it is not advisable to have this done in a hap-hazard manner, but to set down clearly the particular shoals which may exist. We do not suppose that, on any information which we may be able to send them, they would lay down on their charts any rocks and shoals that are there to be found, and, therefore, we have asked them whether they can furnish us with a man properly qualified to take charge of such a survey, in order that any shoals, which may not he already down on the charts and which may be discovered to exist on a resurvey, may be placed on the Admiralty chart, thus obtaining tho authority of the Admiralty. 1 may say, in conclusion, Mr. Speaker, that the papers in question will be brought down to the House at an early a day as possible.
Motion agreed to.
ADJOURNMENT.
Sir JOHN A. MACDONALD. I move that the House do now adjourn. I do not seo the leader of the Opposition Mr. Dawson.
in the House just now, and I will consequently make the explanations with regard to Ministerial changes to-morrow.
Motion agreed to; anl (at 4:15 o’clock p.m.) the House adjourned.
HOUSE OF COMMONS,
Wednesday, 14th- February, 1883.
