 at Three o’clock.
Prayers.
£ETUB^.
Sir CHARLES TTJPPER presented a return from the Department of the Interior, of the correspondence in rela-tionto the allotment of lands for the Canadian Pacific Railway, and also of the reservation of lands for that purpose, together with a map showing the lands allotted and the lands reserved.
MONEY REQUIRED FOR THE PUBLIC SERVICE.
Sir LEONARD TILLEY moved the second reading of Bill (No. 21) to authorize the raising by way of loan of certain sums of money required for the public service.
Mr. BLAKE. On the motion of an hon. friend, an order was granted for the production of correspondence with agents on the subject of commission. There is no objection to the second reading of the Bill, but I would prefer that it be not taken another stage until the return is brought down.
Sir LEONARD TILLEY. I have no recollection of such a return being ordered this Session. The whole correspondence was before the House last Session.
Mr. BLAKE. Is there no subsequent correspondence ?
Sir LEONARD TILLEY. No subsequent correspondence, except respecting the arrangement made at that time.
Bill road the second time, considered in Committee, and reported.
TELEGRAPH COMMUNICATION WITH BERMUDA.
Sir HECTOR LANGEVIN. I wish to state to the hon. member for Halifax, by way of explanation, that the other day, when I answered the question put by him with respect to correspondence between the Imperial and this Government, as to the establishment of a telegraph line with Bermuda, I was mistaken—I had forgotten that there existed some correspondence on this subject; and, therefore, I have thought it beet to correct the matter by laying this correspondence on the Table.
PACIFIC RAILWAY RATES.
Mr. BLAKE. I mentioned some points, yesterday, which I suppose require investigation as to returns required under the Consolidated Act. I notice that one return on the subject of rates and tolls is antedated, and has reference to some other parts of returns that relate to action taken on the 9th of April, 1881. It gives certain special rates and through rates, and local rates, but the through rates concern only a very small portion of the line, as it now exists, and which has been open for traffic, as the newspapers inform us, for some months. Reference is made to an application on the subject of a further tariff, but I would suppose that no arrangement had been reached for a tariff of through rates for those portions of the railway which have been opened since the 9th of April, 1881—this seems to affect the return vitally ; but I assume, that no tariff has been fixed at all for through rates beyond the small extent of if, which could be arranged under the Act of 1881. Besides the absence
Sn^ correspondence on the subject of tho tariff, I notice that the report of the engineer states that a further tariff
is under consideration; if so, it must have been sent in by the Company in draft and submitted to the Government; and if this is the case, correspondence mUBt exist respecting it, and the Company’s proposal with reference to this tariff ought to be laid on the Table in pursuance of the Resolution passed by this House, though a decision on it by tho Government had not been reached.
Sir CHARLES TUPPER. That is the fact; a decision by the Government on this subject has not been reached— the Railway Company has made application for a tariff; but it is not finally determined. When a tariff, however, is adopted, all the necessary information will be laid before the House.
Mr. BLAKE. The hon. gentleman will see, that if that is the state of thiDgs there is no authority for a through rate on the part of the Railway Company in the NorthWest; and if the hon. gentleman proposes so far to vary from the Resolution, as to submit the correspondence which has passed on the subject of the proposed tariff, because a decision by the Government has not yet been reached, 1 think it reasonable to enquire whether he intends that this decision shall be reached in such time that the necessary papers can be submitted to the House during the present Session; else, obviously, if the decision be reserved until it will bo too late for consideration during the present Session that will be highly objectionable to the House.
Sir CHARLES TUPPER. I will answer the hon. gentleman, when I make a more specific statement on tho subject than I can at this moment.
SHIPPING TELEGRAPH LINE.
Mr. MITCHELL enquired, Whether it is the intention ot tho Government to construct a telegraph line, in the interest of shipping, from Chatham to Escuminac Lighthouse ?
Sir HECTOR LANGEVIN; Mr. Speaker, I have the honor to state, in answer to my hon. friend, that this matter is now receiving the best consideration of the Government.
INTERCOLONIAL RAILWAY.
Mr. MITCHELL enquired, Whether it is the intontion of the Government to establish communication by schooner or steam between the Intercolonial Railway at Newcastle and Chatham, and the villages of Burnt Church. Neguac, Tabusintac, Black Brook, Baie de Vent and the Islands at the mouth of the Miramichi, for the purpose of promoting the extension of the fresh fish exportation, and thus increasing the traffic on the Intercolonial Railway ?
Sir CHARLES TUPPER. I may say, Mr. Speaker, in answer to the hon. member, that an application has been received by the Government on this subject, and referred to the Superintendent of the Intercolonial Railway for his report. When we have received that report, we will be able to state to the hon. gentleman what the Government proposes to do respecting this matter.
THE WASHINGTON TREATY.
Mr. MITCHELL enquired, Whether any correspondence has passed, of which the Government have any intimation, between the Government of the United States and the British Minister at Washington, or between the Government of tho United States and the British Government, in relation to a notice of termination of the Fishery clauses of the Washington Treaty, or having any bearing thereon ?
Mr. McLELAN. Mr. Speaker, I beg to say, in answer to the hon. gentleman, that the British Minister at Wash-
82
COMMONS DEBATES.
ington has from time to time forwarded to this Government copies of all the resolutions and of all tho proceedings in Congress, respecting the Fishery Treaty.
INLAND WATERS’ FISHERIES.
Mr. MITCHELL enquired, Whether the Government have taken any steps, by correspondence or otherwise, for the purpose of arranging tor or regulating the fisheries on the inland waters of the Dominion, in view of the recent decision of the Supreme Court, which has altered the relation to and the powers exercised by the Dominion Government over those fisheries; and if so, whether any arrangements and what have been come to on the subject ?
Mr. McLELAN. I may, say for the information of the hon. gentleman, that no correspondence has passed between us and the Local Governments on this matter. At least there has been no official correspondence on the subject with me, as the head of the Department of Marine and Fisheries; bnt several interviews have taken place with the members of the Governments of Quebec and New Brunswick ; but there has been no official correspondence, and no arrangements have been made between the two Governments—between the General and those Local Governments, —: especting this matter.
HYDROGRAPHICAL SURVEY OF CANADIAN WATERS.
Mr. FORTIN moved for copies of all correspondence between any members of this House or other persons and the Government, in relation to the hydrographical survey of the Great Lakes, the River and Gulf of St. Lawrence and the other maritime coasts of Canada. He said: Before the motion is put to a vote, I would like to address some remarks to the House. The idea of having a hydrographical survey of the River and Gulf of St. Lawrence, and the other maritime coasts of Canada, is not new to me. I spent many years on the Gulf of St. Lawrence, but it was not long until I discovered tl.-c, in one respect at least, we were behind our neighbors. Whilst ia the United States there is the coast survey under the department of the navy— which survey has been engaged for many years in perfecting the hydrography of the sea coasts of that country in sounding their harbors and rivers, and describing the changes which take place ia them from year to year— whilst the lakes are surveyed by the topographical survey which is attached to the American army, ana whilst they issue those excellent charts that are not surpassed in the world, we, on the other hand, have had very little of such surveying done. The surveys of the Gulf and River St. Lawrence were made by hydrographical officers of the British navy many years ago. The work was aa excellent one, and I wish especially to mention here, in the most honorable terms, the name of Captain Bayfield, -who, for many years, surveyed the coasts of the Gulf of St. Lawrence. But it must be remembered that this work was done thirty years ago, and since that ti me we have only had hydrographers engaged at the work during a couple of seasons. I remember that one of the large vessels belonging to the fleet of the Allan’s, when they were in the habit of passing between the Island of Anticosti and the north shore, passed close to the said north shore, and became stranded on a large ledge opposite the mouth of the River Coacoachoo, which is not marked on the chart. The weather happened to be fine, else the vessel would have been lost; but as it was, she was extricated. About that time, when I was cruising on board of La Ganadimne—the vessel employed for the p Section of the fisheries—we were stranded on a rock opposite Wash-shee-cotoi River, over which there was only nine feet of water, anditwa3 not indicated on the chart. I find no fault with hydrographers Mr. McLelan.
February 27,
like Bayfield, who toiled for so many years in performing that service, but it is well known that the hydrography of a coast is never complete. A rocky coast may not change, but along sand and mud banks and at the mouths of rivers constant changes are taking place; and this must especially be the case at the mouth of that mighty river the St. Lawrence which drains so immense an area of country. The circumstances are not the same now as they were fifty years ago. At that time Upper Canada, drained by the great lakes and their connecting rivers, was only partially settled, while in Lower Canada the back country was hardly settled at all; but to-day the most of the valley of the St. Lawrence, and the country along the great lakes and rivers, is settled, and as a consequence it is drained almost to perfection ; and in the spring time, when the snow thaws, and in the fall, during a continuation of heavy rains, there is an immense body of water running down into the St. Lawrence, and this water rushes down at an immense speed—a fact which is noticed not only by the fishermen but by the mariners as woil. Thechangesin the currents which are made by this drainage, are of course not indicated by the charts. I find that on many points along the St. Lawrence, such as the Traverse, the harbor of Quebec, as well as in Lake St. Peter and other places, great changes have taken place during the last thirty years. Yet we have to use the charts that were made by Captain Bayfield, which have not been altered for the last twenty or thirty years, and upon which, therefore, these changes are not indicated. 1 am glad that the hon. member for Algoma (Mr Dawson), has brought before the House the necessity of making a re-sounding of the lakes—a necessity which has been made apparent by the terrible accidents of the last few years, by which so many lives have been sacrificed. As I said before, the necessity of such a survey of the lower waters of Canada was known to me long ago, but I was afraid to bring tho matter before the House or the public, because I feared the people would not be convinced by my simple words, so I waited for an opportune time, and that time has come. I attach great importance to this matter, because, as I have pointed out before, I regard the St. Lawrence as a great element in the future of Canada; and if the House is not tired I will read a few words of what I r aid on the subject some years ago :
“ This country, that is Canada proper, without the North-West and the Lowar Provinces, had been described as a narrow strip of land traversed by a large body ot water. We might reverse that proposition, and say that Canada consists ot an immense and magnificent watercourse, with a strip of land on either side. This magnificent sheet of water, composed of the lakes, of the River and Gulf of St. Lawrence, is the pride and hope of Canada. By it the early pioneers of Canada were enabled to penetrate iu the very heart of the country and discover the great North-West Territories, and through it civilization spread from the East to the West, from the Atlantic to the Pacific, and m> the ▼alley of the Ottawa. The motto of this city and seaport is 1 Naiura fortis, induitria crescit.’ We Bhould be able to say of the magnificent St. Lawrence water-course; ‘ Natura potens, industria ereseitJ What has been the hope of this country from the beginning? It is that by means of this water-eourse we may become the carriers of the trade of the Far West. That has been the hope of Canada, and if we acquire that, we acquire wealth and power.”
These are words which I uttered in Quebec some years ago in a lecture I delivered on the signal system. Now, we must do something for the St. Lawrence because the shipping trade of the river is not increasing so fast as many people believe. I have taken the trouble to enquire as to the amount of tonnage that came to the ports of Montreal and Quebec in 1872, 1877 and 1882, and I find that, in 1872, it was 1,094,883, in 1877, 1,133,898, and, in 1882, 1,030,736. Thus we find that instead of the tonnage increasing it has actually receded from 1872 to 1882 about 60,000 tons. These figures show the urgency of this matter, and should stimulate us to try to decrease the dangers of navigation of the St. Lawrence. In order to do that you must show the mariner not only the right way to go, but where the dangerous currents are; and that is the reason I recommend
1883
COMMONS DEBATES
83
that the Government should not only endeavor to obtain from the Imperial Government a hydrographical officer to survey the lakes, but one or more, if necessary, to perfect the survey of the Gulf and Eiver St. Lawrence and its coasts, so that there may be some assurance that the directions laid down in the pilot books may be authentic, not with reference to thirty years ago but with reference to today. Now, I know, from the experience of old fishermen and old coasters, that the currents are not the same as they were some years ago; they are stronger in the spring and weaker in the summer, because in the summer we have a drouth and in the spring a great flow of water, neither of which we had to an equal extent in former years, and both of these have an effect upon the currents in the gulf and the river as well as upon the tides. I do not think the Government will be opposed to this application made by the people of the Lakes and of the Eiver St. Lawrence, because this is a matter of necessity. Some people may say that we have our surveyors and civil engineers in this country, whom we send to make plans of any changes on our coasts. That is true; but these plans are useless for the hydrography of this country, and if they were sent to England they would not be accepted by hydrographers, because hydrographical surveying is done on an entirely different principle from common surveying. In order to show the extent of the dangers on the St. Lawrence in the fall, owing principally to the currents, I will cite the rates of insurance charged on ships and cargoes from Quebec to ports in Great Britain:	June, July and
August, 1J to 1J per cent.; August 31st to September 15th, If to 2f per cent.; September 15th to September 30tb, 2\ to 3f per cent.; October 1st to October 15th, 3£ to 4J per cent.; October 15th to October 31st, 4J to 5J percent.; November 1st to November 19th, 5^ to G‘| per cent.; after November 10th the rates change daily, according to the appearance of the weather. I could bring many competent witnesses, to show that the dangers of navigation in the lower parts of the St. Lawrence and of the maritime coasts would be greatly lessened if the waters were surveyed again by hydrographical surveyors, and the currents laid down on the charts as they really exist. I do not wish to detain the House; I think the importance of this matter will be ai predated by the Government, and I hope and believe they will induce the British Government to take acti'on in the matter, because most of the vessels coming here ai*e British vessels, manned by English sailors. We have young men studying in the Military College at Kingston, and it is said that many of them, when they get out, go to the United States or elsewhere. Some of these young men might be employed in this country. We might have our own hydrographical department, and when England will be convinced that our own people will be able to make the hydrography of this country, she will allow us our own hydrographical department, and she will accept our work as she did in the case of the Board of Examiners for sailing masters and mates.
I hope the Government will do their best to bring about this very desirable object.
Mr. DAWSON. I am very glad indeed to see that the hon. member far Gaspe, in bringing this very important matter before the House, has not forgotten the great lakes. It is certainly very necessary that a hydrographical survey should now be made of these lakes, and, as the hon. gentleman has suggested, it should be made in connection with the Admiralty in England. It is now a long time since the first survey was made of these inland waters by Captain, afterwards Admiral, Bayfield, and he certainly did wonders at tho time, considering the means at his disposal, and that the country around was then an unknown region. It is not to be wondered at that a good many shoals have since been discovered that were not known in his day. He had chiefly to I rely for information on the Indians who coast along near the J
shores, very seldom venturing 'far out with their little canoes into these great inland seas. Latterly, and for some years past, there have been discoveries of shoals in the Georgian Bay and also in Lake Superior. It is very desirable these shoals should be laid down on the charts. The American Government, within the past few years, have made a most careful hydrographical survey of the United States side of these lakes. Every shoal is marked as well as the sounding. The shipping on the great lakes is increasing. As I said the other day, no less than 2u0,000 tons of shipping were entered at the port of Prince Arthur's Landing in Thunder Bay during the past summer. New steamers are being built constantly. I may mention that the Messrs. Beatty, of Sarnia, who have taken a great interest in the great lakes, and laid out their capital in building ships, have now the largest and finest steamer ever used in these lakes, nearly completed at Sarnia. In view of the immense amount of money being invested in shipping, and the great interests at stake, I certainly join with my non. friend from Gaspe in recommending to the Government that a survey should be made.
Mr. MoLELAN. The papers in connection with this matter will be brought down as speedily as possible. I will say to the hon. gentleman who called for them that I am not aware, since I took the Department of Marine and Fisheries, that any communications have been forwarded to that Department respecting the navigation of the St. Lawrence, except those forwarded by the hon, gentleman himself a few days ago. When the information was given to the Department that in the lakes there were certain shoals, not laid down in Bayfield’s chart, I at once took the necessary steps to have a hydrographic officer to take charge of a survey on the inland waters, for the purpose of having anything he might discover laid down on the charts already existing, so that they might be rendered as valuable as possible. Both the hon. gentlemen who have spoken have not over-stated the importance to the country of having the charts by which the gulf and lakes are navigated made as perfect as possible ; and I think the hon. gentleman who moved for the papers, and who has made many valuable suggestions respecting the navigation of the St. Lawrence— in fact all the hon. gentleman’s suggestions have been of great value to the country—will admit the Government has always shown its willingness to put in practice the suggestions he has made. Many lights have been added, fog alarms and whistles have been placed at different points, and telegraphic communication furnished, nearly throughout the length of the gulf. If anything be wanting to make the navigation of the St. Lawrence more safe than it is, the Government will not be slow to do all that is necessary. We have had an answer to our enquiry, and have been informed that an officer of the Hydrographic Society has been ordered to place himself in communication with us to perfect plans for a survey of the inland lakes.
Motion agreed to.
Sir LEONAED TILLEY moved the adjournment of the House.
Motion agreed to; and (at 4:15 o’clock p.m.) the House adjourned.
84:
COMMONS DEBATES.
February 28,
HOUSE OF COMMONS,
Wednesday, 28th February, 1883.
