 at Three o’clock.
Prayers.
MESSAGE FROM HIS EXCELLENCY.
Mr. CHAPLEAU presented a Message from His Excellency the Governor General. *
Mr. SPEAKER read the Message, as follows :— LANSDOWNE.
The Governor General transmits to the ET »o3e of Com 11003 the Report of the Royal Commission on Chinese Immigration, and the evidence taken thereon.
Govrrxmbnt Housb,
Ottawa, 24th February, 1835.
PATENT ACT AMENDMENT.
Mr. McCARTHY moved for leave to introduce Bill (No. 64) further to amend the Patent Act of 1882. He said : The purpose of the Bill is to add several clauses to the 23rd section of the Patent Act of 1872. That section gives to the Minister of Agriculture or his Deputy power to hear complaints with regard to the manner in which the licensee of a patent has fulfilled some of the conditions under which the patent has been granted, and it purports to make the decision of the Minister absolute and binding. Now, Sir, I much doubt the power of this Parliament to pass such a clause as that at all. It appears to me that it is a matter which concerns civil and private rights, and that it should be more properly left to the legislation of the Provinces. But if it is the law I think it is well that there should be some power given to the Minister to examine witnesses under oath, which he has not now ; to compel the attendance of witnesses, and to compel them to produce documents that may be necessary to the proper adjudication of the matter. Further, I think there should be some appeal from the Minister’s decision, and I propose that the appeal shall be to the Supreme Court. I introduce this Bill knowing that from the strong views which the Minister entertains as to his powers under the Act, it may be impossible to get his assent to the abolition of that power, but I believe that the judicial and the executive power should be separate, and I will gladly accept any amendment which may be proposed to my Bill which will have the effect of doing away with the power the Minister has under the Patent Act of 18*72. In the meantime I move the first reading of the Bill.
Mr. BLAKE. I am sorry to hear the hon. gentleman give such au account of the autocratic habits of the Minister of Agriculture.
Mr. POPE. I am sure I will have the support of my hon. friend opposite since I am to lose the support of my hon. friend from Simeoe (Mr, McCarthy),
1885
COMMONS DEBATES
285
Mr. BLAKE. That shows that the hon. gentleman thinks the Minister knows as much cf law as X think he does of railways.
Motion agreed to, and Bill read the first time.
CANADA TEMPERANCE ACT AMENDMENT.
Mr. McCARTHY moved for leave to introduce Bill (No. 65) to amend the Canada Temperance Act of 1878.
Some hon. MEMBERS. Explain.
Mr. MCCARTHY. The object of this Bill is to permit those persons who, by the Canada Temperance Act, are authorised to sell in the county where the Act is in force— but not to sell to persons in that county—to sell in that county. The law now stands in this way : That those who are authorised to sell, such as distillers, brewers, wholesale merchants and others, may sell, provided they sell to persons who will take it out of the county, and those who live in the county where the Scott Act is in force may buy it outside and bring it in. It appears to me that this is a manifest absurdity, and I propose to permit those who have a right under the Act to sell, to do so to those who reside in the county, as well as to those outside.
Sir RICHARD CARTWRIGHT. Is there any limit as to quantity ?
Mr. McCarthy. The same as in the Act-ten gallons as to one class, and eight gallons as to beer. I do not make any alterations except the one I have spoken of.
Mr. BLAKE. The hon. gentleman seems to be much disposed to amend the Scott Act. Does he not think that he had not better turn his attention to amending the McCarthy Act ?
Mr. McCARTHY. I may satisfy my hon. friend by saying that there is a clause or two in that direction also.
Mr. BLAKE. My hon. friend’s modesty prevents him from saying how far he will amend it.
Mr. McCARTHY. It is only a small part of the Bill.
Motion agreed to, and Bill read the first time.
INSOLVENT BANKS, INSURANCE COMPANIES, &o.
Mr. EDGAR moved for leave to introduce Bill (No. 66) to further amend an Act respecting insolvent banks, insurance companies, loan companies, building societies, and trading corporations.
Some hon. MEMBERS. Explain.
Mr. EDGAR. The object of the Bill is to make provisio a that clerks and other employees of insolvent companies shall have three months’ privilege over other creditors for arrears of wages. This was a provision of all the Insolvent Acts which this House has passed, and I do not see why it should be left out of an Act providing for the winding up of insolvent corporations.
Motion agreed to, and Bill read the first time.
TRANSFER OF BATTERIES.
Sir RICHARD CARTWRIGHT asked, Whether it is the intention of the Government to transfer the battery now s ationed at Kingston to Quebec ?
Mr. CARON. I beg to state that it is the intention of tue Government to transfer “ B ” Battery, now at Kingston, to Quebec, and “ A ” Battery, from Quebec to Kingston.
CABINET REPRESENTATION OF BRITISH COLUMBIA.
Mr. SHAKESPEARE asked, Is it the intention of the government to make provision for the Province of British
Columbia to be represented in the Cabinet ? If so, at what date ?
Sir JOHN A. MACDONALD. I beg to say that the Government has not yet come to a conclusion on that subject.
ABSENTEES IN THE CENSUS OF 1881.
Sir RICHARD CARTWRIGHT asked, Is it in the power of the Government to ascertain how many persons out of those returned as forming the population of Canada accords ing to the census of 1881, were absent from their residence -at the time the said census was taken ?
Mr. POPE. It is not.
PAYMENTS TO G. M. CLARKE.
Sir RICHARD CARTWRIGHT asked, What sums (apart from his salary as county judge) have been paid to G. M. Clark in each of the years 1»79, 1880, 1881, 1883, and 1883 respectively ? And for what sorvices in each year ? Also, what sums, if any, have been paid to him from the 1st July, 1884, to the date of this enquiry ?
Mr. POPE. I am not in a position to answer that off hand. If the hon. gentleman will move an address, the papers will he brought down.
CANADIAN PACIFIC RAILWAY-PROGRESS
.	ESTIMATES.
Mr. EDGAR asked, How is, the figure of $5,100 per mile given in the progress estimates of the Eastern Section of the Canadian Pacific Railway as tl rails as per standard ” made up ? What tonnage per mile is allowed for rails and what for fastenings ? What prioe for each and how much for haulage in addition to the prices ?
Mr. POPE. The $5,100 “ rails, etc., as per standard,” is made up of rails and fastenings, $3,207; sleepers, $683 ; track laying, $210; ballasting, $300; station building and water service, $400; engineering and superintending, $300. There were 97 60 tons of rails, and 7*40 tons of fastenings, making a total of 105, giving one-half allowance for siding. The price of the rails and fastenings was $30.
QUEBEC PROVINCIAL SUBSIDY.
Mr. LANGELIER asked, Whether advances have been made to the Government of the Province of Quebec since the 1st July last, on account of the provincial subsidy or otherwise ; and, if so, when, to what amount on each occasion, and on what conditions ?
Sir LEONARD TILLEY. There have been no advances made to the Government of Quebec since the 1st of July.
REPORT OF CHINESE COMMISSION.
Mr. BLAKE. I desire to call the attention of the Secretary of State to the fact that the report which he has just laid on the Table of this House was laid on the Table of the other Chamber of Parliament yesterday. As we have the advantage of having present in this House the Secretary of State and one of the commissioners, I think we might at least have expected that the report would be presented to us as early as to the other Chamber, and I do nob very well understand how this could have have arisen unless the hon. gentleman entrusted the report to the postmaster.
Mr. CHAPLEAU. No one regrets more than myself that this has happened. 1 received a Message from His Excellency conveying the report last evening, but I did not want to interrupt the proceedings of the House, and intended to present it at the end of the sitting ; but, unfortunately,
236
COMMONS DEBATES.
the adjournment was proposed and carried before I could do it.
Sir JOHN A. MACDONALD. It was evidently my fault. I moved the adjournment too quickly.
Mr. BLAKE. 1 noticed that the hon. gentleman was very anxious to move the adjournment, but I think this report was presented to the Senate in the afternoon. They did not sit after six o’clock.
COMPENSATION TO BREWERS AND DISTILLERS.
Mr. KRANZ moved that the House resolve itself into committee to consider the following resolution:—
Resolved, That it is expedient whenever Parliament decides that a law prohibiting the importation, manufacture and sale of intoxicating liquors for beverage purposes should be enacted that equitable provision should be made for the compensation of brewers, distillers and malsters, so far as respects the diminution in value of the real property, premises and plant owned and used bj them in their business.	*
He said : In rising to move the resolution in my hand, I desire to say that the principle expressed in it, the principle of compensation to those who are prevented by law from carrying on their business, is one so fair and just that I think it requires only a very few words on my part to recommend it to the unprejudiced consideration of this honorable House. It may be said that it is rather premature to move a resolution of this kind at present, when there is no legislation in favor of total prohibition before the House; but a large industry has been so much disturbed by the adoption of the Scott Act aDd by the great number of petitions presented to Parliament every day asking for total prohibition—that those engaged in this industry wish to have at the earliest moment an expression from this House as to what are their vested rights in their property. The industry of the manufacture of liquor, and especially beer, is a very large odc. There are about 200 breweries, distilleries and malt houses in Canada; the capital invested in them is over $ i2,000,000, and the number of hands employed about 2,500. Already, wherever the Scott Act is put in force, this business is practically prohibited, and 1 think it is not more than fair and right, whenever a man’s property is taken away from him in the interest of the general good, that he should be compensated. Not being a lawyer, I am not able to give a legal definition of vested rights; but it appears to me, as a layman, taking a common sense view of the matter, that a business which has been lawfully carried on for centuries, a business which has been carried on in this country with the consent of the Government, and which has yielded a large revenue to the Government who gives a vested right to those who invest their money in it. It may be said that their right is only a permissive right; but I believe their right'is as perfect as that of anv other manufacturer. It is true, they manufacture under a license, but the license given to a brewer or a distiller, or a tobacco manuiacturer, or an auctioneer, is not a restrictive license. It is not imposed in order to restrict him in the prosecution of. his business, but it is a license to produce a revenue to the Government ; and let me tell you, the revenue derived from the industry of liquor manufacturing i» a very large one. It amounts to about one-sixth of the total revenue of this country. If I am correct in this, every member of this Houso draws a certain percentage, while he draws his indemnity here, of the money which has been collected in the manufacture of beer and whiskey. It is beyond doubt that the majority rule in this country, and if in the o inion of the majority it is necessary that, for the general good and prosperity and morals of the people, the carrying on of a certain industry should be prohibited, well and good. Let the majority prohibit it, they have the right to do so, bnt they have no right to take away a man’s property without compensation. Certainly pnblic morality, commercial Mr. Chapliao.
February 25,
morality will not be furthered by an act by which you take away a man’s property without giving him proper compensation. I hope I have clearly shown that this is a question which ought necessarily to be debated in this House, it is a burning question, and I hope hon. members will consider it calmly and without prejudice.
Mr. WELLS. I am glad, Mr. Speaker, to have the opportunity of seconding the resolution of my hon. friend. The only thing I find fault with in it is that, in my humble judgment, it hardly goes far enough; I should have been better pleased had it made allusion to another class which I consider have been harshly dealt with by this Parliament—I mean the licensed victuallers. But taking the resolution as it is, I think that inasmuch as it is simply an affirmation of the old constitutional axiom that private property shall not be taken by the authority of Parliament for public use, unless it is paid for, it ought not to require any great effort to induce this Houso to formally adopt it. I am sure if my hon. friend had simply moved a resolution affirming the abstract principle, without relerriDg to any particular class or interest, it would have received the support of every member of this House; I do not imagine that any member, if such a motion had been proposed, would have risen to say that he could not conscientiously support it, so long as under any contingency it covered the case of a brewer, a malster or a distiller—and that with respect to that class he was willing to give tho right to expropriate, but no right to compensation. Of course, Sir, in a purely technical sense, the property of a brewer or a distiller would not be taken under the operation of a prohibitory liquor law The owner would still have the legal ownership of his property. He would still have the satisfaction of calling it his own, although he would be prohibited from using it as a brewery or distillery; and although the result so far as he is concerned would be precisely the same as if the property itself were expropriated. Now ought that circumstance to make any difference? I ihink not. We know that under the laws applicable to the expropriation of property the owner is entitled to compensation even if his property be only injuriously affected. It is not necessary that it should be taken or even touched. For instance, if the Government under the Public Works Act, or a municipality under the municipal laws, or a railway company under its charter, injuriously affects the approach to a property, no matter whether that property be a church or a tavern, th> owner is entitled to compensation for its diminished value. Now, is there any difference between that case and the present ? Is there any difference between the case of a brewer’s right to compensation, because the free ingress and egress to and from his property is interfered with by a railway, and his right to compensation because he is forbidden by an Act of Parliament from using it altogether ? If there is a difference, it must be purely technical and not reasonable or substantial. I know that a great many good and earnest men look upon this as a matter of conscience, and they say that under no circumstance will they consent to a compromise with the devil on the whiskey question, that the war that they are engaged in is a war of extermination, and that they will neither take nor give quarter. Now, while we may have great respect for the opinions of these men, because we know them to be sincere, I do not think that that is an argument which can be fairly addressed to Parliament. It is our duty, I submit, simply to enquire what is the legal status of these men who are engaged in the manufacture of befer and spirits, and to apply the same rule to them that we would apply to those engaged in the manufacture of any other article of commerce* If you make any distinction at all, you must put it upon an intelligent and intelligible principle. It seems to me that you will be driven to say that in no case where the trade is pernicious or dangerous
1885
COMMONS DEBATES
237
to the public health, compensation can be allowed. In that case, Sir, the manufacturers of tobacco, according to some, the manufacturers of confectioneries, according to others, would be under the ban, and scores of other industries. I firmly believe that measured by the harm which tobacco has done to the human race it has as much to answer for as alcohol. Of course that is a mere matter of opinion, but when one considers not only the constant but the universal use of tobacco as compared with spirits the aggregate amount of harm it does must bo enormous. At all events as between the two, it is only a ques< ion of degree. The argument, therefore, that we are now dealing with—the conscience argument—seems to me to be an argument for particular occasions; it does not seem to be an argument for every day. For instance, to use the illustration 1 have already referred to,if a railway company comes to this House and asks for powers to run their track through a brewery, or if we require for departmental purposes certain tavern premises in this city, would any hon. member say that he would grant the powers, but that, inasmuch as the trade is a pernicious one, he would deny the compensation ? Yet all the surroundings of the two cases are just the same. In both, you require Parliamentary authority ; in both the object of the expropriation is for the public advantage ; in both the kind of property injured is exactly the same ; in both, the injury is the same. Surely, if it offends the conscience of any man to grant compensation in a case where the owner of property is injured under a prohibitory law, it must offend his conscience also to grant it where the pro* perty is injured under the Public Works Act. Surely, it is a matter of small consequence to enquire in what way Parliament has authorised the injury to be done ; whether by burning it up or pulling it down ; whether by running a railway through it, or cutting off all access to it, or hermetically sealing up its doors. What difference is there between putting up a barrier or an embankment so that the public cannot get at a particular property, or passing a law which makes it a crime to do so? The only substantial question, in my humble judgment, is : Ought Parliament in any case to authorise the destruction of property even for the public good without requiring full and complete compensation ? A great judge, Chancellor Kent, laid down that principle in these words :
“ The settled and fundamental doctrine is that Government has no right to take private property for public purposes without giving just compensation and it seems to be necessarily implied that this indemnity should in cases which will admit of it, be previously and equitably ascertained and be ready concurrently in point of time with the actual exercise of the right of eminent domain.”
I admit that, in somo of the States of the neighboring Kepub-lic, they have in their prohibitory liquor laws violated this great charter principle, but I am one of those who believe j that there are higher models for this Parliament to imitate than some of those State Legislatures, and I think that, when we do resolve to imitate them, we would do well not to imitate them in a case which overturns one of the oldest and best constitutional principles, especially when we find what the opinion of some of their own great constitutional writers is npon this subject. Mr. Cooley, in his work on “ Constitutional Limitations,” says:
“ Perhaps there is no instance in which the power of the Legislature to make such regulations as may destroy the value of property wiihout compensation to the owner appears in a more striking light than in the case of these statutes. The trade in alcoholic drinks being lawful and the capital employed in it being fully protected by law, the Legis -lature then steps in and by an enactment based on general reason of public utility annihilates the traffic, destroys altogether the employment and reduces to a nominal valne the prope ty. Even the keeping of that for the purpose of sale, becomes a criminal offence; and without any change whatever, in his own conduct, or employment, the merchant of yesterday becomes the criminal of to-day and the very building in which ne lives and conducts his business—which to that moment was lawful— becomes the subject of legal proceedings if the State bo declare, and liable to be proceeded against for a forfeiture.’ ’
But what must we think of a measure, which in addition to making the “ merchants of yesterday the criminals of to-day,” proceeds to confiscate his property. Sir, I hope, and I confidently believe that no British Parliament will ever do that. Mr. Speaker, I intimated a few moments ago that many excellent and earnest men have conscientious scruples about rewarding such “ bad men ” as brewers and distillers. That very argument arose in the celebrated debate on the abolition of slavery in the West Indies fifty years ago. There was a conscience party then as there . is now, and as I hope there always will be, who said : How can we, who believe that slavery is the vilest and wickedest of all vile and wicked things, consent to compensate the slave owners; they said, moreover, that there could be no such thing as property or the right of property in human flesh and- blood, and that they would never consent to compensate a man for giving up what ho oould not own. The House will see what a great difference there is between that case and the present one. There is in the first place the great contrast between the two trades, that of the slave owner and that of the brewer; and in the second place, there is the argument to which I have alluded, viz , the right of property in human flesh and blood. Yet that argument made absolutely no impression whatever upon the Parliament or the people of England. It was felt to be altogether too theoretical—too sentimental for practical purposes. If the House will allow me for a moment, I will quote what Lord Sandon said during the debate on tho subject:
“ The right of property, I know, is often denied. The possibility of property in man may be a fit subject of discussion for the schools. I do not deny that it is vicious and mischievous property, but that it is property in the light in which we as practical men consider it, I fearlessly assert, as an abstract principle it cannot be disputed; but such as it is, it has been recognised—nay, created—by Parliament itself, and having been so recognised and so created Parliament we cannot, without the grossest injustice, affect to consider it no longer as property for the purpose of extinguishing it without compensation. If the right of property is to be extinguished on these abstract principles, what species of property will not soon be in danger?”
Now, Sir, I have never heard from that day to this any serious disapprobation of what England did on that occasion. I know that Wilberforce, only three or four days before his death, thanked God that he had lived to witness the day when England was willing to give £20,000,000 sterling for the abolition of slavery. Now, if it was right to compensate a slave owner for his right of property in the flesh and blood of a fellow creature, it must be a fortiori right in the case of an owner of a brewery or a distillery. Their business has, to use Lord Sandon’s words, “ not only been recognised, but created by Parliament iteelf, and Parliament cannot without the grossest injustice affect to consider it no longer as property for the purpose of extinguishing it without compensation.” The Brit;sh nation gave $100,000,000 for the abolition of slavery, and the civilised world has a thousand times since not only commended their humanity to the slave, bat their noble recognition of the great principle that nothing, not even the unspeakable horrors of slavery, will justify the State in destroying private rights and property without compensation. Now, I do not think it is useful or even possible to put the case upon higher grounds than that of justice to the manufacturer himself.
I observe, however, that a petition was presented to the First Minister the other day at the Opera House from the bankers and loaning companies of Toronto, which set forth how seriously the passage of the Temperance Act has damaged their investments, and the ability of their debtors to pay, and praying for relief. Now, however reluctant any one may be to compensate a man who has himself been engaged in what he may consider a pernicious business, I do not believe that any member of this House will go so far as to put under the ban every man and every institution that in the ordinary coarse has a lien or mortgage upon this particular kind of property. They certainly are entitled to our protection.
238	COMMONS
They certainly have done nothing wrong; It has been said that this resolution is premature, and that it is time enough to consider the question of compensation when we are called upon to consider the question of prohibition. I do not agree with that suggestion. The petition to which I have referred itself shows how necessary it is that something should be done at once either to forewarn these people on the one hand or to reassure them on the other, as to what they have a right to expect. We know that petitions for prohibition are pouring in upon us by the hundred from every quarter, and that they indicate very clearly an organised determination to force a prohibitory law upon the country at the earliest possible day; and unless something is done at once by this House to settle the public anxiety upon this question we will have, during the coming year, a very great amount of unnecessary distress and a very serious derangement of business. 1 have often heard it said that the men who -are engaged in this particular trade are very bad men, and that if they suffer loss they deserve punishment, and therefore have no right to be compensated. We have often heard temperance orators declare in their wrath that brewers, distillers, saloon keepers and tavern keepers are all the servants and agents of the devil—that they are moral outcasts—and deserve no consideration at the hands of the avenger. Of course we know, happily, that these gentlemen do not mean quite all they say, for I have heard it also openly declared on more than one occasion that even moderate drinkers are just as bad, if not worse, than the others, because if there were no moderate drinkers there would be no brewers or distillers. In that case, Sir, I fear that a good many members of this House are in a bad way. Perhaps, Sir, wo may even be presided over by a moral leper. But are all who are engaged in this trade equally guilty ? Are they all Reserving of the same punishment? Are there no degrees in their guilt? Are there no extenuating circumstances in the case of any ? I know a man,—a quiet, unassuming country storekeeper—who has spent his life in doing good. What his private charities may amount to, I do not know, for be has olton given anonymously and always unostentatiously ; but I am safe in saying that they amount to a sum which without exaggeration I may call munificent. In fact, Sir, I do not know of any man who lives a better life, a purer life, a nobler life, or a more religious life, and yet, Sir, this hideous creature owns a brewery. Perhaps I may explain, in extenuation of his fault, that he was obliged, about two years ago, to take it in payment of a debt, and that having got it, he was obliged to spend a large sum in improvements. Well, Sir, the passage of the Temperance Act in Bruce has made this property actually valueless; for, Sir, the House will easily understand that a property of this character in a small country village could not be well adapted for any other purpose. The result has been that this man has suffered a direct loss of, I understand, about $8,000. He has, in other words, been compelled by an Act of Parliament to contribute out of his own pocket $8,000 for the public good, as the majority in his county understand it. Now, Sir, that may be all right, but I do not think so. There may be some code of precepts somewhere which will justify this terrible confiscation of private property, but it seems to me it is a code which is a little too severe, a little too Draconian for modern times. I give this individual case—and I will he happy to give the name of my friend if any one desires to verify the facts—only to show how impossible it is with any regard to justice to apply one rule and measure of punishment to all who are engaged in this particular business. Now, Sir, no one can fail to recognise the earnestness of those good men and women who are engaged in this great temperance movement, and no one for a moment doubts their sincerity; but whether they are wise—whether they are the true friends of their own cause in carrying on this war Mr. Welps,
DEBATES.	February 25,
of extermination is another matter. “Firmness with moderation ” seems to me a far better motto for a temperanoe party than “ war to the knife.” They must not forget that the enforcement of the Scott Act will prove a much more difficult task than carrying it. The leaders of this movement must remember that the majorities they have obtained here and there do not indicate the real, permanent strength of the movement. There are thousands and thousands of men who, like some of those I am now addressing are moderate drinkers—who do not therefore belong to what is called the temperance army, but who were willing to give the Act a fair trial. And these men will certainly judge of the Act according to the result in their particular localities, and if they find these result to be unsatisfactory, they will certainly vote against the Act at the very first opportunity afforded them. This large vote is really the vote which has carried the Act, and is really the vote which will determine whether the law is to be a permanent one or not. The same thing occurs in this House. There are, no doubt, many cases in which votes have been carried in this House for the temperance cause which really do not indicate the real, inherent, permanent strength of the temperanoe movement, nor the personal views of hon. members. The truth is that many of us, most of us indeed, find ourselves in a rather ticklish position in respect to what is called the temperance vote. We have adherents and friends on both sides of the question, and we are naturally very anxious to please them both; we coaid indeed be “ very happy with either were t’other dear charmer away.” The Government also are in the same position. They too, would like to “ run with the hare and hunt with the hounds,” and they are doing their very best to do so. But in the motion now before the House I see no cause for embarrassment to anybody. It declares nothing antagonistic to the temperanoe movement. Indeed, I think it will materially assist it, if those who are engaged in it will only be moderate and just, and do as they would be done by. For my own part I think I am doing right in supporting this resolution. I am not afraid of my friends in the County of Brace, no matter how pronouncod or how much in earnest they may be on this question. I am certain that they do not expect me to be, and do not want me to bo, a better man or a more severe moralist than Wilberforce and the other philanthropists who carried the abolition of slavery in England 50 years ago, and I am willing, at all events, to let them judge of me in this matter and to accept their verdict. I repeat that I think I am doing what is right and fair as between man and man in supporting this resolution. I believe that it is contrary to law, to justice and to constitutional usage to forcibly deprive any man of his property without making fair compensation, and I believe that the triumphs of the temperance party cannot be permanent if this great fundamental principle of justice is disregarded. At all events, Sir, we nave a noble example in the case to which I have alluded, and I think it is an example which ought to be followed by the Parliament of Canada.
Mr. ORTON. The motion before the House is one which has emanated from the fact that the Scott Act has been advocated throughout the length and breadth of this country. One result of that agitation has been wholesale distress and ruin to a large class of our people. There is no right feeling member who is not in entire sympathy with the object of the Scott Act. The indignation felt by the right minded people of this country with respect to the cruel wrongs that have resulted and are resulting day after day from the improper use of, the abuse of, alcohol and other stimulants, is felt by every hon. member. I believe there is no right thinking individual here or outside of this House but is in entire sympathy with the temperance body, in entire sympathy with the object of the Scott Act. So far
1885
COMMONS DEBATES.
239
we are all united; but as to the proper means of attaining that great and good object, the removal of the evils of intemperance, great and wide differences of opinion exist. We have been accustomed in the past to believe, a large portion of those who have had the privilege of living under the .British flag have been accustomed to believe, that the force of precept and example and the influence of religious teaching were the right and correct means of correcting all forms of immorality. A large portion of our people have believed with respect to this question, and still believe, that the evils of intemperance can be stayed more effectively and more certainly by a continuance of those means, supplemented by such restrictions as license Jaws and the inspection of the articles used by the people. We are encouraged in that belief by the fact that a very great deal of good has resulted not only to this country but to Great Britain and other countries, by the earnest faith and belief in the adoption of such a mode of staying this evil. But there are others who have departed from the old means, and believe that the people can only be made good and moral by an Act of Parliament. They have lost faith in the efforts they have exerted in the past. Temperance societies in former days have done, and I believe are still doing, a great deal of good by earnest teaching and example. But 1 say they have lost faith in those means, and they have formed an alliance to force on the poople of this country coercive measures to make them moral and to stay the evils of intemperance. Sir, I do not know whether hon. members of this House have carefully investigated the principles which are, as it were, set at nought in the Scott Act—principles upon which we believe that the freedom of the people of Great Britain depends so largely—‘principles upon which the good which the British Government has done to the world depends so largely. What are those principles ? One principle is that under the British Government justice shall be done to all classes of our people, from the highest to the lowest, to the humblest individual in tho community as well as to those who occupy the highest positions and are surrounded by wealth. Another principle is that vested rights, the rights of property, shall be respected. Another principle is that if the public welfare desires the property of an individual of the community, that individual shall be paid for it, and the whole community shall bear the burthen of making that payment. Another principle is that individual liberty of action shall not be interfered with, unless injury is done by that individual to his fellow man ; and it is always considered that this principle should not be transgressed without grave reason. I invite the attention of hon. members for a few moments, and I ask why are these principles the chief corner stone of the grand edifice of human freedom which has been raised under the British flag ? The first of those principles is justice. Mr. Speaker, justice properly forms the main corner stone of all Governments. Why ? Because we believe the British constitution is based on religion. We believe we are living in a Christian community, and we know that justice is the highest attainment the Christian can arrive at. We are told that the throne of the Almighty is surrounded by justice and judgment, and we believe the objects to be attained by all religious services are that men may learn to act justly one toward another. Now, Sir, I would ask hon. members to consider for a moment whether the great principle of justice has been observed in the Scott Act. Sir, under that Act the property of individuals is being despoiled. From time immemorial, as long as Great Britain has existed, and long before the British Empire was formulated, stimulants of one kind or other have been used by the human race, and it has never been asserted that it was wrong that such should be the case. Property has arisen under the custom of using those stimulants ; men have engaged in undertakings by which they have accumulated property ; they have worked hard, and have saved, and have become the possessors, and the
honest possessors, of a means of livelihood, and perhaps some of them of more than a means of livelihood. I need only point you to the enormous structures in Great Britain, the large breweries, and to the honors which are given by the British Parliament to the men who have accumulated wealth and honor in the manufacture of ale. Sir, in Great Britain they have been knighted in honor of tho distinction they have attained from their industry and carefulness in that kind of industry, as well as in others.
Mr. BLAKE. Hear, hear.
Mr. ORTON. The leader of the Opposition sneeringly says, “ hear, hear.” However, I will ask the hon. gentleman to have patience and listen to my remarks, or if he does not desire to listen, he will perhaps try to treat me, at any rate, with some courtesy. Under the Scott Act, Sir, property of this kind is being confiscated. Men who have invested their money in erecting breweries, in building malt houses, in manufacturing the various implements which are required in these establishments, are, under tfie operation of this Act, having that property rendered valueless* That Act goes further, and it debars them from selling their article in the county in which it passes, so that it virtually destroys their property. Now, Sir, I maintain that that is not justice. I maintain that it is not just that these men, who have pursued an honorable course in life, who have industriously followed their calling, who have not been drunkards, who have not assisted in making men drunk, should have their property taken away from them and destroyed, even for the good of the state, without compensation. Sir, I believe that under the Government under which we live vested rights should be respected, and the rights of property should not bo thus invaded. The Scott Act does invade vested rights in property, and renders it valueless. It has been said that the state does the same thing in many other particulars, as when a charter is granted to a railway, the rights of property of a stage owner or a steamboat owner are destroyed. But not in the same way. He is not debarred from following his occupation. But under this Act those who have built a house for the entertainment of the public under the belief that they can pursue their calling as they have in the past, are debarred from pursuing that portion of their business, and their property is being destroyed. We all know that stage owners can continue, if they like, to drive their stages, and if they do not pay it cannot be helped; but under this Act no proprietor of a hotel or other hostelry can pursue his calling; he is debarred entirely from doing so, and, therefore,
I say, it is an entirely different state of affairs. And, Sir, I say that the principle of compensation to individuals if they are called upon to sacrifice their property by the State for the good of the public, is nothing more than right and correct. Does the Scott Act afford any means by which the individuals who are willing, perhaps, to sacrifice their property, and are desirous of sacrificing it for the public good, if it is in order to try the experiment, rather than to be supposed to stand in the way of any good, and are ready to destroy their property—I ask, does the Scott Act provide any means by which the public at large shall bear the burdens of the loss ef that property—of that right which the individual may be even desirous to renounce for the benefit of the State, if he is only fairly remunerated therefor ? Now, Sir, with all this sacrifice of principle involved in this Act, let us consider for a moment is there any possibility of any great good resulting from the continuation of that Act in the various counties in which it is passed, or in passing it in other counties in which it is not in force. We know that in the County of Halton, near which I have lived for many years, the effects of the adoption of this Act have been anything but of a moral character. The moral tone of the people of that county has not boen elevated.
240
COMMONS DEBATES.	February 25,
Instances have occurred there in which deliberate and wholesale perjury has been committed by people to uphold the illegal traffickers in stimulants. Why ? Because, Sir, the popular element feels that a great wrong has be9n done to the people who were engaged in the liquor business by the destruction of their property. They sympathise with them, and they believe tnat where a great wrong is done, even by a Government or a people, people are not to be blamed for ignoring the law under which that wrong is done. Sir, I think that any candid individual from any part of the country where that law has been put into operation, will agree with me that it has not had the effect which was expected from it. It is a well known fact that instead of the people having the opportunity of indulging in comparatively harmless beverages, such as beer and wine, the only stimulants that they can secure are ardent spirits, and these usually of the most inferior character. In the NorthWest I have had some experience of the workings of a prohibitory law, and what do we find there ? That strong liquors aro kept out of the country ? No; all along the lino of railway in British Columbia, spirits of every description are brought in in wholesale quantities and sold at retail at enormous profits in the face of the law; and notwithstanding that a large body of mounted police are kept there at great expense to the people of this country, and are vigilantly doing their utmost to preserve order and to prevent infringements of the law, they have been powerless to prevent this traffic. Then, Sir, how can we expect that it could be otherwise in a community in which perhaps a large majority of the poople are in sympathy with those who carry that traffic on ? Bata great many will argue that this is only an experimental law, intended to educate the people up to such a position that they will call for a total prohibitory law. Well, Sir, in reference to that matter, though my own individual judgment is not in favor of a prohibitory liquor law, I believe that if legislation of any kind can do any good, a prohibitory law is the only law that can restrain the evils of intemperance. The only pledge ever asked of me in going into Parliament, was as to whether I would vote for a prohibitory liquor law; and I did pledge myself the first time, that though I did not believe it in myself, I would vote for a prohibitory law if it provided for compensation ; and I am prepared to do that to-day—to sacrifice my own individual opinion and to assist loyally our temperance friends in seeing that that law is respected and honored. But, Sir, the question of total prohibition, and of the Scott Act, I think, should to-day command the close attention of every hon. member of this House. I think this tentative Act, the Scott Act, has proved in every form and shape, a lamentable failure. I think, Sir, it has proved more; it is not only creating immorality through the illegal use of ardent spirits, but it is sapping the very foundations of our Christianity.
Some hon. MEMBERS. Hear, hear.
Mr. ORTON. Hon. gentlemen sneer ; but I will show you why J have endeavored to show that the Act is unjust —that it is contrary to the spirit that should actuate a Christian community. I have endeavored to show that from the very earliest history of the world it has never been considered a wrong to use in moderation the fermented juice of the grape ; and I maintain that when the leaders of religious thought use their positions in order to intimidate the people of this country and to influence their judgment by trying to make them believe that in order to be good and religious they must have a law compelling* them, they are sapping the very foundations on which our religious system rests, and they are doing an immeasurable wrong to their own calling. The question of prohibition is one which if seriously considered will bring the House and the Government face to face with various difficulties. The first difficulty is in reference to its Mr. Orton,
effect on the revenue of the country, and I think there is not an honest man here but knows that the Scott Act, if it means anything, means total prohibition. Therefore,
I think it is the duty of every member of the Government and of the House to consider what effect it will have on the public revenue, and whether the loss of revenue can be borne by the people of this country. We have also to consider its effect on immigration into Canada. Sir, it is my opinion that if prohibition is brought into operation in -Canada we shall have very few German immigrants, very few Swedes or Norwegians—those people from northern latitudes of Europe who make the best settlers in this country, but who have been accustomed from their infancy to the use of light wines and beer. I believe, too, that we shall have comparatively few from the British Isles. I know that to-day in the North-West Territories old English settlers are very much dissatisfied because they cannot have their accustomed glass of ale, and are threatening to leave the country.
Some hon. MEMBERS. Hear, hear.
Mr. ORTON. Hon. gentlemen again say, “hear, hear,” as if that statement was not worthy of credence; but if those hon. gentlemen who sneer would take the trouble to go up and interview the settlers in the Regina and Moose Jaw districts, and airthrough that region, they would find that my words are true to the letter. Sir, I think this House ought also to consider the question whether the use of alcohol should be entirely abolished or not—whether it would be to the best interests of the people of this country that that should be done, So far as our knowledge and experience go, it is certain that those people on the face of the globe who have used light wines and beer have been a courageous, a long lived, a generous, and a noble people. We know that there is not a nation under the sun but that uses in some form or other stimulants. The Turk uses his opium, the Chinaman his tea, and in some form or other the wild Indians of North America use their stimulants. They use their herb stimulants and vegetable stimulants which enables them to perform feats they could not do without those aids. We know for a fact that alcoholic stimulants are of use to humanity and that many a human life has been saved by their judicious and proper use. A great deal has been said with regard to the modus operandi of alcoholic stimulants, medical authorities have been quoted on that subject. I regret to say that soiar as regards that portion of the profession to which I belong—and I say it without fear or contradiction—not only the modus operandi of spirits and drugs, but the following of those drugs through the system is any thing but clear, and that our profession are no more able to follow alcohol in its course through the system and state its exact action than they are able to describe the exact action of quinine which is known so well to destroy the ‘poison remittent fever and other diseases. So with regard to other drugs, but we do know that in casos of extreme prostration there is nothing that can take the place of stimulants. Alcoholic stimulants are the easiest assimilated and the most readily applied of all stimulants in cases of extreme depression or extreme shock to the nervous system. I know of cases where men have lived for weeks upon little else but the wine or whiskey which was supplied them as food. I knew a very singular case, that of an insane woman who would not take food into her stomach, who refased food of every kind, and had to be supported by having food injected into her stomach ; and that woman lived upon what? "Why it was found that milk and whiskey was the easiest kind of food for her to assimilate, and for a whole twelve months that food, milk and whiskey, was injected into her stomach three times a day; it was, at any rate* sufficient nourishment to keep her alive, and at- the end of twelve months her reason was
1885
COMMONS DEBATES
241
restored. There are cases occurring day by day in the experience of every medical man where those who have lost blood—when nearly the very last drop of blood has been extracted from their body—have been kept alive for hours, their nervous force supported by the use of stimulants, until sufficient food could be taken and assimilated in order to support life. Therefore, I say that when men get up and say that alcohol is a useless article, that it is of no benefit to the human race, they know not of what they speak. In reference to this question there is one thing that I have remarked on the various occasions upon which the temperance question has been brought before the House. I have noticed that the men who should lead public opinion, who should deliberate upon this great question, who should give this House the advantage of their ripe judgment, are not the men who speak, and a discussion of this question is left to the tale end of the rank and file. I think that that is, at any rate, not creditable to those leaders. I do not refer to the leaders of one party more than to the leaders of the other, but I do say that on this serious question we should have, and the country should have the advantage of their ripe judgment. Is it to be thought that this silence on their part is to be accounted for by the fact that one side or the other are trying to take advantage of this question in order to keep in power or to get into office ? If such is the case, it is sad inded. But I believe that to-day, at any rate, no political capital can or should fairly be made out of the question by either side, and I am glad to see hon. members on both sides ready to discuss it in a fair and open manner ; and I do hope we shall have the benefit of the opinion of the leaders of both parties on this question. We ought to have their opinion as to whether any legislation of this kind is calculated to lessen or increase crime, whether it will create a greater or a less respect for the laws of the country, whether it will increase or decrease the feeling of security in property which exists among our people. I shall not detain the House any longer as there are many other hon. gentlemen who desire to speak on this question, but I will say this, that if hon. membrs are of opinion that the people desire prohibitory legislation, if that is the conclusion they come to, the sooner we have prohibition the better ; but I would say, on the other hand, that prohibition should be coupled with compensation. Isay it not only on the ground of justice but on the ground of temperance ; and I direct the consideration of the temperance leaders in this House to that point. I think it would be better for them and their cause if they would enlist on their side men who are bound by honor, bound by every principle which should guide a man to assist loyally in carrying out the laws, rather than have a large portion of our people estranged from their efforts by injustice and by sympathy with the wrongs done to a portion of our people.
Mr. SPBOULE. In rising to express my views on this question, I do so with some reluctance, knowing that many of my warmest political friends differ from me in reference to the opinions I hold on this subject. It is only from my strongest sense of what I believe to be right and my duty that I feel bound to give the reasons why I am prepared to support the resolution before this House. The resolution expresses a principle which, in my opinion, is this: Have we the right to take away property without giving some compensation for it ? It is a principle which has been acknowledged through all the years of the history of this country and in every part of the British Empire. In asking foreigners to come to this country, they might reasonably ask what advantages we were about to give them provided they became residents of Canada. We tell them that we are prepared to give them protection to life and property, and to hold out as a premium on their industry protection to whatever property they may accumulate in
the oountry. This principle is acknowledged in reference to other questions where the public good is on one side and private interest on the other. It was acknowledged by England when she abolished slavery, and, in that oase, a great evil was effectually done away with without any injustice being done to those engaged in the trade. If this was acknowledged by England and has been acknowledged by all the dependencies of England, if it is the admitted principle embodied in the laws of our country, why should we not support that principle in this House to-day, in reference to a question which is said to be of so great importance to the country. If a man’s property is depreciated in value by a railway passing through or in close proximity to it, he is allowed compensation for the depreciation of his property, because it is admitted that, when the interest of the community requires that his property should be destroyed, it is fair that he should be compensated for it. It is said that a great good will be done to the country by the abolition of the liquor traffic, because it will abolish what is every year imposing a very heavy outlay upon us for the administration of justice. If this be correct, then as a matter of financial policy we should be ready to concede it; if the abolition of the liquor traffic would result in the large saving to the country that is claimed by the temperance advocates, we ought to be prepared to sacrifice a share of our money in buying out the trade. When we find men engaged in binsness who have been respectable members of society, who have always been foremost in enterprise, who have always been ready to give a helping hand in whatever assisted the community, or individuals in the community, who have been living within the bounds of law, and have been recognised as respectable citizens, why should we take away from them what is virtually the accumulation of their industry and economy ; without giving them a recompense for it ? It may be said that those who are engaged in the business hold their tenure of office only for a limited time, as their licenses are granted but for a year, and that at the expiration of the year it is no injustice to take away these licenses. Apply that to every other line. Take the people who are building up ranches in the North-West Territories. When the demands of settlement require that these leases shall be cancelled, the law is that they must be cancelled in the interest of the settlement of the country; but does any one pretend to say, that if the Government have made regulations compelling a man who has a ranche of 20,000 acres to put on one or two head of cattle for every 20 acres of land, and he has invested so much money and has built up whatever is necessary for the purpose of carrying on that respectable business, they may at a moment’s notice at the expiration of his lease, perhaps at the time when he has just completed the requirements of the law and put on the number of cattle demanded, annul that lease and make the man suffer the consequences whatever they may be ? That, I think, would be regarded as most unreasonable. A gentleman at my right has suggested timber limits. There are many lumbermen in this country who have bought extensive timber limits in Ontario upon the principle of the established order of things, and as long as these men pay the royalty and are prosecuting what is a legitimate business, the acknowledged principle of the established order of things recognises that they should be allowed to prosecute that work, from time to time, without being molested. The same principle is involved in all these matters, whether you apply it to the slave trade, which was bought out by England, or to the licenses given from year to year to the brewers, or to the timber licenses given from year to year. The same principle exists equally in one as in the other. What has been the result when there has been a violation of this principle ? We need only look back to the civil war that occurred in the United States a few years ago. They had also to
242
COMMONS DEBATES.
February 25,
grapple with the question of slavery in a free country. They said that, in the interests of the morality of the country, it was important to do away with it. Bid they adopt the same principle as England adopted in the accomplishment of that great work? No; they said: We will do awav with it by one stroke of the pen, whatever injustice may be done, and we will balance the injustice done to the slave trader by the great good done to the country. But what was the result ? A civil war, the most important, the most gigantic, the most destructive ever known in the history of the country, was the result; and not only that, but to-day and for the next hundred years, for the next two or three generations, a large number of the citizens of the States will recognise that, in that method of doing away with the slave trade, a great injustice was done to them, and they will never feel that they have the security for property in their country which the laws guaranteed to them when they came into it. This resolution is not dealing with the general trade. I should be disposed to go further, and to say that those who are engaged in the retail trade should be compensated as well, but this does not go so far, and I am glad to see that it does not, because it would be used as an argument in the campaigns which are being carried on in the country in favor of what is Called the S jott Act. But the resolution acknowledges that, after the people have expressed their opinion by their voice in such numbers as to show that they are in favor of prohibition, those arties who are said to be at the root of the trouble, the rewers, the malstcrs, the manufacturers, who have their trade taken from them, shall be compensated for it. I say, that when these men have been paying large sums into the treasury of the country to support the country, to defray the expenses of legislation and government, and to build up the country when they have their vested rights to the extent of tens of thousands of dollars, it is only right, if we take away from them that property and that business out of which they have heretofore accumulated money, if we believe it to be in the interests of the country to do so, we should be liberal enough, we should be Christian enough in our charity to pay them for the rights we take away; because if we destroy that business so that there is a depreciation in the value of their property—it may be to the extent of $1,000, $2,000 or $10,t00; the principle is the same—it is taking away something from them that represents, in their eyes, money that they accumulated by their hard labor, that they have put into these various enterprises. Holding those views I am prepared to support the resolution. I believe that carried out it will more effectually stamp out the liquor trade in the country than any measure that has been passed through this House for a long time. Why ? Because, when we compensate men for their trade, if there is any violation of the law on their part, there is no sympathy with them. As soon as we pay a man what we believe to be a fair compensation for stopping that trade, if be endeavors to continue it alterwards the whole country would be against him, almost to a man ; and public opinion being then strong against the business it would be much more easy to stamp it out than it is at the present time by the Scott Act. I say I am prepared to support this principle and shall be well pleased to see it carried. I am glad to find that it is not recognised as a party question. 1 think that these things too often fall into the arena of party, and very great injustice is done thereby; that because one party takes it up and endorses it, therefore the other must oppose it. I endorse the expressions of the hon. member for Wellington (Mr. Orton). I think it is a great pity that the leadens of opinion in this country are not now ready to express their views and their judgment on this very important question, for as long as they hold back as a matter of policy, the country will not be in possession of what might be called the Mr. Spboulx,
ripe opinions of the foremost men on this question, and it is left to others, who might be termed subordinates, to endeavor to force the question upon them, and obliges them to support either one side or the other.
Mr. FISHEE. I rise to move an amendment, and perhaps I had better read it as an introduction to the remarks I am about to make:
That all after the word “that" be struck out, and the following b9 inserted in its stead: “The time when Parliament proceeds to discuss the details of a law prohibiting the importation, manufacture and sale of intoxicating liquors for beverage purposes, will be the proper occasion on which to discuss the question of compensation to the manufacturers of such liquors as may come under the operation of snch a law.”
I am sorry I was not able to catch all the arguments that fell from the lips of the hon. mover of the original motion, and I was somewhat disapointed in what I did hear, to find no sufficient justification was given for the introduction of such a resolution at the present moment. If there was any immediate prospect before us that a prohibitory law would be passed by this House during the present Session there would have been, perhaps, some justification and some reason for discussing this matter as one of the details of the general question. But the hon. gentleman who moved this resolution, and the hon. gentleman who seconded it, did not show that there was any immediate prospect of a general prohibitory law being passed in this country. More than that, they did not even give us any argument to show that there was a prospect that even during the life of the present Parliament we were likely to be called upon to pass such a law. Now, of course, a resolution like this would express the opinion of this Parliament, but I do not consider that it would thereby be binding fipon the country or the people ; it is merely an expression of opinion by the members who vote upon it. That being the case, I do not think that much good can come from submitting such a resolution; and I fear, on the contrary, that a great deal of harm might arise from it, for in case a large number of leading men here should express their opinion in favor of such a course, the hopes of a large body of people who are interested in this trade would be raised, in the expectation of getting compensation. The hon. gentleman who sits before me (Mr. Wells) said he regretted that the resolution did not go far enough. I suppose the reason why this resolution did not include compensation to others who are engaged in the liquor traffic was because the proposer and seconder were fully aware that such a proposition would meet with far greater opposition than the one they have submitted to us. It is evident that the question of compensation, which seems to be now chiefly agitating those interested in the liquor traffic, is divided into two parts—the part which comes under this resolution, and that part which refers only to the dealers in liquor who hold licenses. I am not now going to enter into the discussion of the question of compecsation to those who are licensed. I do not believe that these gentlemen have any grounds whatever upon which to base a claim for com-
ensation ; if there is any claim for compensation which can
e entertained for an instant, it may be that of the manufacturers who are referred to in this resolution. But speaking for myself, and I think also for some others who are interested in this question, I must say that I should feel bound, under the present circumstances, and at the present time, to vote against this resolution—at all events, until such arguments are brought forward as will convince ns of the justice of such a demand. So far, I have not heard any such argument, and I believe if such arguments were brought forward to-day they might assumo a very different aspect if a prohibitory law was now before the House for discussion. We can well understand that if we promised to-day to the men engaged in the manufacture of liquor that their loss in consequence of a prohibitory law
1885.
COMMONS DEBATES.
243
would be compensated, they would naturally extend, instead of contracting, their business, and instead of preparing for a prohibitory law they would be tempted rather to plunge more deeply into that business in order to obtain larger compensation. Especially would that be the case in a time like the present, when money finds but few investments, and when other kinds of business are more or less depressed. The passage of a resolution like this would naturally give an impetus to their business, and this is a sufficient reason for us withholding, at the present time, an expression of our opinion. These gentlemen, I understand by this resolution, do not pretend to claim any compensation whatever for loss which they may suffer in consequence of the adoption of local prohibitory laws throughout the country. We are aware that on the 1st of May next about one-third of the whole country will come under the operation of local prohibitory laws, and we know that in consequence of that fact those gentlemen who are engaged in the manufacture and sale of liquors have already suffered a great deal of contraction in their business. This was stated to us the other day, when a deputation of licensed victuallers interviewed the Government on this question. Now, Sir, I believe that the same causes which *have been in operation for the last year in this country will continue to act and will produce in the future even greater results than they have in the past; I believe that at no distant day more than one-half the country will be under a local prohibitory law. When that takes place we can understand that this business will be still more largely contracted, and when the time comes to discuss a national prohibitory law in this House, the chances are very great that by the simple operation of the law of supply and demand the business of the licensed victuallers will then be very much less than it is to day. But, as I pointed out a few moments ago, if Parliament pledges itself to give compensation at a future day, and at a time when we do not know what the circumstances will be under which compensation will be demanded, we can understand perfectly well that instead of diminishing the compensation we are more likely to increase it. This, as a matter of prudence, should cause hon. members to hestitate before voting for any such resolution as that before the House. I do not know what may be the extent of the prohibition which may be introduced. We have already on the paper a notice of a resolution to prohibit the manufacture of alcoholic beverages. But there is nothing in regard to brewers and maltsters. When that questions comes up we shall have to discuss compensation in regard to those particular items ; but the compensation for those items would varyjfrom the compensation to brewers and maltsters, so if we were to pledge ourselves to provide any such compensation as is proposed, we would weaken our position when we come to discuss the question. The hon. member in front of me (Mr. Wells) alluded to the evident feeling on the part of the temperance people that they could not make any compromise with this trade, that they were not prepared in any sense or any way to acknowledge that the trade had rights.
I confess that there may be a wing of the temperance party who are animated with that spirit. There is, however, a very large part of the temperance party who are not animated with that spirit in any sense; they demand legislation in their favor and ask that the people of the country be protected from the great evil which is in our midst. I believe those temperance people, when they have the power, will not use it in the same way as the liquor dealers have used their power against us in the past. I believe we will be actuated by a desire to give justice to our enemies, even though we have not received justice at their hands in the past. The hon. gentleman in front of me said that temperance people would neither give nor receive quarter.
I believe, that although we have never received quarter at the bands of our opponents, we will be quite willing to give it
when our opponents are on their kneos before us, and we have triumphed over them. If to-day this question is urged and forced upon us, we shall feel, as 1 do personally, that we cannot admit this principle, that there has not	been	plaoed before	us	sufficient	grounds on
which this principle should be acknowledged ; and we	will	vote against	this	principle,	if brought
squarely before us to-day, whatever course we might take on a future occasion, when, under different circumstances, such a proposition for compensation might be brought before the House at a time when we were discussing the details of a prohibitory law. I shall not enter in any sense or way into the question of prohibition. The hon. member for Wellington (Mr. Orton) has stated that the majority of the members of this House are in favor of restricting the traffic in liquo~, and of freeing the country from the evils which that traffic has brought upon us. I believe that is the fact, but I am not going to discuss the principle of prohibition. I am glad, however, to be able to stand in this House this Session in a position different from that oocupied last Session. The people of the country at large have spoken on this question, and have decided in favor of temperance. I was glad to hear from the lips of an hon. member who has not always been on the side of temperance, that this position is taken, and that we are to-day acknowledged to be on the right side in this question. I think this matter simply resolves itself into a question of justice. If at the time a prohibitory law is passed here, manufacturers of liquors can show us they have just grounds for compensation, let them come forward and prove to us that such is the case, and ask that a compensation clause be introduced into the law. But I do not think they are wise in their day add generation, or that it is expedient and right that Parliament should be asked beforehand to pledge itself and the country, in so far as Parliament can do so, to any such proposition. I think I have touched shortly upon the reasons which have prompted me to move this amendment, and in view of the fact that the country is not likely to be asked to pass a prohibitory law this Session, or be asked to pass such a law during the life of the present Parliament, it is inopportune and premature to make any such arrangement as is proposed with the manufacturers of liquor.
Mr. POSTER. Before the vote is taken, I should like to say a few words with respect to the original motion particularly, and in a slight degree with respect to the amendment I am not sorry that this question has come before the House,
I do not think it is premature to discuss it at this or at any subsequent time. I have, however, my own opinion as to the time when this question should be decided. As prohibitionists and temperance men, those of us who have been in favor of a prohibitory law and have argued for it, certainly do not regret that this resolution has come before the House at this time or in the way in which it has come. It has been quite common, in the years that have passed, for those who did not believe in the principle of prohibition to think little of the movement which was inaugurated and carried out by that section of the people who did believe in prohibition, and who were generally said to be but few in number and to have but little influence. That argument can no longer be used; During the eight or ten years that have passed, both the number and influence of the prohibitionists in the country and in the House have been augmented, and to-day we have a resolution which distinctly recognises the fact that the prohibition movement can no longer be ignored, that the people are behind it, and this resolution is, if I understand it rightly, the calm and deliberate expression of opinion of the brewers and distillers of this country, that whether they be prepared for death or not, death is imminent; that they are looking now for some way in
244
COMMONS DEBATES.
February 25(
which the business may go out with pecuniary considers tion attached to it, and may, so to speak, in some way get the promise of the country to erect a mausoleum to its memory. I thank the mover and seconder of this resolution, and those who are behind it, for this strong admission, and I assure them it will be heard from one end of this country to the other, that, after to-day, no person in this Dominion will be able to say that the strength of the prohibition movement is to be despised, but that this resolution is an indication that it is the general sentiment of those to whom prohibition is opposed, that it is a growing power in the country, and that it is coming close to its consummation. Sir, this resolution which has been introduced to the House, I do not consider, so far as my judgment goes, to be one which we ought now to decide. I am willing to discuss the principle; I want a fair and square discussion of that principle; I want the leaders of public	sentiment in this House to give their
opinions on this weighty matter—the men who have studied political economy and social economy; the men who are conversant with the affairs of state; the men who have studied social problems in all their parts—I want them, as leaders of public opinion, and as standing as representatives of the people in this House, to discuss this question as deeply, as widely, as fully as it can be discussed, so that the people may have the data whereupon to gather to the discussion of it outside of this House. But this House is not prepared to decide this question, or to say that the decision of this question to-day, on the original resolution in the affirmative, would be the decision of the country, or could, in any way, be tortured to be taken as the decision of the country. This resolution, as it comes down, is a contingent resolution. It does not ask for the taking away of any existing grievances; it does not ask for the addition of something to any existing law, or to any law which is to-day in process of being enacted. It simply says that if something or other, in the years of the future, in five years or twenty-five years from this day, shall come to be the case, then, this other thing which is asked for by the resolution, Bhall also come to be the case. I do not think that this is the usual method of procedure in a deliberative body. It is as though when the new improvements in cotton machinery and woollen machinery were coming to the front, and when employees were looking out in the not very distant future, and saying there will come a time when, if these things are allowed to come into use, our labor will be thrown out, our wages taken from us; and now, before the advantages of these things can be fully seen, now, on the wave of the prejudices which exist against them, we will pass a resolution through Parliament, saying that in the event of these machines coming into use those employees who are thrown out of employment shall be compensated for their loss. It is as though, when a Bill was before Parliament to charter a railway to run along the side of a great navigable stream, those who owned boats plying on that stream, seeing the approaching diminutions of their gains, seeing the fact that in the near future their gains would be interfered with and a different route of travel would be taken, should say, we will make interest; we will pass a resolution through Parliament saying that if such and such a thing takes place we are to be compensated for the loss which may come upon us. And what is this resolution ? It is nothing more nor less than an attempt, in a time when there is a want of knowledge on the subject, in a time of first feeling, to bind the hands of the future by a resolution contingent on something else happening. And if I mistake not, although this resolution may have within its scope the compensation of brewers and distillers, it will have this effect—whether this is its motive or not—it will have consequence: It will raise up a sum of money anywhere from $12,000,000, which has been spoken of by my hon. friend as the Mr. Foster.
capital invested in the brewing business to day, up to $30,000,000 or $40,000,000—it will raise that sum up as the probable sum which the people of this country will invite to fall upon their shoulders, and be laid as a burden on their backs if they pass a prohibitory law. Sir, I do not think it is the usual course for a parliamentary or deliberative assembly to proceed in that way. Then again, I think this resolution, as my friend on the other side has stated, is premature. Has it been discussed in the country ? It may be said that your prohibition resolution last year was premature^ But, I reply, there is a great difference. That question has been before the country for fifty years; it has been steadily marching forward towards its solution. Every year it has been increasing in strength. Every year the influences behind it have been augmented. This question has permeated every nook and corner of the land; it has gone into the centre of every constituency, it has been talked of at every fireside; and this Parliament last year, or any year within the last fifteen years, has bad the data at hand to give a vote on that principle, feeling certain that those who voted upon it would represent the aggregate feeling of their constituents. But where has this question of compensation been argued ? In what constituency, in what nook or corner has it been raised? Is*there a single representative here who can get up and say: I can vote for this question, for or against, feeling that I know what the sentiments of my constituents are, and that by my vote I am representing them here.
An hon. MEMBER. Yes.
Mr. FOSTER. The hon. gentleman says he can. He then is one of the favored few, but I think the large majority of this House will feel that they cannot. Well, Sir, following that out, I do not think this House is in the position, in its representative capacity, to decide this question for or against compensation; because, whether this House does possess the knowledge of its constituencies far enough and wide enough to make a fair decision in this matter—even if they do not, yet the opinion will go out from this House, if it be taken in the affirmative or negative, the opinion will go out that this Parliament of Canada, representing the people of Canada, would make this decision, when I hold that that would not be the case, but that it will be the gentlemen who are sitting in the Parliament of Canada, who have expressed, their own collective or aggregate opinion on on this question. Do not imagine that I wish to say that we should not discuss manfully and fairly and squarely the whole issue, and nothing else. I think we should ; but I think we should reserve our opinion as a solemn declaration until we find out the feeling of our constituents on this question. At least, that is my private opinion, truiding my own conduct and speaking for myself. Nor has this question come up on the ground of petition. Has there been a single petition put before Parliament asking that compensation should be given to the brewers and distillers and maltsters ? Is there one from all this country— from the island of Cape Breton to the Pacific ocean ? Can there be produced on the Table of this House a single petition coming from the people asking that compensation be granted ? I think not. And we are a representative body; we represent the people in this House. This is a large matter, involving at least $12,000,000, according to what my hon. friend, the mover of this resolution, has stated to be the capital employed in breweries and distilleries. I say that, under the circumstance, that no voice of the people has asked for this action, it is too great a burden for us to resolve should be placed on them without consulting our constituents* It may be stated that a deputation which came to this city not many days ago, presented to the Government a memorial in which they claimed compensation. T*~at may be; but it was not the compensation which is claimed in this
1885.
COMMONS DEBATES
24.5
resolution. That deputation, if I understood their memorial aright, asked for compensation for the license victuallers, for the coopers, for the employees, and for the cigar manufacturers. This, then, is not their resolution; it is not founded on their presentment of the case. This is somebody else’s resolution, and is founded on somebody else’s presentment of the case, because the brewers and distillers are the only people included in it. Then I say that from the sovereign people of this country, in the exercise of their right of petition, there has not come a single voice to this Parliament, asking that compensation shall be granted. So much, Sir, with reference to that point. But this resolution is also, to my mind, one which we ought not to take into consideration, so far as to decide in favor of it, for another reason, and that is this: It is a resolution which, besides embodying something which has not been asked for by the people, besides tying the hands of the people in the way 1 have stated, is one which is not backed up by that amount of argument necessary to show that the necessity for it exists. I may just refer, in passing, to the kind of argument with which this demand is sometimes backed up. For instance, I think the only financial argument which was used by the deputation which came to Ottawa a few days ago, the only argument which condescended to figures, was that used by the cigar manufacturers. Hon. gentlemen who have read their memorial will remember that the cigar manufacturers started out by arguing that they should have compensation on the ground that the Scott Act was injuring them ; and they showed, from official records, a diminution of $449,000 in the amount paid by the cigar manufacturers into the Dominion revenue in 1884, as compared with 1883 ; and then, by that strange sort of argument which so often prevails, they stated that this diminution was due to the operation of the Scott Act in the different counties. Now, Sir, examine that argument. When we come to look at the returns of the Minister of Inland Revenue, we find that last year the duty on tobacco was reduced from 20 cents to 12 cents on the pound. The Minister calculated that some $800,000 would be lost to the revenue in consequence of that decreaso ; but ho states, in his report, that instead of $800,000 being the decrease, the decrease was $449,000. Now, you see what kind of an argument that was. The Minister of Inland-Revenue says that the diminution is due to the decrease in the duty; but the memorialists, in order to use it as an argument to show why compensation should be granted to them, say it is due to the effect of the Scott Act on the cigar trade. That is an instance of the curious kind of non sequitur argument which is used in favor of compensation. Well, Sir, 1 am glad this resolution has been brought forward for other reasons. I am glad, because it shows that the finality is somewhat near, that the end is approaching, and that there is a feeling not only widespread among the people that prohibition ought to be established, but that there is a feeling amongst those likely to be affected by it financially that it is coming, and that it is an event that ought to be provided for. What does this resolution affirm ? It affirms that these petitioners have no legal ground on which to base the continuance of their traffic, that they have no legal ground on which to ask for compensation. If they had in the constitution of the country or in the laws of the country any such ground, they would not be approaching Parliament to-day by a resolution asking that measures should be taken to give them that compensation. They have also abandoned the ground that they are able to go before the country and argue, on the ground of right, that their traffic shall be maintained and their trade carried on. They distrust the people in regard to that, and they come to Parliament and ask that a compensatory resolution should be passed by this House. As a temperance man and a prohibitionist, I thank the promoters of this resolution for the admission which they have thus made. Then I
say, that the resolution is not an out-and-out manly resolution, and in saying that I am not making any reflection personally on the hon. gentleman who moved it. The resolution is that the brewers and distillers shall be compensated. Hitherto the strong reason that they have urged why their business should not be interfered with has been that there are correlative industries oonnected with the breweries that would be interfered with by the Soott Act.
It being six o’clock, the Speaker left the Chair.
After Recess-
CANADA SOUTHERN RAILWAY COMPANY AND ERIE AND NIAGARA RAILWAY COMPANY.
House resolved itself into Committee on Bill (No. 9) respecting the Canada Southern Railway Company and the Erie and Niagara Railway Company (Mr, Bergin).
Mr. BLAKE. I should like to know why all the branch lines which are affected by this Bill are not recited in the Bill ? There is a wholesale enlargement of the time for the construction of all those lines, without any statement of what those lines are.
Sir HECTOR LANGEVIN. As far as I can recollect, the mover of the Bill (Mr. Bergin) called attention to these words: “And whereas by an Act of the Parliament of Canada, passed in the 38th year of Her Majesty’s reign, chap. 66, the time for the completion of the original branch lines, authorised by the Acts therein recited, or any of them, was extended until the 8th April, 1878.”
Mr. BLAKE. I am not objecting to the ground being covered, but want to know what ground is covered. It seems to me, when we are extending the period within which lines may be commenced and completed, the Act itself ought, in point of convenience, to say what the general direction is of these lines with which we are so dealing. It is an interesting thing, of course, to know that the Canada Southern Railway Company has built this and other lines ; that is interesting, but not very important. It is done. What is important to know is, what they want to have the power to do, which they have not yet done, and it is that they have omitted to toll us.
Sir HECTOR LANGEVIN. The committee can pass the Bill and report to the House, and we will leave the third reading to the next day, when the mover of the Bill (Mr. Bergin) will give the explanation desired.
Committee rose and reported.
RIVER ST. CLAIR RAILWAY BRIDGE AND TUNNEL COMPANY.
Bill (No. 8) respecting the River St. Clair Railway Bridge and Tunnel Company (Mr. Bergin), considered in committee, reported and read the third time and passed.
SECOND READINGS.
Bill (No. 48) respecting the Annuity and Guarantee Funds Society of the Bank of Montreal.—(Mr. White, Cardwell.)
Bill (No. 49) to incorporate the Pension Fund Society of the Bank of Montreal.—(Mr. White, Cardwell.)
Bill (No. 51) for granting certain powers to the International Coal Company (Limited).—(Mr. Desjardins.)
Bill (No. 52) respecting the Sault Ste. Marie Bridge Company.—(Mr, Dawson.)	•
Bill (No. 53) respecting La Banque du Peuple.—(Mr, Girouard.)
246
COMMONS DEBATES
February 26,
Bill (No. 55) to authorise the Dominion Grand Mutual Fire Insurance Association to insure against fire the propel ty of the Patrons of Husbandry, wheresoever situate in Canada.—(Mr. White, Cardwell.)
Bill (No. 60) to incorporate the Synod of the Evangelical Lutheran Church of Canada.—(Mr. McCarthy.)
Bill (No. 61) father to amend the Act incorporating the Bichelieu Navigation Company, and the Richelieu and Ontario Navigation Company.—(Mr. Desjardins.)
RETURN ORDERED.
Copies of all Orders in Connell making any change in the contracts in printing since 1867.—(Mr. Rykert.)
Sir HECTOR LANGE YIN moved the adjournment of the House.
Motion agreed to, and the House adjourned at 8:25 p.m.
HOUSE OF COMMONS.
Thursday, 26th February, 1885.
