 at Three o’olook.
Prayers.
THE OFFICIAL DEBATES.
Mr. DESJARDINS (translation) moved:
That the second report of the Select Gommittee appointed to supervise the Official Report of the Debates of this House, brought down on the 22nd March last, be adopted.
Mr. CHOQUETTE (Translation.) moved in amendment:
That the said report be not now concurred in, but that it be referred back to the said committee with instructions to enquire into the justioe and expediency of granting an indemnity to Messrs. A. E. Poirier, Remi Tremblay and Ernest Tremblay, who were discharged from their positions.
He said : Mr. Speaker, before the motion of the Chairman of the Debates Committee (Mr. Desjardins) be granted, I wish to return to the oharge in support of a motion whioh I made last year. As I stated last year, when I made a similar motion, my intention is not to renew the debate whioh took place in this House in the matter of the translators who were dismissed, inasmuoh as your decision was sustained by the House, but I think, as I stated then, that an indemnity ought to be given to these men who have been, to say the lea^t, treated in rather a orael manner. In bringing up again this question before the House, I am only acting upon the suggestion made by -the hon. the First Minister, who, on the 17th of May last, whon I brought forward this motion, asked me to withdraw it and make it at the beginning of the prosent Sossion, The hon. the First Minister stated then that he would make no promise, but that ho would take the matter into consideration during the recess. I am convinoed that the hon. the First Minister, who always keeps his word, must have kept this promise as all his othors, and that he must have taken the matter into consideration. He ought to be in a position to give a definite answer, which I trust will be favorable to the young persons who have been hardly used. I have no intention, I repeat, Mr. Speaker, to reopen the debate, but it will suffice to recall the following facts: that these men were engaged as translators, that no fault was found with them as such, and that their work was carried out in an intelligent manner. It will be remarked that they came here last year at the beginning of the Session, to oontinue their work, that they waited here for five or six weeks for a decision on their fate, because no signification had been given them in an offioial manner that their services would no longer be required. Consequently they made aD outlay in coming here; they took a house, they incurred considerable expense, and after five or six weeks of waiting these gentlemen were obliged to go baok and endeavor to earn their living in another way. Well, Mr. Speaker, it is not right to treat officers of this House, against whom, I repeat, no oomplaint has been brought, and who have always performed their duties well, in a more unceremonious manner than is customary with ordinary workmen. It is well known that, according to the law in the Province of Quebec, it is not lawful to discharge mere domestic servants without giving them fifteen days notice or Without pitying them an equivalent. Now, in this ease, Sot the slightest notioe was given to these men. When you deoidea that their services were no longer required and the House ratified your decision, these men were obliged to go away without any other notice and without any compensation for their time and the considerable expense that they had
934	COMMONS DEBATES.	April 1,
been put to. I think that it would be bat fair that an indemnity should be granted them, and that this report be sent back to the Debates Committee in order that a recommendation be inserted therein to the effect that they should be paid, if not the whole sessional allowance at least a portion of their expenses. As for the two Messieurs Trem-olay I know that they took a house here, that they purchased the movables req aisite for their housekeeping, and that after their dismissal they were obliged to throw up their houses, sacrifice at a low figure their effects and pay damages to their landlords. It is not exemplary damages but the real losses which should be paid, and I think that under the circumstances the House will be unanimous in yielding to the desire expressed by the hon. the First Minister to take the matter into consideration. Although no formal promise was ihen made that an indemnity should be paid them, I would wish that the Committee should decide what amount be granted them. I may say that the men are not greedy ; they will be satisfied with a reasonable indemnity and the House will be only committing an act of justice in giving them a certain sum.
Sir JOHN A. MACDONALD. The report referred to, as I understand, appears at page 267 of the Votes and Proceedings, and is as follows :—	.
“ 1 he Committee beg leave to report the following Resolution as a recommendation: That Members desiring to procure copies of their speeches from the Queen’s Printer may have them furnished in the numbers desired, either iu quarto or octavo form, covered or not covered, as may be required, at the actual cost for paper and labor, not including composition, and that this rule may apply to all accounts for the present Session. ”	"
That being the resolution, the amendment has, consequently, not the slightest reference to it, and is out of order, as the report does not refer at all to the compensation of officers. Again, 1 see that the hon. gentleman has a notice of motion on the paper on the same subject, and on both these grounds I object to this amendment as being out of order.
Mr. LAURIE R. Striotly speaking, it may be that the hon. gentleman (Mr. Choquette) is not quite in order, but he is certainly carrying out the suggestion which was made to him last Session by the Prime Minister. When my hon. friend made a similar motion then in amendment to the report, he was advised by the Prime Minister not to p;e-»s it, but to bring it up this Session. My hon, friend has taken advantage of the suggestion to bring up the question in this form. It may be that the amendment is not absolutely relevant to the motion, but last year the Prime Minister gave the advioe whioh my hon friend is now following. The discrepancy then was just the same.
Sir JOHN A. MACDONALD. I find that the hon. gentleman gave notice as long ago as the 25th February, of a motion for a Committee of the Whole:
“ To enquire as to the justice and expediency of granting an indemnity to Messrs. A. E. Poirier, R6mi Tremblay and Ernest Tremblay, who were discharged last year from their positions as Hansard translators
And when we arrived at that motion, going over the list, the hon. gentleman was not ready to go on with the motion.
Mr. LAURIE R. Pardon me j he was ready to go on upon several occasions, but the motion was not reached in time. It was when unopposed motions were called that it was reaohed.
Sir JOHN A. MACDONALD. Yes ; that is so.
Mr. BLAKE. The hon. gentleman (Mr. Choquette) has taken the Premier’s advice, but the Premier has taken the hon. gentleman’s days.
Mr. J ONES (Halifax). In this connection, I desire to call attention to the fact that on Friday last the debate in this J House finished at about eleven o’olook. On Saturday morn- • Mr. Choquitti.
ing about eleven or half-past eleven o’clock, I sent a written order to Mr. Seneoal, in charge of the printing of the Debates, for some copies of the previous day’s proceedings, and in reply, he says:
“Your order for 50 copies of the Debates of the 29th inst. was too late, as the daily Hansard was printed off. ”
This is dated on the 30th, the following morning. Now, I was going to say, that if we are to understand that copies of the Hansard cannot be had when they are ordered at eleven o’clock the day following the debate, of course members will not be able to know whether they ean get them at'all, I desire to bring that to the notice of the Government, in order that some time should be fixed, otherwise the reports would be of no value to the members of the House.
Mr. SPEAKER. A similar motion is on the Order paper, and as it is not in accordance with the Rules or Parliamentary usage to take a motion out of its proper place and move it as an amendment to another question, I must, therefore, rule that it can not now be put to The House.
Amendment ruled out of order, and main motion agreed to.
MARINE HOSPITALS.
Sir DONALD A. SMITH asked, 1. The number of sick seamen cared for, and tbe aggregate number of days of hospital care given to them, in each cf the ports of Montreal, Halifax, St. John and Quebec, respectively, during the last fiscal year? 2. The amount charged to the Sick and Distressed Mariners’ Fond, in each case, as for hospital care in each port ? 3. The aggregate rate per patient per diem in each port, as shown by the foregoing ? 4. The causes why the average cost per patient per diem was so much greater in Quebec than in Montreal, or Halifax? 5. Whether any arrangement has been made with the managers of the Marine Hospital, Quebec, as contemplated by the “ Act respecting Sick Mariners,” section 6; and if so, what arrangement; and if not, why not? 6. Whether the Ministry consider the amount so charged to the fund, as for the care of tick mariners in the Marine Hospital of Quebec, to be “ a reasonable compensation for the care and treatment of the sick mariners sent to such hospital/' as provided for by the above-named section 6 of the Act ? 7. What steps the Ministry intend taking to insure that the charge to the Sick Mariners’ Fund, for hospital care and treatment, in the city of Quebec, shall not hereafter exceed the amount paid in Montreal and Halifax for similar services?
Mr. TUPPER. The number of sick seamen oared for, and the aggregate number of days of hospital care given to them in each of the ports of Montreal, Halifax, St. John and Quebec, respectively, during the last fiscal year, is as follows, viz : Montreal, 170 seamen, 2,927 days; Halifax, 164 seamen, 3,882 days; St. John, 157 seamen, 4,429 days; Quebec, 318 seamen, 4,179 days. 2. The amount charged to the Sick and Distressed Mariners’ Fund in each case, as for hospital care in each port, is as follows : Montreal, $2,634.3U ; Halifax, $3,493.80; St. John, $3,465.69; Quebec, $18,777 82. In the amount given as an expenditure for Marine and Immigrants’ Hospital at Quebec, is included the cost for providing for immigrants and sick residents of Quebec, and a fair proportion would be as follows, viz.: for seamen, $5,680.19; for immigrants, $1,068.34; and for residents, $12,029.10. A grant of $1,866.67 was received from the Governmei.t of Quebec for support of residents, and $182.25 for rent of beach lots, &c., thus reducing the cost of maintenance to the Government of the Dominion to $16,723.70.
3. The aggregate rate for patients per diem in each port, as shown by the foregoing, is as follows, viz.: Montreal, 9Q
1889
COMMONS DEBATES.
935
cents per diem ; Halifax, 90 cents per diem ; St. John, 78J cents per diem; Quebec, $1.36 per diem. 4. The causes why the average cost per patient per diem was so much greater in Quebec than in the other ports, is that the hospital has a large and expensive staff, and a large number of residents at Quebec is cared for in the hospital, and the amount contributed for the sick residents in Quebeo is not in proportion to the number of days during which they are cared for, and the commissioner or trustees, visiting physicians, resident physicians, and the chaplains, are all paid salaries. 5. No arrangement has been made with the managers of the Marine Hospital at Quebec, as the hospital has been managed by trustees in the past, under the supervision of the Marine Department, and is supported by Dominion funds, and is a Dominion institution. 6. The amount charged to the fund for the care of the sick mariners in the Marine Hospital at Quebec, is considered large, but this expenditure is largely owing to the praotice which has prevailed of taking in sick residents, for whom only a small sum is paid by the Government at Quebec, as it is not like a public hospital where the Government pays a fixed rate per diem without any further responsibility, or the treatment of sick mariners who are put there by arrangement. 7. The question of reducing the expenditure for the Marine Hospital at Quebec, is at present under consideration.
GRAZING LEASES.
Mr. TROW (for Mr. Edgar) asked, Have any grazing leases in Alberta been cancelled since the 1st January ? If so, are they “ old leases ” or leases under the amended form? Does the Government intend to compel the holders of old form leases to fulfil the conditions of the leases, or, as an alternative, to permit settlers to settle on the ranches, as provided for in the new form leases ? Is the Government aware that the principal owners of these ranches are Englishmen residing in Great Britain ?
Mr. DEWDNEY. Two leases under the amended form have been cancelled since the 1st January, 1889 ; and it may be added that on the 14th of the previous month, 27, of which four were on the old form, were also cancelled. 2. The Government are cancelling all leases, irrespective of the form, when the conditions are not being fulfilled. So far it has not been necessary to give the two years’ notioe in any case, for which provision is made in the old form of lease, inasmuch as in every instance where it has been shown that the land is required for settlement, the lessees have invariably agreed to relinquish the necessary land without notice. 3. The Government are aware that a large amount of British oapital is invested in ranches in the North-West.
DEFENCE OF AN INDIAN PRISONER IN COUNTY OF BRUCE.
Mr. McMULLEN asked, Has the Government employed legal counsel to defend the Indian who is charged with shooting a white man at Allenford, county of Bruce, this winter ? If so, whom did they employ ?
Sir JOHN THOMPSON. Mr. A. B. Klein, barrister, of Walkerton.
ILLICIT MANUFACTURE OF WHISKEY.
Mr. RINFRET asked, What is the amount of the costs incurred and paid in the suits instituted against Messrs. Lafleur and Vezina, of Ste. Philomdne, county of Lotbiniere, and for suits against Messrs. Cot6 and Hamelin, of Gron-dines, county of Portneuf, for the illicit manufacture of whiskey in the year 1888 ?
Sir JOHN THOMPSON. Messrs. Casgrain, Auger and Hamel were paid $37.40 in the oase of Vezina; $53.95 in the case of Cot6; $48.50 in the oase of Hamelin. I cannot find that any oosts were paid in the Lafleur oase, nor cau such a case be found in the books of the Inland Revenue Department.
TELEGRAPH LINE TO ESQUIMAUX POINT.
Mr. FISET (translation) asked, Sinoe when has work on the telegraph line, which is to go to Esquimaux Point, been begun ? How many miles have been oonstruoted in all, particularising the number built in the summer of 1888 ? What has been the cost per mile ?
Sir HECTOR LANGEVIN. (Translation.) In answer to the hon. member I can state that the work was begun in 1880. At the end of the year 1887 there were built 366J miles; the cost has been $166.38 per mile, one thiDg with another. In 1888 there were 418 miles built, at a oost of $139 per mile, taking an average.
CANADIAN PACIFIC RAILWAY LAND AND MONEY SUBSIDY.
Mr. MACDOWALL asked, 1. At what date were the first maps published showing the intended route of the Canadian Pacific Railway? 2. At what date were the first maps published showing the present route of that railway T 3. What was the land grant per mile granted to the main line of the Canadian Pacific Railway? 4. What the amount per mile of money bonus ? 5. What is the quantity of land surrendered by the Canadian Pacific Railway Company, and how much per acre were they paid ?
Sir JOHN A. MACDONALD. The answer I have to give to the hon. gentleman’s questions is as follows:—(1) At what dates were the first maps published showing the intended route of the Canadian Pacifio Railway? Answer. In 1873. (2) At what dates were the first maps published showing the present route of that railway ? Answer. In 1882. (3) What was the land grant per mile granted to the main line of the Canadian Pacifio Railway? Answer. Central section, 900 miles at 12,600 acres per mile, 450 miles at 16,66^^ acres per mile: Eastern section, 550 miles at 9,615^^ acres per mile. (4) What the amount per mile of money bonus? Answer. Central seotion, 900 miles at $10,000 per mile, 450 miles at $13,333 per mile; Eastern section, 650 miles at $15,384.61 per mile. (5) What is the quantity of land surrendered by the Canadian Pacific Railway, and how much per acre were they paid ? Answer. 5,793,014 acres.
LUMBER SHIPMENTS TO THE UNITED STATES.
Mr. WELDON (St. John) asked, Is any export duty exacted upon piling and small lumber shipped from the ports in New Brunswick to the United States r What is the rate of duty ? And what amount collected during the past year ?
Mr. BOWELL. There is no export duty collected or imposed upon small logs measuring not more than nine inches at the butt.
JOSEPH E. VINCENT.
Mr. LANGELIER (Montmorency) moved for:
Copies of correspondence between Joseph B. Vincent, of the city of Quebec, and the Customs Department, respecting the French version of the present tariff and the amendments thereto.
Mr. BOWELL, There is no such correspondence. The only letter received from this gentleman is by my private secretary, who answered it, ana the letter was then thrown into the waste paper basket.
Motion withdrawn.
936	COMMONS
ROCK LAKE DAM*
Mr. KIRKPATRICK moved for :
Copies of all reports and recommendations, by engineers and others, respecting the erection of a dam now under construction at the opening of Rock Lake, in the Township of Storrington, in the County of Fron-tenac; the height to which it is proposed to dam back the water; the number of acres of land which will be flooded, and the other damage which will be cansed by said dam; also copies of reports by the Department of Justice as to the legal right to erect the dam and cause said damage; also copies of all petitions and protests against the erection of the said dam.
He said : In making this motion I desire to call the attention of the Government and the Department of Railways and Canals to the serious mistake which, I believe, has been made in the erection of this dam, and to the serious effects which will follow if the work is proceeded with. The dam mentioned in this motion is at the opening of Rock Lake, a lake which falls into the Opinioon Lake, which is one of those feeding the Rideau Canal, An improvement in that water commnnciation was suggested by a petition, which was presented to the Government in 1884, when, instead of asking that these waters in these lakes should be raised, the petitioners asked the waters be lowered. I hold a draft of the original petition, which was presented to the Department of Railways and Canals from the ratepayers, asking :
“ 1st. To lower the waters of the following lakes; Knowlton, Mid, and Desert, Township of Loughborough, Buck and Mud Lake (Bedford), by clearing out the pasages between them and making a Iqck (cheap) between Mud Creek and Devil Lake (Bedford), of such a height as to make the highest level of water in said lakes the present Bummer level, and not higher, of Mnd Lake (Bedford) ; also clear cut said passages to the same width as the locks on the Rideau Canal, and to such a depth that when the supply necessary for the Rideau Canal is drawn off, there may still remain tke depth of wster npon the bottom of Baid passages as there is upon the sills of the locks on said Rideau Canal. Also to construct a lock (cheap) at the junction of Devil Lake and the Rideau Canal, North Crosby. The above improvements will open up a way for barges to the head of Knowlton Lake, giving the traffic of 486 miles of coast to the Rideau Canal—a largely increased water supply, both to the canal and the Gananoque River, and also enable the land owners to cultivate their meadow land and to work their mines, besides enabling a large quantity of firewood, now looked up, to come to Kingston, and thereby reduce the price of that commodity in the city.
“ 2nd. To make a shute or passage for ore, Ac., from Buck to Devil Lake, in case a direct passage to the Rideau should prove, upon examination, to be expensive. 3rd. To purchase Hunter’s mill right between Rock and Opinicon Lakes, and by a cheap lock make a passage from Opinicon Lake to Rock Lake, lowering the water to the summer level of Hunter’s dam, and making the passage the same width, aDd having the same depth of water as the canal locks, also to clear out the stream between Rock Lake and Stone House Lake and raise the road bridge— for the same reasons as stated under No. 1.
This is the petition which was presented in 1884, signed by a large number of residents in the counties of Erontenao, Addington and Leeds, and it is one of the means to be adopted for getting a better water supply for the Rideau Canal, and also for the Gananoque River, for the benefit of mill owners in Gananoque. The object then was not to raise the waters in these lakes, but to open passages between them, so that there might be communication to benefit a large number of the mines in that locality, which export a large quantity of phosphate, and suffer great detriment in consequence of the long haul that has to be made. A meeting of the ratepayers, large and enthusiastic, was held the other night at the township of Longhborough, in the county of Addington, calling for the expenditure of money to be given for the building of a railway. But if they had this canal built, it would open no lefes than 486 miles of coast, which it would make tributary to the traffic carried on over the Rideau Canal; and when yon consider that large mileage, it is evident there is a large amount of material in that county which could be brought to market if this waterway were constructed. That question was taken up, after Sir Charles Topper left the department, by the present Minister of Railways, whom, we all regret to know, is very ill and unable to attend his department. He was so impressed with the desirability of the work, that he asked the Government for a grant of #20,000 to investigate into, Mr. Bgwelii'	1
DEBATES.	April 1,
and make some of these improvements. #8,000 was given by Order in Council to the Gananoque River Improvement Company, and was expended in improving the supply of water to that river, but the rest was intended to carry out the idea mentioned in this petition. But what do we find? All that has been undertaken was to purchase the mill site of a man named Hunter, at the opening of Rock Lake, and, instead of making a passage in order to lower the water at Rock Lake, the engineer, or somebody else, constructed this dam in order to dam back the water, under the impression that they bad a legal right to do so. But, according to all the information and evidence obtainable, I claim there is no such right. Upwards of 20 years ago, Mr. Hunter had a dam there which was used for the purpose of damming back the water in the spring, in order to float logs down, but the water was always lowered, and the dam taken away by the 1st Jane, so that no water remained there during the summer. The present dam is erected for the purpose of making a reservoir, and keeping back the water until August or September. No right was given by Mr* Hunter's dam for that purpose* The right he had was only to keep back the water in the spring, so that the Gov* ernment have no legal right to dam back the water. I am told that it will overflow hundreds of acres of land. A roadway has been built by the township of Storrington some 600 feet long, and this roadway will be from 4 to 6 feet under water, unless this dam be removed. The bon. the Minister of Railways will see that this dam will have serious consequences to the people in the township of Storrington. The township council have petitioned against it. The people are much excited, and I really fear the same thing will take place as took place when the hon. member for East York (Mr. Mackenzie) was at the head of the Government. He then had a dam at Devil’s Lake, and one night it disappeared in some mysterious manner, and the hon. gentleman very wisely never made any enquiries as to who took it away. The people were so indignant at its being put there j and the same thing may probably take place if the present Government proceed with the construction of this dam, and pnt in the stop logs, and keep back the water. I hope the Government will make investigations with a view to carry out the requests contained in this petition, and to find out the means of makirg connection between these lakes, so as to allow boats and barges to pass between them and so open up this country, to the benefit of the Rideau Canal. I may also say that there is a great deal of dissatisfaction in regard to the k ay in which that canal is managed at the far end, because the water has been kept up to a height which was not intended when the canal was originally built, and hundreds of acres of land have been drowned and damaged, and every year we have had many claims for damages to be settled. This is not right, because, by a little expenditure of money, the canal can be made fit for barges and boats drawing more water than those which pass through now. That can be done by a little dredging. If they were to move the head lock from Kingston Mills to Washburn, and were to dredge between Bretfer’s and Kingston Mills, they would have enough water to allow boats drawing 6 feet of water to pass, whereas now, according to the design of the Royal Engineers who built the canal, no boats of more than feet draft can pass. The estimate of the expenditure required for that is #60,000, and, by removing this lock from Kingston Mills to Washburn and dredgiDg out the bed of the river, the Government could not only lower the water to a depth of 8 feet, hut would reclaim 4,000 acres of land, the richest and most fertile in that country. That land would be readily saleable at #30 or #40 an acre, and would far more than pay tho coat of the improvement. It has been said that a man who could make two blades of grass grow where one grew before would be a great man. By making this improvement, the Government would reclaim
1839
COMMONS DEFATES.
4,090 acres of the richest land in Ontario, and I think it is their duty to take that course. Not only that, bat they would stop the damage which is now done to the lands of the farmers living all round that level, some 20 miles in distance, who are suffering annually from the raising of the water; It has been raised to 7 feet 9 inches on the sill, and I hold in coy hand the affidavit of the first lockmaster at Kingston Mills, who was there for 40 years, and he says that the practice was to keep 5 ft. 6 in. of water on the sills, and that no boat was allowed to pass through with a draft of more than 4\ feet. That is signed by Mr. John Brady, who was the first lockmaster at Kingston Mills, and was there for 40 years, and is still alive. If that rule were enforced, it would take away all the objection. The farmers complain because the water is kept 7 feet on the sills, and boats drawing 5 feet and 6 feet are allowed to pass through. The Govern meet have no right to cause this damage, and if they require more water, they should spend money in dredging the canal and removing the lock at Kingston Mills to Washburn.
Sir JOHN A. MACDONALD Of course, there is no objection to bringing down these papers. It is an engineer’s question, which the House cannot well understand until all the papers are laid before the House; and if there is no full report on the subject, 1 shall see that a report is prepared, giving the views of the Government engineer in charge of the canal, and shall see also whether his report is endorsed by the chief engineer, Mr. Page. I think, however, my hon. friend ought not to threaten the House and the Government with an a t of violence in pulling down this dam unless it is removed, I draw a great distinction between this dam and the one my hen. friend opposite (Mr. Mackenzie), when he was Minister, allowed to be pulled down,
I understand that was the Devil’s Dam, and we are all anxious to get rid of that.
Sir RICHARD CARTWRIGHT. My hon. friend (Mr. Mackenzie) did not allow that dam to be pulled down. It was done without his knowledge or consent. He did not. ask for a vote to repair it; that is all.
Motion agreed to.
ARREARS OF INDIAN ANNUITIES.
Mr. O’BRIEN moved for :
Copies of all correspondence, since the 1st January, 1888, between the Government of the Dominion and that of the Province of Ontario, relating to the arrears of annuities due to the Indians who surrendered their lands under the Robinson Treaty, and to the grant of a reserve to the Chippewa Band of Lake Temogamingue.
He said: I would ask the Minister of the Interior whether any arrangement has been come to, or is likely to be come to, in reference to the arrears of the annuities due under the Robinson Treaty and to the Temogamingue Reserve. An arrangement was arrived at to make the reservation, but, owing to a dispute between the Ontario Government and the j Dominion Government, I understand that no reservation has been made. These people have been for years anxious to get a reserve there. They are in very poor circumstances, and have no resources except fishing and hunting. They are anxious to get this reserve, and I think it is very hard to keep them out of their right because these two Governments cannot come to an agreement. I understand that the reason why the reserve was not made, in the first instance, was that these people were overlooked, as they were in a distant part of the country, and now the reserve cannot be made because of the difference between the two Governments. Pressing representations have been made to me from every Chippewa band on the north shore of Lake Huron in reference to this reserve. They all make common cause with this band in regard to it. Of course, in regard to the other portion of the motion, ns to the
arrears under the Robinson Treaty, that is a different question, and that is a matter also causing great injustice to these people for the same reason. The two Governments cannot agree, and the matter remains unsettled, and so it goies on from year to year, but I would like the Minister to tell the House, so that I may inform the people, what likelihood there is of the arrears being settled, and also of this very small matter as to the Temogamingue band being arranged.
Mr. DAWSON. This matter of the arrears due to the Iridians under the Robinson Treaty, is a very important one, and it has been up in the House year after year. No settlement, so far as we know, has been arrived at with the Government of Ontario whereby the Indians could get what has been so long due to them. There was a statement made in the House some years ago in reference to a motion of this kind, in which it was shown that the amounts doe the Indians under the Robinson Treaty were as muoh as $800,000, or something approaching that, with interest added. This is a very large sum to be due these poor people on the north coasts of Lakes Huron and Superior, and it is very desirable that some arrangement should he made between the two Governments so that they might get a portion of what is due to them. I would never suggest that all that money should be paid at once to the Indians, but it might be fanded for the purpose of education, for the purpose of helping them on in farming, and in many other ways, which would be of great advantage to them. Now, on the north coast of Lake Huron, at this very moment, a change is coming over the Indian population which should not be lost sight of. The opening of the Canadian Pacific Railway has let in immense numbers of white people, including white hunters, and the consequence is that the game is fast disappearing. Fish poachers are going in and setting pound nets in the little lakes and sweeping the fish out of them. The consequence is that the Indians, in the course of a few years, will be destitute, and the Government will have to provide for their subsistence, as they are now doing for the Indians in the North-West, unless something is ddne in the meantime to teach them agriculture and to establish industrial schools among them. I believe, Mr. Speaker, that the Government of Ontario has been exoeelingly friendly to the Indians for some time past. It has tried to keep fish pdachers out of the territory, and it has shown every disposition to act in a friendly way towards them. Then, again, there is the case of the Indians of the Lake of the Woods. Now that the territory has been awarded to Ontario, of oourse Ontario will have to pay the annuities, and pay the arrears of the annuities, as 1 understand the matter, and pay all that has been paid to the Indians for the cession of that territory ; so that the decision of the Privy Council has not been altogether in favor of Ontario. It appears to me that Ontario is now in for a capital of a million dollars in paying the annuities. It will have to provide for the payment of those Indians, and the arrears due to the Indians of the north coast of Lakes Huron and Superior, to whom the hon. member for Muskoka (Mr. O’Brien) has so properly drawn attention, and whose case deserves the serious consideration of the Government.
Mr. DEWDNEY. I am sorry I was not in my seat when the mover of this resolution spoke. I think I informed him there was no correspondence with regard to the matters since 188-4. The only correspondence relative to the reserve at Lake Temogamingue consists of a letter to the Under Secretary of State, requesting that the attention of His Honor the Lieutenant Governor of Ontario might be again invited to the matter. To that letter no reply has been received. The band interested in the reserve referred to, were not represented when the Treaty of 1850 was made with the Ojtbbeways of Lake Huron, their chief leaving through fear—thinking it might be “ bad medicine,” I sup-
COMMONS DEBATES
938
pose—failed to be present. Consequently, no reserve was then allotted to them. The department was not, until the year 1880, made aware of the facts which, on investigation, were found to be substantially correct as stated by the Indians, and they have from that time participated in the annuities payable to the Lake Huron Indians under that treaty. But the land having passed to the Province at Confederation, the Dominion could not allot the band a reserve without the consent of the Ontario Government, which it has been endeavoring to obtain ever sinoe, but without success.
Mr. O'BRIEN. Is there any possibility of this claim being enforced on the Ontario Government ? Is it a matter of law or a matter of equity ?—because it is rather hard for these people that they are not to be allowed the reserve upon which they were living happily. They made the surrender the same as the other Indians did, and they are entitled to the same consideration.
Sir JOHN A. MACDONALD. It is a standing hardship that these Indians should be kept out of their money bo long; but the cause is, as has boen mentioned, the want of agreement between the Dominion Government and that of the Province. The difficulty was presented to my hon « friend the member for Bast Tork (Mr. Mackenzie), wheD he was Prime Minister. The Indians were then claiming their money, but no conclusion could be arrived at between the Dominion and the Province. I think my hon. friend put a sum in the Estimates to relieve the then necessities of the Indians, in part payment of their claims. Since that time I do not think any progress has been made in the settlement of this treaty; and, I understand, though I am not fully informed on the matter, that the reason why there is not arrangement between (he Dominion and the Ontario Government is that the two Provincial Governments consider that this matter is involved in the settlement between Ontario and Quebec in some way or other. However, I hope we will shortly be able to come to some arrangement with the Province of Ontario. I may say that Mr. Mowat, the Premier, will be here this week to see me on business, and I will improve the opportunity to discuss this matter with him, along with other matters.
Mr. DAWSON. The arrangement was that they should be paid tbeir annual annuities. None of the arrears were paid. The annuities had been paid regularly since that time, but there was no payment of wbat was past due, and it is what was due previous to that time, with interest, that they now claim. I think there were statements made some years ago of the amount due, and if the Minister of the Interior would include them in the return so as to give all the information possible, it would be very desirable.
Motion agreed to.
FI3HING RIGHTS IN MATANE RIVER.
Mr. CASGRAIN moved for :
Copies of correspondence between the Government and the holders of fishing rights under permit in River Matane, and of correspondence on the same subject w.th the riparian proprietors, and reports on their opposition to permits, &c.
He said : I desire to call the attention of the Minister of Marine, and also the attention of the Minister of Justice, to the subject of this motion. It affects the private rights of certain riparian proprietors on the River Matane, and 1 believe the action taken by the Government in this matter is to a certain extent illegal, and that the riparian proprietors along that river have been deprived by the Government of fishing rights which they have enjoyed in that river since the earliest settlement of the country, under the French regime. These rights were granted by the French King to the Seigneur of Matane, and the specific right to fish in the Mr._Di£WPNsy,
April 1,
waters of the River St. Lawrence were given to seigneur D’Amours in 1680. That right being vested in the seigneur, it was by him conceded to his tenants, and they enjoyed the right up to the time the Government took upon themselves to deprive them of that right and to bestow it on a private individual, Sir Alexander Galt. I have nothing to say against Sir Alexander Galt personally. He simply took advantage of the right to the fishing which the Government gave him, aud it was given to him in acknowledgment of services which he had rendered to the Government as Fishery Commissioner. But that did not give him, in my opinion, any legal title whatever to the fishing in Matane Rive \ That title, I hold, was vested in censitaires holding title from the seigneur; they possess such right to the fishing that it could not be vested in other individuals by any persons whatever. It can easily be understood that the laws that govern this particular case, the old laws of France, could not be altered by the Conquest. The right acquired from the Crown by private individuals, was not taken away from them by the right of conquest; on the contrary, the lands given by the Crown of France to the Seigneur of Matane, must be held to hold good, and the title does hold good, and so much is that the case, that the rights of the seigneur were acknowledged by the Crown of England, and especially his rights with regard to the fisheries as appears by the records of foi et hommage. I have taken some interest in the case of these censitaires, because I have felt they have been very harshly treated, and not only has the action of the Government, but the conduct of those who had the license to fish in the river, pressed heavily upon them. These riparian proprietors, being in the enjoyment of their rights, continued to fish in the river at the time when the first license was granted to Sir Alexander Galt. The consequence was, that they were soon sum moned before the Justice of the Peace of the locality, and were fined for using a right which they, or their ancestors, had enjoyed from the time of the early settlement of the country. It was supposed that the Government might have assumed a different position in this matter; but, on the contrary, I find, by an answer given some time ago on the floor of the House by the Minister of Marine, that the Government have renewed the lease of the river fishing to Sir Alexander Galt for nine years, to the detriment of the riparian proprietors, and in spite of the remonstranoes of the inhabitants. Whatever may be the legal opinion of the law officers of the Crown in this regard, one faot is clear, that those persons were in lawful possession and enjoyment of that right to the fishery, aud that the Government should not have deprived them of that right by giving a license to a third party. I have taken the trouble to endeavor to indnee the Government to change their position in this matter; but, I am sorry to say, that I could not succeed. In my opinion since the grant was made to the right of fishery in the River St. Lawrence opposite the seigniories, it is very clear that the Government now cannot take it away and give it to another man. The point upon which the Government relies, as far as I have been able to discern, in order to grant the license, is that it was a part of the River St. Lawrence and a part of the River Matane, which is called an estuary, and which forms a special locality upon which the Crown can assert its rights to granting licenses. It seems to me very strange that there could be any such particular spot intervening between fresh water and the tidal waters of the River St. Lawrence. If it is asserted on behalf of the Crown that they could grant a license for the river above the tidal waters, then I say, that long ago that position taken by the Government was settled in the case of the Queen against Robertson. I hold, therefore, that there is no possible right in the Crown to grant licenses in the River Matane above the Ddal waters. Then if it is alleged thfrt they could grant a license in the waters of the St,
1889,
COMMONS DEBATES.
939
Lawrence, as I have said before, the prior right of the seigneurs is a complete bar to the Crown granting any license. I am'unable to understand, and those people who have enjoyed the right to fish are unable to understand, how it is that a favor of that description could be granted to Sir A. T. Galt, against what they consider their just rights. They think it a great hardship and a great wrong that they should be muloted in fines and condemned to imprisonment for fishing in that river, after having enjoyed that right for a number of years as they did. That seems to me preposterous. Allow me to quote the opinion given in the case of the Queen vs. Robertson, which may be found in the Supreme Court Reports, page 68. It is as follows:—
0“ In fresh water rivers, that is above the ebb and flow of the tide, the owners of the soil on each side have the interest and the right of fishing, and it is an exclusive right extending to the centre of the stream opposite their respective lands, nnless a special grant or prescription be shown.”
I may add that this is not only the English law, but it is also the French law upon that point. Since the Local Governments and the Federal G-ivernment are, toaoertain extent, at the present moment, extremely sensitive as to their respective rights in these fisheries, it seems to me that if there was J»ny right belonging to the Federal Government to be exercised under the British North America Act, that ought to have been decided by the Supreme Court. That right of fishery in the inland waters seems to be vested in the Local Government of the Province of Quebec where the seigniory is situated; therefore, I say that the Federal Government ought to exercise extreme caution before granting any more licenses, or renewing the license to Sir A. T. Galt. I am sorry to say, Mr. Speaker, that I differ from the views entertained by the Minister of Justioe in this matter, because I know that his opinions are extremely valuable, and that his judicial mind is such that I ought perhaps to submit to his legal opinion. However, in this matter the case appears to me to be eo plain that t do not think there is any room for doubt. I do not at all see how this license should have boon issued in favor of Sir A. T. Galt, because it is a grievance imposed upon a number of the persons of that locality. With the permission of the House I desire to amend this motion by adding to it the words : “ And also all the leases that have been granted for this river.’*
Mr. FISET. (Translation.) It is with pleasure, Mr. Speaker, that I second this motion. It refers to a river in the county of Rimouski, which I have the honor of representing here ; and, besides, it includes a question full of interest to private person sand of considerable public moment. The hon. mover of this motion, some years past, when I was not in Parliament, made a report to the hon. Minister of Justice on this subject. For this reason I thought it becoming to give way to him and to content myself with seconding the motion. Not wishing to be prolix. I will enter at once npon the subject. According to the Union Act, the Federal Government has only the right to improve the lakes and rivers, and not the absolute ownership in them. On this point, I may be permitted to read the following, which I find in the treatise of Mr. Joseph Doutre, “ The Constitution of Canada,” at page 164:
“ I have, therefore, arrived at the following eon elusion :—That it was not the intention of the British North America act, 1867, to give to the Parliament of Canada any greater power than had been previously exercised by the separate Legislatures of the Provinces; that is, the general power for the regulation and protection of the fisheries.
“ That the act of Parliament of Canada, 31 Viet., c. 60, recognises that view, and, while it provides for the regulation and protection of tbe fisheries, it does not interfere with the private rights, only authorising the granting of leases in fresh water rivers, where such rights have not already accrued, and that any lease granted by the Minister of Marine and Fisheries to fish in fresh water rivers which are not the property of the Dominion, or iu which the soil is not in the Dominion, is illegal; that where the exclusive right to fish has been acquired by grant or the
land through which the river flows, there is no authority given by the Canadian Act to grant a right to fish; and, also, that the ungranted land being in the Crown for the benefit of the people of New Brunswick, the exclusive right to fish follows as an incident, and in such case is in the drown, as trustee for the people of the Province, and a license to fish in such stream is illegal.’’
I think that this oitation is oonolusive. But I have farther arguments: The River Matane, in the county of Rimouski, is situate about 240 miles below Quebec. The seigniory in which it lies was granted in 1672 by the Intendant Talon to Mr, Mathieu D’Amour-t. And, if the House will kindly permit me, I shall read out the title to this seigniory in order to make it better understood, how those at this day ask the right to fish in the R:ver Mataneare only seeking the exer-oise of a right. In the “ Cadastres abr6g6s des Seigneurics de Quebec, ” vol. 2, No. 98, we read as follows :—
11 This Seigniory was granted on the eighth of November, one thousand six hundred and seventy-two, by Mr. Talon, Intendant, to Mathien D’ Amours, and at that period consisted of one league in front by one league and a halt in depth, at the place called Matane, viz. : half a league on either side of the River Matane.
“ Subsequently, on the twenty-sixth of June, one thousand six hundred and seventy-seven, this grant was confirmed by Jacques Duchesneau, Intendant, Ac., who gave D’ Amours a title for the league in question with a further grant of one league by the same depth “A prendre du cfttA de la riviAre MAtis, avec le droit de pAche sur le dit fl°uve St Lau. rent, pour en jouir, etc, A titre de Fief et Seigneurie, etc., aux droit et redevances accoutumAs, suivant ia coutume de la prAvotA et vioomiA de Paris.”
11 This grant, it will be perceived, gives a frontage of two leagues on the River St- Lawrence.
“ On the twelfth of January, one thousand seven hundred and eighty-one, Donald McKinnon rendered foi et homage for two leagues and a quarter of the Seigniory of tfataae, which is described as ,eoaiaiaiug two leagues and a half in front.”
And now we come to the most important passage:
“On the sixteenth October, one thousand seven hundred and ninety-three, James Shepperd, the Sheriff of the District of Quebec, executed a deed i f sale in favor of Simon Fraser, of the Fief and Seigniory of Matane, situate on the south Bhore of the River St. Lawrence, in the District of Quebec, ‘containing in the whole two leagues and a half in front by a league and a half in depth, to wit: half a league on this side and two leagues beyond the River Matane, with haute, moyenne et baueJus» tiee, and tha right of fishing in the said River St. Lawrence.’ The sale had taken place up in Laughlan Smith, curator to the estate of Donald McKinnon and hid been effected on the eighth August, one thousand seven huudred and ninety-three, for the sum of one hundred and sixty pounds current money of Lower Canada.”	.
I humbly ask the House’s pardon for taking the liberty of reading at length this passage. I know that a report hag been presented to the Government by a very distinguished man; but in this report of his this passage is not quoted at length. I proceed:
“ ft is to be observed that by the original deed of concession two leagues only in front were granted, namely : half a league below the River Matane, and a league and a half above it; nevertheh ss, by the Sheriff’s sale above mentioned two leagues are sold beluw the River Matane, and half a league above it.
“ On the eighth March, one thousand eight hundred and twenty-four, the Earl of Dalhousie, the Governor General, granted to J&ue McJallum and to her children, issue of her marriage wish tbe late Simon Fraser, another league in front by the same depth; the Baid last-mentioned league, as appears by the description, being Bitnate next to the half league above the River Matane.
“ The present proprietor iB at this day in possession of tae whole three leagues aud a half in front upon the River St Lawrence-
“ From the above statement it will appear that the only extent granted below the River Matane, is a half a league, with a league and a half above the same river, the league granted by Letters Patent covering tbe same ground as the league granted by Duchesneau, in one thousand six hundred and seventy-seven, to D’ Amours, beyond the league granted by Talon, to the same individual, in one thousand six hundred and seventy-two.
“ No droit de Quint has accrued upon the seigniory within the last fifty years, the seigniory having descended by inheritance from Simon Fraser, who purchased it in one thousand seven hundred and ninety-three, to the present proprietor, his son ; Simon Fraser paid the droit ae Quint npon his purchase in one thousand seven hundred and ninety-three, on the twentieth day of February one thousand seven hundred and ninety-eight, to the then Receiver-General.
“ Daniel McKinnon had become proprietor of the two leagues and a quarter for which he rendered foi et homage as above stated, by purchase from the representatives of Mathien D’Amours, the original grantee.”
940
COMMONS DEBATES.	April 1,
In this way Mr. Mathieu D’Amours was the rightful owner of this seigniory which was later on ceded to Simon Fraser, and finally to Daniol McKinnon. The parcels of land sold fronting on the river have been sold with the same privileges attached as belonged to the seigniors, that is to say, with the right of hunting and fishing over the St. Lawrence and a.fortiori over the E ver Matane. I have examined the titles of the various seigniories granted by the Kings of France to the seigniors of the Province of Quebec. Not one of them, perhaps, is more explicit than that referring to the River Matane. Let us see, now, upon what grounds the Government base their refusal to the proprietors of waterside lands of the right of hunting and fishing. They rely upon these words: “navigable and floatable rivers ” Allow me to cite the opinion of one of the most eminent of jurists, whose authority gives weight in France, Mr. Laurent, in hss treatise: “Principes de droit civil,” vol. 6, page 7. He puts the following question :—
“When is a river navigable? The Code savs nothing; but the meaning of the word navigable and the spirit of the law is sufficient to decide the question. Navigable means where is possible to navigate, and to navigate signifies to proceed by water either way, upwards or downwards So that it is not sufficient that because one can crors from one bank to the other on a ferry boat that the river becomes a navigable one. Furthermore, it has been decided that a river is not a navigable one for the reason alone that the oceuniers of the bank move about on it a few small boats for the transport of manure and the crops In short the navigability implies the possibility of transporting men and material; it is because navigable rivers form a means of communication that the legislator has plac< d thnm wiihin the public domain ; if they cannot be made nse of for the purposes of communication, the reason for which they are held t > be public property no longer exists, and there is no effect without its corresponding cause. Whenever a river is not navigable it does not fall within the public domain.’’
Further on still, at page i9, he says :
“ A river may be navigable in part and non-navigable in part. ”
This is the case with the Matane River.
“ Will it belong to the public domain throughout its whole course? D’Agnesseau maintained that the entire river is a appanage of the State domain. It is established in the Repertoire of Merlin that D’Ague.-sean Wrote less as an impartial judge than as a special pleader for the rights of the domain. His opinion has not found favor. The contrary has been decided by the old law under the Code Vapoleon. Applying the principles we have j nst laid down the correct decision is evident enough. If navigable riverB are under the control of the public, it is on account of their being navigable; in the case when they are not navigable throughout their entire course they only become public property from the point where they become navigable.”
A little further on, at page 20, he says:
“ For similar reasons the owners of water frontages will have the right of fishing in those waters ; the exercise of this right not affecting injuriously their navigability.”
After reading these lines one would say that the author had himself visited the Matane River, so closely do his remarks apply to the case in point. In fact this river is navigable as far as Fraser’s wharf from the mouth. But at the place where salmon is caught by the line, from Fraser’s wharf to Price’s dam, it is not navigable even at high tide. 1 cannot understand how a man of such standing could send in to the department a report in which he stated that this river is navigable; For those who have seen it when I have, it is easy to determine that it is not navigable. As I have just said, from Fraser’s wharf to Price’s dam it is one succession of rapids. It is true that the high tide makes itself felt, but even with the high tide, the river is not even then navigable for any bateau or any schooner. Now what do we understand by the word “ floatable ” ? Allow me again to cite the same author, who in Fi ance is regarded as a leading jurisconsult. This is what he says:
“ There are rivers which are not navigable but which are floatable, that is tp qay, which although not bearing boats over their bottoms,
?et serve to transport wood either in pockets or rafts or loose logs.
ublic opinion is founded on enstom. Those rivers are never considered as floatable whose floating powers are limited to the floating of loose logs. We see no other reason for this distinction beyond the respect for the rights which attach to the water front proprietors on nonnavigable streams. The legislator has wished to reconcile the interests of these proprietors with the interests of those engaged in transport by water. Their rights may be exercised without interfering with the float-Mr. Fiset.
ing facilities of the stream, therefore there was no necessity for placing under the protection of the State those rivers which float loose logs of wood; without necessity there is no public control.’’
Such is the opinion of this learned jurisconsult respecting floatable rivers, and what is understood by floatable streams. As will be seen in oases where the floating power is only sufficient for loose logs, not even for rafts, the river belongs to the proprietors of the front and is not reokoned as the property of the State. The strongest proof which l ean adduce in this connection, to show that the river is not floatable, is the very foot that the Messieurs Price instead of transporting their sawn timber and deals, &c, by rafts, transport them overland by waggons, for they know full well that by rafting they would be exposed to serious loss. One last remark and I have done. It is further stated in this report which was presented to the Government some years ago, that the King’s highway passes along the river’s edge and that in consequence there are no river front proprietors It is just the contrary. There is a road on each side of the river, a highway, but on one side are found frontage owners while on the other side are to be found proprietors who do not own the front, so that it cannot be said that the King’s highway runs along the River Matane on both sides, and that there are no river front owners. For those who know the locality as I know it, ii is impossible to understand how a man of such great pretentions was able to present to the Government a report which is nothing else but false. I might cite several more authors, and bring forward many more reasons for the purpose of establishing that the Matane River beyond its mouth is not navigable, but I think that I have said enough to convince this honorable House, and that it is sufficient for me in conclusion to put th!s simple question: How does it happen that the River Metis and the River Rimouski, both in the county of Rimouski, as is the River Matane, and each of them only thirty miles from the latter river, how does it happen, I say, that the Government does not withhold the right of fishing and hunting on these rivers, which are in precisely the same position as the Matane River is ? The River Rimouski is navigable as far as its mouth; it is even floatable as iar as Price’s dam which cannot ba said of the River Matane. So the RiVur Metis is navigable at its mouth, but it is not floatable in its other portions. Nevertheless the Government have surrendered their rights over these two rivers. But as for the Matane River, the river front owners who possess the right of hunting aud fishing by virtue of the titles which have been granted to them by the seigniors, find that they are deprived of the rights which the proprietors on the Rivers Rimouski and Metis enjoy. The Government lease this Matane River to a private person, who pays them $100 per annum, and by that very act they deprive the owners of the land of their lawful rights of hunting and fishing. Is it not plain that there is injustice somewhere, but I venture to hope that the Government so soon as they will take the trouble to inform themselves of the facts, will hasten to give back to the water front proprietors the incontestable rights which have been disregarded to this day.
Motion, as amended, agreed to.
FISHERIES IN LUNENBURG COUNTY, N.S.
Mr. EISENHAUER moved for :
Return of all correspondence between the Department of Marine and Fisheries and Mr. C. G. Goddard, Overseer of River Fisheries in the county of Lnnenbnrg, during 1888 ; also, his report to the department for the same yetr; also, the report of Mr. Rogers, the Inspector of Fisheries for Nova Scotia, for the year 1888.
He said: My object in making this motion is to ascertain, if I can, the parties who have been fined in the oounty of Lunenburg for violation of the Fisheries Act, and the parties from whom fines were exacted; and, also,
1889
COMMONS DEBATES,
941
to obtain, if I can, the reports of Fishery Overseer .Rogers for 1687 and 1888. I am informed that Mr. Rogers made a special report on the sawdust question in 1887, but I do not see it in the Minister’s report, so that it must have been suppressed, I imagine. I am also informed that his report was to the effect that, in his opinion, the sawdust was not at all injurious to the river fisheries. Now, it does seem very straDge that the Government should have suppressed that report. If they have no confidence in their own official, I think he sboald be dismissed from the service and some other official appointed in his place, in whom they would have confidence. From the correspondence I have had with the Minister of Marine and Fisheries, I judge that some years ago Mr. Rogers reported differently from what he has done during the past two years. Perhaps the hon. Minister can explain the reason of this difference in his reports. With regard to River La Have filling up with sawdust, I do not think it is any different from what it was fifteen years ago. Vessels of large tonnage go up the river, and load and come down as they did fifteen to twenty years ago. I think that is proved conclusively* The navigable part of the river is not filling up, as the Government have been led to believe. Several of the largest lumbering mills there have closed down, as the hon. Minister well knows, and hundreds of men are thrown out of employment; and I am informed, by parties in the county, that quite a number of those men are now making their way to the States for wantof employ ment. In correspondence which I received to-day from the Minister, he said that if it could be shown that the sawdust was not injurious they would not enforce the law. It devolves on the Government to satisfy themselves whether the sawdust is injurious or not; I do not think those in the lumber business should be called upon to do so. I think the Government should, themselves, appoint a commission to enquire thoroughly iDto that question, because the lumber industry is a very large one in Nova Scotia, especially in the county I represent, and those millers say that the expense of erecting furnaces for the burning of the sawdust would be greater than they could afford, and if they are obliged to keep their mills shut down, the consequences will be ruinous to a large portion of the lumber trade in the Province, and especially in that county. I do think the Government should take this matter into their serious consideration, and if they satisfy themselves that the Bawdust is really injurious, then they should decide which would be the more injurious, to stop these large lumbering operations, or to allow the small injury that would be done to the fisheries by permitting the sawdust to be thrown into the river. I am informed that there are just as many fish, on the average, taken from the river now as there have been for years past. Thero were quite as many fish taken on the Port Medway River for several years past as were taken many years ago There are quite a number of mills on this river and all the sawdust has been thrown into this river. Whether that is dhe to the stronger current in this river, I do not know. There may be some sawdust in the eddies and little nooks of the rver, but I think there is as much fish there as there was twenty years ago. I think the Government have been discriminating in regard to the parties Who have been fined, or from whom the fines have been exacted.
1 hold in my hand a letter written by my predecessor, the representative of the county in 1886, which I will read. It is addressed to one Benjamin Hubley:
“ My Dear Sir,—I think I answered your letter some short time ago regarding sawdust, but, baring a doubt, I will make sure of it by writing yon now. I delayed, when first I received your letter, in order to make arrangements with the Government. I am sorry yon paid the fiue yon speak of, as Ur. Goddard should have collected first from the Davisons, who were the real violators of the law, as the sawdust from their mills has really been doing the injury to navigation, and they are the best able to pay. 1 have written Mr. Goddard, giving him an idea of what I consider is right, and his unfairness in exacting fines from the small millers and poor men, and letting Davisons go. I will write
Goddard to-day, and until yon hear to the contrary, don't be an exception in saving the dust, but be careful not to throw mill rubbish Or slabs in the river. I can realise how hard it is to save the dust, constructed as our old mills are.”
I thick we may gather from this letter that there was some discrimination in fining parties who threw sawdust into the river, and I think that is one reason why those fined complain so very muoh. I may say also that in the county I represent there is a large number of small mills with one saw, and it would be impossible for those people to consume their sawdust. It would not pay them to go to the expense of burning it, or getting rid of it in some other way. I think it is the duty of the Government to seriously consider this matter and satisfy themselves thoroughly whether the throwing of sawdust into the rivers is really injurious or not. The law has not been enforced with regard to all rivers. The Government take the right to exempt some from its operation, and I do not see how they can do that properly, unless a commission is appointed to see which rivers should be exempted.
Mr. TUPPER. With the consent of the hon. gentleman, I would suggest that the form of his motion be varied so as to make it read, so far as relates to sawdust, and I will have no objection to the motion with that change. The hon. gentleman is mistaken when he thinks there is any desire to suppress Mr. Rogers’ report. It does not appear in the Fishery Report for the very good reason that the report has not yet been laid on the Table.
Mr. JONES (Halifax.) When will it be?
Mr TUPPER. Yery shortly. It is printed, and is now being bound for distribution. When the report is brought down, it will not contain Mr. Rogers’ views on the sawdust question, but I have uo objection to bring down, at the request of the hon. gentleman, that portion of the report in full, and the House can decide whether it is worth printing or not. The report is very voluminous, and a large portion of it contains nothing new or of particular value to hon. gentlemen on either side. It is, perhaps, an epitome of arguments that have been used on the question for a long time, and that are familiar to nearly all of us. At any rate, the printing of that is a matter which I will leave to the Print'ng Committee, if desired. The report itself will be brought down. With reference to the hon, gentleman’s remarks in connection with Lunenburg County, no doubt he is aware of the great indulgence exercised by the department, ever since the year 1876, towards the lumbering interests in that county. I am quite satisfied that a careful examination of the correspondence will show that there has been no desire to favor any one, but perhaps a desire to favor the lumbermen and to encourage their industry—often, however, at the expense of the valuable interests of the fishermen. The department has been embarrassed considerably by the arguments used on both sides. As a rule we have tried to carry out the law of the land, which has been on the statutes for a number of years. The hon. gentleman incidentally discussed a principle of this law, which we are bound to administer, and there may be much to be said on both sides of the question. I notice a Bill has been introduced by the hon. member for Cumberland (Mr. Dickey), who has raised that very important question as to whether this legislation regarding the pollution of rivers with sawdust should not be repealed; but 1 take it, until the House has repealed that Act, it will be the duty of the department, except in the case of streams exempted for special reasons, to enforce the law as we have enforced it in the past. The letter which the hon. gentleman read does not bear out the charge he made that the Government, in 1886, showed favoritism in this connection, Mr. Kaulbach, it is true, expressed in that letter bis own individual views as to whether the fishery officer should not have proceeded against the rich lumberman before ex-
942
COMMONS DEBATES.
April 1,
acting the fine from the poor lumberman. That is simply his opinion. We are not in possession of all the facts; we do not know which party was proceeded against first, and which has the prior judgment. However, I do not think that affects the question which the hon. gentleman has raised, and it does not snpport the incidental statement he made that there was any favoritism shown in regard to this matter. I am certainly not aware of any case of that kind, and am prepared to show that since I have had anything to do with the department there has not been any attempt to favor a single millowner in this connection. On the contrary, in my official capacity, I have become very unpopular in a large number of counties very favorable to the Government, because I refused, as I did not see my way clear to meet the wishes of the people in those districts, to relax the law, and it is because I have endeavored to carry out this law that considerable dissatisfaction has been ex pressed in many quarters, both in counties friendly to the Government and others. In the Port Medway River, which is in the county represented by my hon. friend from Queen’s (Mr. Freeman), the same instructions were given as were given in reference to the La Have In fact, I may state that all this sudden excitement in one portion of Canada only is due to the circular which I thought, in fairness, should be issued to the people interested, in the Provinces of New Brunswick and Nova Scotia last fall, when I discovered that, probably owing to the views of the inspector in Nova Scotia whose name has been mentioned, that the sawdust does not injure the fishery interest, a great many lumbermen deposited sawdust in very considerable quantities in the rivers there, thinking they had the right to do so with impunity. And, consequently, I thought it would be fair to give them timely notice that this could not be done under the law, and that they must adapt their mills so as to dispose of their sawdust otherwise than by putting it into these rivers which were not exempted. I showed them the provisions of the Act, and told them that the law provided for the consideration of special facts, shown by petition to the Governor in Council, or to the Minister of Marine as Minister of Marine, pointing out the special circumstances which existed in connection with any particular river where the enforcement of the law would not serve any useful purpose. Since that circular was sent out, several petitions have been considered, and some streams have been exempted, and in regard to other streams the exemption has not been granted, or, where the exemption was not granted, the instruction was given by authority to the officer not to enforce the law, if a reasonable effort was made to keep out such quantities as could be kept out, of this sawdust or mill rubbish. As to the hon. gentleman’s suggestion for
a commission, I prefer the method which the hon. member for Cumberland (Mr. Dickey) has adopted in this matter. I prefer that the subject should be discussed on a proposition of that kind for the repeal of existing legislation, when the experience of all the fishery officers in the country can be used, as shown by the reports, and the opinions of scientific men can be discussed. The expense of such a commission as has been proposed, in order to effect any real purpose, would be enormous. The hon. gentleman mentions, for instance, that they should go to rivers and examine them. If he thinks for a moment that the commission would not only have to go through the rivers of the Province of Nova Scotia and examine them, but would have to go through all the Provinces of Canada and take evidence and make due enquiry, the difficulty, he must see, would be very
Seat; and I suppose the hon. gentleman suggested that cause he was of the opinion that in some streams it would be necessary to enforce the law while it might not be enforced in others j but there are other gentlemen who believe that the law should not be enforced in any stream at all. There is at present, though my hon. friend may not be aware of the fact, an enquiry being made into this subject Mr. Tuppjca.
in connection with the Ottawa Eiver, a portion of which has been exempted from the operation of the Act for some years, and that investigation is now being made by very competent men. The papers will be brought down, and perhaps they will give the hon. gentleman some important information on this subject.
Mr. LAURIER. Perhaps my hon. friend will have no objection to amend the motion in the direction suggested by the Minister of Marine and Fisheries, and I hope the Minister will have no objection to amend it so as to include the list of the fines imposed under the Act.
Mr. TUPPER. For any particular year ?
Mr. LAURIER. For 1887 and 1888.
Mr. TUPPER. Certainly, there is no objection to that.
Mr. LAURIER. My hon. friend has brought to the attention of the House, the point which has been referred to by the Minister, whether sawdust in rivers is injurious or not? I understand that that question is debated. Some affirm that it is injurious, and others affirm that it is not, and ihe object of my hon. friend is to decide which opinion is correct. However, the law assumes that it is injurious, and it is upon that assumption that the law is based. I quite admit that the Minister has no option but to carry out the law as he finds it, whether good or bad, but my hon. friend complains that a discrimination is made between offenders, and that the political complexion of the offender has a good deal to do with whether tbe law is enforced or not. The Minister repudiates that part of the statement, and I have nothing to say in regard to it, but probably the list which he will bring down may settle the question.
Mr. GILLMOR. This is a very serious question in regard to certain mills.
Sir JOHN A. MACDONALD. I would ask the hon. gentleman to move the adjournment of the debate. I know that several members desire to speak upon it.
Mr. GILLMOR. I have nothing to say excepting that, if the law is carried out, you will do away with many mills in my Province.
Mr. KENNY moved the adjournment of the debate.
Motion agreed to, and debate adjourned.
RETURNS ORDERED.
Copies of all correspondence between tbe Federal Government, or any department thereof, and tbe Government of Prince Edward Island, or any of its officials, regarding the piers of Prince Edward Island or harbor improvements in the said Island.—(Hr. Robertson.)
Copies of all tenders for the supply of beef for the Blackfeet, Blood and Piegan Indian Agencies, ana all papers and correspondence connected with the calling for such tenders, and the awarding of contracts for such supplies during the summer of 1888.—(Mr. Edgar.)
Copies of all correspondence between the Dominion Government and the Corporation of Pilots for and below the harbor of Quebec, respecting the change in the present tariff of pilotage dues on vessels for and below the harbor of Quebec.—(Mr. Langelier, Montmorency.)
Return of all reports upon the state and condition of each of the pierB in Prince Edward Island taken over by the Dominion Government from the Prince Edward Island Government, together with a Return of all expenditure on each of the said piers since the 30th of June, 1888; and all correspondence relating to the state of repairs of said piers, and the repairs thereof during the year 1888.—(Mr. Welsh.)
Copies of all Orders in Council, or reports or eorrespon deuce relating to admission of mining machinery free of duty by the Government of British Columbia lor the development of the mineral resonrces of that Province, or to the remission by the Dominion Government of duties paid thereon.—(Mr. Edwards.)
Copies of all petitions, correspondence and documents respecting the extension of McMahon street through the Ordnance land, in the city of Quebec, to D'Aiguillon street.—(Mr Langelier, Quebec.)
Correspondence between the Government and Mr. E. P. Wright, of Ottawa, relating to a claim of the latter for a refund of duties paid by said E. P. Wright upon mining machinery.—(Mr. Edwards.)
1889
COMMONS DEBATES.
943
Copies of all Orders in Conncilt correspondence, agreements and settlements respecting the conveyance of the North Shore Rail-way to the Government by the Grand Trank Railway Company and by the Government to the Canadian Pacific Railway Company.—(Mr. Lange-lier, Quebec )
Return of all claims presented from 1st February, 1885, to 31st December, 1888, for drawback on goods manufactured for export, showing the names of all applicants, their places of business, the article on which drawback was claimed and the amount of each claim, distinguishing between the claims which have been allowed and thoBe which have been disallowed, and those not yet decided, and giving the reason for each disallowance; also copies of all regulations made by the Customs or other department with reference to such claims, together with a copy of one allowed claim and of the sworn declaration of each exporter.— (Mr. Ellis.)
Copies of all tenders received for the construction of the Sault Ste. Marie Canal, with accompanying documents, including the approximate quantities on which such tenders were computed, and the gross amounts; and all correspondence, reports and Orders in Council, in relation to the same.—(air. Trow.)
Copies of all tenders received by the Department of Railways and Canals, in September and October, 1888, for the enlargement of the Cornwall and Galops Canal, including the approximate quantities on which such tenders were computed, and the gross amounts ; and all correspondence, reports and Orders in Council, relating to the same, since the receipt of such tenders.—(Mr. Trow.)
Copies of all petitions, reports, Orders in Council and paperB generally, in connection with the dismissal of J. M. Grover from the position of Postmaster of Morden, Manitoba.—(Mr. Guay.)
Return showing the entire cost of the St. Charles Branch Railway, including right of way, land damages, survey and engineering expenses, and ail other items of expenditure of any kind, in the following order : Cost of survey, and to whom paid; coBt of engineers’ services, and to whom paid; cost of land damages, and to whom paid ; cost of legal expenses, Including conveyancing, and all legal services, and to whom aid ; cost of all services rendered by any other party, of any other ind, paid by the Government; the entire cost of the line, including every item of expenditure of any kind connected therewith, and the amount of claims put in and not yet settled.—(Mr. McMullen.)
All the original cheques given in payment of all fees or expenses connected with the Buit, the “tit. Catharines Milling and Lumbering Company vt. The Queen.”—(Mr. McMullen.)
Copies of all correspondence, reports, petitions and other documents, up to this date, between the Post Office Department and the Post Office Inspector for the district of Montreal, Mr. King, and any other persons, ‘respecting a change in the location of the Post Office of Belle Yall6e, in the County of tit. John’s.—(Mr. Bourassa.)
Return of Orders in Council relating to the division of the subsidy of $250,000 to the International Railway Company, between the different portions of the road, say, from the St. Lawrence to Lennoxville, from Dennoxville to Moose River and Mattawamkeag, from Mattawamkeag to Harvey's Station, and from Harvey to tialisbury, giving the number
of miles ia each division, and the amount apportioned thereto._(Mr.
Junes, Halifax.)	~
Return, 1st. Copies of the petition asking for the incorporation of the T6miscouata Railway Company. 2nd. Copies of all correspondence between the Government and this company respecting the granting of a subsidy or having reference to such subsidy.—(Mr. Dessaint.)
Return, 1. Giving the names and places of residence of the Commissioners appointed in 1883 for the purpose of examining and reporting upon the fitness and eligibility of persons appearing before them for examination and qualification as Inspectors ot the hulls of freight and passenger steamers plying in Canadian waters; 2. Copies of the circular sent out inviting competitors to meet at Ottawa, and the date or dates so mentioned from time to time; 3. The names and places of residence of all persons who were so examined at each and every meeting of the said commissioners up to date ; 4. Copies of the recommendation or recommendations of any of the Baid Commissioners, or any one of them, respecting the said examination or the qualifications, or otherwise, of any or all who underwent such examination at the first or any subsequent meeting of the said Commissioners, or either of them ; 5. The name and place of residence of each and every inspector of freight and passenger steamer hulls appointed by the Government from 1882 to date, indicating who were appointed after undergoing and passing the necessary examination, as well as giving the name and place of residence of each and every inspector of such hulls who was appointed without having successfully passed the said examination, together with the name and place of residence of any inspector so appointed since 1882 to date who had been dismissed or had resigned within the time specified, and the cause assigned for such dismissal or resignation; 6. The name and place of residence of any person appointed to fill any vacancy or addition as inspector ot said hulls; and 7. Copies of all correspondence between the Minister of Marine and any person respecting any of the questions enumerated herein.—(Mr. Wilson, Elgin.)
Return of the survey made ot the Annapolis and Liverpool Railway, with the report of the engineer, and all papers and correspondence connected therewith.—(Mr. J ones, Halifax.)
DEATH OF THE HON. J. H. POPE.
Sir JOHN A. MACDONALD. I have the distressing doty of announcing to the House the decease of the Hon. John Henry Pope, my friend and oolleague. Although the event is not unexpected, yet the blow is so severe when it falls that I feel I cannot say more just now. I shall, therefore, Sir, move the adjournment of the House. I have no doubt that a fitting opportunity will be taken by myself and some hon. members of the House on both sides, to* express the great regret which is felt at the loss whioh the House and the country have sustained by the death of Mr. Pope. In consequence of the great desire on both sides of the House, as I believe, to get through the business of the Session as speedily as possible, while I move now that the House adjourn until to-morrow, as there are some private Bills standing whioh ought to be moved, the Government will give them, with the consent of the House, the hour after 7:30 to-morrow, of which they are deprive 1 to-dayI, therefore, move, seoonded by the leader of the Opposition, that the House do now adjourn.
Mr. LAURIER. I oertainlv deem it my duty to seoond the motion of the right hon. gentleman. As he has stated, the death of Mr. Pope was not unexpected. In fact, it has been expected for some time, and, under the oironmstances, it does not present to his friends the harrowing grief whiob the sudden termination of a useful career would be sure to produce. Still, I know that the country will realise that it is no ordinary or common life which has just been ended. As an opportunity will be given to say more on the subjeot on a future occasion, I shall say no more to-day.
Mr. MITCHELL. I feel deeply the event whioh has just occurred in connection with an old personal friend, and a gentleman who has occupied a prominent part in every great event in Canada for the last twenty-five years. He was a person who was universally respected for his ability, and he has left, in passing from the Cabinet, scarcely a man behind him there superior to himself in the particular line whioh he followed. The statement is true that we have expected this for two or three days past, and now I am sure that the country will agree with us in deeply regretting the deoease of one who, if he had lived, would have continued to perform the useful servioes to the oountry which he has performed for many years past.
Sir RICHARD CARTWRIGHT. Before the House adjourns, I would like to ask the First Minister if it is the intention to go into Supply to-morrow ?
Sir JOHN A. MACDONALD. Yes, I think so.
Sir RICHARD CARTWRIGHT. Then I would ask the hon. gentleman to give the Minister of Finance notioe, as that gentleman is not hero, that I would like to have an answer to the question put to-day before we go into Supply, and that, on going into Supply, although I do not propose to move a motion, I propose to take up the time of the House for a short period in pointing out certain facts in connection with the recent 3 percent, loan, of which I hope some explanation will be given.
Motion agreed to; and House adjourned at 5:50 p.m.
HOUSE OP COMMONR
Tuesday, 2nd April, 1889.
