 at Three o’clock.
Prayers.
PATENT ACT AMENDMENT.
Mr. CARLING moved for leave to introduce Bill (No. 17) to amend the Patent Act. He said : The primary object of the amendments with respect to the first two of these Bills, the Patent Amendment and the Trade Marks Amendment, is. to remove the jurisdiction for the trial of cases arising under them as they at present stand, from the Minister of Agriculture or his deputy, to the courts. The jurisdiction in the three Bills is made uniform. It is placed in the Exchequer Court concurrently with the ordinary courts having jurisdiction in such cases.
Motion agreed to, and Bill read the first time. FIRST READINGS.
Bill (No. 18) to amend the Act respecting TradeMarks and Industrial Designs.—(Mr. Carling.)
Bill (No. 19) to amend the Copyright Act.—(Mr. Carling.)
REPORT.
Report of the Auditor General on Appropriation Accounts, for the year ended 30th June, 1889.— (Mr. Foster.)
QUESTION OF PRIVILEGE.
Mr. DOYON. (Translation.) Before the Orders, of the Day are called, Mr. Speaker, I again wish to draw the attention of the House to a matter personal to myself. On Friday last, I drew the attention of the House to an article which appeared in the Empire, stating that I had not yet taken my seat. With a strict regard to truth, I must say that I was here since the opening of the Session. This is what, according to the Hansard, I then said: —
“ Before the Orders of the Day are called, I wish to draw the attention of the House to a fact which is personal to myself. The Empire of yesterday-
91
[COMMONS]
92
That is to say, the Empire of the 23rd instant—
“ has published a paragraph couched in the following terms:
“ ‘Absent Members.—There are still a number of members of Parliament who have not yet reported at the. House. Amongst them are the following
“ And among several names given, are to be found my own, and that of Mr. Ste. Marie, the member for Napierville. I do not wish to cast blame upon the journal which has published this piece of intelligence, because I think it has been misinformed ; but I must indeed state in justice to my colleague of Napierville as well as to myself, that wc were here both of us since the beginning of the session. I have no wish that this false intelligence should be bandied about by the press, inasmuch as it is of a nature to injure us in the minds of the electors ; and if I so far could presume, I would ask this newspaper to make this correction.”
Well, Mr. Speaker, this is the correction made by the Empire after having published this false intelligence :
“ Mr. Doyon’s Explanation.—Mr. Doyon, M.P., rose to a question of privilege to-day. The Empire had stated yesterday that he had not arrived at Ottawa. This was a mistake, as he has been here from the beginning of the Session. He made this explanation, as otherwise his constituents would think he had been on a ‘ bum.’ This explanation was made in French and evoked much laughter from the French members.”
Well, Mr. Speaker, I wish to ask the House whether if there are newspaper representatives who conduct themselves like “bummers” in the-streets of Ottawa, they should not be compelled to act as gentlemen in this House. I owe it to myself and to my constituents to make myself respected here. If those young persons do not know how to behave in the streets of Ottawa, and are accustomed to haunt the lowest drinking dives, and if they have not the decency to conduct themselves like gentlemen when they are in the deliberative assembly of the Dominion,
I insist that the orders be put in force and that they be expelled. There is no need for corrections made in such spirit. There are many among those people, whom I might call “bummers,” did I but know their names.
BANKING AND COMMERCE COMMITTEE.
Mr. LAURIER. I wish to .call the attention of the Government to the fact that the name of Mr. Edwards does not appear on the Committee on Banking and Commerce. I think it should go on.
Mr. BOWELL. I remember distinctly seeing the name written upon the list. I suppose it was left out by some inadvertence.
Sir HECTOR LANGEVIN. I move that the name of Mr. Edwards be placed on the Committee on Banking and Commerce.
Motion agreed to.
SECOND READINGS.
. Bill (No. 13) to amend the Act to incorporate the Alberta Railway and Coal Company.—(Mr. Shanly.)
Bill (No. 14) respecting the Port Arthur, Duluth and Western Railway Company.—(Mr. Dawson.)
Bill (No. 15) to incorporate the Saskatchewan Colonisation Railway Company.—(Mr. Watson.)
POST OFFICE AT ST. EDMOND.
Mr. BEAUSOLEIL asked, Whether the Government have received a petition from the inhabitants of St. Edmond, in the County of Berthier, Mr. Doyon.
asking for the erection of a post office in the said parish of St. Edmond ? If they have received it, do the Government intend to grant the prayer of the petition, and when ? If not, why not ?
Mr. HAGGART. There is no trace of any such application in the department.
MONTREAL HARBOR POLICE.
Mr. CURRAN asked, Whether it is the intention of the Government to ask Parliament for a gratuity to the sergeants and members of the Government Harbor Police Force, lately disbanded at Montreal ?
Mr. TUPPER. This question is now receiving the consideration of the Government.
WHARF AT STE. ANNE DE LA POCATIERE.
Mr. DESSAINT (Translation.) asked, Whether it is the intention of the Government to repair and bring to completion the wharf at Ste. Anne de la Pocatiere, in the County of Kamouraska, as prayed for in a petition from the Hon. Mr. Elisee Dionne and others, [which petition was handed over to the Department of Public Works, more than a year ago, through the intervention of the member for Kamouraska ?
Sir HECTOR LANGEVIN. This question’ has not yet been decided.
POST OFFICE AT PALMER ROAD CHAPEL.
Mr. PERRY asked, Whether a post office has been established at or near the Palmer Road Chapel, Prince County, Prince Edward Island, as promised by the Postmaster General ? If so, when; and who is postmaster ?
Mr. HAGGART. There has been no post office opened at Palmer Road Chapel.
MR. RUFUS STEPHENSON.
Mr. BRIEN asked, Whether Rufus Stephenson, late Inspector of Colonisation Companies, has been in the employ of the Government since June 30th, 1889 ? If so, what were his duties, what his salary, and amount of money paid either as salary or expenses, since that time ?
Mr. DEWDNEY. Mr. Rufus Stephenson has not been employed by the Government since June 30th, 1889.
CATTLE QUARANTINE STATIONS.
Mr. POPE asked, Is it the intention of the Government to establish a cattle quarantine station on the frontier at some inland port in the Province of Ontario or Quebec ? If not, why not ?
Mr. CARLING. It is not the intention to establish a cattle quarantine station on the frontier at any inland port, either in the Province of Ontario or Quebec. The reason ‘ ‘why not” is : that the Government find it impossible to do so, without imperiling the present advantageous position between the Dominion and United Kingdom, in virtue of which Canadian farmers can send their store and fat cattle to Great Britain without restriction. It may become necessary, in consequence of a recent intimation received from the Imperial Government, to suspend for a time all importations of cattle into Canada from countries in which the
93
[JANUABY 21, 1890.]
94
disease of pleuro-pneumonia is known to exist, as a condition of continuing to enjoy exemption from being placed on the schedule list, which would imply immediate slaughter on the Foreign Animals’ Wharf immediately on arrival.
POST OFFICE AT OYSTER PONDS.
Mr. KIRK moved for :
Copies of all petitions and correspondence with the Postmaster General or other officer of the Government relative to re-opening a post office at Oyster Ponds, in the County of Guysborough; and also, copy of a report or reports of the Post Office Inspector at Halifax thereon or in relation thereto.
He said :	Oyster Ponds is the centre of a district
ten miles in extent. A post office had been in existence for a number of years at that place, but five or six years ago, or perhaps longer, the office was closed and has remained closed ever since. More than a year ago I applied to the Postmaster General to have a postmaster appointed there and the office re-opened. I make the present motion to ascertain whether the hon. gentleman is going to carry out the request I made at that time.
Mr. HAGGART. The hon. gentleman desires to know simply whether the post office has been re-opened or not. It was re-opened on the 23rd of last month, and Geo. G. Kerr was appointed postmaster,
Mr. KIRK. That will be news to the people in that district. Before leaving on the 14th inst. I saw a municipal councillor of the district, who lives near Mr. Kerr, of whom the hon. gentleman spoke, and he did not know there was a post office there. I am glad to know from the Postmaster General that a post office is to be open there and Mr. Kerr appointed.
Mr. HAGGART. The hon. gentleman has misunderstood me. I said that the post office was ordered to be opened there on the 23rd inst. and that Mr. Kerr had been appointed postmaster.
Mr. KIRK. I withdraw the motion.
Mr. LANDERKIN. By reason of action taken last Session, postmasters in rural districts have had their salaries reduced. I have heard a good many complaints in regard to this matter. Hon. members are well aware that the salaries of country postmasters are not very great, and I understand that, under the operation of the Bill passed last Session, the salaries of postmasters in many small places have been reduced. At some places, I understand, the postmasters have refused to keep the offices on the terms proposed by the Department, and consequently some offices have been closed. H there is any class of officials that is not fairly used by the Government, it is that of country postmasters. Last year I complained in regard to the salaries they were receiving, and I stated that I had found the average salaries of postmasters in rural parts of my riding was $11.50 a year. It is absurd to expect that a post office will be kept open every day when such a salary is paid, especially when, under the operation of the same Bill, the Government took power to give larger salaries to some postmasters in cities who already have large salaries, and at the same time took away from the country postmasters the salaries they formerly enjoyed. This is a considerable hardship. I wish to draw the attention of the Postmaster General to the
matter, so that in future he will deal fairly, at all events, with country postmasters, many of whom keep post offices more in the inter of the district than in their own interests.
Mr. HAGGART. The hon. gentleman is entirely mistaken. There was no Act passed last Session with respect to this matter. The mode of calculating the pay has remained the same for a number of years, and it is upon that principle country postmasters are still paid.
Mr. LANDERKIN. The fact which I have spoken of is borne out by matters which are within my own knowledge, and which have come under my own observation. Some officers have had their very small salaries reduced, and, I am told, that if they operated under the Act as formerly existing, this would not have occurred. This may be, however, in keeping with the general policy of the Government, which is reducing the business of the country all over the Dominion.
Motion withdrawn.
POST OFFICE AT LITTLE DOVER.
Mr. KIRK moved for :
Copy of all petitions and correspondence with the Postmaster General, or other officer ofthe Government, relative to establishing a post office at Little Dover, in the County of Guysborough, and mail communication to connect it with Cape Canso, and also a copy of the report of the Inspector at Halifax thereon.
He said : Little Dover is a fishing village situated about five miles, or, perhaps, a little more, from the town of Cfpe Canso, and, up to the present time, the inhabitants of that village have had no post office nor any postal communication whatever. About twelve months ago I applied to the Postmaster General to establish a post office in connection with the office at Cape Canso, but no post office has as yet been established there. There are about thirty-seven families at this village, and they have to journey to Cape Canso to get their mail matter. A post office established there would not only serve the thirty-seven families who are resident there, but it would also be a great convenience to those who come from other sections of the country to fish in Little Dover during the summer season. I, therefore, wish to enquire from the Postmaster General, through this motion, whether he intends to establish this post office for the convenience of the residents of this place as well as for the convenience of the summer visitors ?
Mr. HAGGART. I ordered an enquiry to be made into the establishment of a post office at Little Dover or Dover Bay, and I found that the revenue from a post office established there would be likely $15 and the cost of service $20. As the receipts so nearly balanced the expenditure, I ordered the post office to be established there.
Mr. KIRK. After the satisfactory answer given by the Postmaster General, there is no necessity for passing the motion, and I beg to withdraw it.
Motion withdrawn.
POST OFFICE AT CORINTH.
Mr. LANDERKIN. While on this subject, I might bring another matter to the attention of the Postmaster General. Some two or three years ago, when the present Minister of Agriculture was
95
[COMMONS]

Postmaster General, he wrote a letter informing the people of the Township of Bentinck, at a place called Corinth, that a post office would be opened there. Up to this time the pledge of the hon. Minister has not been redeemed, and the office has not been opened, although the people are still anxious to have the office established. I brought the matter to the attention of the present Postmaster General last Session, not only in the House, but I also spoke to him outside the House, and I was informed by him that he would give this matter his attention, and I supposed he would carry out the pledge of the former Postmaster General. I draw his attention again to the fact that the office has not yet been opened, as I wish the responsibility of failing to carry out the pledge given the people should rest upon the shoulders of the Government, for I do not wish to be blamed if the ministerial pledges are not kept.
THE JESUITS’ ESTATES ACT.
Mr. O’BRIEN moved :
That an humble Address be presented to His Excellency the Governor General, praying that His Excellency will be pleased to lay before the House, copies of the reports or opinions of the Law Officers of the Crown relating to the Act passed by the Legislature of the Province of Quebec, intituled: “An Act for the settlement of the Jesuits’ Estates,” and also copies of the case or cases or other documents or reports submitted to the said Law Officers, or to Her Majesty’s Secretary of State for the Colonies, in relation to the said Act, and upon which the said opinions were obtained, and also all the despatches and correspondence in reference thereto.
He said :	This motion, Mr. Speaker, is intended
to obtain from the Government some information with reference to the terms, or the conditions and circumstances, under which the opinions of the law officers of the Crown, with reference to the constitutionality of the Jesuits’ Estates Bill, were obtained. It is obvious that the value of that opinion must largely depend upon the conditions on w hich the case was presented; upon any correspondence which accompanied the Bill, and upon all the attendant circumstances. This is especially necessary, because the opinions themselves are so worded that they may be confined within the most technical and narrow sense, or else they may embrace the widest and most general sense. That can only be decided when we know the conditions under which these opinions were obtained. I want to know whether any case wras presented by the hon. Minister of Justice or by anyone on behalf of the Government, and whether the Bill itself was sent or what documents accompanied it. I think it is but justice to the Government, who presented this as so conclusive and so authoritative an opinion that no appeal could possibly prevail with regard to it, and I think it is also in justice to those who were called on to accept that opinion, that we should have this information. I have only further to say, Mr. Speaker, that I think it rather unfortunate that when the Government found it necessary to fortify themselves with this opinion, after their very positive declaration of their own confidence in the course they had taken, that they did not do what a great many of their supporters wished them to do, and submit the case to some legal tribunal where it could fairly and manfully be fought out, and where both sides of the case could be presented. Had that been done, a great deal of ill-feeling and irritation would possibly have Mr. Lajtdekkik.
been prevented, and public opinion, instead of being intensified and aggravated, would be satisfied and calmed. However, the Government did not choose to take this course, and I think we have therefore the right to ask for the information which is called for in the resolution which I have read.
Motion agreed to.
LOYALTY TO HER MAJESTY.
On the Order:
Address to Her Majesty; declaring the desire of ther Commons of Canada, in their own name and in behalf of the people whom they represent, to renew the expression of their unswerving loyalty and devotion to Her Majesty’s person and Government; sec.—(Mr. Mulock.)
Sir JOHN A. MACDONALD. I would ask my hon. friend to let that stand over until I have an opportunity of conversation with him.
Motion allowed to stand.	.
TIGNISH BREAKWATER.
Mr. PERRY moved for :
Statement, in detail, showing the expenditure made-in connection with repairs to Tignish breakwater, Prince Edward Island, during 1889 ; the date of commencement of work, and when completed; the name of party in charge of work.
He said :	I desire to say a few words in explan-
ation of the reason why I make this motion. . It will be remembered that, last year, I informed the Minister of Public Works that a great deal of money spent on the Tignish and other breakwaters in Prince County found its way into the pockets of private individuals instead of being expended on the works themselves. I informed him that a gentleman was acting there on behalf of the Government, buying material and trying to go on with the work at the wrong season of the year. The Minister’s answer to me was that he knew nothing at all about it; yet it was impossible for me to believe that that gentleman could be going on with the work without having direct instructions from the head of the department. On returning home I found that he was still in charge. The expenditure there may have been in the vicinity of $1,000; I believe this gentleman kept the work going for over three months, so that, at the rate of $3 a day, he would have drawn about one-third of all the money expended ; and all this was done in order that the boys of two or three friends about the place should receive employment, to the exclusion of other men who were able to earn their wages. The whole of that work should have been done in a month or six weeks, but it was delayed in order that this partisan friend should get $300 or $400 of the money, whereas less than $100 would have been quite sufficient for the superintendence of the work. I wish also to call the attention of the Minister of Marine and Fisheries to the fact that at least half-a-dozen gentlemen who carried on the work there turned the tower of the Tignish lighthouse into a cooking house. I say it is wrong that the public lighthouses of this country, which are for the protection of the lives of mariners and fishermen, should be used in this way. I trust that the Minister of Public Works knows a great deal more of what has been done during the season of 1889 in connection with the breakwater at Tignish than he did last year. Last year he said he knew nothing at all about it. He did not know that Mr. Thomas Bernard was
97
[JANUARY 27, 1890.]
98
appointed inspector of the work. He said that in due time a clerk of the Government would be appointed to take charge of the work, while at the same time Mr. Bernard was in charge. I asked my question on the 10th of April, and on the 12th the Minister made these remarks; and I am aware that the work had commenced late in March or early in April. I trust that these papers will be brought down in good time, in order that the House may be put in possession of all the facts.
Motion agreed to.
KAMOURASKA WHARF.
Mr. DESSAINT (Translation) moved for :
Copies of the accounts connected with the building of a wharf at Kamouraska, in the Province of Quebec, made up during the course of the year 1889.
He said: Before placing this motion in your hands, Mr. Speaker, I desire to make some remarks in its support. It is not a declaration of war which I am going to make on the Government, and I am sure that they will take in good part the few words I am going to utter. In 1886,1 think, the Dominion Government, at the request of Mr. Blondeau, gave orders for the building of a wharf at Kamouraska. In ordering the construction of this wharf the Government naturally thought that it was necessary, indispensable in fact; and I must state that when my predecessor made this request, he did it not only in the interests of his county, but in the interests of the country in general. Therefore, so far from blaming the Government for having taken action in this matter, I think that they rather deserve to be congratulated thereon. In the autumn of 1886, the Government caused certain works to be constructed, but unfortunately at a too advanced time of the season, for the works were not able to be finished and the ice demolished them in part during the course of the winter. The consequence was that from 1886 to 1889 we remained without any wharf. They were obliged to break up the new wharf and pile the wood on the old one. In this way for three years we were in a worse position than before. The old wharf was encumbered by pieces of timber belonging to the remains of the wharf begun by the Government ; and the stone which was used to fill up this wharf remained on the site, so that at the end of the Tache wharf was found an immense mole of stone from eight to ten feet in height and more than one hundred feet in length. This obstacle made the mooring to the wharf almost impossible ; and placed the harbor in a most dangerous condition for navigation. In fact several vessels in the autumn storms chanced to be thrown upon this mole of rock and suffered damage to a greater or less extent. In the month of November, 1888, I think, three sailors were shipwrecked there and nearly lost their lives. Captain Belanger, his brother and a sailor almost lost their lives on that spot. In going ashore from their schooner with their boat alongside—it was during a dark night—their boat capsized on this reef and they were barely able to gain the shore by swimming, driven onwards by the surf which pushed them to the strand. Unfortunately for the Government, they were three of their political friends who thus narrowly escaped with their lives, owing to the negligence and want of foresight of the Government, but happily for them Providence saved
4
them. I thought it my duty as member for Kainott-raska to bring these facts to the knowledge of the Minister of Public Works. I must say to his credit that after the facts had been made clear to him, the hon. Minister took them into consideration, and did what was right, as it was his duty to do. I am not addressing myself to him in order to curry favor. I have no right to it, because I am not a supporter of the Government ; but I speak in the interests of the public. Last year, the hon. Minister ordered the building of the works anew; a portion of the works as planned was carried out; and I must say that this time they have been constructed in a practical manner, and the work done is in accordance with the requirements of the situation. But this is not all,—only a beginning of the wharf has been made. The wharf as determined upon was to be two hundred feet in length, and to end in the form of a “T”. Well, the portion now completed may be about one hundred feet in length ; and the wharf as planned was to have at least two hundred feet. I have no doubt that,having regard to circumstances and the needs of navigation in this quarter, the hon. the Minister of Public Works will take again this question into his serious consideration, and will complete the works as contemplated according to the plans furnished by the department. I have the greater excuse for making the request I have done, inasmuch as the design of the Government was to build the works in the manner I have just indicated. When the Government thought it good to order the construction of these works, it was because there was need of them, for there is truly a considerable trade carried on at Kamouraska. Navigation opens early with us; and several days before it is open at Quebec, we have twelve or fifteen schooners in our port. The county of Kamouraska is essentially an agricultural one, which produces in abundance hay, oats and other grain which are exchanged with the people of the county of Charlevoix for cord wood, the principal article of commerce of the latter. At all times there has been quite a trade carried on between the north shore and the south shore, and I would venture to say that the harbor of Kamouraska is not only a harbor of refuge for the inland navigation, but that it is perhaps the most important harbor as regard local traffic on the lower part of the river, with the exception of that of Fraserville. Such being the facts, I say that the Government are right in continuing the work begun; and I will add that they should carry on these constructions by contract and not by day work, as has been done in the past. I am persuaded, and I think the hon. the Minister of Public Works, who has had more experience than I have in such matters, will admit that if these works were done by contract the Government would save nearly 50 per cent. I think, seeing how the case stands, the Government would encourage inland navigation by the completion of these works. We should not only protect ocean trade ; we ought also to encourage inland navigation, and protect the poor sailors who are engaged in so laborious an occupation, and earn their livelihood at the price of so much wretchedness and sacrifice. I am persuaded that if the Government would give themselves the trouble to send to these parts an engineer who would ascertain the needs of the locality, instead of relying on a person who makes
$9
[COMMONS]
100
out the plans in his office, I am persuaded, I repeat, that the hon. Minister would order not only the lengthening of the wharf he has commenced, but that he would also cause to be made a pier at lie Brulee, which lies opposite to Kamouraska ; which wrould allow the Saguenay Company’s steamboats to run a regular line between Kamouraska, Malbaie and Quebec. I am persuaded that all the facts which I have brought out will be substantiated by the hon. member for Charlevoix (Mr. Cimon), wrho is conversant with the considerable trade carried on between the county of Charlevoix, which he represents, and the county of Kamouraska. I venture to hope, Mr. Speaker, that the Government will take this matter into its serious consideration, and that they will complete the works of which I have just spoken.
Sir HECTOR LANGEVIN. (Translation.) In reply to the hon. member, I must say, in the first place, that there is no objection to the granting of his motion. No one can find fault with either the shape or the manner in which the hon. member has made his motion in this House. As to the contracts, of which he spoke, as a general rule it is better to ask for tenders and to allot the contracts according to the tenders ; but there are circumstances where it is not preferable, or, I might say, wrhere it is not possible to ask for tenders. For example, when the case in point is a portion of work which is badly built, or is old ; or, again, when the matter is the raising of work which has fallen, it is always difficult to furnish specifications sufficiently accurate for a contractor to make a tender and not lose money by it; or, again, he will ask for too large a sum of money. In cases such as these the Department of Public Works prefers to give out its work by day-work. As to an extension, of which the hon. member speaks, if the Government decide to carry out this piece of work, I am persuaded that it will be better to have it done by contract than by day-work.
Motion agreed to.
AMERICAN FREIGHT IN BOND.
Mr. LAURIER moved for :
Copies of all Orders in Council or Departmental Orders prohibiting American vessels from carrying bonded freight from American ports to Victoria, B. C., or any other Canadian port, and copies of all Orders in Council or departmental orders revoking the same.
Mr. BOW ELL. I would suggest to the hon. gentleman, if he desires to obtain all the information—as I have no doubt he does—that he should add: “and the correspondence connected therewith.” I think the correspondence should accompany the departmental orders issued, though I may say that it would be impossible for me at present to bring down all that correspondence. I have received important letters in connection with the matter this morning, but I will bring down all the correspondence we have, and, subsequently, we will be glad to lay the balance of the correspondence before the House.
Mr. LAURIER. Do I understand my hon. friend to move an amendment ?
Mr. BOWELL. I ask the hon. gentleman to add those words, and at the same time I inform him that I will not be able to bring down all the correspondence at present.
Mr. Dessaint.
| Mr. LAURIER. Is the matter under consider! ation ?
| Mr. BOWELL. No ; but the correspondence is | still going on.
Motion, as amended, agreed to.
HALF-BREED CLAIMS.
Mr. LAURIER moved for :
Conies of all Resolutions of the Legislative Assembly of the North-West Territories respecting the settlement of , the Half-breed claims.
He said : I understand that the North-West Assembly have made some important representations to the Government as to the claims of the Halfbreeds. I have only seen the statement in the newspapers, and am not in a position to speak in regard to those claims, but I wmuld like to have the information as soon as possible.
Sir JOHN A. MACDONALD. They shall he brought down at once.
Motion agreed to.
ATLANTIC MAIL SERVICE.
Mr. LAURIER moved for :
Copies of all correspondence between the Government of Canada, or any of the Departments, and the Messrs. Anderson, or any other parties, respecting the Atlantic mail service.
Sir JOHN A. MACDONALD. I must ask my hon. friend to allow this motion to stand over for the present. The correspondence is very full, and the contract provides for a certain time within which the company may ask that the contract should be cancelled. The contract was cancelled at the request of the company, and the Government are now proceeding in their endeavors to obtain another fast line on the Atlantic. It would not do to bring down correspondence with the Andersons at present, because it would be giving other parties information which it is not in the interest of the Government to do.
Motion allowed to stand.
BANK OF UPPER CANADA.
Mr. McMULLEN moved for:
Return showing the lands sold and prices realised for the same, as well as all sums of money realised from other sources by Clark Gamble, acting for the Crown, in the case of the Bank of Upper Canada; also all payments made by him in connection with said bank, and to whom made.
He said:	I desire to state that I do not reflect
upon the standing and honor of the parties who were connected with the winding-up of the Bank of Upper Canada, hut I have been requested by a party who is, I believe, in some way interested in the matter, to ask for this return. I do not wish to be understood as making any insinuations against anyone.
Motion agreed to.
CANADIAN COMMISSIONERS ABROAD.
Mr. McMULLEN moved for :
Return giving the names of each Commissioner or other Agent appointed by the Canadian Government since Confederation to the 30th June, 1889, on missions to foreign countries; the salary paid per month or year; the total amount paid for salary, travelling expenses, living allowance, and all other expenses of any kind, during their term of office up to the 30th June, 1889.
101
[JANUAKY 27, 1890]
102
Sir JOHN A. MACDONALD. Although the hon. gentleman could, if he exercised his usual zeal and energy, and diligence, get this information for himself, yet, as these officers are exceptional officers, I have no objection to this motion.
Motion agreed to.
SALARIES AND EXPENSES OF MINISTERS.
Mr. McMULLEN moved for :
Return showing the names of each Minister of the Crown from Confederation to 30th June, 1889. The amount of money drawn by each during each year of their term of office, under thelollowing heads: Salary, sessional allowance, travelling expenses, and all other sums drawn or paid under any ofher head, during their term of office until 30th June, 1889. The total amount paid to each up to the same date.
He said : In moving this resolution again, which is virtually a copy of the one I brought before the House a few days ago, and which was withdrawn at the suggestion of the leader of the Opposition, I do so in order to be in a position to lay before my constituents and before the country a statement of the expenses which have been incurred under the head of Government and by members of the Government. When this resolution was brought before the House on a previous occasion, the First Minister took objection to it on the ground that it would cost a great deal to comply with its terms. I would willingly cut down the time to the last ten years, from the 30th June, 1879, to the 30th June, 1889, but my reason for including the whole of this time is that hon. gentlemen opposite might object to a return which would simply include the period during which they themselves were in power, leaving out the time when hon. gentlemen on this side were in power. I repeat to-day what I said then: That the people of this country are of opinion that the expenses connected with the several departments and the heads of those departments, and the expenses incurred in connection with the discharge of the official duties of Ministers of the Crown, are far in excess of the power and ability of the people of this country to support. If we are going to cut down the public expenses—and I am sure there never was a time more opportune than the present, as everyone who knows the condition of this country will agree with me in saying—it is our duty to begin at home and to begin with the heads of those departments. After adjusting the expenses which are excessive in that regard, we may go on and deal with other matters, and see if we cannot bring the annual expenses within such an amount as the people who have to pay the taxes can bear. That is my object in making this motion. When I brought this matter before the House on a previous day, the Minister of Customs threw out the hint that I could gather the information out of the blue books. I do not believe that members of Parliament are supposed to make book-worms of themselves. The Minister himself, when he sits in his easy chair in his office, does not supply himself with the information he needs from the documents in his Department, but he simply touches a bell which is very close to his chair, and calls on his subordinates, who come dancing around him and give him all the information that he requires. I would like to know if a man who receives a salary of $7,000 a year, and a sessional allowance, and a considerable number of perqui-
sites in addition to that, is not better entitled to perform the duties of searching through all the documents and Public Accounts than an humble member of this House who only gets a sessional allowance. Now, I say that it is unfair for the hon. gentleman to cast up that insinuation. In the first place there are a number of Orders that passed this House for returns that could be very easily picked up if the people were only willing to search the blue books. If there is one duty at all devolving more especially upon the Opposition than another, it is that they should closely and carefully criticise the public expenditure in connection with the several departments here, and in conjunction with the general service of this country. That is one of the important duties devolving upon the Opposition ; and I want it understood that, so far as I am concerned, I shall ever endeavor to perform that duty. Now, there has been a considerable amount of criticism with regard to my bringing this motion before the House, and I notice that some journals have taken a great deal of notice of it, and challenged the propriety of my doing so. I wish it to be distinctly understood, Mr. Speaker, that I care not what criticisms are made, I care not what sarcastic or scurrilous remarks may be made; when a duty of this kind devolves upon me I shall do it, regardless of all those criticisms and insinuations, whether made by a subsidised journal of the Government or any other journal. I want that to be distinctly understood, in the start. If they fancy that they can close my mouth by these sarcastic criticisms, they are very much mistaken. Now, Sir, I have given the reasons why I moved this resolution. As I said before, if the First Minister, or any Minister, thinks it is going to be a costly return to prepare, that it is going to take a long time to get it, and if he is prepared to cut the time to ten years in place of twenty-one, I shall accept the amendment to my resolution and be content with ten years.
Sir JOHN A. MACDONALD. I may say that I greatly sympathise with my hon. friend for these very improper attacks made upon him in the newspapers. It is the penalty, however, that all men in public life pay for greatness—for being active in assisting to carry on the Government. I am rather surprised, however, to see that these unworthy attacks on my hon. friend have not been confined to the Conservative press. There are some papers called Reform papers, so utterly devoid of a proper sense of their duty as to sneer in the most sarcastic way—if they were directed against myself, I would say, in the most offensive style—at the action of my hon. friend. For my part, I fully understand the course taken by the hon. gentleman, and I quite appreciate the patriotic motives that induced him to make this motion. He wants to understand exactly what the cost of the Government is, what it has cost to conduct the administration of affairs; but he has not taken advantage of what has been suggested to him when this matter was before the House the first time, and he has not included, in his very patriotic and proper enquiries, the cost of the whole administration of public affairs : the cost of legislation—the cost of running the whole machine. He has confined himself to the salaries and perquisites, as he calls them, of the members of the Government, and, while that is a very small portion of
103
[COMMONS]
104
the expense, he has not obtained what he wants to obtain—that is to say, what the whole cost of administration is, with a view of cutting expenses down. Now, I think he ought to have gone on a little further. In the first place, he ought to have told us w'hether these salaries of Ministers are too large; I think he ought to have gone on still further, and told us if he thinks the allowance made to the members of the two Houses of Parliament is excessive. He says the whole cost is excessive, but he does not descend to particulars, and he does not in any way show how a reform can be obtained. One thing rises in my mind, in considering the speech of my lion, friend, and it is this : The hon. gentleman has abandoned the idea of being a member of a Reform Government, because if he had the most remote expectation of coming over to this side—a position which his abilities entitle him to claim—if he had the most remote idea of that ever coming to pass, I do not think he would have stated that the salaries of the Ministers were too large. I might almost think that he intends to abandon public life, otherwise he would not be so stern an economist, and he would not have attacked the amount of salaries received by the members of the Government—not a farthing too large, in my opinion :—but then we are an extravagant Government, you know, Mr. Speaker. We support the salaries and the allowances made to members of this House. We have no intention in the world of diminishing our own salaries, or of proposing to diminish the salaries of our successors. But for all that, Mr. Speaker, supposing the hon. gentleman is right in his ideas that great reform is required, that is not the motion. He does not move for any reform. He does not make any economical proposition, but he merely wants to get a return, at considerable expense, which he can, with very little trouble, procure for himself. Now, that was proposed the last time the hon. gentleman moved it, and there seemed to be a general consent to that proposition on both sides of the Chair. I shall oppose his motion as one which is not called for. It is throwing away money for nothing, and it is opposed to the general economical principles of my hon. friend himself.
Mr. LAURIER. My hon. friend behind me is certainly discharging an unpleasant duty when he is attempting to look into questions of the expenditure of members of the Government. My hon. friend opposite makes the admission that this is an extravagant Government. That is well known throughout the country, but I am afraid the hon. gentleman does not want the whole of their extravagance to be put in such a shape that every elector can see it. It is objected by my hon. friend behind me that we should not have to go over the twenty-one or twenty-two Public Accounts published since Confederation, and he wishes for a statement showing the whole extravagance, by way of contrast, of the members of this Government as compared with the extravagance of their predecessors. ' This is the object which my hon. friend has in view. Of course, any hon. gentleman can go over the votes of the House for the last twenty years and pick out for his own information that which might be brought down in the form now desired. I do not see why the motion should not be granted; it is a legiti-Sir John A. Macdonald.
j mate motion, and nothing could be more plain than I that the people should have the fullest information as to the cost of Government. The right hon. gentleman says he has no intention to reduce the salaries of Ministers. That is not the question. The country knows exactly what Ministers receive every year in the way of salary, but the country does not know what they receive every year by way of perquisites. This is what my hon. friend has in view. I understand the perquisites are almost as large as the salaries, and this of itself should be a good reason why the motion should be granted.
Motion negatived on a division.
RETURNS ORDERED.
Copies of all Resolutions of the Legislative Assembly of the North-West Territories respecting the application of moneys voted by this House for the use of the said Territories.—(Mr. Laurier.)
Copies of Orders in Council, despatches, correspondence and documents relating to the resignation of the Advisory Council of the North-West Territories and the appointment of their successors.—(Mr. White, Renfrew.)
Sir JOHN A. MACDONALD moved the adjournment of the House.
Motion agreed to ; and House adjourned at 4.40
p.m.
HOUSE OF COMMONS.
Tuesday, 28th January, 1890.
