 at Three o’clock.
Prayers.
PRIVATE BILLS.
Sir HECTOR LANCEVIN moved :
That Bill 155 and Bill 156 be placed on the Orders of the Day for consideration immediately after routine proceedings, in accordance with the eighteenth report of the Select Standing Committee on Railways, Canals and Telegraph Lines.
Motion agreed to.
IN COMMITTEE-THIRD READINGS.
Bill (No. 155) respecting the Winnipeg and Hudson's Bay Railway Company.—(Mr. Daly.)
Bill (No. 156) respecting the Wood Mountain and Qu’Appelle Railway Company.—(Mr. Hesson.)
DISALLOWANCE OF MANITOBA ACTS.
Mr. O’BRIEN (for Mr. McCarthy) asked, Whether any petitions or remonstrances have been presented to His Excellency the Governor General, or to the Government, asking for the disallowance of the Act of the Legislature of the Province of Manitoba respecting Public Schools, and of the Act of the same Legislature abolishing the dual language ? If any such petitions or remonstrances have been presented, by whom have they been presented ? Has any action been taken by the Government respecting the said Acts ? Does the Government propose to bring down such petitions or remonstrances, if any such have been presented ?
Sir JOHN A. MACDONALD. Petitions or remonstrances have been presented to the Government by a despatch from the Lieutenant Governor of Manitoba, conveying the remonstrance of the school board ; also from the Rev. Mr Bernier, on behalf of the school board; also from Mr. Prender-gast of Manitoba. No action has yet been taken by the Government respecting the said Acts. In answer to the fourth question, it is too late to bring down these petitions now, and there has been no request made for them.
ENQUIRIES FOR RETURNS.
Mr. COOK. Before the Orders of the Day are called, I wish again to ask the Government, and for the last time, if they propose to comply with the Order of the House made on the 10th March, for a return in reference to the expenses in connection wdth the Dominion License Act, commonly known as the McCarthy Act ? I wish to know whether the Government are going to bring down the papers this Session, or whether they propose to repudiate the request made by this House?
Mr. COSTIGAN. The return asked for involves a good deal of labor, and the clerks have been engaged upon it. I will make enquiries.
Mr. COOK. When will it be down ?
Mr. COSTIGAN. As soon as possible.
NEGOTIATIONS AT WASHINGTON.
Mr. MITCHELL. Before the Orders of the Day are called, the fact that the Session, I pre-
4907
[COMMONS]
4908
sume, is just now drawing to a close, justifies me in asking the Government what position the fishery question is in at Washington ? It may be that the Government may not feel inclined to tell us ; possibly it may be prejudicial to the interest of the country for them to state it, and in that case I do not press the question. But I have heard rumors from Washington, that for the last three weeks the question of the Atlantic fisheries has been practically agreed upon, and that in reference to the Behring Sea question the mare clauKum pretension of the United States has been practically abandoned, that the question of how seals are to be taken by the inhabitants of both countries, or by people at large, has been practically settled. I would like to ask the Government, whether there is any truth in these rumors ?
Sir JOHN A. MACDONALD. I do not think I am quite in a position to answer any of those questions the hon. gentleman puts now. At this moment, all I can say is that the negotiations, so fa as we can learn, have been going on very pleasantly, and I hope with happy results. I think I will be able to give a more positive answer on Friday.
INCREASED INDEMNITY TO MEMBERS AND SENATORS.
Mr. LABROSSE. (Translation.) Mr. Speaker, I would like to know if the Government intends to grant an extra allowance to the members of this House and to the senators, on account of the unusual length of the session. It is unreasonable to be kept here thirty days beyond the ordinary duration of a Session, and receive the same indemnity. The employes and messengers of the House receive an increase of salary, and it seems to me but just that the members and senators should receive $10 extra for each and every day over the ninety days. I know agreat number who desire it, and I think that both sides of the House would be glad to receive that amount. The Government would do the right thing by granting my request.
Sir JOHN A. MACDONALD. All I can say is that the Government do not propose to bring down a measure this Session to alter the amount of the indemnity.
QUEBEC HARBOR IMPROVEMENTS.
Mr. LAURIER. I would like to ask the Minister of Public Works when he will bring down the papers in connection with the McGreevy matter, and if he has any further infprinatiou than was brought before the House yesterday by the hon. member for Victoria (Mr. Barron) ?
Sir HECTOR LANGEV1N. In answer to the last part of the question, that matter is being investigated. I will be able on Friday, I think, to bring down the papers that I promised, at all events, so far as they have been collected.
PRIVILEGE—THE TEMPERANCE COLONISATION COMPANY.
Mr. FOSTER moved that the House again resolve itself into Committee of Ways and Means.
Mr. LANDERKIN. Before you leave the Chair, I have a matter to bring before the attention of the House of considerable moment, a matter that I Mr. Mitchell.
have gleaned from a return which was brought down to the House a short time ago. It was a return which was asked for by the hon. member for North Brant (Mr. Somerville) in reference to the Temperance Colonisation Company and the Saskatchewan Land and Homestead Company. In that return was a letter which I think it but right I should bring before the attention of the Government and the House. The contents of this letter, with your permission, I will read :
“ 22 Sword Street,
“ Toronto, 13th June, 1887.
“ Hon. Thomas White, M. I.,
“ Ottawa, Ont.
“ Hon. Sir,—I heard reported that it was the intention of the Government to compel the Temperance Colonisation Company to abandon all legal proceedings against scrip holders, otherwise the Government would take away their charter. I trust this is your intention; and let me say in faith that you will he doing an act that God will bless you for. How many homes have been blighted by this curse ? But the worst is still to come, and these present directors are just as eager to-day, to collect, in any and every way, exorbitant sums from scrip holders, without the least concern of the injury they are doing. They are a set of men who jjave no hearts, and have forgotten that they have souls. Let me beg of you to listen to my own case. I owned a house for which I had nearly paid, when this company came into existence, when I got into the meshes of the Rev, Dr. Hunter, one of its promoters. To make a long story short, I mortgaged my home, which has since passed out of my possession, to pay him $2,000 premium on stock. I expected to sell some of this stock as I could not afford to keep it. He assured me that so long as I paid the interest on the call that had been made, another $2,000, ^ would be all right, and I could hold it. After I had the stock about six weeks, I received a post card from him, stating that the call had to be paid. A day or two after receiving this card, he called on me himself and offered me, in exchange for the stock some three acres of land adjoining the town of Portage la Prairie, Manitoba, which he assured me was worth 82,500. The position I bad got myself into so harassed me that I took this land and gave him back the stock. This land is valued by the Portage municipality at $150 altogether. I also subscribed for half a section of scrip, which I sold. I bought another half section which cost me $75 premium in addition to the first call I paid on it, being $60 more, and two years ago the present directors served me with a writ for some $300. I joined the Defence Scrip Association, and in the early part of this year they compromised to pay $133 cost for half section, and to forfeit all claims to lands. I paid them this $133 last week, borrowing $100 on my salary, yet to earn, on which I am paying 20 per cent, interest, so that on this scrip alone I am out $278. As soon as they had received this money from me they sent me another statement of claim, as enclosed, for the half section I sold. The sacrifice I have made to pay them this $133 will keep my home pinched, which I have experienced during the long five years this curse has been hovering over me. I have a family and an aged mother to support, and while I do not wish to trouble you with my misfortunes, I trust, from the relation in which the company stand to the Government, that you will stop this wholesale extortion. I am not speaking for myself alone, but there are ft great many throughout the country who will yet be ruined by it, people of limited means. If the company are allowed to go on, now that the Defence Association is broken up, and provided they can make a settlement with the Government and are allowed to retain theirpreroga-tive to collect on scrip, they will be more heartless than ever. In travelling through the country I came aeross some very distressing scrip cases. One grey-haired man went to one of the old ex-directors who left the company in disgust, and, in tears, remarked that all he possessed in the world was a little farm near Hamilton, and that if he was obliged to pay this company their demand, he would have to sell it. I am intimately acquainted with Mr. Armstrong, Manager of the York Farmers’ Colonisation Company, and in speaking of writing to you, he strongly urged me to do so.
“Now, Sir, as you are,I am sure,impressed with _ the fact that this scrip was procured under false pretensions of the basest character, and that what land the company have paid the Government for is all out of the pockets or the scrip holders, which they have to forfeit, surely the thing ought to stop here. Would you kindly return me the enclosed claim of company against me? Not the
4909
[MAY 14, 1890.]
4910
newspaper advertisements, if they are any use to you. Submitting this to you in confidence,
“ I am, yours respectfully,
(Sgd.) “JOHN W. CAMPBELL.”
I should like to ask what action the Government have taken in regard to this matter ? I should like to know if any enquiry has been made into the conduct of the directors of the company, and what the Government have done in regard to the company ; also whether Dr. Hunter has been compelled to disgorge the fruits of the misrepresentations and frauds as indicated in the letter I have read ? It is the duty of the Government to look into this matter, as this letter show's a heartless piece of rascality perpetrated by the directors of the company on innocent and honest men.
Mr. DEWDXEY. If the hon. gentleman had intimated to me the information he required, I would have endeavored to obtain it and given it to him at once. All the negotiations that took place with the directors of this colonisation company occurred before I took charge of the Department. The only communication I have had with them w'as in regard to an application to extend the time with regard to the selection of their lands. I had been aware, but almost entirely through the newspapers, that a great many complaints have been made against the Temperance Colonisation Company, and in regard to the negotiations they had with different parties to settle on their lands. I have not read the whole of the correspondence which I submitted to the House some time ago. May I ask the date of that letter ?
Mr. LAXDERKIX. 13th June, 1887.
Mr. DEWDXEY. That was before I took charge of the Department. I will look into the matter, and give the hon. gentleman all the information I can obtain between now and prorogation. There has been much litigation ; I do not know whether this particular case has been in litigation or not. Within the last few days, several cases have been brought before the courts, and have been settled in favor of the Temperance Colonisation Company. I do not believe the heads of the corporation have knowingly perpetrated any dishonest action, or have knowingly treated any of the settlers who went to their colony harshly.
Mr. WALLACE (York). Xo doubt a great deal of hardship in connection with the affairs of this company has arisen on account of the representations made by the promoters of the company to takers of stock. Before the Government settles with the company, there should be a distinct understanding with respect to settlement and other matters. Several cases of severe hardship have come under my own notice.
Mr. MILLS (Bothwell). I desire to ask the hon. Minister of the Interior whether this colonisation company has been dissolved or is still in existence ?
Mr. DEWDXEY. The colonisation company is still in existence.	j
Mr. MILLS (Bothwell). The charge in the letter is a very serious one and requires the attention of the Government.
Sir RICHARD CARTW RIGHT. How many of the colonisation companies remain ?
Mr. DEWDXEY. I think only three—the Temperance Colonisation Company, a company in the
neighborhood of Red River, and the Y ork Colonisation Company.
Mr. BLAKE. What proportion of the net amount of $10,000,000, which was expected to be derived by the Government from the colonisation companies, is now expected ?
Mr. DEWDXEY. I have not the statement at my fingers’ ends.
Mr. LAXDERKIX. The statement contained in the letter read is such that it is the duty of the Government to make a searching enquiry into the whole matter. If the statements are true, there has been a heartless amount of rascality, which should be exposed by the Government for the benefit of the people.
WAYS AXD MEAXS—THE TARIFF.
House resolved itself into Committee of Ways and Means.
Mr. FOSTER. It is necessary that the House resolve itself into Committee of Ways and Means to rectify an error in item 203 of the Customs Bill passed a few days ago. This is not to make any change in the duties under the old tariff; but by a clerical error the Committee omitted to provide for baking powders and yeast cakes under fifty pounds in bulk. I move the following resolution to rectify this error :—
' That item 203 of Bill No. 143, of the present Session, entitled: “An Act to amend the Acts respecting the Duties of Customs,” he amended so as to read as follows:—
Yeast cakes and baking powders in packages weighing one pound or over, and com pressed yeast in packages weighing one pound or over, but not over fifty pounds, six cents per pound—the weight of the package to be included in the weight for duty.
Resolution considered in Committee, reported, and concurred in.
CUSTOMS DUTIES.
Mr. FOSTER introduced Bill (Xo. l.">9) to amend an Act of the present Session entitled an Act to amend the Acts respecting the Duties on Customs.
Bill read the first and second times, considered in Committee, and read the third time and passed.
SUPPLY—COXCURREXCE.
House proceeded to consider resolutions reported from Committee of Supply.
To increase salaries of Chaplains at Stony Mountain Penitentiary, on condition of their whole time being given to the prisoners, $200 each......$400
Sir RICHARD CARTWRIGHT. Is it possible that two chaplains should be required to give their whole time to the Manitoba Penitentiary ? The total number of prisoners, if I recollect aright, averages about eighty, and this seems to be an unduly large provision for their spiritual welfare: one reverend gentleman to forty prisoners.
Sir JOHX A. MACDOXALD. They are pretty hard cases up there.	,
Sir JOHX THOMPSOX. Of course, if the chaplains were able to divide the duties between them we wrould not require the services of two, but I am afraid that is not practicable ; and otherwise
4911
[COMMONS]
4912
it is necessary that the chaplains should devote their whole time to the penitentiary, particularly so as it is situated fifteen miles from Winnipeg, and there is no neighboring settlement in which they can have parochial charge. The Protestant chaplain attends the prisoners every day; and besides that, he instructs the children of the officers on the reserve, which has become quite a settlement. I think we ought to allow him enough to live on and to support his family. The other chaplain may devote his whole time.
Mr. BLAKE. Besides which, judging from the efficiency of the admonitions which the Minister himself, and the House indirectly, have addressed t o the warden with reference to the scale of expenditure in that penitentiary, I rather think the warden himself would require a pretty large proportion of the services of both chaplains in order to keep him any way near right.
Railways and Canals chargeable to income..............................$56,000
Sir RICHARD CARTWRIGHT. When we were in Committee of Supply I took occasion to call the attention of the House to the extraordinary disproportion between the annual charges on income, and the annual receipts of these railways. Now, looking at the whole, I find that, besides the $.’>6,000 here demanded, we spent something like $140,000 in salaries and ordinary maintenance, and about $330,000 are chargeable to income besides, making in all within the merest fraction of $900,000. Our'total receipts are something like three or four hundred thousand dollars, giving us a deficit on that head of close on half a million dollars, which certainly is a matter which requires more attention than the House has yet given to it. It would be idle at this stage of the Session to engage in any prolonged debate on the subject, nor, I am certain, that, without a complete reversal of the policy of the Government in some important respects, much good is likely to accrue. Still, I take this opportunity, as there was some little doubt as to the amount, of calling the attention of the House again, and also of tile Minister specially in charge, to the fact that our expenditure is increasing in most enormous proportions. I think we have now to face an annual loss of not very far short of two-thirds of the amount annually charged ; and I need not say that is quite irrespective of the fact that a very large portion of our public debt represents the cost of these canals and a large portion of our charge for interest. I trust that between this and next Session, the First Minister will be prepared to come down with some proposals tending to lessen this enormous annual deficit. In view of the fact that the Government are asking for very large sums on capital account for further expenditure on canals, it seems to me more attention should be given than has been to the best mode of reducing this enormous expenditure.
Sir JOHN A. MACDONALD. I am quite well aware of the justice of the hon. member’s remarks with regard to the unfortunate fact that the expense of 'the canals has been considerably increased, while the earnings of the canals have not correspondingly increased. I do not know that there is any present means of altering that state of things. Of course we cannot increase the earnings Sir John Thompson.
unless commerce takes the canals instead of the railways. I believe the rates charged are as low as possible, unless we desire to make them free. That is a question which may arise sometime in Parliament, but it is not a question for this Session. I am not aware that there has been any extravagance in the management of the canals. The person chiefly responsible for that, the Chief Engineer of Canals, is a very prudent and economical Scotchman, who will not knowingly allow any extravagance. However, it is quite true that this state of things should be thoroughly investigated, and I shall, during the recess, do what I can to see if there is any mode of making both ends meet. I have been told that I had been over sanguine in other matters. Perhaps I may be over sanguine in this, but I think, when the canal system is improved and we have a deep water and canal navigation from the west to the seaboard, a very considerable portion of the trade which has been diverted by the railways may return to the canals. I will not make any prognostications ; I will not prophesy until I know, being instructed by the continual reminder of the hon. gentleman, that my anticipations have been too sanguine in other matters. But I shall make enquiry as to the best means of reducing the expenditure on the canals without lessening their efficiency and safety. It would be poor economy, by the reduction of the staff, to cause interruption of trade or danger for want of a sufficient number of officers to have the canals efficiently worked.
Mr. MITCHELL. It is quite the custom, whenever anything comes up in the House concerning the Intercolonial Railway, to hear gentlemen from Ontario, not alone on the Government side, but also sitting very near me, occasionally interject remarks about getting rid of it because it costs too much money. They never seem to think of the enormous cost of the canals and the money lost on them. When they talk of getting clear of the Intercolonial Railway, they should consider whether it would be judicious to hand over the canals to a private company too. I think the one is in the same category as the other. What I rose particularly to refer to was the intimation just now by the right hon. gentleman as to w hat might occur when we had a deep water system from the lakes to the sea. Does my hon. friend propose to deepen the canals and have more enormous expenditure ?
Sir JOHN A. MACDONALD. No.
Mr. MITCHELL. You have the system then.
Sir JOHN A. MACDONALD. Not quite. There is a little more to spend yet before we get to a uniform depth.
Mr. MITCHELL. We would be laying the foundation of a large expenditure in deepening the canals one or two feet more.
Sir JOHN A. MACDONALD. There is.no such intention.
Mr. COOK. In deepening the canals it would be necessary to deepen the St. Lawrence in many places where the river is more shallow than the canals. There are heavy shoals running across at a point a little below Morrisburg, which, at high water, gives a depth only of twelve or thirteen feet. Steamers have to make a great detour and
4913
4914
[MAY 14, 1890.]
can scarcely get over in low water. If the canals are to be deepened, there must be very large expenditures indeed in deepening the St. Lawrence at various points.
Sir JOHN A. MACDONALD. The depth was fourteen feet, I think. I was inclined to have the same suspicion as the hon. gentleman, that it would be useless to deepen the canals to the depth settled long ago, and sanctioned by Parliament, on account of the fact that the interruption to navigation on the St. Lawrence would be very considerable through the shallowness of portions of the river. I am glad to learn, however, after my attention was particularly called to the subject as Minister of Railways, from the information given by the chief engineer, who knows the river thoroughly, that the expense would be very slightly enlarged. There are one or two points where there may be some little use for dynamite, but in very few points in the river as a whole. There is, therefore, less hesitation in finishing the canals according to the plan of Parliament.
Carillon and G-renville Canals—Repairs. $2,000
Sir RICHARD CARTWRIGHT. Before this item is put, I want again to call the attention of the First Minister to the facts I brought to his notice a few years ago. Facts which, if confirmed, go to show that there has been constant and systematic fraud with regard to the expenditure on these canals. The right hon. gentleman will remember that I called his attention to the alleged fact that men who had been dead for a considerable number of years figured on the pay-roll, and also men wrho had been absent from the country. At that time the hon. gentleman said he was prepared to make some enquiry into the matter. I should be glad to hear what enquiry he has made and what he proposes to do. Although, I suppose, it is too lare now to ask for the papers ; I take it for granted that if he has made an enquiry, he will engage that the report shall be laid on the Table when we meet.
Sir JOHN A. MACDONALD. The hon. gentleman called the attention of the Committee and myself to the allegation that there had been frauds committed in paying persons who were absent or dead. On receiving that information, I at once instructed enquiries to be made by the Deputy Minister of Railways, and dispatched an officer to investigate the matter. I have reason to believe, from sundry informations, that there is some truth in wrhat the hon. gentleman stated. The officer sent to make special enquiries has not yet been able to report. I will not only see that the papers are laid before the House, but, if the hon. gentleman requires, I will send the record over to him, or to the leader of the Opposition, if it is made during recess.
Sir RICHARD CARTWTRIGHT. What officer is in charge of the examination ?	‘
Sir JOHN A. MACDONALD. I do not know. I will ascertain.
Sir RICHARD CARTWRIGHT. As this is an Ontario matter, perhaps the hon. gentleman had better send the report to me when he receives it.
Sir JOHN A. MACDONALD. I will do so.
Additional public building, Wellington street, Ottawa—To complete payments.... .............. $155,000
Sir RICHARD CARTWRIGHT. I think the hon. Minister was to give definite information as to the total cost of this building.
Sir HECTOR LANGEVIN. No ; the hon. gentleman asked what had been the estimate of the officers of the Department. I enquired about that, and I had not the report when I came from the Department this morning. However, there is very little difference between the estimate made and the liability of the Government.
Sir RICHARD CARTWRIGHT. Including this $155,000 ?
Sir HECTOR LANGEVIN. Yes. As I said, I am not sure that all this will be required.
Sir RICHARD CARTWRIGHT. The hon. Minister will no doubt remember that a claim for $393,000 was preferred, which he expected to cut down to $200,000. Is that included in this vote ?
Sir HECTOR LANGEVIN. It is expected by the chief architect that the whole claim will be reduced to less than $150,(XX). The $5,000 above that are for paying small amounts.
Mr. COOK. I would like to enquire whether, when the contract was first let, the Department omitted to include a roof ?
Sir HECTOR LANGEVIN. The hon. gentleman was not here the other day when that question was asked me. The answer was, that it was not forgotten, but we did not know whether the contractor would be able to undertake such a roof as we wanted, in iron or copper ; and therefore the chief architect advised that we had better have a separate contract for that, and the contractor for the building would be able to tender for it at a lower-rate than others, because he would be already in possession of the building.
Mr. COOK. Did the original contractor get the contract for putting on the roof, anil was his tender the lowest ?
Sir HECTOR LANGEVIN. Yes.
Mr. COOK. Does the Minister of Public Works intend to go on with the post office at Orillia at once ? Why does he make an exception in the case of Orillia, because in all other places the Government furnishes the lot, but in Orillia the people have had to purchase the lot ?
Sir HECTOR LANGEVIN. This is no exception. In very many cases the lot is given by the municipality. They agree as to the site, and there is no squabble about it—if I may use the term— and it is much more pleasant for them and for the Government, that there should be no difficulty about the site. They are also under the impression, which is not a false one, that, if they furnish the site, the money which might be expended on the purchase of the site will be put into the building, and that they7 will, therefore, have a better building. Of course the Government will go on with this building. I may say that Toronto, and Port Arthur, and Brantford, and a number of other places have provided the lots.
Mr. BLAKE. In the absence of my hon. friend from Lunenburg (Mr. Eisenhauer), I would call the
4915
rCOMMOKS]
4916
attention of the Minister of Public Works to an arrangement which was made for a public building at Lunenburg. The Government purchased a site for that building as long ago as 1886, and then promised to make a provision for the building, but, since that time, although the site has been purchased and paid for, no progress has been made. In the interval, I am informed that the population, the shipping, and the general business of the port of Lunenburg, has very largely increased. I am informed that the West India trade there is almost equal to that of Halifax, some hundreds of vessels entering and leaving that port each season. I am further informed that the post office and Customs revenues there are much larger than they are in a great number of towns in which buildings of this kind have been erected. The Government having obtained an appropriation in 1886, and having purchased a site which remains unused till this day, it seems tome that they should give some explanation as to why they have not carried out the expressed view of Parliament in this regard.
Sir HECTOR LANGEVIN. I answered the hon. member for Lunenburg (Mr. Eisenhauer) on this subject when he was here. I told him that, although the lot had been purchased, we had not been able to appropriate a sum of money for the building this year. That is not the only case in which that has occurred, and I hope that, later on, we may be able to provide a public building in that place and in other places, which we cannot do this year.
Manitoba, Red River Survey. $2,000
Mr. WATSON. I would like to ask the Minister of Public Works if it is intended to go on with that survey this coming season ?
Sir HECTOR LANGE YIN. Yes.
To pay the mail service between Canada and the United Kingdom, in virtue of a contract passed with Mr. Andrew Allan, at the rate of $125,000 a year.. $125,000
Sir RICHARD CARTWRIGHT. I forget whether it was stated, on the occasion of the discussion, whether the Government had fixed a special rate of speed which must be maintained, in the agreement they made with the Allans.
Mr. FOSTER. No special rate.
Sir RICHARD CARTWRIGHT. That leaves the matter almost entirely at their discretion.
Mr. FOSTER. Certain vessels were to be employed.
Sir RICHARD CARTWRIGHT. But you have fixed no special rate ?
Mr. FOSTER. No ; they may go just as fast as they like.
far greater facilities for carrying on a scheme of immigration than the Dominion Government. The right hon. gentleman said he would take that suggestion into his consideration. I desire to enquire whether he has considered the suggestion, and whether he will place a portion—and, if he does so, perhaps he could state what portion—at the disposal of the Manitoba Government for that purpose ?
Sir JOHN A. MACDONALD. It was only the other day the hon. gentleman made the suggestion, which I said was worthy of consideration. During che last days of the Session I have been unable to give the subject consideration, and I regret to say the hon. Minister of Agriculture is quite unwell. No time will be lost by the Government in taking the subject up. We cannot place a sum at the disposal of the Manitoba Government until we have communicated with them. We will do so in order that there may be conjoint action. I understand they are doing their work very well, as regards obtaining settlers for Manitoba from the older Provinces. We must think, however, more of getting an annexation from without than of transferring people within the Dominion. However, immediate communication will be made with the Manitoba Government with a view to some concerted action.
Sir RICHARD CARTWRIGHT. I am aware of my own knowledge that the Manitoba Government have been making good use of their limited resources, and the present Premier of that Province has been especially successful in securing a large number of immigrants from Ontario for Manitoba. No doubt it is true that Manitoba is largely engaged in transferring settlers from one part of the Dominion to another; but it is of the first moment that, if settlers are decided to leave Ontario, they should go to Manitoba or the North-West, or they will certainly go to the United States. It is admitted to be more important to keep our own people in the country than to bring in people from outside, and for that reason the co-operation of the Manitoba Government is important. I did not expect a scheme could be prepared in the very short time that has elapsed since I brought this subject to the attention of the First Minister; but if the hon. gentleman feels desirous of adding to the population of Manitoba and the North-West Territories, which is a matter of the first moment to all of us, he will find that, with the assistance rof the Manitoba Government, he will secure greater results than by the unaided action of the Dominion Government.
WAYS AND MEANS.
House resolved itself into Committee of Ways and Means.
(In the Committee.)
Sir RICHARD CARTWRIGHT. And as slow •as they like.
Additional amount for Immigration. .$150,000
Sir RICHARD CARTWRIGHT. When this item was last up, I called the attention of the First Minister to the desirability of seeing if an arrangement could be made with the Manitoba Government by which a portion of this sum would be placed at their disposal, inasmuch as they had Mr. Blake.
Mr. FOSTER moved :
1- Resolved, That towards making good the Supply granted to Her Majesty for the financial year ending 30th Jane, 1890, the sum of $2,038,168.96 be granted out of the Consolidated Revenue Fund of Canada.
8- Resolved, That towards making good the Supply granted to Her Majesty for the financial year ending 30th June, 1891, the sum of $25,464,944.95 be granted out of the Consolidated Revenue Fund of Canada.
Resolutions concurred in.
491*7
[MAY 14, 1890. J
4918
SUPPLY BILL.
Mr. POSTER moved for leave to introduce Bill (No. 158) to grant to Her Majesty certain sums of money required for paying certain expenses of the public service, for the financial years ending respectively 30th June, 1890, and 30th June, 1891, and for other purposes relating to the public service.
Sir RICHARD CARTWRIGHT. The hon. gentleman is here demanding $25,000,000 odd. Does that include any provision for redemption or for a new loan ? I presume from the amount it does not, but I should like to know definitely.
Mr. FOSTER. Not for a new loan.
Sir RICHARD CARTWRIGHT. What borrowing powers have we still unexhausted ?
Mr. FOSTER. I am unable to say just now, but I shall make up a statement and give it to the hon. gentleman.
Motion agreed to, Bill read the first, second and third times, and passed.
SUBSIDIES TO RAILWAYS.
Sir JOHN A. MACDONALD moved second reading of Bill (No. 157) to authorise the granting of certain subsidies to certain railways and railway companies.
Motion agreed to, Bill read the second time, considered in Committee, and read the third time and passed.
LAND GRANTS TO RAILWAYS.
House resolved itself into Committee to consider certain proposed resolutions respecting the granting of land subsidies to certain railways therein mentioned.
Sir RICHARD CARTWRIGHT. We should be obliged to the hon. gentleman for giving us some information as to the meaning of this. Who are the promoters ? what the cost of the enterprise is ? and a variety of other particulars which ought to be always laid before us, but which, I fear, have not been with regard to a great many other matters.
Mr. DEWDNEY. The line applied for now will extend 125 miles. It commences at the city of Winnipeg, running in a south-easterly direction for about 20 miles, and thence in a direct line as near as the circumstances of the country will allow, to near the north-west angle. It is to be built principally for the purpose of enabling the people of that section of the country to send their timber, of which there is a great quantity about the southern end of the Lake of the Woods—not only timber but firewood — to Winnipeg and southern Manitoba. I may state that already twenty-five miles of this road are located, and six miles, I understand, are graded. It runs through a portion of country which has no railway communication whatever at present; and although the country is not specially attractive, it is thought that the construction of this road will bring into it a large number of settlers.
Sir RICHARD CARTWrRIGHT. Where does the hon. gentleman propose to select the land ?
Mr. DEWDNEY. Along the line of the railway, twelve miles on each side.
Sir RICHARD CARTWRIGHT. Is it supposed to be in connection with any extension on the American side of the border ?
Mr. DEWDNEY. No ; it does not go within twenty-four miles of the boundary line. It runs direct to the Lake of the Woods.
Mr. WATkSON. I certainly approve of this land grant for the proposed road, which will run through an attractive country as yet entirely undeveloped, and I have no doubt that it will be advantageous, not only to its promoters, but to the country. I regret, however, that the Government have not seen fit to give a land grant to the North-West Junction and Lake of the Woods Railway, which is promoted by gentlemen w'ho have been promoting a raihvay for that section for several years. They were promoters of the old Emerson and North-Western Railway, of which fifteen miles wrere graded north-west from Emerson, and which the Canadian Pacific Railway Company afterwards obtained possession of. There is plenty of room in that section for two roads, and I hope the Minister will give that railway some assistance next year.
Mr. DEWDNEY. The hon. gentleman knows that the section he speaks of, from Portage la Prairie to Emerson, is not so much in need of railway communication as the section for which we are giving a land grant to-day. The railway he speaks of intersects the Northern Pacific and the South-Western, and in considering the two railways, the Government thought it more necessary to give a land grant to that portion of the country most in need of railway communication.
Mr. WATSON. I refer to the portion between Buffalo Lake and the Manitoba South-Western. I agree with the hon. gentleman that it should not have a land grant for the portion from the SouthWestern Railway to Portage la Prairie ; but from the junction with the South-Western to the Lake of the Woods, I think it is entitled to a land grant. The Government, some years ago, spent $50,000 to aid in the construction of a bridge across the Red River at Emerson, and the people there burdened themselves with taxation for the purpose of raising sufficient additional money to complete the bridge ; but there is no railroad running across it, and it is useless to-day. This North-West Junction and Lake of the Woods Railway would occupy that bridge, and some return would be made to the people of Emerson for the large amount of money they spent in its construction.
On resolution 3,
Mr. WATSON. I would like to ask the hon. Minister if the land granted to the Lake Manitoba and Canal Company’s railway will be along the line of that railway ?	—
Mr. DEWDNEY. As far as practicable. In the first place, as the hon. gentleman knows, there are twenty-four miles between Portage la Prairie and the lake which ltelong to the Canadian Pacific Railway. The railway will get some lands on the western side of the lake along its own line ; but the land grant of the Hudson Bay Railway is on the east side. The question depends a good deal on the location of the road. I am in hope that the location will be made pretty far west, so that the railway will accommodate the Lake Dauphin dis-
4919
[COMMONS]
4920
trict, where, as the hon. gentleman knows, there is a large settlement.
Mr. W ATSON. I hope some arrangements w ill be made by which this railway will accommodate the people who would have been accommodated by the railway which I promoted in this House, but the Bill for the incorporation of which the hon. First Minister had slaughtered in committee, on the ground that it would interfere with the Hudson Bay Railway. I do not think it is fair to the people of Manitoba and the North-West, to be treated in the way they have been treated by this House, because the company were prepared to build that railway if they had got a charter, and we have not received any intimation, and at this hour of the Session are not likely to receive any, that the Government are going to grant assistance to the Hudson Bay Railway. But is that railway going to be made an excuse for preventing all other corporations building railways in that section of the country'? I hope that if the Government are going to grant assistance to the Hudson Bay road, they will grant it at an early day. It was hoped by the people of the North-West that it was going to receive some substantial assistance this Session. It was not stated in plain wTords, but it was intimated by the hon. First Minister, that the Government felt disposed to assist that railway. I regret that has not been done, as I want to see that railway built ; but I do not want the Government to make that an excuse for killing off all other railway enterprises running north from Portage la Prairie. There is a large settlement in the Lake Dauphin district which this railway cannot serve as well as a railway running to the west side of the lake ; but I hope the Government will induce the company to run the road a sufficient •distance to the west to accommodate at least a portion of the settlers in that district.
Resolutions concurred in.
Mr. DEWDNEY moved for leave to introduce Bill (No. 160) authorising the granting of subsidies in land to certain railway companies.
Motion agreed to ; Bill read the first and second times, and House resolved itself into Committee.
(In the Committee.)
Sir RICHARD CARTWRIGHT. What does the hon. gentleman imply when he states that this may possibly interfere with the Hudson Bay line ? Has this line been laid out over the territory traversed by the Lake Manitoba and Canal Company ?
Mr. DEWDNEY. A small portion of the land on the west of Lake Manitoba and Lake Winni-pegosis has been reserved for a portion of the land grant selected by the Hudson Bay Company. It extends about eight or ten miles to the west of Lake Manitoba.
Mr. WATSON. All along the west side ?
Mr. DEWDNEY. Yes; all along the west line, a certain distance.
Sir RICHARD CARTWRIGHT. Is there any population there ?
Mr. DEWDNEY. Yes, there is quite a large population, and a mill working at Meadow Bridge, and there are other mills along the lake. There Mr. Devdnf.y.
are two or three townships there pretty well settled just now^.
Sir RICHARD CARTWRIGHT. Why is this called a canal company ?
Mr. DEWDNEY. Last year a land subsidy was given for seventeen miles of road from Portage la Prairie to the southern end of Lake Manitoba, and it was proposed then to cut a canal across the Meadowr Portage. The canal would cost $600,000, and the difference in level between the two w'aters being a little over eighteen feet, it was, upon further consideration by the company, found more desirable to build the road direct to Meadow Portage, and thus accommodate the lumber business, which wdll be very extensive on the north shore of Lake Winnipegosis and the tributaries of the rivers running into the lake.
Sir RICHARD CARTWRIGHT. Has the hon. gentleman any reliable information as to the navigation of Lake Winnipegosis 1
Mr. DEWDNEY. Yes; there is a report this year in the Indian Department from one of our surveyors, who went up in a boat last year. Lake Winnipegosis is fairly fit for navigation by steamers drawing five or six feet of water, and probably more ; but it W’ould require a great deal of work to make Lake Manitoba navigable, it being full of boulders and shoals.
Mr. WATSON. The navigation on Lake Winnipegosis is much better than on Lake Manitoba, which is very shoaly. I think the company did w'ell to abandon the canal scheme and ask for pow'er to build a railway, because a railway will be available all the year round and pay much better than a canal. The canal would cost a considerable sum, and the navigation is not good on Lake Manitoba. In several places on that lake you could hardly navigate, drawing four feet of water, and if you drew eight feet out of Lake Manitoba, you would only have a few pond holes left. The road is intended to operate the lumber limits on Lake Winnipegosis and tributaries ; and it will also accommodate a large number of settlers. I only regret that the people on the west shore of Lake Dauphin will not be accommodated by this road. I hope the Government will do all they can for this company, so as to have the road constructed at the earliest possible date. There are five or six townships pretty well settled there now', and people have been rushing in there all last fall and this spring. Before another year there will be eight or ten townships well settled in that section.
Bill reported.
Mr. DEWDNEY moved that the Bill be read the third time.
Sir RICHARD CARTWRIGHT. Before that Bill is read the third time, although I am afraid it is almost a waste 'of time, I must enter my final protest against the policy of the Government in respect of the land question generally. As to these two last land grants, I am not in a position to say whether or not they will do as much mischief as I believe will ensue from the land grants heretofore made. I took occasion, when this question was up before, to point out to the -House— and the Minister of Interior substantially admitted, if not altogether, the accuracy of my contentions—that we were, if we made allowance for the lands we must reserve to settlers accord-
4921
[MAY 14, 1890.]
4922
ing to our present policy, departing with the entire control of that great belt of territory between parallels 49 and 54, extending from the Red River to the Rocky Mountains. We are now adding to the enormous grants we have already given to railroads, amounting to 33,000,000 acres, a total of 5,000,000 or 6,000,000 acres more : and we are doing that without any consideration, and I have no doubt that in twenty or thirty years hence—perhaps in a much shorter time—the same difficulties will arise in that country, which we know have arisen in various portions of the older Provinces, in consequence of our tying up of huge blocks of lands in the power of various corporations. I think that, bad as it is to delay bringing down the railway subsidies in money until the last day or two of the Session, the policy of delaying these land grants until the Supply Bill is passed is still more reprehensible. I think the House has been acting in almost utter ignorance in regard to these matters. Within the last two or three days we have handed over close upon 6,0<X),000 of acres to these various companies—that amounts to a territory half as large as the western peninsula of Ontario, taking in the counties of Kent, Essex, Lambton, the Bruces, the Hurons, the Perths and the Middlesexes, some eighteen constituencies, and those among the best in the Province of Ontario. Whether the hon. gentleman is going to be successful in introducing immigration to this country or not, I cannot say, but 1 think he was wise in not prophesying in regard to that. But, while we are parting with our control over that great territory, we find, at the same time, that our expectations as to the immigration into Manitoba and the NorthWest have not been fulfilled. We find that our large expenditure from 1880 to 1885 resulted in our putting 7.000 families into Manitoba, and something like 12,000 families into the North-West and Manitoba put together. In order to do that, we have to expend something like $7,000,000 a year—if you put together the interest we have to pay on the amount we incurred for the railway, the annual charge for Indians, the annual charge for the Mounted Police, and the annual charge for immigration, which, to all intents and purposes, is useful only for that country, besides the amount for the management of the Department of the Interior and the miscellaneous expenditures which we incur. There was a little dispute the other evening as to the amount of available land we had in the North-West. I find a few suggestive facts shown in the map which the hon. gentleman has laid on the Table. I find that, in the enormous extent of territory between the 3rd and 4th parallels wrhich was known as the dry or arid region, the Canadian Pacific Railway would only accept about one-third of the 2,000,000 acres of the licit located there. This map shows that of 2,208,000 acres, they would only accept 830,000 acres, according to the hon. gentleman’s statement ; and I am told that a large quantity of that was on the north side of the road. I fear it is only too evident that the great proportion of the region south of the Canadian Pacific Railway line and extending to the boundary between the 3rd and 4th parallels, can hardly be deemed fit for settlement. We know* that all along the other parallels to the north of the Canadian Pacific Railway line, there is agreat deal of broken land. I believe that the land of better quality to the north has been
largely appropriated by the Canadian Pacific Railway and others, and it is clear that, wholly apart from the grants which have been made to the Manitoba and North-Western and other railways, we have been dispossessing ourselves of the greater portion of this land, extending up to the 53rd degree of latitude, and that we will be obliged to hand the balance over free to the settlers, or that, at most, we may have a small portion remaining for pre-emption purposes. I desire to remind the House that we have failed altogether in putting immigrants in that country in the'number we had a right to count upon, and in obtaining any return for our expenditure upon it, the fact being that the balance in our land Department is on the wrong side. I also point out that we are now doing a double wrong. In the first place, we are making a mistake in subsidising these railways by grants of land which lie at a distance from the line of railway. We give them large blocks of land far removed from their line, and there is no inducement to them to bring settlers in. If these sections become reasonably populous, the people will be perpetually dependent upon us. In the old Provinces, large resources were derived formerly from the sale of lands, and later, from the timber limits, but these resources will be taken aw'ay from the people of the new territories, and wre will probably have continual battling for additional subsidies and additional accommodation which those territories will have a right to expect. On all these accounts, I think the policy of making this land grant is much to be deprecated, and my own impression is that we will gain very little by it. We are locking up these lands in the hands of corporations, which, in many cases, depend upon the sale of their bonds to make any headway at all, and we are only placing an obstacle in the way of other companies which might probably at a later date be willing to construct roads through that country. We have an instance of that in the case of the Northern Pacific Railway in the Province of Manitoba, which has been ready, I believe, to construct lines there for the very small bonus of $1,500 to $1,700 per mile. I also believe it is a bad policy to scatter settlement which these grants are calculated to do. I believe it would have been better to devote our attention to the concentration instead of scattering it; I believe we woidd have had very many thousands more settlers than we have now, and that the whole problem of the North-West would have been solved in a more reasonable way. However, it is all but hopeless to endeavor to control the Government now that they have embarked on this policy. No one can look at this map without perceiving that the chances are immense, that in years to come our successors may be compelled, at great cost and at great inconvenience, to undo the work which we are now so heedlessly accomplishing.
Mr. CHARLTON. I wish to add one word to the protest I made in regard to this absurd policy of the Government in embarking in these enormous railway enterprises, in a country which has only about a quarter of a million of inhabitants. They are anticipating the wants of the country ; they are engaged in the business of building railways under the most unfavorable circumstances, and they are obliged to offer inducements for the
4923
[COMMONSj
4924
construction of railways prematurely, year after year, in advance of the necessities of their being built faster than they would be required by the natural growth of settlement. This whole policy of granting millions upon millions of acres in the North-West to corporations, making grants that will prove eventually to have been unnecessary if we waited till the roads were needed, is one that the country will bitterly regret in the future. I predict it, and I predict it from the experience that has been given in precisely similar cases in the country to the south of us. I regret, furthermore, that the Government have determined, as they seen! determined, to pursue this policy of bartering the heritage of the future for the advantage of certain monopolies ; and inasmuch as they insist upon doing this, I regret they have even refused that poor boon of fixing the maximum price with regard to these lands, the policy which the hon. member for Marquette (Mr. Watson) pointed out had been repeatedly pursued in the United States in the interest of the settlers who were to occupy the lands which were granted to railways in various parts of that country. I hold that it is an entirely unjustifiable refusal on the part of the Government, having decided to grant these lands, to refuse to the settler that safeguard he is entitled to demand, that is, the establishment of a maximum price. I now record my protest against the whole policy, against the policy per se of making grants, and against the refusal, having taken that step, of minimising the evil by establishing a maximum rate.
Mr. DEWDNEY. The plan which the hon. gentleman has been looking at shows the lands accepted by the Canadian Pacific Railway, amounting to, I think, 8,340,000 acres. I explained the other day that they had already notified us of having accepted now over 9,000,000, and expect to select 10,000,000 before the selection is completed. We asked last year for an appropriation of $2,500 for the inspection of land ; it was for the purpose of paying our inspector for examining the lands which the Canadian Pacific Railway has indicated they were not going to take. Since the inspection was made, Mr. Hamilton, on behalf of the Canadian Pacific Railway, and Mr. Pierce, on behalf of the Government, have been at work every day making a final selection which, I am satisfied, will reach 10,000,000. The section which has been examined most carefully is that portion in which the smallest selection has been made.
Sir RICHARD CARTWRIGHT. Can the hon. Minister state whether I was correctly informed that the bulk of the selection, in what is known as the arid belt, between the 3rd and 4th parallels, has been made north of the line ?
Mr. DEWDNEY. I think that is very likely. There is a very large area south of the track in which Old Wives Lake is situated, a lake which is some eighty miles long and ten or fifteen miles wide in some places. There is a great deal of land within the railway belt south of the line. A great deal of land around that lake is dry alkali land, which would not, under any circumstances, be accepted by the Canadian Pacific Railway.
Motion agreed to, and Bill read the third time and passed.
Mr. Chaiij.tox.
RESPECTING INTEREST.
House again resolved itself into Committee on Bill (No. 140) to amend chapter 127 of the Revised Statutes of Canada, entitled An Act respecting Interest.
(In the Committee.)
Sir JOHN THOMPSON. When that Bill was before considered in Committee there was a discussion in which the hon. member for Queen's, P. E. I. (Mr. Davies) took part, with regard to the propriety of repealing all the exceptional provisions of the Interest Act. The Bill as passed by the Senate deals with sections 9, 10 and 11, narnffy, those making special provisions with reference to Ontario and Quebec. The hon. member for St. John gave me notice that he desired to ask for the repeal of sections 18 to 23 with regard to New Brunswick, and the member for Queen’s, P. E. I., desired to repeal sections 28, 29 and 30 with regard to Prince Edward Island. I agree to the repeal of all the sections after number nine. The effect will be to remove a number of tffose enactments which were particularly intended to keep alive the penalties with regard to the then existing contracts, which are now practically run out. Hereafter, in all the Provinces, the rate of interest may be fixed by agreement.
Mr. BLAKE. It leaves still undisturbed, except in so far as specially amended, the provisions as to the power of redemption, or rather limitation of the right to charge interest after a certain period.
Sir JOHN THOMPSON. It does not affect that.
Bill reported, and read the third time ami passed.
FIRST READING.
Bill (No. 161) to amend “The Pilotage Act,’-chapter eighty of the Revised Statutes.—(Mr. Colby.)
ADJOURNMENT TILL FRIDAY.
Sir JOHN A. MACDONALD. I move that when this House adjourns to-night it stand adjourned until Friday morning at eleven o’clock, to receive any messages from the other House.
Motion agreed to.
BILLS WITHDRAWN.
Bill (No. 131) further to amend chapter 51 of the Revised Statutes, The Territories Real Property Act.—(Sir John Thompson.)
Bill (No. 112) authorising the transfer of certain public property to the Provincial Governments. — (Sir John Thompson.)	~
It being six o’clock, the Speaker left the Chair.
After Recess.
STEAMBOAT INSPECTION BILL.
Mr. MITCHELL. The House will have in its recollection that when the Bill was passed in regard to steamboat inspection, a very strong feelmg was expressed on this side of the House, and also on the other side of the House, against the provi-﻿4925
[MAT 14, 1890.]
4926
sion that an engineer should require to be domiciled here three years before he could be employed. The acting Minister of Marine, with the courtesy which usually characterises him, stated he would strike out the section in accordance with the wish of the House. I believe some error was committed. The hon. gentleman intended to make the alteration, but the original clause went up to the Senate. I think the Minister’s intention was to change that particular section, and I regret it has not been done.
Mr. COLBY. The hon. gentleman has stated the case exactly. In deference to the views of my hon. friends from Northumberland (Mr. Mitchell), Queen’s (Mr. Davies), Halifax (Mr. Jones) and some other hon. gentlemen from the Maritime Provinces, I announced to the House that, for the present, we would not press that clause. By an error which was not discovered until the Bill had passed the Senate beyond recall, that clause was retained and another clause was taken out. I immediately placed myself in communication with the leader of the Opposition, and the hon. gentlemen from the Maritime Provinces, and stated that if they attached sufficient importance to it, I would endeavor to have another Bill put through to-day that would amend the Act. It was understood, that as the clause had been considerably modified, it might ^tand for a year.
Mr. MITCHELL. And you will amend it next year.
Mr. COLBY. I probably7 will not be in the position next year that I now7 so unworthily7 occupy ; but it will be open for amendment then.
j is to keep Canada for the Canadians, in this respect J I shall assist them. I expressed my regrets that a Bill had been introduced in reference to the qualifications of engineers other than those on steamboats. I drew7 the attention of the House the last few7 Sessions, to the importance of this matter, and I hope that next year the Government will take it up. I trust they will pass a Bill next Session, by7 which they will give that honored and respected class of the community the right to pass an examination, so as to put them on an equality with the steamboat engineers.
THE MICMAC INDIANS.
Mr. MITCHELL. I have received from the Chief of the Micmae tribe of Indians, a petition in which he asks, among other privileges, that they shall be allowed the privilege of spearing salmon at the distance of three miles, on the north-west branch of the river, in connection with their reserve. The Indians are very poor, and have not the best facilities for catching fish, and they ask w7hat they7 used to have in former y7ears, the privilege of spearing within a limit of three miles. I w7ould ask the hon. Minister to give the matter his early attention, and see what can be done to meet their wishes.
Mr. DEWDNEY. I have read the papers which were handed to me by the hon. gentleman, and which contained the application he has mentioned and other matters. I will give them my immediate attention, and will communicate wdth the hon. gentleman as soon as I have anything definite to communicate.
Mr. CHARLTON. The law as it now7 stands j would not allow7 a person to be an engineer in Canada, unless he was domiciled on a British vessel.
Mr. MITCHELL. Yes ; but if you want to get an engineer from the United States yrou could not have him.
Mr. LAURIER. I think that clause will be found very7 inconvenient.
Mr. CHARLTON. Better let the Bill stand for this Session.
Mr. COLBY. We cannot do that now, but I can get a small Bill drafted which w7ill change the law to meet the view's of the House.
Mr. MITCHELL. I think that would be better.
Mr. CHARLTON. Better draft a small Bill. As arrangements have now been made by the steamboat owners, this law w7ould be found very inconvenient.
NEW BRUNSWICK CAMP GROUND.
Mr. MITCHELL. I would like, also, to ask the hon. Minister of Militia whether he can comply7 w7ith the reasonable request I made on behalf of the Mayor and Council of the city of Moncton'!
Sir ADOLPHE CARON. I am sorry I cannot give an answ7er to the hon. gentleman’s question, relating to the location of the camp for the annual drill of the militia in the Province of New7 Brunswick. The question of the selection of the localities for the different camps has not yet been taken up ; but I have received several petitions on behalf of the city of Moncton, and the matter will be taken up at an early day, w7hen I shall be glad to consider the recommendation the hon. gentleman has made.
CHRISTIAN ISLAND INDIANS.
Mr. COOK. I am glad the acting Minister of Marine has decided to give this matter consideration. I introduced a Bill sometime ago, that persons should not be appointed to the Civil Service unless they w7ere residents in the country five years. The second reading of that Bill wras moved in my absence, and I understood the First Minister gave a promise that he would consider the question next Session, or that he would not employ any more foreigners, or even persons from Great Britain, in the Civil Service, unless they had a residence in Canada. A large number of our young men are qualified for these positions and they ought to be given a chance. So far as the policy of the Government
Mr. COOK. I w7ould like to call the- attention of the hon. Minister of the Interior to the fact that a great deal of distress prevails among the Christian Island Indians. I had the honor and profit of attending a camp meeting on the island last summer, when I discovered that there were a number of indigent persons there, and that they have not organs in their different churches. As the Government have been supplying organs to bands of Indians in other sections, they ought to supply an organ to each denomination of the Indians on Christian Island. I hope they will also attend to the indigent- persons who are there, and w7ho are worthy to receive assistance, apart from the fact that they are w7ards of the Government.
4927
[COMMONS]
4928
Mr. DEWDNEY. I was not aware, until the hon. gentleman mentioned it, that it has been usual for the Government to give organs to the Christian bands of Indians, and I cannot promise the hon. gentleman anything in that respect. The only organ which, I think, it might be within the means of the Indian Fund to send them is the Toronto Globe. I will enquire into the case of the indigent persons. '
THE NEWFOUNDLAND QUESTION.
Mr. CHARLTON. Have the Government anything to communicate to the country concerning the negotiations with Newfoundland, with regard to its admission into the Dominion ?
Sir JOHN A. MACDONALD. We have had no communications from the Government of Newfoundland, except one. On hearing that their Bait Bill was applied to Canadian vessels, we remonstrated by telegraph, and also communicated with the Colonial Office. We received an answer from Newfoundland that the Act was infra vires. We have had no answer yet from the Colonial Office, but do not cease to press the matter, because we think it was the original intention of the Newfoundland Government and Legislature not to apply it to Canadian vessels ; but it appears, under the terms of the Act, it is applicable to all vessels, either British, Canadian or foreign.
Mr. CHARLTON. The hon. gentleman’s answer throws a good deal of light on matters between the Island and the Dominion, so far as it goes. But the question I desire particularly to obtain information upon is, as to whether there, were any negotiations on the basis of admitting Newfoundland into Confederation.	.
Mr. TROW. I see in the papers that the Newfoundlanders are annexing themselves to the Dominion. Over 250 of them have come to Montreal ; and if negotiations are kept quiet they will annex themselves.
MAJOR-GENERAL MIDDLETON.
Mr. MILLS (Bothwell). I would like to ask what action the Government propose taking, in consequence of the report made in reference to the case of General Middleton ? Do the Government propose to press General Middleton to pay the amount of money the Committee reported was due to Mr. Bremner, or what action do they propose to take ?
Sir JOHN A. MACDONALD. We have taken no steps on that report, and have had no communication with General Middleton. He is absent at Toronto. We have been too busy to consider what steps should be taken.
Mr. LAURIER. That was not exactly the purport of the question of my hon. friend. He did not suggest that the Government had had any communication with General Middleton, but he asked what the intentions of the Government -were in regard to that report. It may be premature to ask the Government what their intention is, but, as I understand, the object was to ascertain what was to be done in regard to this man Bremner, who is,
I believe, a most deserving man, who was charged with being a rebel though there was no evidence against him, and the evidence shows that he was i Mr. Cook.
i not guilty of rebellion. The whole of his property was in furs, and I think this matter requires prompt action on the part of the Government.
Sir JOHN A. MACDONALD. We have not had time to consider that point, but I would remind the hon. gentleman that a most solemn protest was entered here by the hon. member for West Durham (Mr. Blake) against the Government paying a farthing to Bremner.
Mr. LAURIER. I do not pretend that Bremner should be paid by the country, but the Government may have means of persuasion which they could bring to bear on those who should pay this damage.
Sir JOHN A. MACDONALD. We will consider that matter.
Sir RICHARD CARTWRIGHT. Mr. Bremner is entitled to be recouped in some form, and we should not separate before that is understood. This man’s furs were placed in the custody of an officer of the Government, and were handed over on the order of another officer of the Government, and I think we are bound to see that that man is recouped.
Sir JOHN A. MACDONALD. That will be fully considered.
Mr. TROW. I will ask the Minister of Militia if he intends to have battalion^lrill this year in the city of Stratford? That city has gone to considerable expense in extending waterworks to the old drill field, which I think is the best in the Province, and to have everything prepared for battalion drill.
Sir ADOLPHE CARON. It is, no doubt, a great inducement to send the camp to Stratford that the waterworks there are in perfect order. As far as I am personally concerned, I should be glad to give a definite answer on the subject, but, as I have already stated, the question of the selection of the camps has not yet been considered. It will be one of the first questions to be taken up by the Department after Parliament rises, and I shall be glad to consider the application which the hon. gentleman has made.
ADJOURNMENT.
Sir JOHN A. MACDONALD. I move the House do now adjourn, to meet again on Friday morning at eleven o’clock.
Motion agreed to ; and House adjourned at 9.30 p.m.
HOUSE OF COMMONS.
Friday, 16th May, 1890.
