 at 3 o’clock.
ESSEX ELECTION
On the question of receiving a petition from electors in Essex, complaining of a series of violent and irregular proceedings on the part of Arthur R. Rankin and others, during the election in Essex.
Hon. Mr. Holton called the attention of the Government to the question of whether this petition could be received. It was, in fact, a petition against the petitioners in the Essex case, and had reference to an issue that was now pending, and would very soon go before an Election Committee.
Sir John A. Macdonald said it might stand till Monday, and he would during the interval look into the matter.
CUSTOMS AND EXCISE
Hon. Mr. Rose introduced a Bill to constitute the Department of Inland Revenue.
Hon. Mr. Tilley introduced a Bill to constitute the Department of Customs.
Hon. Mr. Tilley moved concurrence in the 7th resolution on the Tariff, reported from the Committee on Ways and Means. Carried.
The remaining Tariff resolutions were also agreed to, except the 11th, imposing export duties, so far as regards the Provinces of Ontario and Quebec, on various descriptions of timber. Sir John A. Macdonald said the Government had decided to strike this out, and it was struck out accordingly.
Hon. Mr. Tilley then introduced a Customs Bill founded on the resolutions.
Hon. Mr. Holton said the Government was supplying the House with an amount of literature which it would scarcely be possible even to read between now and Christmas. If it was intended to go on with these measures in this part of the session, Government should make a clear explanation of their whole policy with regard to organizing these departments.
99038—19J
Sir John A. Macdonald said he would take
an early opportunity of doing so.
REPORTING THE DEBATES
Sir John A. Macdonald requested the Chairman of the Printing Committee not to move the adoption of the official reporting scheme till Monday, when the matter could be finally disposed of. Agreed to.
THE NORTH-WEST TERRITORY
Sir John A. Macdonald moved the adoption of the address with reference to the NorthWest, and said that the member for ChateaUguay had intimated it would be allowed to pass subsilentio.
Hon. Mr. Hollon said he could only speak for himself and his Lower Canada friends. As far as they were concerned, they were not disposed to renew the discussion; he had only asked delay to see that the Address was in the terms of the resolution, and if so he was now satisfied.
Mr. Mackenzie and the member for Bothwell objected to the Address, because it did not set forth the form of Government intended to be established in the Territory, and he understood, was prepared to speak briefly on the subject.
Sir John A. Macdonald said he would allow the motion to stand.
AMERICAN SILVER
Hon. Mr. Rose, in resuming the debate of the morning, referred to the great inconvenience arising from the quantity of American silver with which the market was flooded, and stated that a complete measure of legislation upon the subject would be introduced next session, of which he could not now give the detail, but towards which the first step advisable was to close the door to any fresh importations, by which the Government would hereafter be able to estimate the fixed quantity with which they would have to deal, in place of being compelled to act with regard to an amount unknown, and would then be enabled with greater certainty to proceed
280
COMMONS DEBATES
December 14,1867
in their efforts to relieve the community from the present incubus, and to substitute therefor a useful currency. The introduction here of the coin which had gone out of use in the United States was entirely by the importations of brokers for their own benefit, and not through the agency of individuals, who did not find such coin in common American circulation.
Hon. Mr. Holton regarded the measure, however intelligible, if judged in the light of a future enactment, as per se, as stupid a proposal as was ever suggested to a deliberative assembly. It would be impossible to enforce the duty along so extensive a frontier as ours, and the effort to do so would only expose us to the derision of the world, who instead of finding us ready to deal with the overplus of silver here already, would see a protective duty being imposed in its favour.
Mr. Gibbs could appreciate the difficulty of the task undertaken by the Government, who would not, in his opinion, succeed in its accomplishment. Nor could he see any great hardship to the public if, for considerations affecting their own convenience, they voluntarily consented to take for twenty-five cents what was really worth but twenty-four or twenty-three. A rate of three or four per cent might increase the general revenue, but fifteen would merely offer a bonus to smuggling. It would be preferable to postpone the proposal to next session, when the whole subject might be comprehensively considered, and meanwhile people anticipating legislative action would take steps towards freeing themselves from the nuisance.
Mr. D. A. McDonald would support the resolution, as being at least a step towards the extinction of a trade injurious to the public, and beneficial to the brokers only.
Mr. Lawson thought that it would be impolitic to refuse to receive the currency of our neighbours at its standard gold value. He was not able immediately to refer to the proper authorities, but was under the impression that the American dollar was worth 91 or 92 cents, which value he suggested should be fixed for it by law.
Mr. Cartwright had no faith in the power of an import duty to stop the circulation of coin, which only a rigorous personal search could exclude. Still, if the Government wished to take the responsibility, they might try the experiment. The quantity in the coun-
[Mr. Rose (Huntingdon)]
try was very large—probably not less than seven or eight millions.
Hon. J. Rose considered this an over-estimate. The proposal to fix a specific duty, although fair in theory, was open to the objection that the intrinsic value of the coinage varied very materially.
Mr. Dufresne said that it would be remembered that, early in the session, he had asked the Government if they did not intend to establish a mint for the improvement of the coinage, a word which he had found in his dictionary—an old machine perhaps as worn out and useless as himself (loud laughter)—to mean the reduction of crude metal into a shape fit for currency, and that he had been answered by the Hon. Premier in the jocular strain with which his philosophy was wont to treat even the most serious subjects. (Laughter.) Our great difficulty arose from such a scarcity of circulation as induced us to lay our hands on anything we could get.
Mr. Kirkpatrick would vote for the measure, although considering that eight or ten per cent would be a better rate to impose. It would be still better to fix a specific value for the coin, which would show the United States that we were not unwilling to take their currency at its real worth, which, had he been Minister of Finance, (hear) he should have taken care to ascertain.
Hon. Mr. Cartier urged that people and small traders were those who suffered by this nuisance, and that the only way to remedy the difficulty was to clog the importation from the States. He did not think there was anything very stupid in such a measure; this was only a first step, and would be followed up by the Finance Minister either by a fractional paper currency or by a silver currency of our own.
Hon. Mr. Dorion thought the House should not be asked to accept or trust this, which was only part of the policy of the Government on this subject. Such a proposition, if carried out, would only have the effect of increasing the nominal value of silver in this country. It seemed to him the only proper way to deal with this question would be to fix the real value of these coins, and if that were not sufficient to abate the nuisance, a penalty ought to be imposed on those who received them at a higher rate. The present measure was rather calculated to throw obstacles in the way of a settlement of the whole question hereafter than to abate the nuisance.
December 14.1867
COMMONS DEBATES
281
Mr. Ross (Prince Edward) was glad that the Government had taken up the matter. At present farmers and traders were made to suffer for the benefit of brokers, and he knew mercantile houses in Upper Canada which were in this way losing $5,000 yearly. He would accord his cheerful support to the measure—the best introduced this session.
Mr. Walsh referred to a previous proposal made by himself to fix a legal value of 80 cents for the dollar, which he explained would not occasion loss to the holders, who could always export to New York for par value. A similar arrangement had been found to work well in New Brunswick.
Mr. Metcalfe looked upon the proposal as the most extraordinary that had ever been heard of. It would certainly be a nuisance and an injustice to be compelled to take any article for a value greater than its due, but such transactions were altogether voluntary and optional, and if it were true that any bankers constrained their customers to take a portion of their discounts in silver, it could only have reference to the conduct of the managers of the great shaving establishment of Montreal.
Mr. McConkey should have desired to see the matter postponed until the Banks and Boards of Trade were able to express an opinion, and thought that the Government should fix some determinate legal tender value.
Mr. Gibbs regarded eight per cent as a rate more advisable than fifteen, and thought the quarter dollar might with advantage be made worth twenty-three cents. The effect of this discussion going abroad would be to prepare the country for the change which was to come. It was nonsense to talk of silver being forced upon the community—in his neighbourhood at least, where the farmers possessed sufficient intelligence to understand perfectly what they were about.
Mr. Bodwell said that the reference of the Hon. Minister of Militia to the injustice of the present state of things towards the poor was a good reason for the introduction of a Bill, which he himself intended to propose, to regulate the whole difficulty. He asked whether the Government’s attention had been sharpened by recent losses from municipal receipts of silver in Lower Canada. He could not understand why municipalities of Ontario should not also be permitted to make their payments in silver if such a power had, as the public accounts led him to believe, been
extended to Quebec. He thought that a prohibition of silver would compel the introduction of American gold.
Mr. Currier was amazed at the proposal, not being able to see why, upon the same ground, an eight per cent duty should not be placed on gold. We had actually too small an amount of circulation.
Mr. Ross (Dundas) said that it was impossible to settle the question by any such imposition of duty, as silver could be brought in, in any quantity, over the frontier in defiance of the Government prohibition. He hoped that if Ministers were determined to press the measure, they would amend it by a reduction of the rate to four or five percent, by which the intrinsic value of the coin would be reached.
Hon. Mr. Dunkin could not understand how it mattered what rate of duty was imposed, the object being not revenue, but exclusion.
Dr. Parker thought the subject should be postponed, believing that the best way of dealing with it was to make such silver a legal tender at fixed value. The present proposal of exclusion would, if carried, be magnified across the border into an attempt at annoyance to the people of the United States.
Mr. Bodwell thought that the sooner we ceased to express fears of offending the United States in legislating for our own advantage the better. (Hear, hear.) We had heard so much of this sort of talk lately, that the Americans would begin to imagine that we could not get on without them.
Dr. Parker considered his remarks as perfectly justifiable, and disclaiming any more undue sympathy with or fear of the United States ridiculed the extravagant exaltation of the loyal frenzy, which would not permit us to speak without taking off our hats, and hooraying about our institutions as in no way tending to impress spectators with much respect for our dignity. He thought that it would be desirable to learn to use such language on grave international questions as was to be heard in England, where the great leaders, both of the Conservative and Whig parties were accustomed to express themselves in a strain which were it used by him, would be branded as betraying annexationist principles.
Mr. Bellerose (in French) briefly supported the resolution.
282
COMMONS DEBATES
December 14.1867
Hon. Mr. Anglin thought that no legislation was called for. The example of New Brunswick proved that the establishment of a commercial agreement to take the half dollar only for forty cents would completely meet the requirements of the country.
Mr. Oliver having briefly supported the measure,
Hon. J. Rose said that the information given by the gentlemen who had spoken conveyed many valuable hints to the Government for their consideration during the recess. He repeated that there were insuperable difficulties arising from the varying intrinsic values of the different coinages in the way of imposing a specific duty which would establish a par value, and thought that the Government might be trusted to take proper
means for the effectual prevention of smuggling this article as well as watches, diamonds, or other jewellery.
Hon. J. H. Cameron having spoken in favour of the measure, the remaining resolutions were put and concurred in, with the exception of the eleventh, imposing an export duty on lumber from the Western Provinces, which was struck out by the consent of the Government.
CUSTOMS ACT
The Bill for Regulating the Collection of Customs was then read a second time, and, it being 6 o’clock the House adjourned to 3 p.m. on Monday.
HOUSE OF COMMONS
Monday, December 16,1867
