 at three o’clock.
ELECTION PETITIONS
The General Committee on Privileges and Elections reported that the following members had been chosen to serve upon the Select Committee for trial of the Argenteuil election petition, viz., Messrs. Cartwright, Daoust, Colby, Ault, and Webb, Chairman; and that they had appointed the following days for trial of the undermentioned election petitions, viz., Montreal East, 15th April; Berthier, 16th April; Vercheres, 20th April; and Hochelaga, 21st April.
The following members were then sworn at the table to serve upon the St. Hyacinthe Election Select Committee, viz., Messrs. Bechard, D. A. McDonald, Barton, Chamberlin, and Pozer, Chairman.
Upon the motion of Mr. Walsh, it was resolved that the House do adjourn at six to half-past seven this evening, to enable the St. Hyacinthe Select Committee to sit during the interval.
STEAMBOAT INSPECTION, ETC.
Sir J. A. Macdonald introduced a Bill respecting the inspection of steamboats and the increased protection to passengers therein, which was read a first time, and the second reading fixed for Monday.
CIVIL SERVICE
Hon. Mr. Rose moved that on Tuesday the House go into Committee of the Whole to consider resolutions relative to the Civil Service.
—Carried.
EXTRADITION TREATY
On motion of Sir John A. Macdonald, the
Bill respecting the Extradition Treaty with the United States was read a third time.
Mr. Chamberlin moved an amendment to allow a delay of seven days within which a prisoner might appeal to the Judges of the
Supreme Court before being extradited on a commitment by a Magistrate. This, he said, would prevent the recurrence of what had happened in the Lamirande case.
Sir John A. Macdonald said that after further consideration, since the matter was formally before the House, he had decided not to oppose the amendment.
The amendment was agreed to, and the Bill then passed.
THIRD READINGS
On motion of Sir John A. Macdonald, the following Bills were also read a third time and passed:—
Bill respecting the security to be given by officers of Canada.
Bill respecting inquiries concerning public matters.
COMMISSIONS AND OATHS OF OFFICE
On motion of Sir J. A. Macdonald, the
House went into Committee on the Bill respecting Commissions and Oaths of Office— Mr. D. A. McDonald in the Chair.
Sir J. A. Macdonald said he proposed to amend the form of Oath of Allegiance given in the Bill, by striking out the words “I hereby renounce all pardons and dispensations, etc.” which words, he considered, implied an unworthy suspicion on Her Majesty’s Roman Catholic subjects.
Hon. Mr. McGee expressed his great satisfaction that these words, which had now no force, should be omitted.
Hon. Mr. Anglin said he had intimated to the Minister of Justice his intention of moving this amendment, and was happy he had anticipated him.
Hon. Mr. Dunkin and Mr, Blake expressed the opinion that it would be better to adopt the short form of Oath of Allegiance given in the Union Act, as follows; “I, A.B., do swear that I will be faithful and bear true allegiance to Her Majesty, Queen Victoria.”
Sir J. A. Macdonald said he would postpone the Bill with the view of consideration this suggestion.
450
COMMONS DEBATES
April 3,1868
Mr. Rymal said he knew certain people who had been charged with taking vows upon themselves which they did not intend to perform. (Hear, hear).
The Committee then rose and reported progress.
DEPARTMENTAL ORGANIZATION
Sir John A. Macdonald then moved the second reading of the Bill for the organization of the Department of Marine and Fisheries on which a debate arose on the general question of Departmental organization.
Sir John A. Macdonald, to show the importance of this Department, read from the Bill the list of matters falling within its province, and also a communication from Hon. Mr. Mitchell, narrating with a good deal of minuteness the multifarious duties devolving on him. He then stated that in connection with this Bill it might be well to have the general discussion as the number of Departments and duties assigned to them. (Hear, hear). The first step, of course, to having an efficient administration of public affairs was to have an organization of departments under responsible heads, these heads being members of the Privy Council and advisers of the Crown, with respect not only to their own department but to the conduct of affairs generally. Before the Union the affairs of the old Province of Canada were administered by a Cabinet, the number of which had come to be nearly settled, as far as practice could settle it, at twelve members. At the Union, new elements were introduced, two large and important Provinces, having distinct governments and parliaments, were absorbed into the Union. At the formation of a new Government the first question which had to be considered, and which he primarily had to consider, having had the honour to be entrusted with the formation of the first Ministry, was as to how to form an administration on principles the best calculated to work out the Union Act. In the first place, it seemed necessary that all the Provinces which composed the Union should be adequately represented in the Government. The first thing to be guarded against was the raising of sectional jealousies, and he felt that no one individual whatever might be his ability, his position, his standing in his own Province, could be held to be a sufficient representation of that Province. It was a great support to a man, and gave him a feeling of assurance that he was right, when
he could consult with and receive the concurrence of others in whom he had confidence, who represented the same interests; and no one man leaving his own house in the Maritime Provinces and coming to Ottawa, far away from those with whom he had been accustomed to act, but must feel himself at a loss if left to act for his own Province without the countenance and support of any one else. It was, therefore, felt that in the formation of a new Government, New Brunswick and Nova Scotia could not be represented in the Cabinet by less than two for each. He-admitted that under the constitution there-was no special necessity for sectional representation in the Cabinet of the Dominion-In the old Province of Canada, there was ex necessitate a dual representation in the Cabinet, each Province having an equal number of representatives; but after the Union that necessity disappeared, the sectional rights and privileges of each Province being' protected by its own Local Government and Parliament. As in the Imperial Cabinet, all, so far as the constitution was concerned, might be Englishmen, Irishmen or Scotchmen, so in the Dominion Cabinet, all might be from one Province. The only thing necessary was that the Cabinet, wherever its members came from, should enjoy the confidence of a majority of the representatives of the people in Parliament; but as a matter of practical arrangement in this country as in England, in order to obtain that confidence it was absolutely necessary that all the great sections of the country should be represented in the Cabinet. In looking over the lists since 1800, it would be seen that in the Cabinet of Great Britain there had always been representatives of England, Ireland, and Scotland. The reason was that the people of each section could not expect their interests to be sufficiently attended to unless they had representatives in Government as well as in Parliament. It had been deemed necessary, therefore, that there should be a full and fair representation of every Province in the Cabinet. Each of the Maritime Provinces having received representatives, the least that could be given to Quebec, with a due regard to population, was four, while the least that could be given to Ontario, the largest Province of the Confederation was five. And there was another reason for giving this number to Upper Canada. That Province had been divided into two political hostile parties, which had been strugggling against each other for many years. Confederation was carried by a
April 3,1868
COMMONS DEBATES
451
junction of the political leaders and political parties whose antecedents had been opposed to each other, and it was felt to be desirable that the two parties which had joined to bring about the Union should be represented in the Cabinet formed at its inauguration. The Cabinet thus came to comprise thirteen members. Sir John proceeded to discuss the question whether it would have been desirable to have some of the members of the Cabinet merely consultative members without portfolios. He contended that this would have been against the well established practice of both Canada and England, unless in such exceptional cases as those of the Marquis of Landsdowne and the Duke of Wellington, whose experience made it desirable to have them in the Cabinet, while the respect due to their age relieved them from being entrusted with active administrative affairs as heads of departments. Another recent example of this was not considered satisfactory by the British people, and every one was pleased when Mr. Walpole, on the formation of the Disraeli administration the other day, was relieved of the anomalous position of being a member of the Cabinet without portfolio. There was another reason why a correct principle of representation in the Cabinet should be laid down at the inauguration of the Dominion. There was every prospect that at no distant day its area would be increased, and it was desirable therefore that the Cabinet should be established on a large and sufficient basis, that would not require to be altered, extended, or changed, with every addition to our area, size, and importance. It had not been felt in the old Province of Canada that the Cabinet was at all too large, and of all the departments in that Cabinet there was only one not required for the due administration of the affairs of the Dominion. He alluded to the Crown Lands Department. There might also be a reduction in the law department. The Solicitors-General had scarcely in any sense portfolios, except in conjunction with the Attomeys-General, the professional chiefs. It was believed that the interests of the Dominion did not require more than one legal member in the Cabinet. Sir John proceeded to enumerate the actual departments in the Cabinet and to argue for the necessity of each. He had already spoken of the department of the fisheries, the organization of which was the object of the present Bill. As regarded the department of the Minister of Justice, he presumed it would be admitted that some legal officer must be a member of
the Cabinet and Attorney-General, holding the same power with reference to the Dominion and its affairs as the Attorney-General in England, having responsibilities for legal appointments, the general state of the law, its amelioration where necessary and its due administration. It was therefore provided that a Minister of Justice should be appointed, and that he should hold his commission as Attorney-General as well. He thought it would be admitted, if not before his honourable colleague introduced the Militia Bill the other day, at least after that Bill was introduced, that the Militia and the organization for defence, fortifications, etc., required a Minister of Militia. Of course, there must be a Minister of Finance. Then as regarded that department it must be obvious to every one that it had greatly outgrown the dimensions which could be managed by one man. It had become necessary to sub-divide it. The Minister of Finance must, of necessity, be employed with the general questions connected with the Revenue and Expenditure, and he thought his honourable friend who now ably filled that office would succeed in convincing the House, if he had not already done so, that all his time and more if he had it to spare, would be occupied in attending to this branch of the Public Administration. Sir John A. Macdonald went on to contend that in England there was virtually a Treasury Board presided over by the Chancellor of the Exchequer, and including the Financial Secretaries of each of the other departments which had to do with the raising or expenditure of money, and argued that it was a great advantage to have a similar board here, comprising the Receiver General, Minister of Customs, Minister of Inland Revenue, and Minister of Finance at its head. He argued also that the subdivision of labour brought about by the creation of distinct Customs and Excise Departments formerly included in the Financial Department, was an important advantage. The Finance Minister, he said, would have the responsibility of initiating the policy of each of these departments, while to the Ministers of Customs and Inland Revenue would belong the responsibility of administration. The whole Treasury Board at the same time, would form a consultative body; and there would be this advantage, that when they recommended as a combined body any policy or course of action, the other members of the Cabinet, from the confidence they could place in such a board, would be less under the necessity of studying
452
COMMONS DEBATES
April 3,1868
up the subject each for himself than if the recommendation came merely on the responsibility of an individual Minister. Referring to an expression of dissent by the member for Chateauguay, he said he had no doubt that that honourable member would some day—how soon he (Sir John) did not know and did not wish to anticipate the time—would some day again hold the office of Finance Minister, and he ventured to say he would then bless his stars that his predecessors in office had introduced such a complete subdivision of labour in that department.
Hon. Mr. Holton said if he had expressed a doubt, it was not to the value of subdivision of labour, but as to the efficiency of the Treasury Board.
Sir John A. Macdonald proceeded to say that he supposed he would not be required to show the necessity of the office of Post Master General, or Minister of Public Works, or Secretary of State. The Bill as to the last of these departments had already received the sanction of the House.
Hon. Mr. Holton said by the Bill now before the House it was proposed to strip the Minister of Public Works of a number of his duties, as he had already been deprived of the charge of the Intercolonial Railway.
Sir John A. Macdonald said all the public works of Canada with regard to their construction, maintenance and repair, with the public buildings and canals, and railways belonging to the Dominion, were still under the control of the Minister of Public Works. Some expressions in this Bill entrusting the Minister of Fisheries with repair, maintenance, etc., of light houses, etc., were a mistake, and would be altered. He then referred to the Department of Secretary of State for the Provinces, and argued, as on former occasions, for its necessity on account of the number and importance of the communications that must necessarily pass between the Local and Dominion Governments. The Secretary of State having, in addition to his former duties, charge of the Indian Department and ordnance lands, could not well undertake the charge of that correspondence.
Hon. Mr. Holton—The Secretary of State found time to be away at Quebec six weeks legislating.
Sir John A. Macdonald said he had earned that spare time well, by the assiduity with which he had applied himself to his duties
[Sir J. A. Macdonald (Kingston).]
here. He proceeded to state that Mr. Archibald, as a representative of Nova Scotia in the Cabinet had been appointed Secretary of State for the Provinces. Every one would admit that gentleman’s standing and capacity for the difficult duties entrusted to him. He failed, however, to secure a seat in this House, and at once tendered his resignation, which was accepted, but he was at the same time requested to retain his portfolio till a successor should be appointed. Considering the position which Nova Scotia as a whole had assumed, he (Sir John) could not well ask the assistance of his honourable friends opposite from that Province to fill Mr. Archibald’s place. At the same time, the other representative from Nova Scotia, Mr. Kenny, although a gentleman of high position in his own Province, having presided over the upper branch of its Legislature, had never before been a member of the Executive, and it was necessary that he should be able to consult with some other representative of his Province, such as Mr. Archibald. That gentleman had therefore kindly but reluctantly consented to remain. He had found his position irksome, however, and had again asked to be relieved, and the duties were now performed by the Secretary of State. He (Sir John) thought, however, that the office was one that was absolutely necessary, and that it would continue to grow in importance. It was also a duty of the Government to legislate on the subject of immigration and the interests of agriculture. There should be inter-communication then between the Dominion and the Provinces on these two subjects, and he hoped and believed that the general and local governments would be in accord always on the necessity of improving and advancing the interests of agriculture and immigration. These duties having been thrown on the General Government had to be confided to some minister, and a minister was accordingly appointed with similar duties to those entrusted to the same office in the old Province of Canada, and as in that instance the duties of the minister were not confined to these two subjects, so here it would be proposed in a measure yet to be submitted to the House that other subjects of great importance should be confided to that department; such as the patent laws, those relating to copyrights, statistics, and others of such a miscellaneous nature that they could not be well classified. There was another office which had existed in all the Provinces—the President of the Council—since the lamented death of Mr.
April 3,1868
COMMONS DEBATES
453
Blair, that office had not been filled up. He did not think it desirable that the office should be abolished; but as the number necessary for the Cabinet, and the distribution of its labours was in a great degree experimental—as there was a general feeling, perhaps, that the offices of the country should be administered by a small number of officers, it was not the intention of the Government at present to fill up that office. (Hear, hear.) At the same time, he wished it to be distinctly understood that he did not enter into any engagement that this office should be abolished. For his own belief was that there ought to be a numerous Council, and that, following the example of England, they ought to have in that Council an officer having no special duty to perform; a man who would be always at the disposal of His Excellency for any special duties, or to take part in any matter of importance assigned to him. In England it had always been so. It was considered necessary to the operation of their system that there should be such an officer, or officers; and hence they had the President of the Council—the Lord Privy Seal— Chancellor of the Duchy of Lancaster, and several offices of that kind, the duties of which were not so onerous as to compel them to devote their whole attention to their appointments, but left them free to lend their aid on any subjects of great interest; and as an instance of such a subject in Canada he would allude to the acquisition of the great North-West. The necessity of negotiations and steps to be taken in this direction belonged to no one particular department. Fortunately for the Government they had in their Minister of Public Works a gentleman who, though fully employed in his own department, had made this subject his study, was at home in it, and could, without serious obstruction to the performance of his other duties, undertake that also, and do so with credit. The honourable gentleman then read a passage from a work still in MS, to show that men like Sir Charles Wood, Sir James Graham, and Lord John Russell—men all justly celebrated as administrators, were of opinion that it would be a mistake if a Cabinet were wholly composed of those members who had departments of such over-burdening work as to employ all their time. In such a matter his (Sir John’s) opinion was that there should be no false economy—that for the sake of saving the salary of two or three Cabinet Ministers, there should be no withholding from the country the full benefit of the system of the General Government. He admitted that to a
great extent their present system was on its trial, and therefore, as he had stated, in relation to the office of President of the Council, the Government would not fill it up, but would see whether the Secretary of State, in addition to his other duties, could also perform it satisfactorily. At present, in commencing their new system, the chief object, it seemed to him, was to have such a large full Cabinet as would secure a proper representation from all parts of the Dominion. By and by, when they were a more homogeneous people, every portion of the country might be satisfied with the representation of the Cabinet—even although sectional interests were not closely regarded. But at present it would be a great mistake to commence by a reduction of the representation in the Cabinet. Take British Columbia for a case in point. When that colony came into the Union, would they be satisfied with their representation if only one man were in the Cabinet from that section. They would not, even although their population or resources entitled them to no greater representation. Setting aside altogether the question of expense, as one of no interest in comparison with the general question, it was, first of all and above all, the duty of every lover of the Union to see that no false economy was exercised; that there should be a full and complete system of administration, which would ensure every portion of the Dominion a fair representation in the Cabinet.
Mr. Mackenzie did not understand the honourable gentleman to say that the Government would fill up the office of Mr. Archibald.
Sir John A. Macdonald—No; not at present. We intend to try the new arrangement.
Mr. Mackenzie—I suppose the trial will probably last till Parliament rises. (Laughter).
The House rose at six o’clock.
After recess,
ST. HYACINTHE ELECTION
On motion of Mr. Jones the Select Committee on the St. Hyacinthe election were permitted to adjourn till the 16th inst., and the House adjourned for five minutes to enable them to do so.
NIAGARA GAS CO.
Mr. Street introduced a Bill to enable the Niagara Falls Gas Co. to light the Town of
454
COMMONS DEBATES
April 3,1868
Clifton by conveying the Gas from the American side of the Niagara, from Suspension Bridge to the town.
A QUESTION OF ORDER
Hon. John Sandfield McDonald called the attention of the House to the fact that there had been an innovation in the practice of the House. Routine business had been commenced with since the recess, whereas he defied any one to cite an instance wherein, the absence of two distinct sittings of the House, the routine proceedings were gone on with.
Sir John A. Macdonald said this was in reality a new sitting, and the course just sanctioned by the House in the matter of the St. Hyacinthe election committee was a frequent one. Besides it was merely a question of notice, and in a matter like this to which there was no opposition he did not see any objection.
The subject dropped after a brief discussion.
DEPARTMENTAL ORGANIZATION
The debate on Sir John's Departmental Bill
was then resumed.
Hon. Mr. Dorion agreed with the Minister of Justice that it was wise to represent at the outset at all events the civil sections of the Dominion in the Cabinet, instead of taking all the members from any one section. But it would be observed that while the Government contend there should be 13 representatives of the Dominion in the Cabinet, so many from each section, two from Nova Scotia, two from New Brunswick, four from Quebec and five from Ontario, yet at once one of those officers which was said to be indispensable was dispensed with—Nova Scotia was left with one representative. Again, Ontario was to have five, but they had not that number. She was left with four. With what propriety could these two Provinces be deprived of what was held to be their just representation? For his part he believed the representation was altogether too large. In the neighbouring Republic with a vaster population, greater area of country and more diverse interests, there were but seven departments. In England, they had but one Finance Minister, and in all fifteen heads of departments. How was it that this new Dominion must, at the outset, be burdened to a greater extend than older and more populous countries? He contended that the whole
[Mr. Street (Welland).]
financial administration of the country was conducted by the Finance Minister, and as to the Receiver-General and Minister of Excise, they were merely executive officers. It had always been found to be so in the late Province of Canada; and were not only unnecessary, but entailed much additional expense on the country, in consequence of the staff necessary to be kept up in each of these offices. Then as to the office of Secretary of State for the Provinces he would like to know what such a functionary would have to do, what correspondence had he to conduct? It was only the other day, on moving an address for correspondence, the honourable gentleman was told there was no correspondence between the Local and General Government of interest.
Sir John A. Macdonald—On that particular point.
Hon. Mr. Dorion could not see what correspondence the Secretary of State could find to employ himself with. There was really nothing for him to do even under the old Parliament of Canada. The Provincial Secretary was admittedly the officer who had least to do of all the departments—so little work indeed fell to his share that his duties had to be eked out by giving him some other work to keep him going. There was not work before for the Provincial Secretary, and there certainly had not been shown to be any need for perpetuating the useless office in the person of a Secretary of State. Again, there was the Department of Agriculture. Almost the whole bulk of the work of such a department came within the scope of the Local Governments’ management; and yet, now that that office was confessedly unnecessary, it was not only to be continued, but it became magnified into a most important office. As to the head of the Immigration Department, that office also might very well have been spared, and its duties allocated to the Secretary’s or some other department. The President of the Council was another useless officer; his duties were partially discharged by the Clerk of the House, and the balance of them might very well be discharged by the President of the Senate; or, if more convenient, by any other member of the Cabinet. Therefore, he (Mr. Dorion) found that of the 13 heads of departments at least six could be well dispensed with. Among the latter he forgot to mention that new office, the Minister of Marine and Fisheries. Would the Minister of Militia allow his confrere to take charge of the military gunboats of the Dominion? Certainly not, and
April 3,1868
COMMONS DEBATES
455
if not, he (Mr. Dorion) was at a loss to know what the unfortunate Minister of Marine would do. That famous Minister of Militia who had recently noticed that he had had charge of nearly every department, and had accomplished his work well, would not, it might readily be inferred, allow this branch of his duties to be filched from him. (Laughter). Again, the Minister of Marine had jurisdiction over all wharves, harbours, etc. but these belonged to the Minister of Public Works. Where was the line to be drawn? How could the conflict of authority be settled? The only way he (Mr. Dorion) could account for the division of offices and work was that it was made to suit honourable gentlemen opposite, so as to give each of these thirteen Cabinet Ministers a show of something to do, and that it was not planned with any idea to convenience the public. He could not understand this departmental system in the least. To revert to the President of the Council, here was an office allowed to lapse while admittedly a necessity. Then, also an office which was more than ever a necessity, inasmuch as it left the only discontended section of the Dominion, Nova Scotia, without that due representation in the Cabinet to which it had been declared entitled. He would, at this stage, proceed for a moment to examine where this system of a set representation of so many ministers from each section would lead to. It would lead necessarily to having two ministers from Prince Edward Island, two from Newfoundland and two from the North-West. This would give 19 ministers. Then there was the other new Province knocking at the door for admission into the Union, British Columbia. That would need two more, making in all 21 representatives in the Cabinet when there would be a union of all the British North American Colonies. Here the absurdity of the principle laid down by the leader of the Government was apparent, and he (Mr. Dorion) hoped they would not persist in the proposition.
Hon. Mr. Cartier said that the House must have listened to the honourable member for Hochelaga, if not with surprise, at least with pain. The honourable member, the leader of Lower Canada democracy, objected to the unfortunate number of thirteen. Perhaps he would recommend seven, the number of the Cardinal sins. (Much laughter) (Hon. T. W. Anglin—and the gifts of the Holy Ghost.) He had never, in that wicked House, expected to hear anything holy spoken of. (Renewed laughter.) He was himself aston-
ished at the new democratic application of the doctrine that power should be oligarchically confined. Their duty had been to harmonize the varying interests of all sections of the country, and to lay each of them fully before His Excellency, the Governor-General. The number thirteen, however, had not been adopted absolutely or finally, and was to be held liable to modification by successive Ministries. Referring to the Constitution of the Cabinet he showed that while his Province had yielded cheerfully to the claims of Ontario, she had not exacted the same deference from the Lower Provinces, and he was glad to take that opportunity of acknowledging, in this respect, the liberal generosity of the representatives and the people of Lower Canada. But it was impossible that Quebec could be adequately represented by a lesser number than four, while it was very difficult that the various Ontario parties could have less than five among them. There were one million of Frenchmen in Quebec, and he asked if three out of thirteen was an excessive Cabinet proportion for such a number. Then the 250,000 or 300,000 of English descent must also be considered, for no Government could possibly stand which failed in the confidence of that Community. (Hear, hear.) It might be thought that Nova Scotia and New Brunswick got more than their share in the originally adopted distribution, but it must be recollected that they had been independent provinces, and the count of heads must not always be permitted to outweigh every other consideration. Referring to the histories of previous Canadian Governments, he stated that the principle of British Administration was based upon the diffusion of power as far as possible, and denied that there was any analogy in the comparison sought to be drawn between American institutions and our own. The President of the United States was independent of Congress, except when they impeached him, (laughter,) and the Secretaries of State were not responsible Ministers, bound to bring into harmony the legislative and executive authorities, but merely chief clerks in their respective departments. He hoped that the honourable member would reflect before he again went to the United States for examples of administrative excellence, even on the suggestion of his colleague from Chateauguay, remembering that the legislative powers had there grown into a despotism, and not forgetting the existing unseemly squabble regarding the occupancy of the Secretaryship of War. The number of Ministers had never been definitely
456
COMMONS DEBATES
April 3,1868
settled. They had advised His Excellency to the formation ol certain Departments. (Mr. Mackenzie—That is the Ministers who had been appointed advised the Governor, after being sworn, to their previous appointment. (Laughter).) The honourable member quite misunderstood the operation (much laughter). On the first of July everything administrative was dead, or nearly dying (renewed laughter). The Governor found himself without advisers, and summoned them to his Privy Council, and the Privy Council had advised him to the creation of the Departments, and the country had ratified their advice when they had carried the elections (cheers and laughter). The number they had recommended could scarcely be thought excessive when they recollected that the old Province of Canada had been administered by only one less. He went on to defend the Departments to which Mr. Dorion had objected, asking how it had happened that when that honourable gentleman was himself in power, he had made the very same appointments. Reverting to the supposed large number of Executive Councillors he compared it with that of Ontario with but one Chamber, which was five, of Quebec seven, and of each of the Lower Provinces nine, to their very small number of legislators, and denied that the admission of the outside Provinces would necessitate the augmentation hinted at. The whole question simply resolved itself into this, that their obligation had been to secure representation before His Excellency of all the varying interests of each section of the people, and so carry out the true principles of British Government.
Mr. Mackenzie recognized the expediency and wisdom of discussing the question before the House, not merely with a view to party interests, but a view to the future of their national legislative existence, but while doing so, it became absolutely necessary to discuss, as the member for Hochelaga did, the amount of legislation of a departmental kind which was expected to be disposed of by Ministers. The Minister of Militia, in the course of a very rambling address, sought to establish an argument by a reference to the number constituting the Government of the late Province of Canada. That Government commenced with eight members. The number varied occasionally, but ultimately reached twelve, and remained stationary at that number till the end of its existence. As to the honourable member’s statement that the famous Draper Government remained in power two years
[Mr. Cartier (Montreal East).]
with only three members, the honourable gentleman was mistaken. That Government came to an end in one year and was reconstituted, when it consisted of six or seven members. Another state of affairs under such a Ministry could not of course be spoken of as constituting a Government for any purpose whatever. Honourable gentlemen opposite argued that it was necessary the feelings of the country should be always represented in the Cabinet. Well, his (Mr. Mackenzie’s) opinion was that it was an executive body, possessing the confidence of the House, but not supposed to represent the people except in that manner, and if it was claimed that the Cabinet should represent all sections of the people, then the present Government was a most unfortunate one, for a very important section of the people were entirely misrepresented in it. There was one whole Province of the Confederacy which had a solitary representative in the Government. She had failed to send a single member to represent her in the House; for though there might be members from that Province, men who sincerely desired to promote the Union and assist the Government, still they were said not to represent the feelings and interests of their people. The Cabinet, he understood, it was merely carrying on the business of the country with the consent of the House, and if that Cabinet was unnecessarily large, let honourable gentlemen mark what would be the result. The honourable Minister of Justice proposed in his speech that when the other Colonies came into the Union, there should be additional members added to the Cabinet. True, the Minister of Militia did put in a caveat to that position.
Sir J. A. Macdonald—I spoke of British Columbia.
Mr. Mackenzie—Surely the honourable gentleman does not pretend to say that the justice he would concede to British Columbia would be refused to Newfoundland. This argument led inevitably to the conclusion that every colony would be represented. Well, putting aside altogether the question of the inconvenience of multiplying departments, assuming there would be no such inconvenience how would Ministers in that House be affected? It was all very well to say no members would be affected to any appreciable extent by dangling the bait of office before their eyes. But he had known such things to happen. He had known honourable gentlemen to forsake their own colleagues
April 3,1868
COMMONS DEBATES
457
and take office with those to whom they had been politically opposed for this reason. (Hear, hear, and cries of names). It is human nature that honourable gentlemen should be attracted by the honour of obtaining a seat in the Government of the country. It was an honourable ambition, and no one who sought honestly to obtain it ought to be blamed. Where there was a strong Government there was always a great temptation to conciliate that Government for the sake of obtaining position. This was inevitable, and if the policy of honourable gentlemen opposite were carried out, there would be just such a prospect as he alluded to before the House. The admission of every British colony on the continent into the Confederacy would, he hoped, take place before long. Before he left Parliament he trusted to see all these colonies obtain a representation in that Chamber, and if that occurred they must look to seeing the number of Cabinet Ministers increased, as indicated by the member for Hochelaga. That being the case, it is easy to foresee what ministerial influence might effect. If they extended the power of the Executive in that House, they extended an authority which they must presume to be dangerous to the liberties of the people. (Hear, hear).
Sir J. A. Macdonald—(Hear, hear).
Mr. Mackenzie appreciated that “hear, hear.” It means to say that in a country governed such as this there was no serious danger of the liberties of the people; but he would recall for the benefit of the House a statement of the Minister of Public Works on this point, who expressed his conviction that even in railway matters the legislation of such a Government was highly dangerous to the civil and religious liberties of the people. So much would suffice with regard to the tendency of increasing the Executive power in Parliament. The Minister of Militia, in the course of his wandering, stated that there was no analogy between the United States system of government and that of the Dominion. He (Mr. Mackenzie) thought the Dominion had adopted the federal system of government, as had the United States. The Dominion, as also the United States, had adopted representation by population in the popular chamber, and the only difference lay in the constitution of the respective Senates. The member for Hochelaga had very justly shown that the civil affairs of the United States, comprising all the Dominion had to attend to, and a great deal more, were well
administered by seven officers. In considering the number of cabinet ministers necessary for the Dominion, he (Mr. Mackenzie) admitted reference must be had to the future, and in doing so he would desire not to speak dogmatically or to assert that a certain number would always be sufficient. But he thought the present Government made this mistake, when they organized the Government they commenced with the maximum number instead of commencing with the smaller number and proceeding upwards, if the interest of the country seemed afterwards to demand it. He could not but think that the policy of Government had been dictated quite as much from political necessity, from the exigencies of the moment, as from a desire to sustain the real interests of the country. The Minister of Militia went so far as to assert that Government should possess the confidence of all sections of this country. Well, it was clear they did not possess that confidence.
Hon. Mr. Cartier rose to explain. What he wished to convey to the House was that a Government had to be formed which would command the confidence of the people of the country, expressed through the members of that House. (Laughter).
Mr. Mackenzie said the honourable member must be corrected. That was not the statement he made. His words were “all sections of the country”; and one section of the country, Nova Scotia, was certainly entirely unrepresented. (Hear, hear). It had been urged by the Minister of Justice that in order to have a consulting body, some members of the cabinet must be relieved to a great extent from departmental duties, in order to enable them to attend to the general business of the Cabinet. He (Mr. Mackenzie) would far rather see two or three members appointed to office in the Government with little or no duty to perform, than see a department subdivided for such members when said department should not be so subdivided. There was the Department of Customs and Excise, for instance. The two were so necessarily allied together that he could not see how they could well be separated. Both these departments should be managed by one executive head. Then there was the Minister of Marine and Fisheries. Nothing could be more ridiculous than the extraordinary attempt which had been made to find duties for that officer. It was said that the value of their light-houses and fisheries represented such a sum, and of course a minister must look after them. He
458
COMMONS DEBATES
April 3. 1868
ventured to say that the whole lighthouse business of the country did not equal that of many postmasters (hear). Then the Minister of Militia would have the country believe that in order to administer affairs connected with 40,000 men for eight days of the year, his services as head of the department were needed. He told the House that he stood at the head of a grand army of 700,000; but without being Minister at all, an honourable member of the House recently told them he was in command of 300,000 men.
Hon. Mr. McGee said he had stated that he represented the views of 300,000 men on the occasion referred to.
Mr. Mackenzie—Well, the honourable gentleman “represented” 300,000, so that the Minister of Militia could not boast so much of his 700,000 men. (Hear). His (Mr. Mackenzie’s) impression was that the departments of Militia and Marine ought to have been combined. The three offices he had indicated might have been dispensed with, and if the Ministry found it desirable to obtain more assistance, they could have either appointed an associate in the Cabinet, with nominal duties, or have heads of the departments as in England, in order to discharge all the duties except those which necessarily required the immediate attention of Ministers themselves. He would much rather have been able to approve of the policy of the first Ministry of the Dominion on this occasion than to oppose it, for though he had opposed them during the elections, yet they had succeeded. He felt bound to sustain them as the Government of the country in everything that really affected its present and prospective welfare. Believing, however, that the Government had erred in this matter, he felt bound to record his convictions of the error they had made, and hoped that even yet they would retrieve themselves by dispensing with two of these departments, now that they had an opportunity.
Hon. Mr. Galt expressed his high approval of the remarks which had just been addressed to the House by the member for Lambton. Although he could not agree with him in his conclusions, they had been sustained by argument, and ought to be met in the same way. He (Mr. Galt) thought it was an advantage that there should be some members of the Government not overcharged with departmental work, who might be able to take up some of the important subjects
[Mr. Mackenzie (Lambton).]
which would from time to time arise, and give their whole minds to them. The necessity for the number of officers in the Cabinet, therefore, should not be judged by the number of departments requiring to have their heads fully employed. There was the necessity also of having a fair representation for each Province, and in this view he held that the Premier judged wisely in recommending that the number of Cabinet Ministers should be thirteen. As regarded the subdivision of the Finance Department, he thought the Minister of Justice had put the case very clearly. He quite concurred in the view of that honourable gentleman as to the responsibility of the Minister of Finance under the new system of subdivision of offices. The Minister primarily responsible for the expenditure of the country must be entrusted with the responsibility of recommending to Parliament the measures of- taxation by which it was to be met. Mr. Galt proceeded to urge the advantages of having a Treasury Board, which he said was an extension to Canada of a system which had worked admirably in England. The subdivision of offices being admitted, it would be impossible to maintain the harmony which ought to subsist between the systems of Customs and Excise in their relations to each other. Such subdivision he considered was necessary. If the Department of Finance covered the whole legislation, it was impossible for one Cabinet Minister to perform the work. The member for Lambton thought the Customs and Excise might have been united in one department. There were many reasons why this should not be done. The Customs related to foreign trade, the inland revenue had an entirely different bearing. It was only where the burden on the people had to be considered that it was necessary to have harmony between them, and that was effected by the Finance Minister having a controlling influence in originating the Legislation. The duties of the Fisheries Department might not be very onerous, but that department was necessary. If for no other reason in order that the Maritime Provinces might have the assurance that what was a prominent interest would always have a hearing at the Council Board. He went on to argue the importance and necessity of the Militia Department and that of the Secretary of State for the Provinces. If the Minister of Militia had any spare time, he was of all others the man best fitted to turn it to good account by devolving it to other matters requiring the attention of the Government.
April 3,1868
COMMONS DEBATES
459
Hon. Mr. Rose said at the inauguration of the Dominion Government he had at first thought the number of Cabinet officers was unnecessarily great; but further reflection on the subject from the various points of view which had been presented to-night, had convinced him that a smaller number would not have sufficed. Having referred to the duties of the Militia Department and the Secretary of State for the Provinces, as requiring distinct departmental heads, he went on to urge the necessity which, in his opinion, justified a subdivision of the Finance Department. As regarded the Customs—while there were 71 ports in Ontario and Quebec the effect of Confederation was to add 110 ports in Nova Scotia and New Brunswick. The importance of the Excise Department had also increased. A few years ago, its revenue was half a million dollars, now it was nearly three millions. It was physically impossible for one man to discharge properly the duties devolving on the Finance Minister, and the Ministers of Customs and Inland Revenue.
Hon. Mr. Holton suggested that the debate on this Bill should be adjourned, so that there might be but one general debate on the whole subject instead of having a debate on each Bill.
Sir John A. Macdonald thought that it would be better that there should be an understanding that the general debate might go on upon each Bill as it came up. In that way the business of the House would be advanced, while all members who desired might have an opportunity at the same time of continuing the debate on the general policy of the Government in this matter.
Hon. Mr. Hollon would prefer that the second reading of all these Bills should be moved together, and the general debate taken on that motion.
After further remarks, Sir John A. Macdonald consented to the adjournment of the debate.
The House adjourned at five minutes past 12 o’clock.
HOUSE OF COMMONS
Monday, April 6, 1868
