 at 3 o’clock.
PETITIONS
Dr. Brown presented a petition from certain inhabitants of Assiniboine, which was read in full by the Clerk. It sets forth that one James Stewart was unlawfully arrested and imprisoned for a breach of a liquor law unknown till then, and prays for such action at the hands of the House as shall relieve Stewart, and protect settlers generally.
Mr. Morrison (Niagara) presented several petitions from Chicago and Milwaukee, praying a Charter for the Erie and Ontario Ship Canal.
Hon. Mr. Langevin brought down a Supplementary Return of the accounts relating to the Intercolonial Railway.
A Message was brought down from His Excellency, containing the report of the delegates appointed to negotiate for the acquisition of Rupert’s Land, and the North-West Territory.
On motion of Mr. Currier, seconded by Sir John A. Macdonald, it was resolved that when the House adjourned to-day, it stand ajoumed till half past seven to-morrow evening.
Sir John A. Macdonald said that from the high esteem in which the Mayor of the city, Mr. Friel, was held, many members were anxious to attend the funeral, which takes place to-morrow (Wednesday) afternoon.
Motion carried.
GOVERNMENT DAYS
On motion of Sir John A. Macdonald it was
resolved that until otherwise ordered Government business and orders shall have precedence on Thursdays, and that on Government days after the business and orders were gone through, the other business and orders of the previous day shall be taken up, and that on Thursdays the division of time
CHAMBRE DES COMMUNES
Le mardi 18 mai 1869
L’Orateur ouvre la seance a trois heures.
PETITIONS
M. Brown presente une petition au nom de quelques habitants d’Assiniboine qui est lue en entier par le Greffier. Cette petition declare qu’une personne denommee James Stewart a ete injustement arretee et mise en prison sous le pretexte d’avoir enfreint une loi —inconnue—sur l’abus d’alcool et invite la Chambre a prendre les mesures necessaires pour faire liberer M. Stewart et pour defen-dre d’une maniere generate les habitants de telles interventions.
M. Morrison (Niagara) presente plusieurs petitions de Chicago et de Milwaukee demandant l’adoption d’un statut pour le canal qui mene du lac Erie a l’interieur de l’Ontario.
L'hon. M. Langevin presente Une declaration supplementaire de l’etat des comptes du Chemin de fer Intercolonial.
Son Excellence fait d6poser un message con-tenant le rapport des deiegues charges des negotiations en vue de l’acquisition des Terres de Rupert et des Territoires du Nord-Ouest.
Sur motion de M. Currier, appuy6 par Sir John A. Macdonald, il est decide que la Chambre ne reprendra la seance, apres avoir termine ses travaux d’aujourd’hui, qu’a sept heures et demie dans la soiree de demain.
Sir John A. Macdonald declare que de nom-breux deputes desirent rendre un dernier hommage k l’ancien maire de la ville, M. Friel, lors de ses funerailles qui auront lieu demain (mercredi) apres-midi.
La motion est adoptee.
JOUR DU GOUVERNEMENT
Sur motion de Sir John A. Macdonald il est
decide que, sauf avis contraire, les affaires et questions a l’Ordre du jour du Gouvernement seront prioritaires le jeudi et que toutes les affaires et points k l’Ordre du jour restes la veille en suspens viendront apres seulement. Par ailleurs, le Reglement N° 10 sur Talloca-tion du temps de parole ne sera pas observee
368
COMMONS DEBATES
May 18. 1869
intended by rule 10 shall not be observed; also, that Thursday of next week being a statutory holiday, Saturday of next week shall be substituted therefore, and be a Government day.
PUNISHMENT OF INDIANS
Hon. Mr. Langevin moved that on Thursday next the House consider the following resolution:—“Whenever any Indian shall be convicted of any crime punishable by imprisonment in a penitentiary or other place of confinement, the legal cost incurred for procuring such conviction may be defrayed by the Superintendent-General of Indian Affairs, and paid out of any amount or interest coming to such Indian, or to the band or tribe, as the case may be.
SUPREME COURT
Six John A. Macdonald gave notice that on Thursday next he would bring in a Bill establishing a Supreme Court for the Dominion of Canada. (Hear, hear.)
THE ELECTION BILL
Sir John A. Macdonald then introduced his Election Bill. He said that by the British North America Act it was provided that, until the Parliament of Canada otherwise provided, the law as to the qualification of members and voters, and other provisions respecting elections, existing in each Province on the 1st July, 1867, should be the law in each Province. The result of this was that in each Province, at present, the qualification of voters was different. Having noticed that the principle obtaining in England and all the Provinces of Canada was, that property should be the basis of representation, he went on to say that by the Municipal Institution Act of 1866, passed by the late Province of Canada just before Confederation, the qualification of an elector in cities was that he should be the owner of real property to the amount of $600, and proportionally less in towns and incorporated villages. In Nova Scotia, the qualification of every man, not otherwise disqualified by law, to be a voter was if he held real estate to the value of $150, or $300 personal, or personal and real together. In New Brunswick, every male assessed in real estate at £25, as personal and real estate together £100, was qualified to vote in towns and cities. So that the law was substantially different in the several Provinces. There was but one point in which all the Provinces were united, and that was [Sir John A. Macdonald—Sir John A. Macdonald.]
ce jour-lh. Jeudi prochain etant un jour feris, le jour du Gouvernement de la semaine pro-chaine sera reporte a samedi.
PUNITION DES INDIENS
L'hon. M. Langevin demande que la Chambre inscrive la resolution suivante a l’Ordre de jeudi prochain: «Lorsqu’un Indien est juge coupable d’un crime qui exige son emprisonne-ment dans un lieu de detention quelconque, le Surintendant-general des Affaires Indiennes peut recouvrir les frais de condamnation en se faisant rembourser selon le cas par l’lndien lui-meme, sa bande ou sa tribu.»
LA COUR SUPREME
Six John A. Macdonald annonce qu’il pr£-sentera jeudi prochain un pro jet de loi sur l’etablissement d’une Cour supreme du Dominion du Canada. (Bravos.)
LE PROJET DE LOI SUR LES ELECTIONS
Sir John A. Macdonald pr£sente son projet de loi sur les elections. II declare qu’aux termes de l’Acte de l’Amerique du Nord bri-tannique, la loi stipulant les qualifications re-quises des deputes et des electeurs et les autres dispositions en matiere d’elections est la loi en vigueur dans chaque province au premier juillet 1867. II en resulte que le droit de vote est different dans chaque province. Apres avoir remarque que le droit de vote est fondd en Angleterre et dans les provinces canadiennes sur le principe de la propriety, il continue en disant que la Loi sur l’institu-tion municipale de 1866, adoptee par l’an-cienne Province du Canada juste avant la Confederation, stipule qu’un electeur doit etre proprietaire de biens immobiliers d’une va-leur d’au moins $600 lorsqu’il habite dans une grande ville et proportionnellement moins lorsqu’il habite dans une ville plus petite ou un village incorpores. En Nouvelle-Ecosse, la somme est de $150 lorsqu’il s’agit de biens immobiliers ou de $300 lorsqu’il s’agit de biens personnels ou des deux. Au Nouveau-Brunswick, toute personne participant h une election municipale doit posseder des biens immobiliers d’une valeur de 25 livres ou avoir un capital de 100 livres en biens immobiliers et biens personnels. Les differentes provinces ont done une legislation tres diffe-rente. La seule chose qui soit commune a toutes les provinces est que le droit de vote
18 mai 1869
DEBATS DES COMMUNES
369
in making the annual assessment under the law of each Province the basis of qualification. It was a basis, he thought, that must of necessity cease to be the mode of ascertaining the qualifications of a voter for the Dominion Parliament. So long as each of the Provinces remained separate, and had control of their own municipal and assessment laws, this was the most convenient mode of ascertaining who ought to be allowed for members of Parliament; but in the case of the Confederated Provinces, it would be observed that the whole of the assessment laws were not in any way under the control of the Dominion Parliament. In Ontario the assessment laws had been twice altered since Confederation, and from reading the public journals he believed he was correct in stating that the present Government of Quebec were under a pledge to introduce a measure for the readjustment of the assessment law next session. Therefore, so far as Ontario was concerned, the whole of the system under which we are here has been swept away, and there is no mode whatever for holding elections in Ontario by which a person can come to their choice, with the assurance that he has been legally elected. The hon. and gallant Knight said that when the vacancy recently took place in the County of Wellington Centre, he, as Minister of Justice, felt the difficulty of dealing with this matter. Still, as the Union Act provided that the law, as it existed in July, 1867, should continue until it had been altered by the Dominion, he came to the conclusion that the only mode of holding elections in Ontario would be to use the last voters’ lists. Having shown the impossibility of perpetuating the present system of assessment, under which in one Province they might take the actual value, and in another the annual value, the gallant Knight said that it seemed to him quite impossible to throw the selection of the body which would be the choice of the Dominion, on the Parliament itself. This being the case, it was deemed necessary to return to the system prevailing in some of the Provinces before the Union, and to provide first what amount of property should give a man a vote, and then settle a mode as inexpensive as possible, it deciding who has a vote. From the statement of qualifications he had given, it would be seen that in New Brunswick and Nova Scotia the franchise was wider and lower as regarded personal property; and, judging by the result in that House, the law had worked well. He believed that, so long as the principle of property was preserved, they should widen the basis as much as possible, so that every 96068—24
est octroye sur la base de l’assiette fiscale fixee par la loi de chaque province. Cela doit cesser d’etre le critere de l’attribution du droit de vote au niveau national. Tant que les provinces ont ete independantes, etablissant elles-memes leur propre legislation municipale et fiscale, cette methode a ete la meilleure pour decider des conditions de candidature au Par-lement, mais dans notre Confederation le Parlement national n’a pas le controle de ces lois provinciales. En Ontario, la legislation fiscale a ete modifiee deux fois depuis le debut de la Confederation et, d’apres les journaux, le Gouvernement du Quebec aurait l’intention de presenter une mesure de revision de la legislation fiscale a la session prochaine. Le systeme ontarien, en vertu duquel nous nous trouvons ici, a done ete balaye compietement et une personne qui remporterait des elections dans l’Ontario ne pourrait plus etre certaine d’avoir ete eiue tout a fait legalement. En tant que ministre de la Justice, il a dprouvd des difficultes a rdsoudre le probleme lorsque le siege de Wellington Centre est rdeemment devenu vacant. Puisque l’Acte de l’Union prd-voit que la loi, telle qu’elle existait au mois de juillet 1867, reste en vigueur jusqu’a ce qu’elle soit modifiee par le Dominion, il est arrive a la conclusion que la seule methode pour organiser des elections dans l’Ontario serait le recours aux listes electorates des elections precedentes. Apres avoir ddmontre l’impos-sibilite de conserver le systeme devaluation actuel du fait que dans une province on se base sur la valeur reelle et dans une autre sur la valeur annuelle, l’honorable Chevalier dit qu’il est inconcevable que le Parlement se substitue aux eiecteurs pour eiire les deputes. Il faudrait done retourner au systeme que l’on a applique dans quelques provinces avant la Confederation et fixer d’abord la somme qui donnera le droit de vote pour trouver en-suite le mode le moins couteux pour determiner qui pourra voter. L’exemple du Nouveau-Brunswick et de la Nouvelle-Ecosse montre que le critere determinant l’octroi du droit de vote y est moins severe. A en juger des rd-sultats, la loi fonctionne bien. Il pense qu’il faudrait eiargir autant que possible la base devaluation si l’on veut continuer a se servir du principe de la propriete et il faut donner le droit de vote a quiconque vit effectivement de ses terres. Le Gouvernement a consacrd beaucoup de temps et d’efforts a la question des criteres et il s’apprete a presenter ses conclusions a la Chambre. Il faut etudier quel doit etre le critere pour les comtes puisque les villes et cites ne sont que peu nombreuses et n’ont qu’une influence relativement insigni-fiante dans les assembles de comte. Nous
370
COMMONS DEBATES
May 18. 1869
man having a reeil living interest in property should have a right to vote. The Government had long and anxiously considered the question of personal qualification, and their conclusion he would now submit to the House. The most important consideration, was, of course, the county qualification, the towns, cities and boroughs being small in number and comparatively insignificant in influence in that house. We propose that every freeholder in real estate to the value of $200 and upwards should have a vote, and this, it would be observed, was higher than the qualification in New Brunswick and Nova Scotia, it being $150 in the latter, and £25 in the former. In the early history of Canada, most of the persons occupying reed estate in counties were the proprietors of the sod, although of late years that was not so much the case. As the country became more improved, and farmers more wealthy, a system of rental and tenancy obtained. We therefore propose, in addition to the free-holder, that every tenant on a written lease—we make it written in order to prevent any collusive arrangement such as would create a tenancy by word of mouth—every tenant of five years and upwards, having a written lease, paying $20 a year, and being in possession at least one year before the registration of his vote, shall have a vote. We propose also that every tenant who works a farm on shares, which he holds for five years on a written lease and whose share shall be worth $20 annually, shall have a vote in the event of his being one year in possession before becoming a voter.
Mr. Young—Are we to understand that a leaseholder for four years cannot have a vote.
Sir John A. Macdonald—A voter must hold a 5 years lease, but one or two years of it having expired would not disqualify him. Then we propose that a person holding an agreement from the Crown before acquired by the party shall have a vote if the property is worth $200. This was not a mere party matter. It was one for the benefit of all parties and every section of the country.
In answer to the Hon. Mr. Connell—
Sir John A. Macdonald said that a squatter Would be regarded as a trespasser; but any one holding under any agreement recognized by Government as being obligatory on them in the same sense as a location ticket, &c., shall have a vote if the property is worth [Sir John A. Macdonald—Sir John A. Macdonald.]
proposons de donner le droit de vote & tous les proprietaires possedant des biens immo-biliers non-hypotheques d’une valeur de $200 ou plus. Les deputes remarqueront que ce chiffre est plus eleve que celui fix6 par le Nouveau-Brunswick et la Nouvelle-Ecosse, a savoir 25 livres et $150 respectivement. Autrefois, la plupart des personnes d’un comte occupant une maison £taient proprietaires du terrain, ce qui n’est plus aussi frequent de nos jours. Avec l’amelioration des conditions de vie et l’enrichissement des agriculteurs, s’est developpe un systeme de location de maisons. Nous proposons done que le droit de vote ne soit pas seulement donn6 aux proprietaires, mais egalement aux locataires qui ont signe au plus tard douze mois avant l’inscription sur les listes electorates un bail d’au moins cinq ans pour une valeur de $20 par an. Nous exigeons un document ecrit pour eviter toute fraude pouvant resulter d’une entente tacite. Nous proposons Egalement que tout locataire qui detient des actions d’une ferme d’une valeur annuelle d’au moins $20 ayant un bail 6crit depuis un an au moins obtienne le droit de vote.
M. Young: Faut-il en conclure que le locataire detenant un bail de quatre ans n’a pas le droit de vote?
Sir John A. Macdonald: Le votant doit pos-seder un bail de cinq ans, mais il ne perd pas son droit de vote si une ou deux annees du bail se sont deja ecoulees. Nous proposons en outre qu’une personne qui detient une concession de la Couronne avant qu’elle n’ap-partienne a un parti ait le droit de vote si la propriety a une valeur de $200. Ce n’est pas uniquement une affaire de parti; mais a l’a-vantage de tous les partis et de l’ensemble du pays.
En reponse a l'hon. M. Connell,
Sir John A. Macdonald declare que toute personne qui s’est 6tablie sans droit sur un terrain sera consid^ree comme ayant viole la loi, mais tout detenteur d’une concession re-connue par le Gouvernement comme une obligation comparable & un bail et ainsi de suite
18 mai 1869
d£bats DES COMMUNES
371
$200. This comprised all the qualifications regarding Counties, except one which obtained in Nova Scotia, that every person having an annual income of $400, having been in bona fide receipt of it for one year, shall have a vote. This exhausted the Government scheme as regarded Counties. In Cities it was proposed that the owners of land valued at $400 shall have a vote. It had been fixed at $600 in Ontario by the law of 1866, and reduced by the Legislature in Toronto since that time, and now we propose that it shall be four hundred dollars in cities. We also propose that every tenant paying an annual rental of $30 shall have a vote, but he must be a yearly or a monthly tenant of a dwelling house and lot. He cannot vote on a shop or warehouse, and must be in possession one year before registration, and must have paid up rent to the amount of $60. It is further proposed that every person in receipt of an income of $400, as in Counties, shall have a vote. In towns and incorporated villages the value is to be $300, if proprietors, and for tenants $20 instead of $30, as in cities. The class to be affected by the $20 in towns, we believe to be the same class of trades people which qualify at $30 in cities, and hence our placing the figure at $20. He would not further trouble the House with the details of the measure as to joint occupation and other points, but would address himself to the question of how this work was to be carried on. They could not look to the assessors, for the reasons already given, but had to take some means of ascertaining the best consideration we could give to the subject. He intended to adopt a system bearing an analogy to one in the United States, by which, within a specified period after the passing of the Act a body of three men in each constituency, sworn to do justice, held a court or courts, of which due notice would be given. Voluntary service being generally imperfect, these men would be slightly remunerated, and would hold their courts in every one of the constituencies in which, by law, there was a separate polling place at the last general election. The first meeting of this court would be preliminary, for receiving statements for their own information; and it would be for them to take such steps as they thought necessary, to obtain as fair and full a list of voters as they could. That list should be published for two months, and at the end of that period they should hold a final court for the revision of the list. Having previously called public attention to the necessity of having a thorough list of voters, they should administer an oath to parties claiming the right to vote, and then the list so prepared would be the legal list for the con-96068—24*
aura le droit de vote si la propriete vaut $200. On tient compte de toutes les reserves relatives aux comtes sauf d’une qui est appli-quee en Nouvelle-ficosse et stipulant que toute personne dont le revenu annuel veritable est $400 a le droit de vote. Voila en quoi consiste le systeme que le Gouvernement envisage etablir pour les comtes. En ce qui concerne les villes, on propose de donner le droit de vote aux proprietaires de terres evaluees a $400. En Ontario, par la loi de 1866 cette somme avait ete fix6e a $600 et reduite depuis lors par l’Assemblee legislative a Toronto. Nous pro-posons maintenant de fixer cette somme h $400. Nous proposons egalement que tout lo-cataire payant un loyer annuel de $30 aura le droit de vote s’il detient un bail mensuel ou annuel pour une maison et un terrain; la location d’un magasin ou d’un entrepot ne donnera pas le droit de vote. D’ailleurs, il doit avoir signe ce bail un an avant l’inscription sur la liste elector ale et avoir d6j& verse une somme de $60.
Nous proposons egalement que toute personne touchant un revenu de $400 ait le droit de vote comme dans les comtes. Dans les pe-tites villes et villages constitues en corporations, la propriete doit avoir une valeur de $300 et le loyer etre de $20 et non de $30 comme dans les grandes villes. Nous croyons que cette somme de $20 correspond au montant de $30 fixe pour les grandes villes et s’appliquera h la meme categorie de com-mergants. II ne desire pas ennuyer la Cham-bre en exposant en detail les dispositions pr4-vues dans le cas de partage de loyer et ainsi de suite, mais il veut passer tout de suite a la question de savoir comment on va entrepren-dre ce travail. On a d§ja donne les raisons pour lesquelles on ne peut pas s’en remettre aux evaluateurs. Il faudrait chercher d’autres moyens pour s’assurer que l’affaire est menee a bien. Il a l’intention de s’inspirer d’un systeme applique aux Etats-Unis pr6voyant qu’h une certaine date dument fixee apres l’adop-tion de la Loi, un groupe de trois hommes qui ont jure de faire respecter la Loi se reuniront pour tenir conseil dans chaque circonscription. Ces hommes recevront une faible remuneration car les services volontaires sont gene-ralement peu satisfaisants. Ils tiendront un bureau electoral dans chaque circonscription qui a eu de par la loi, son propre bureau de scrutin lors des dernieres elections gene-rales. Ces hommes tiendront d’abord une seance preparatoire pour recueillir les ren-seignements necessaires. Ensuite, ils devront prendre les mesures qu’ils jugeront necessaires pour dresser une liste electorate aussi
372
COMMONS DEBATES
May 18. 1869
stituency. Ex necessitate the three persons composing this court must be chosen by the Government of the day, and there would perhaps be cases of partisanship. To remedy this, there was to be the right of appeal. In Ontario we propose that the appeal shall be to the County Judge of each County, and that he shall sit for every constituency within the boundary of his County, as a Court of Appeal. We propose also to make the necessary allowances for this purpose in order that the service may not be slighted. In the Province of Quebec, where they had an analogous system in the Circuit Courts, the appeal could easily be provided for. In New Brunswick they had County Judges as in Ontario, and could accept the same plan; and in Nova Scotia, where the Judges were over-worked, he thought it would be necessary to appoint revising barristers. This being finally settled as the basis of an electoral system, a body of voters for the Dominion of Canada was provided. Afterwards there will be no necessity for the expense of annual assemblages of the electoral body. It is proposed that the Judges—and for this they must receive a small compensation— shall annually at points and in modes to be hereafter provided, do as revising barristers do in England, hold courts and that all additions and alterations to the list of votes shall be made before them. He did not propose to do away with the qualification for members, which it was proposed should be $2,000—the qualification to be filed with the returning officer on nomination day. It is also provided that an absent candidate may leave his qualification with the right officer, to be used as if he were present, with the stipulation that it should be a qualification made within the same limited period. In the matter of election days we propose following the example of Nova Scotia and New Brunswick, and also of our good friends in the Ontario Legislature, and enacting that there shall be only one polling day instead of two.
Mr. Mackenzie—Is it to be the same day all over?
complete que possible. Cette liste devra fitre publiee pendant deux mois; apres quoi, ils devront tenir une derniere seance pour la reviser. Apres avoir attire l’attention des habitants sur la necessity d’avoir les noms de tous les 61ecteurs sur la liste, ils devront faire preter serment a ceux qui demandent a exer-cer leur droit de vote. La liste ainsi ptepatee sera la seule valable pour la circonscription. Les trois personnes qui composeront ce con-seil devront n^cessairement etre choisies par le Gouvernement au pouvoir, et il y aura peut-etre des cas de favoritisme. Pour cette raison, il y aura un droit d’appel. Pour l’Ontario, nous proposons que le juge de comte soit responsable de la procedure d’appel dans son comte et qu’il tienne une cour d’appel dans chacune des circonscriptions situees dans son comte. Nous proposons 6galement d’octroyer les allocations n^cessaires pour assurer les services adequats. La procedure d’appel au Quebec ne posera aucun probleme, car cette province possede deja un systeme analogue. Au Nouveau Brunswick, on pourra adopter le meme systeme puisqu’il existe des juges de comte comme en Ontario. En Nouvelle-ficosse, il sera peut-etre necessaire de nommer des controleurs pour reviser les listes Electorates parce que les juges sont dejfi trop occupes. L’adoption de ce systeme assurera au Dominion du Canada le corps Electoral necessaire. Il ne sera done plus necessaire de payer tous les ans pour dresser les listes Electorates. Nous proposons de charger les juges du controle annuel des listes electorates, comme on le fait en Angleterre, et qu’on leur soumette tous les changements apportes. Pour ce travail, ils devront recevoir une petite compensation. Il ne suggere pas la suppression des conditions d’admissibilite au poste de depute; on a propose la somme de $2,000. La preuve doit etre soumise au directeur du scrutin le jour de la presentation de la candidature. Un can-didat absent peut remettre le document prou-vant son eligibilite a un responsable qui s’en servira comme si le candidat Etait present a condition que cette preuve soit faite dans la periode fixee. Pour ce qui est de la fixation de la date des elections, nous proposons de suivre l’exemple de la Nouvelle-Ecosse et du Nouveau-Brunswick ainsi que de nos bons amis de l’Assembtee legislative de l’Ontario et de nous limiter k une seule joumee de scrutin et non deux.
M. Mackenzie: Les elections auront-elles lieu partout le meme jour?
Sir John A. Macdonald did not propose that Sir John A. Macdonald declare qu’il ne the elections should be held on the same day. propose pas qu’elles se tiennent le meme jour. [Sir John A. Macdonald—Sir John A. Macdonald.]
18 mai 1869
DEBATS DES COMMUNES
373
Mr. Street said there was a large class of people who held property under bonds or articles of agreement from the owners of the land. No provision had been made for the right of that class to vote.
Sir John A. Macdonald said the point had exercised the attention of the Government, and they desired a free expression of opinion on it from the House.
Hon. Mr. Abbott thought the provisions of the Bill as regarding simplifying the qualifications were an improvement. He doubted, however, the propriety of requiring a five years’ lease as a qualification for tenants. Many in unincorporated villages took their houses under yearly tenancy, and he thought they should have a vote as well as the similar class in incorporated villages and towns. He would suggest, also, that the Minister of Justice should do away with the nomination day.
The Bill was then read a first time, and ordered for a second reading on Friday.
RECIPROCITY
The House resumed the debate on the motion for the House to go into Committee of Supply, and on Hon. Mr. Dorion’s amendment thereto, with reference to Reciprocity.
Mr. Mackenzie said when he addressed the House before the adjournment of the debate, he had expressed his strong conviction that our trade relations with the United States were generally unsatisfactory, and that it was very nearly hopeless to expect there would be any great improvement from our endeavouring to renew negotiations with the States at the present moment. He had, for his own part, an instinctive repugnance to do anything like soliciting what we considered only a fair trade relationship. We occupied, in that respect, a position as independent as the people of the United States did, as whatever arrangement we might arrive at ourselves would undoubtedly be ratified by treaty by the mother country. We were therefore in a position to deal with the United States, as a mere neighbour whose trade would always be valuable to us, while our trade would perhaps be equally, if not more valuable to her. Yesterday, he was interrupted by the Minister of Militia with the remark, that he believed the rupture of our trade relations with the United States was mainly due to the influence of political feel-
M. Street affirme qu’un grand nombre de personnes detiennent des concessions de pro-prietaires de terrains. Ces gens ne sont pas pris en consideration dans le systeme proposd pour l’octroi du droit de vote.
Sir John A. Macdonald declare que le Gou-vernement y a reflechi et desire obtenir l’o-pinion des deputes.
L'hon. M. Abbott pense que les dispositions du pro jet de loi simplifient la question des conditions d’admissibilite et represented done une amelioration. II met en doute, toutefois, la necessity d’exiger un bail de cinq ans dans le cas des locataires. Beaucoup de locataires dans des villages non incorpores detiennent des baux annuels et devraient aussi bien avoir le droit de vote que les personnes dans une situation semblable dans les villages et villes incorpores. II demande egalement au ministre de la Justice de supprimer le jour des mises en candidature.
Le projet de loi est lu pour la premiere fois; la deuxieme lecture est inscrite pour vendredi.
RECIPROCITY
La Chambre reprend le debat sur la motion demandant que la Chambre se constitue en Comite des Subsides et sur l’amendement propose par l’hon. M. Briand concemant la Reciprocity.
M. Mackenzie declare que lors de son intervention avant l’interruption des debats, il a exprime la ferme conviction que nos relations commerciales avec les Etats-Unis sont generalement insatisfaisantes et qu’il n’y a pratiquement pas d’espoir que nos efforts en vue d’une amelioration de ces ^changes abou-tissent dans un avenir rapproche. II serait tres embarrasse s’il devait exiger des relations commerciales reciproques, demande que nous jugeons tout a fait raisonnable. Nous occupons a cet egard une position aussi in-dependante que le peuple des Etats-Unis puisque notre Mere Patrie ratifiera certaine-ment par un traite toutes les ententes que nous conclurons nous-memes. II nous est done possible de traiter les Etats-Unis en tant que simple voisin qui nous offrira toujours un marche interessant, mais pour lequel nous representerons un marche d’interet egal sinon plus grand. Hier, le ministre de la Milice l’a interrompu en affirmant que la rupture de nos echanges avec les Etats-Unis est surtout due a l’influence politique exerc^e par des
374
COMMONS DEBATES
May 18, 1869
ing on the part of leading men of that country. He took issue with the hon. gentleman as to the correctness of that statement. He believed the true cause of the rupture of the arrangement was that the protectionist party in the United States had obtained a preponderance greater, perhaps, than at any former time. The iron interest, the mineral interest, generally, and the manufacturing interest had obtained a preponderating influence in the Councils of the United States. We, in this country, and the people of England, believed there was nothing more fallacious than the idea that anyone could be enriched by a system of protection. We had endeavoured, but in vain, to convince the United States of the same thing. We had shown that in the article of shipping, for instance, the free trade system of England had been productive of the greatest possible results in favour of English commerce, having been the means of taking away the carrying trade of the world almost entirely from the United States, and giving it to English merchants. He had no doubt but that in the course of a few years the protectionist theories which now prevailed in the United States, would, with the mass of the people, lose their force, and that they would see that they were in reality losing a great deal by that system, by which they fancied they could enrich themselves; and as that feeling gained ground, so would that feeling that it was desirable to renew trade relations, which had existed for many years, with mutual benefit, between Canada and the United States. But until that feeling prevailed to some extent, he believed it would be utterly hopeless for us to entertain the hope that any measure of reciprocity could possibly be obtained. He had come to this conclusion with considerable regret, but he was sincerely convinced that he had truly stated the position of the question. Under these circumstances he was not willing to place himself in the position of a supplicant (Hear, hear). He felt himself constrained therefore for these reasons to withhold his support from the amendment moved by his hon. friend from Hochelaga, and for some other reasons also. He was not at all sure that an indiscriminate and general reciprocity of manufactured articles would result to our benefit at the present time. Having said this much with reference to the motion before the chair, he wished to say a few words in relation to our present carrying trade, especially on the lakes. The member for Hochelaga proposed that there should be a reciprocal system of coaling, and a free registry in each country of the vessels built in the other. As to that, he (Mr. Mackenzie) could only say that if he believed there was the slightest hope of [Mr. Mackenzie—M. Mackenzie.]
personnalites americaines. II n’est pas d’ac-cord avec le ministre. II pense que la vraie cause de la rupture des relations reside dans le fait que le parti protectionniste americain occupe une position plus forte que jamais. L’industrie du fer et des minerals en general ainsi que les manufacturiers ont reussi a exer-cer une influence preponderante dans les Conseils des Etats-Unis. Au Canada et en An-gleterre on condamne l’idee de vouloir prote-ger les gens de fagon qu’ils puissent s’enri-chir a l’aise. Nous avons vainement essaye de convaincre les Etats-Unis d’y renoncer. Nous avons demontre que le systeme de la libre concurrence pratique en Angleterre a produit les meilleurs rdsultats pour le commerce anglais de sorte que maintenant les Anglais dominent dans le domaine des transports maritimes et non plus les Americains. II est convaincu que les theories protection-nistes actuellement repandues aux Etats-Unis perdront du terrain d’ici quelques annees et que les industriels se rendront compte qu’el-les leur ont fait perdre de l’argent au lieu de les enrichir comme ils le pensaient. Au fur et a mesure qu’ils prendront conscience de ce fait, leur desir de renouveler les echanges qui, pendant de longues annees, ont profile aussi bien aux Canadiens qu’aux Americains regagnera du terrain. II pense qu’il est inutile d’esperer accomplir des progres en ma-tiere de reciprocity avant que cette prise de conscience ne se produise. C’est a grand regret qu’il arrive a cette conclusion, mais il est sincerement convaincu d’avoir correcte-ment rendu compte de la situation. Dans ces circonstances, il n’est pas pret a se mettre a supplier. (Bravo.) Voila entre autres, les raisons qui l’empechent d’appuyer l’amendement presente par son ami le depute d’Hochelaga. Par ailleurs, il n’est pas tres sur qu’a l’heure actuelle le libre-echange soit vraiment si sou-haitable en ce qui concerne les produits manufactures. Apres avoir commente la motion presentee a la Chambre, il desire parler brie-vement du transport maritime de merchandises, plus specialement en ce qui concerne les lacs. Le depute d’Hochelaga vient de proposer l’etablissement d’un systeme reciproque d’approvisionnement en charbon et d’enre-gistrement gratuit dans chaque pays pour les navires construits dans l’autre pays. A ce pro-pos, tout ce qu’il (M. Mackenzie) peut dire est que si Ton pouvait vraiment esperer adopter ce systeme, les avantages compenseraient presque tous les desavantages resultant de l’adoption de l’amendement. Toutefois, il sait qu’il est inutile d’esperer. Il se rend compte que les autorites americaines font tout pour contrarier les mouvements des bateaux cana-
18 mai 1869
DEBATS DES COMMUNES
375
obtaining this, it would in his view almost counterbalance all the other disadvantages which would result if the hon. gentleman’s amendment were carried out; but he knew it was utterly hopeless. He knew that constantly every kind of impediment was placed by the United States authorities in the way of our coasting marine on the lakes. It had been his duty occasionally to call the attention of this Government both by written communications, and by his living voice in the House, to what he conceived to be their gross neglect of our shipping interest on the lakes. He had to this hour failed to obtain the slightest indication from the Government that they had even considered the subject. He did not know whether the Government had ever considered whether it would be advisable to extend the Admiralty laws to the lakes. He believed this would be a necessary measure, for so long as the United States used every possible means to harass our commerce on the lakes, to seize our vessels on every pretext, however mean or contemptible —vessels that were almost never released on any consideration—and as long as this was allowed by our Government without any attempt to remedy it, our shipping could not be expected to prosper. Mr. Mackenzie went on to give a number of examples of the way in which the American authorities had applied their coasting laws to the seizure of our vessels and the harassing of our trade, while on the other hand, our Government gave every possible facility to American vessels; and said that, if this went on for a few years longer, our lake shipping would be entirely destroyed. He said that part of the difficulty arose from Lake Michigan being an inland United States lake. He trusted, however, that in a few years a large portion of the trade that was now brought almost necessarily to Lake Michigan, would be brought to Lake Superior, which was common to both countries. A number of railroads now in process of construction would bring about this result; and to take advantage of it we should improve our own means of communication. He pointed out that all the good harbours were on the north side of the lake. Some of them were magnificent harbours; such as that of Michipicoton, which would hold a thousand men-of-war. He censured the neglect of the Hinck’s Ministry in 1852 in not proceeding with the Sault Ste. Marie Canal project, and urged that it should still be proceeded with—that built by the Americans being small and inadequate for the trade that might be expected. As regarded these matters affecting our shipping, he thought it was the duty of the Government to proceed as if we had no hope of obtaining a renewal of
diens sur les lacs. Par ailleurs il pense qu’il est de son devoir d’attirer l’attention du Gou-vernement par des interventions ecrites et orales a la Chambre sur le fait qu’on neglige grossierement les int6rets canadiens dans le domaine du transport maritime. Le Gouver-nement ne lui a pas encore donne le moindre signe qu’il etudie ce probldme. II ignore me-me si le Gouvemement a envisage la possibility d’elargir le champ d’application des lois sur la marine afin d’y inclure les lacs. A son avis, cette mesure s’impose tant que les Etats-Unis n’arretent pas de se servir de toutes sortes de moyens pour harasser notre commerce maritime sur les lacs en s’emparant sous n’importe quel pretexte mesquin et con-damnable, de nos navires qui ne nous sont pratiquement jamais rendus. Aussi longtemps que notre Gouvemement ne fera rien pour remedier a la situation, notre commerce maritime ne connaitra pas d’expansion. M. Mackenzie donne un certain nombre d’exemples qui illustrent la maniere dont les autorites americaines ont utilise leur legislation sur le cabotage pour saisir nos batiments et harasser notre commerce tandis que notre Gouverne-ment a tout fait pour faciliter la situation aux navires americains. II continue en declarant que si la situation demeure la meme pendant quelques annees encore, il n’y aura plus de navires canadiens sur les lacs. Les difficultes s’expliquent partiellement du fait que le lac Michigan se trouve a l’interieur du territoire amdricain. Il pense, toutefois, qu’une grande partie des marchandises actuellement ache-minees au lac Michigan prendront, d’ici quelques annees, la route du lac Superieur qui appartient aux deux pays. Nous pourrons uti-liser les chemins de fer actuellement en construction et nous devrions par ailleurs amelio-rer nos propres moyens de communication. Il souligne que sur la rive nord du lac se trou-vent les meilleurs ports notamment le port de Michipicoton qui est splendide et peut accueillir jusqu’a mille navires de guerre. Il reproche au Cabinet Hinck de ne pas avoir donne suite au projet du canal de Sault-Ste-Marie presente en 1852 et demande de re-prendre ce projet puisque le canal construit par les Americains est trop etroit et ne suffit pas au volume de transport auquel on doit s’attendre. Il pense que le Gouvemement a le devoir d’agir dans le domaine des transports maritimes comme si l’on ne pouvait pas es-perer obtenir le renouvellement du Traite de Reciprocity. En conclusion, il se prononce contre la politique de represailles en declarant qu’elle n’est pas digne d’un homme d’Etat. Il pense qu’une telle politique ne rap-portera rien, surtout a un parti faible. Nous
376
COMMONS DEBATES
May 18, 1869
the Reciprocity Treaty. In conclusion, he declared himself against the retaliatory policy as one that could not commend itself to the mind of any statesman. He believed nothing was to be gained by such a policy, especially by the weaker party. We should adopt that policy which suited ourselves, without caring whether it did or did not discriminate against the United States.
Hon. Mr. Gray called attention to the injurious operation on New Brunswick of certain portions of the Ashburton Treaty. After the expiring of the Reciprocity Treaty, the United States put on a duty of 25 per cent on lumber coming down the river St. John from the New Brunswick side, while the lumber coming down the river from the American side was admitted free of duty. In addition to this the New Brunswick manufacturers having entered their lumber at the market value, the Americans entered theirs at the market value, plus the duty, and they had no duty to pay; and in one case three cargoes belonging to one New Brunswick firm had been seized at an American port for being entered under the value. The result was that the lumber manufacture on the St John was fast passing into the hands of the Americans. He knew one case where a New Brunswicker had become a naturalized American in order to obtain the privilege given to Americans. There could be no doubt of the desirability of obtaining Reciprocity. The only question was as to the best mode of obtaining it, but if the matter continued as now, it might be a question whether we should not adopt a system which would administer to the Americans the same law which they now administer to us.
Mr. Jones (Leeds and Grenville North)
thought the speech of the member for Lambton was inconsistent with itself. He professed himself opposed to retaliatory measures, and yet asked the Government to take the same means of protecting our shipping as the Americans took to protect theirs. The hon. gentleman also claimed to be a free-trader, but it would appear that he would only apply the free-trade principle to the agricultural portion of our community. He (Mr. Jones) thought that so long as the Americans put duties on our agricultural produce our own farmers should be protected by a duty on American produce. If that duty had been imposed, it would have yielded, during the last year for which we had returns, $250,000. He would willingly join the member for fMr, Mackenzie—M. Mackenzie.]
devons adopter une politique qui nous con-vient, sans nous demander si elle est discri-minatoire pour les Etats-Unis.
L'hon. M. Gray attire l’attention sur les repercussions nuisibles de certaines parties du Traite d’Ashburton sur le Nouveau-Brunswick. Apres l’expiration du Traits de Reciprocite, les Etats-Unis ont impose une taxe de 25 pour cent sur le bois arrivant du Nouveau-Brunswick par la riviere Saint-Jean, tandis que le bois en provenance des Etats-Unis etait admis au Canada sans droits de douane. Les produc-teurs du Nouveau-Brunswick ont declare leur bois a la valeur du marche, tandis que les Americains y on ajoute le montant de la taxe qu’ils n’ont done pas dd payer. Une fois, dans un port americain, trois chargements appar-tenant a une firme du Nouveau-Brunswick ont meme ete saisis sous le pretexte que la valeur declaree etait inferieure a la valeur reelle. Le resultat est que l’exploitation de bois dans cette region est en train de passer rapidement aux mains des producteurs americains. II connait meme le cas d’un habitant du Nouveau-Brunswick qui s’est fait natura-liser Americain afln d’obtenir les privileges reserves aux Americains. Le renouvellement du Traits de Reciprocite est certainement tres souhaitable; mais il faut se demander quelle est la meilleure fagon de l’obtenir. Si la situation ne change pas, il faudra peut etre se demander s’il n’est pas preferable d’adopter un systeme qui permette de traiter les Americains comme ils nous traitent actuellement.
M. Jones (Leeds el Grenville Nord) pense que le depute de Lambton se contredit lui-meme. Il s’eleve contre la politique de repre-sailles mais il demande au Gouvernement de prendre les memes mesures que les Americains pour proteger notre navigation. Par ailleurs, le depute se declare en faveur du libre-echange, mais il semble limiter l’application de ce principe au secteur agricole de notre industrie. Il (M. Jones) pense que tant que les Americains imposeront nos produits agricoles, nous de-vrons proteger nos agriculteurs en imposant leurs produits. Cette taxe, si elle avait existe, nous aurait rapports l’annee derniere $250,000. Il est prSt a se joindre aux efforts du depute de Cumberland pour obtenir la taxation des importations de ble et de charbon.
18 mai 1869
d£bats DES COMMUNES
377
Cumberland in the effort to have a tax put on wheat and coal.
Mr. Cayley, in French, opposed the amendment.
Mr. Joly said he also would feel obliged to vote against the amendment. The advantages it sought for where such as under the present state of affairs we could scarcely ask from the Americans, with any idea that they would seriously consider the request. He did not believe the Americans would consent to reciprocity of manufactured goods with us so long as we did not consent to reciprocity of taxation with them. The same remark, he thought, would apply to the registration of shipping. As we could build vessels cheaper than in the United States, where the taxation was to much heavier, we would only stultify ourselves by asking for what the Americans could not possibly grant us, unless we were prepared to go further than merely changing our trade relations. He thought, however, it might be well to let the Americans know that we were prepared to negotiate with them for a treaty, and that we were prepared to meet them half way, but that we could not very well go further than half way.
After recess,
Mr. Harrison said that the resolution in amendment would serve a good end at least in giving hon. members an opportunity of expressing their views on this important question. Reciprocity had worked well between England and France, and also between Canada and the United States. During the ten years of reciprocity the trade, between the United States and Canada, had amounted to $400,000,000 the profits on which must have tended to enrich both countries, and to give a great stimulus to many branches of industry on both sides of the line. It worked so well for both countries that each country felt it had the advantage of the other, and there was a question, on which side was the balance of profit. He believed the Americans put an end to the treaty for political reasons: partly because it was supposed that we sympathized with the South against the North. He did not think this was the case as regarded the mass of our people. Even if it were, was it a crime to sympathise with the weak against the strong? Today were not the United States sympathising with the Cubans, and sending out expeditions to assist them? The main reason, however, was that they thought that by withholding reciprocity they would force us into the Union. If that was their policy they have signally failed. They had found that we were not,
M. Cayley intervient en frangais et s’eleve contre l’amendement.
M. Joly declare qu’il se sent egalement oblige de voter contre l’amendement. Dans l’etat actuel des choses, il n’est guere possible de demander aux Americains d’accepter les propositions contenues dans l’amendement et il y a peu d’espoir qu’ils prennent cette de-mande serieusement en consideration. Il ne pense pas que les Americains admettent le libre-echange des produits manufactures tant que nous n’accepterons pas la reciprocity des droits de douane. Cette observation s’appli-que egalement aux frais de mise a bord. Puis-que nous pouvons construire des bateaux a moindres frais que les Etats-Unis ou les im-pots sont beaucoup plus lourds, nous nous rendrions ridicules en demandant aux Americains ce qu’ils ne peuvent pas nous accorder, a moins que nous ne soyons prets a aller au-dela d’une simple modification de nos relations commerciales. Il pense qu’il serait n£an-moins souhaitable d’avertir les Americains que nous sommes prets a negocier un traite avec eux, et que nous sommes prets a les ren-contrer h mi-chemin, mais pas plus.
Reprise de la seance,
M. Harrison dit que l’amendement a au moins l’avantage de donner aux deputes l’oc-casion d’exprimer leur opinion sur cette question importante. La reciprocity a bien fonc-tionne entre l’Angleterre et la France et egalement entre le Canada et les Etats-Unis. Pendant les dix annees du Traite de Reciprocity, les echanges entre les Etats-Unis et le Canada ont atteint les $400,000,000, profitant ainsi aux deux pays et stimulant de nom-breux secteurs de l’industrie des deux pays. Le systeme a si bien fonctionny que chaque pays a l’impression d’avoir profite de l’autre et on ne sait vraiment pas de quel cote sont les plus grands benefices. Il croit que les Americains ont interrompu le Traite pour des raisons politiques en partie, croyant que nous sympathisions avec le Sud contre le Nord. Il ne pense pas que ce soit exact pour la majority des gens. Et mdme si c’etait le cas, est-ce un crime de prendre parti pour le plus faible contre le plus fort? Les Etats-Unis ne sympa-thisent-ils pas aujourd’hui avec les_ Cubains, leur envoyant des renforts? Or, les Etats-Unis croient pouvoir nous obliger a nous joindre a l’Union en nous refusant la rdciprocite des echanges. Leur politique a visiblement ychouy, si telle etait leur intention. Ils ont vu que nous ne sommes pas prets & vendre notre droit d’ainesse pour un plant de lentilles,﻿378
COMMONS DEBATES
May 18, 1869
Esaw-like, prepared to sell our birthright for a mass of pottage. He proposed this resolution, because he did not think it our part to cringe to the Americans, and beg favours from them. They had withdrawn the treaty. Let the first proposition for its renewal come from them. Let us adopt a national policy towards the United States, and they would not, if we went to cringe to them for favours. The Americans had not only endeavoured to ruin our trade, but also to hurt our feelings, by advocating the annexation of these Provinces without reference to our views. What was the true with free trade views, he would now be inclined to say let us adopt what is called the national policy, and have at least free trade among ourselves. As a representative of Ontario he would say put no tax on coal; as a Nova Scotian put no tax on flour. But had there been a duty on American breadstuffs last year, a million and a half of dollars of revenue would have been derived therefrom. And though it might be said this duty was paid by ourselves still we had to support the Government any way, and the duty would have promoted trade among ourselves. Ontario had paid last year $700,000 for American coal; and a duty on that article would have sent this amount of money to Nova Scotia. He held it, therefore, to be the true policy of Canada to encourage trade between the Provinces; and to meet the Americans, and compete will them in the markets of the world, (hear, hear). These views might not agree with the opinions of his constituent, the member for West Durham, (Blake,) but had he, (Harrison,) been the exponent of that hon, gentleman’s opinions, he would not have had a seat in the House (laughter).
Hon. Mr. Connell was opposed to any move in the direction of annexation to the States. He was ready to stand by our flag. The question was what policy should be pursued to enlarge our borders. Manufactures should be fostered. The hon. gentleman continued his remarks for some time, but was inaudible in the gallery.
Hon. Mr. Galt said though not a member of the Government, he would wish it to be distinctly understood that he would not allow reflections on the Administration of which he had been a member, to pass unnoticed. However, on this occasion he thought it better to confine the discussion to the question before the House. Their trade relations with the United States were undoubtedly of the greatest importance to this country. He would have very much preferred that this discussion had not taken place (hear, hear), and [Mr. Harrison—M. Harrison.]
comme Esau. II propose cette resolution car il estime que ce n’est pas k nous de nous mettre a genoux et de demander des faveurs aux Americains. Ils se sont retires du Traite. C’est done d’eux que doit venir l’initiative de son renouvellement. Adoptons une politique nationale au sujet des Etats-Unis, mais ne leur demandons pas de faveurs. Les Am6ri-cains n’ont pas seulement tout fait pour ruiner notre commerce, ils ont egalement heurte nos sentiments en plaidant pour l’annexion de ces provinces sans tenir compte de notre opinion. En tant qu’avocat du libre-echange il est tente de proner l’adoption d’une politique economique nationale afin de realiser le libre-echange au moins chez nous. S’il devait representer les interets de l’Ontario, il demanderait que le charbon soit exempt de taxes; pour la Nouvelle-Ecosse il demanderait que Ton ne taxe pas la farine. Nous aurions gagn6 un million et demi de dollars l’annee derniere si les farines americaines avaient ete imposees. On dira que nous avons paye cette taxe, que nous devions de toutes fagons aider le Gouvernement et que la taxe aurait pu stimuler le commerce interieur. L’ann£e derniere, l’Ontario a achet6 pour $700,000 de charbon americain, or cette somme serait allde a la Nouvelle-Ecosse si le charbon avait ete taxe. Pour cette raison, il pense que le Gouvernement doit d’une part encourager les ^changes entre les provinces et d’autre part concurrencer les Americains sur tous les marches du monde. (Bravos.) Il dit que son opinion est peut-etre tres eloignee de celle du depute de Durham Ouest (M. Blake), mais s’il avait defendu les opinions de ce dernier, il ne siegerait pas auj ourd’hui a la Chambre.
L'hon. M. Connell s’eleve contre toute tentative d’annexion eventuelle aux Etats. Il est pret a defendre notre drapeau. Il faut se demander quelle politique adopter pour eten-dre nos frontieres. L’industrie doit etre en-couragee. Le depute parle encore un moment, mais ses propos sont inaudibles dans la galerie.
L'hon. M. Galt dit que bien que n’dtant pas membre du Gouvernement, il affirme qu’il ne permettra pas que des accusations a regard de l’Administration dont il a ete membre ne soient pas relevdes. Toutefois, dans le cas present il juge preferable de limiter le debat a la question dont la Chambre est saisie. Les relations commerciales avec les Etats-Unis sont sans aucun doute de la plus grande importance pour ce pays. Il prefdrerait de beau-coup que ce debat n’ait pas lieu (Bravos), et que le Gouvernement puisse s’occuper de cette
18 mai 1869
d£bats DES COMMUNES
379
that the matter should be left in the hands of the Government, without embarrassing them in a course, which in a House composed as this was, must necessarily meet with some opposition; but now that the question had been made, and gone so far, it was better to have a fair and full discussion of the question in all its bearings. He would make some reference to the negotiations that had taken place with the United States when he was a member of the Government, and he thought this the more neccessary because the hon. member for Lambton had taken occasion to repreach the Government for having attempted to do by legislation what he though should be done by treaty. Some parts of this question could only be settled by treaty, such as the fisheries and the navigation of the St. Lawrence, but there were other parts that could be settled by legislation. And he thought the question would be more permanently settled by legislation, as far as legislation could settle it, than by treaty. Because if settled by treaty, when that treaty was about to expire, its opponents would make a grand rally, and secure its defeat; whereas if it were settled by legislation they would only seek for amendments, not an entire abrogation. With respect to the negotiations that had taken place between the representative from all the Provinces and the Committee of Foreign Relations at Washington, he would say that they made the most liberal offers that this country could make, and have agreed to an assimilation of our excise duties with theirs; but what was their response? The only thing they were absolutely willing to allow was the article of grindstones free into their markets (laughter). They proposed a duty on our fish so high that it would virtually exclude our fish from their markets. They also proposed duties on our agricultural products, equal to those since imposed. The result of those negotiations could only convey one impression to his mind, and that was that the abrogation of the treaty was not owing to the desire to protect their own industries, but owing to their desire to adopt such a policy as would embarrass Great Britain in her relations on this continent. That being their view of the case, he thought it was little use in us making proposals in the manner indicated in the resolutions. The United States knew our views, and what we were willing to give, and there was no use in initiating negotiations. He spoke under the strongest possible convictions that the operations of the Reciprocity Treaty were most beneficial to this country, and the whole course of the Government of which he was a member, went to show that they were fully
question librement sans etre entrav6 par une opposition qui, dans une Chambre compos£e comme celle-ci, est inevitable; mais puisque nous en sommes 1&, la question ayant ete abor-dee de cette fagon, il est preferable d’en dis-cuter serieusement tous les aspects. II desire parler des negociations qui ont eu lieu avec les Etats-Unis lorsqu’il etait membre du Gouvernement, et il pense que c’est d’autant plus necessaire que l’honorable depute de Lambton a saisi l’occasion pour reprocher ou Gouvernement d’avoir essaye d’accomplir par le biais de la legislation ce qui, d’a-pres lui, aurait du l’etre par traits. Certains aspects de cette question ne peuvent etre regies que par traite, la peche et la navigation sur le Saint-Laurent par exemple, d’autres par contre peuvent faire l’objet de mesures legislatives. Il pense qu’une loi reglerait la question d’une maniere plus permanente qu’un traite dont les opposants peuvent toujours empecher la reconduction. Par contre, les opposants d’une loi ne recherchent que des amendements et non une abrogation complete. En ce qui concerne les negociations qui ont eu lieu entre le representant de toutes les provinces et le Comite des Relations etran-geres & Washington, il estime que le pays a fait les offres les plus liberates possible, en acceptant d’aligner ses tarifs d’accise sur les leurs; mais quelle a ete leur reaction? Le seul produit que les Etats-Unis etaient disposes k ne pas frapper de taxe a l’importa-tion etait la pierre de meule. (Rires.) Ils ont propose une taxe tellement elevee sur notre poisson que cela exclurait virtuellement ce-lui-ci de leurs marches. Ils ont egalement propose des taxes sur nos produits agricoles, egales a celles qui ont ete imposees depuis. De ces negociations il ne tire qu’une seule impression: en abrogeant le Traite ils n’ont pas voulu proteger leurs propres industries, mais adopter une politique qui generait la Gran-de-Bretagne dans ses rapports avec ce continent. Cela pose, il pense qu’il ne servirait pas k grand chose de faire des propositions dans le sens des resolutions. Les Etats-Unis connaissant notre position et ce que nous sommes prets a accorder, il est inutile d’entamer des negotiations. Il est absolument convaincu que l’application du Traite de Reciprocity beneficie enormement a ce pays; l’attitude du Gouvernement dont il a ete membre de-montre qu’il a parfaitement conscience des obstacles futurs que l’abrogation de ce Traite pourrait causer; il est inutile d’essayer de se dissimuler qu’un renouvellement de ce Traite serait fort avantageux pour ce pays. Mais que peut-on faire de plus? Que le Gouvernement attende que les Etats-Unis ddcident
380
COMMONS DEBATES
May 18, 1869
alive to the future embarrassments likely to rise out of the abrogation of the treaty, and it would be useless to disguise the fact that a renewal of the treaty would be most advantageous to this country. But what more could they do than they had done? Let the Government wait till the United States showed they were disposed to reopen negotiations; and if they were reopened, he hoped it would be in good faith, and with the desire really and truly to arrange the commercial relations of the two countries on a fair footing. But he regretted to say that he felt himself bound to state thus publicly, that he did not believe that any practical result would follow such negotiations at present, and he was confirmed in this opinion by the course taken by the United States Senate in rejecting the Alabama treaty. He took that as an indication that they did not intend to alter their policy of embarrassing England on this Continent. The question then arose, what course should we pursue? From the remarks of some hon. gentlemen, he inferred that they recommended a policy of retaliation. He emphatically disapproved of such a policy. Far better to wait, and leave the matter to the good sense of the American people, than to adopt the dangerous policy of retaliation. Some gentleman had put a construction on some portions of the budget speech of the Finance Minister, to the effect that he approved of such a policy, but he hoped they did not bear that construction, and he did not think they did. Nor would it be beneficial to this country to force a trade with the East and West, by imposing heavy duties on the articles produced by both. We might have to submit to an unwise policy on the part of the United States, but it was folly to suppose that retaliation could injure the United States. If retaliation was to be adopted, it must be by Great Britain, but it was idle to expect such a policy from Great Britain. There was a time when such a policy would have been adopted by Great Britain under the existing circumstances, but those days had gone. He thought the course taken by the United States was unworthy of them, and the strongest rebuke we could give them would be for us not to follow their example. The policy of the United States was not so much to restrict trade with us, as to remove British power from this continent. It was only an incident of that policy that there was any desire on their part to annex this country. He thought that policy a mistaken one for the United States, because the possessions of Britain on this continent were a standing guarantee of peace. So long as England had four million subjects here she would be reluctant to engage in a war
[Hon. Mr. Galt—L'hon. M. Galt.]
de reprendre les n^gociations; et si elles sont rouvertes, il espere qu’elles le seront de bonne foi, et avec le desir veritable de mettre les relations commerciales des deux pays sur un pied d’egalite. Cependant, et c’est avec regret qu’il le dit ainsi publiquement, il ne pense pas que ces negotiations debouchent sur des resultats pratiques a l’heure actuelle, et l’attitude du Senat des Etats-Unis qui vient de rejeter le Traite sur l’Alabama en constitue une preuve. Il en deduit que les Etats-Unis n’ont pas l’intention de modifier leur politique visant a contrarier l’Angleterre sur ce continent. La question est alors la suivante, quelle attitude devons-nous adopter? D’apres les commentaires ds certains deputes, il faudrait adopter une politique de represailles. C’est avec force qu’il desap-prouve cette attitude. H vaut beaucoup mieux attendre et faire confiance au bon sens du peuple am^ricain plutot que d’adopter la dangereuse politique des represailles. Plu-sieurs deputes ont deduit de certaines parties du Discours du Budget du ministre des Finances que celui-ci approuvait une telle politique; il espere qu’ils n’ont pas soutenu cette interpretation et il ne pense pas qu’ils l’aient fait. Ce pays ne gagnerait rien a forcer le commerce avec l’Est et l’Ouest en imposant de lourdes taxes sur les articles produits par les deux. Nous devrons peut-etre subir une politique mal avisee de la part des Etats-Unis, mais il est utopique de supposer que des represailles puissent nuire aux Etats-Unis. Seule la Grande-Bretagne pourrait exercer des represailles, mais il est vain d’attendre de sa part une telle politique. Jadis la Grande-Bretagne aurait adopte cette attitude dans des circonstances similaires, mais ces temps sont revolus. Il pense que l’attitude adoptee par les Etats-Unis n’est pas digne d’eux, et que la fagon la plus dnergique de manifester notre reprobation est de ne pas suivre leur exemple. Les mesures prises par les Etats-Unis n’ont pas tant pour but de restreindre le commerce avec nous que d’aneantir la puissance britannique sur ce continent. Leur desir d’annexion est une consequence secon-daire. Il pense que les Etats-Unis font une erreur en s’engageant dans cette voie, car les possessions britanniques sur ce continent sont une garantie permanente de la paix. Aussi longtemps que l’Angleterre aura quatre millions de sujets ici, elle repugn era a s’enga-ger dans une guerre avec les Ltats-Unis. La politique des Etats-Unis, au lieu de nous at-tirer vers l’annexion comme c’etait son but a eu l’effet exactement oppose. Il pense qu’un jour viendra ou ce pays sera separe de la Grande-Bretagne. Mais lorsque ce temps sera
18 mai 1869
d£bats DES COMMUNES
381
with the United States. The policy oil the United States instead of drawing us into annexation as they expected had an exactly opposite effect. He believed the time must come when this country would become separated from Great Britain. But when that time did come, the public should be so educated that we should have the choosing of our own future, and should have the right of at least trying the experiment of sovereign independence. Postpone that time as long as possible, but let the settled opinion of Canada be that, when it does come, we shall become an independent nation. He believed we had a better future before us than annexation, and he was certain the statesmen of England were disposed to assist us in that direction. With reference to the reciprocity negotiations, he thought they should be left to the Government, in whom he had full confidence, though he might differ from them on certain minor points.
Hon. Mr. Holton maintained that the States having made an advance towards the renewal of the treaty, hon. gentlemen ought unanimously support the resolution of the hon. member for Hochelaga. These resolutions affirmed that which no hon. gentleman in the House could deny, except, perhaps, so far as the interchange of manufactures was concerned. He had no doubt on the point, but other hon. gentlemen, he observed, had their doubts on the subject. Unquestionably the preliminary steps towards the renewal of the treaty had been made by the Government of the States. Why then should we hold back? Should the negotiations fall through, and no arrangement be effected, it would be for use to take steps to secure other markets. But, in the meantime, overtures were made from the other side of the line and all these resolutions proposed, and all he contended for was, that these overtures should be met in a like friendly spirit. True loyalty he believed to consist in adopting and carrying out the Imperial policy. In the event of these negotiations failing, his desire was to leave this matter in the hands of the Government, backed up by a strong expression of opinion on the part of the House—such an opinion as could not fall materially to strengthen the position of the Government in any event.
Hon. J. H. Cameron said this was, to all intents and purposes, a motion of want of confidence.
venu, la population devra poss^der la volontS de choisir son propre avenir, et devra au moins avoir le droit de tenter l’experience de la souverainete. Repoussons cette 6ch6ance au maximum, mais, lorsqu’elle viendra, que la volont6 du Canada soit de devenir une nation independante. II pense qu’un avenir meil-leur que l’annexion nous attend, et il est certain que les hommes d’etat anglais sont prets a nous aider dans cette voie. En ce qui concerne les negotiations de r^ciprocite, il pense qu’elles doivent etre laiss^es au Gouver-nement, qui possfede toute sa confiance, bien qu’il ne soit pas toujours d’accord avec lui sur certains points de detail.
L'hon. M. Holton soutient que, les fitats-Unis ayant fait des avances en faveur du renouvellement du Traits, les honorables deputes doivent appuyer a l’unanimite la resolution de l’hon. depute d’Hochelaga. Ces resolutions contiennent des affirmations qu’aucun hon. depute de la Chambre ne peut nier, & l’exception, peut-etre, de l’echange de produits manufactures. Il n’a aucun doute a ce sujet, mais d’autres deputes, note-t-il, en ont. On ne peut nier que le Gouvernement des Etats-Unis ait entrepris les demarches pr£-liminaires visant a un renouvellement de ce Traite. Alors qu’attendons-nous? Si ces negotiations echouaient, et qu’il n’y ait pas d’accord, il serait utile de prendre des mesu-res pour s’assurer d’autres marches. Mais en attendant, des propositions nous sont par-venues de l’autre cote de la frontiere, des resolutions ont ete avancees, et il affirme simplement que nous devons repondre a ces ouvertures d’une maniere amicale. H pense que la veritable loyaute consiste a adopter et a appliquer la politique imperiale. Si ces negotiations echouaient, il souhaite laisser au Gouvernement le soin de regler ce probleme, soutenu par la forte expression de l’opinion de la Chambre, opinion qui, de toute maniere, ne pourra que renforcer la position du Gouvernement.
L'hon. J. H. Cameron dit qu’ii toutes fins pratiques cela equivaut a une motion de confiance.
Hon. Mr. Holton said that the statement L'hon. M. Holton repond que c’est faux. Le was not correct. The fact was, so little idea fait est, et cela prouve a quel point l’hono-had the honourable gentleman of regarding rable depute a tort de l’envisager ainsi, le fait
382
COMMONS DEBATES
May 18, 1869
it in that light, that the motion had been allowed to stand on the paper three days, and was taken up now only in its regular order; whereas, if it was looked upon as a vote of non-confidence in the Ministry, the debate on it would have been pushed to a close from the outset. Besides, such motions as this were common in English Parliamentary proceedings, Mr. Cameron differed with the hon. gentleman on this point. As to the renewal of reciprocity, it seemed to him that it would be far better to have it by treaty than by legislation. Any threatening or blustering to secure it would be far from successful; just as unsuccessful, indeed, as would the opposite extreme of suing for a renewal of the treaty. Another idea which this discussion had introduced had, he believed, too much prominence attached to it. He referred to that of nationality and a separate existence. Better by far than discussing such contingences to betake ourselves to providing for the present, and act as good neighbours to the powerful nation alongside us. The Government, he believed, were fully competent to deal with this subject, and should not be forced into action at a moment which might, perhaps, be the most inopportune.
Hon, J. H. Cameron differed with the hon. gentleman on that point. He contended that the true policy for Canada was to maintain a calm and determined attitude, and to avoid boasting. He did not agree with the view that we should seek our independence of England. The question was not one of independence or annexation. Our present position was the one in which we could best serve our own interests as well as those of the Empire. He opposed the resolutions of the member for Hochelaga, not because he disagreed with them, but because the question to which they referred should be left in the hands of the Government.
Mr. Gibbs, as a representative of an agricultural section, desired to say a few words on the resolutions before the House. With reference to a renewal of the Treaty, one thing was clear, notwithstanding the beauties of free trade which had been so much lauded—that we had under that policy been waiting for many years for this trade with the United States, and what good was our free trade policy doing us? The Americans had access to our markets, and shut us out of theirs. (Hear.) He would, in this connection, recall to the House his assertion last year, that the Ministry were making a mistake in imposing the duty on flour in Nova Scotia, as it would only [Hon. Mr. Holton—L’hon. M. Holton.]
est que cette motion figure a l’Ordre du jour depuis trois jours et qu’elle n’est discutee que maintenant selon l’ordre normal; tandis que si on la considerait comme un vote de defiance contre le Cabinet, on aurait cherchd des le debut a mener rapidement ce debat & terme. De plus, de telles motions sont monnaie courante dans la procedure parlementaire anglaise; M. Cameron n’est pas d’accord avec l’hon. depute & ce sujet. En ce qui conceme le renouvellement de l’accord de reciprocity, il lui semble infiniment preferable d’avoir recours & un traite plutot qu’a la legislation. Toute menace ou intimidation pour s’as-surer du renouvellement serait loin de ren-contrer le succes; la demarche inverse etant d’ailleurs tout aussi aleatoire. Une autre idee ressort de la discussion qui a pris beau-coup trop d’importance d’apres lui. II fait allusion & la notion de nationality et d’exis-tence separee. Au lieu de dybattre de telles contingences, nous ferions beaucoup mieux de nous efforcer de trouver des solutions pour le present, et d’agir comme de bons voisins envers la nation puissante qui se trouve & cote de nous. II pense que le Gouvernement a toute la competence voulue pour s’attaquer a ce probleme, et qu’il ne devrait pas etre oblige de prendre des mesures k un moment qui est peut-etre le plus inopportun.
L'hon. J. H. Cameron n’est pas d’accord avec l’hon. deputy sur ce point. II soutient que la meilleure politique pour le Canada est de con-server une attitude calme et ferme, et d’eviter de se vanter. II desapprouve que nous cher-chions a conquyrir notre independence vis-&-vis de l’Angleterre. II ne s’agit pas d’une question d’independance ou d’annexion. C’est dans notre position actuelle que nous pouvons servir au mieux nos interyts ainsi que ceux de 1’Empire. II s’oppose aux resolutions du deputy d’Hochelaga, non qu’il les desapprouve, mais parce que c’est au Gouvernement de s’occuper de la question.
M.	Gibbs souhaite dire quelques mots au sujet des resolutions dont la Chambre est saisie en tant que reprysentant d’un secteur agricole. En ce qui concerne le renouvellement de ce Traite, une chose est claire, en depit des beautes du libre-echange qui ont fait l’objet de tant de louanges: aux termes de cette politique, nous avons attendu pendant des annees ce commerce avec les Etats-Unis; qu’avons-nous tire de notre politique de libre-echange? Les Americains ont accys k nos marches, et nous ferment les leurs. (Bravos.) A cet egard, il rappelle a la Chambre ce qu’il a dit l’annee demiere, a savoir que le Cabinet faisait une erreur en imposant une taxe sur la
18 mai 1869
DfcBATS DES COMMUNES
383
eventuate in detriment to the milling interests, and lead to the export of grain into the States. His assertion on that occasion had been fully borne out, as the statistics of both countries have shown. He was not going to say what the Government should do when its representatives got to Washington this year, but if it was found that they neglected their duty in this matter he hoped their places on the Treasury benches would soon be filled by others. Having noticed the effects of the abrogation of the Treaty in the several Provinces, the hon. gentleman proceeded to deprecate the trade policy, and said that for his part, he had some faith in retaliation in trade matters. He was sure the people of the country would hail with delight a fair, honourable and just treaty, and he hoped that such would be effected before another year.
Mr. Scalcherd said that the question appeared to him to be not so much how to bring about a renewal of the Treaty, as how to get on without it, and this view the hon. gentleman sustained by statistics.
Sir George E. Carlier replied to the remarks of the former speakers and vindicated the policy of the Government in respect to its zeal for the renewal of reciprocity. In 1866 when the member for Sherbrooke was Minister of Finance, it was provided in the Tariff Bill that the Governor General might, by proclamation, introduce certain articles free from the United States, provided reciprocity were re-established. The same provision was re-enacted by the Parliament of the Dominion, so that the Government had done everything in its power toward securing the renewal of reciprocity. He commented severely on the member for Hochelaga’s want of knowledge of commercial matters. The proposition for reciprocity in manufactured should have been accompanied with some explanation of how the means to carry on the Government could be provided. If there were reciprocity in manufactures, the Minister of Finance would be deprived of his customs revenue. To accomplish this reciprocity, we must have a Zoliverein, and either raise our tariff to that of the United States, or get the United States to come to our level, and the bare proposition was absurd. There must then be a resort to direct taxation, as the policy of the member for Hochelaga. Sir George continued to review the whole question of reciprocity, and the measures that had been taken by the Government for its renewal. He said the motion of Mr. Dorion was a most unwise one, because
farine en Nouvelle-Ecosse, dans la mesure ou cela finirait par se faire au detriment des interets des meuniers et conduirait a Importation du grain aux Etats-Unis. Ces propos se sont trouves exacts, les statistiques des deux pays en sont la preuve. II n’a pas l’intention de dire ce que le Gouvernement devra faire lorsque ses representants se rendront & Washington cette annee, mais s’il s’avere qu’ils negligent leur devoir k ce sujet, il espere que leurs places sur le banc du Tresor seront bientot occupees par d’autres. Ayant observe les consequences de l’abroga-tion du Traite dans les differentes provinces, l’hon. depute desavoue la politique commer-ciale et dit que, pour sa part, il donne un certain poids aux represailles en matiere com-merciale. Il est certain que la population de ce pays accueillerait avec joie un traite juste et honorable et il espere qu’il en sera ainsi avant un an.
M. Scalcherd dit qu’il ne s’agit pas tant, k son sens, de renouveler le Traite, que de trou-ver le moyen de s’en passer, et il appuie ses dires a l’aide de chiffres.
Sir George-^. Carlier repond aux observations des orateurs precedents et fait l’apologie de la politique du Gouvernement et du zele dont celui-ci a fait preuve pour le renouvelle-ment du Traite de Reciprocity En 1866, lorsque le depute de Sherbrooke etait ministre des Finances, le Bill des tarifs douaniers pre-voyait que le Gouverneur General pouvait, par proclamation, faire entrer sans taxe certains produits americains, k condition que la reciprocity soit retablie. Cette meme disposition a ete de nouveau enterinee par le Parlement du Dominion, si bien que le Gouvernement a fait tout ce qui etait en son pouvoir pour s’assurer le renouvellement du Traite de Reciprocity. Il fait des observations severes sur le manque de connaissances commerciales du depute d’Hochelaga. La proposition de reciprocity pour les produits manufactures aurait du ytre accompagnee de certaines explications sur les moyens dont peut disposer le Gouvernement pour l’assurer. Si la reciprocity existait pour ces produits, le ministre des Finances serait prive de ses recettes doua-nieres. Pour realiser cette ryciprocite, il nous faut un Zoliverein et, soit elever notre barriyre douaniere au niveau de celle des Etats-Unis, soit obliger les Etats-Unis a se mettre au n6tre, et cette simple proposition est absurde. Il faut done avoir recours a une taxation directe comme le pr6ne le deputy d’Hochelaga. Sir Georges continue d’evoquer toute la question de la reciprocity ainsi que les mesures
384
COMMONS DEBATES
May 18. 1869
it implied neglect where there was no neglect. He blamed the member tor Chateauguay tor not having gone to the Detroit Convention in 1865, as representative ot the Montreal Board of Trade.
Mr. E. M. McDonald believed the House could adopt no surer course to defeat all hope of getting the Reciprocity Treaty than by agreeing to these resolutions. Nothing was to be gained by our going down on our knees and asking for Reciprocity. The initiative in this matter does not rest with Canada. We had to await the action of the British Government and of the United1 States Government. He believed Reciprocity would be obtained when it was felt to be the mutual interest of both parties. Until then nothing would be gained by precipitancy.
Mr. Le Vesconie said he felt he would not be able to hold is place in the estimation of the people of Nova Scotia if he took the course indicated by the member for Lunenburg. When their constituents asked them for bread, they should not give them a stone. He was sorry the interests of Nova Scotia were not represented on this occasion by some of her more gifted sons. But unfortunately her most gifted sons were on the other side of the House. He did not deal with this subject with any desire to vote want of confidence in the Government; his chief object was to secure the repeal of the Union, and he did not see how this was to be secured by replacing the gentlemen in the Treasury Benches with gentlemen from the other side of the House. He supported the resolution, because he believed that reciprocity was of great importance to the people of Nova Scotia.
Mr. Colby said he represented the county which perhaps more than any other in Quebec, was dependent for its prosperity in favourable trade relations with the United States, and he would be remiss in his duty if he waited to do anything practicable towards obtaining reciprocity on a just and honourable basis. But he could see no good to be derived from carrying this motion. He was willing to leave matters in the hands of the Government, believing they would do what lay in their power for the interests of the country.
Mr. Chipman said Nova Scotia had been prosperous under reciprocity. Now there was great depression in that Province, and the people declared they must have reciprocity, or something else as a substitute. He knew
[Sir George E. Cartier—Sir George-fi. Cartier.]
qui ont ete prises par le Gouvemement pour son renouvellement. II dit que la motion de M. Dorion est des plus mal avis6es, car elle implique une negligence la ou il n’y en a pas. II reproche au depute de Chateauguay de ne pas s’etre rendu au Congres de Detroit en 1865 en tant que representant de la Chambre de commerce de Montreal.
M. E. M. McDonald pense que le meilleur moyen pour la Chambre de detruire tout espoir d’obtenir un traite de r^ciprocite serait d’adopter ces resolutions. Nous ne gagnerons rien en nous mettant a genoux pour demander la reciprocity. Ce n’est pas au Canada de prendre l’initiative. II nous faut attendre la decision du Gouvemement britannique et du Gouvemement des Etats-Unis. II pense que la reciprocity sera possible lorsque les deux parties estimeront qu’il y va de leur interet mutuel. D’ici la, la precipitation n’apportera rien.
M. Le Vesconie declare qu’il perdra Pestime de la population de la Nouvelle-Ecosse s’il suit la voie indiquee par le deputy de Lunenburg. Lorsque les commettants demandent du pain, il ne faut pas leur donner des pierres. II regrette que les interets de la Nouvelle-Ecosse ne soient pas representes k cette occasion par quelques-uns de ses fils les plus talentueux, car malheureusement, ceux-ci sie-gent de l’autre cote de la Chambre. Il ne vise pas un vote de defiance envers le Gouvemement; son principal objectif est d’assurer l’abrogation de l’Union, et il ne voit pas comment on peut y arriver en remplagant ceux qui occupent les bancs ministeriels par d’au-tres venant de l’autre cote de la Chambre. Il appuie la resolution, car il pense que la reciprocity revet une grande importance pour la population de la Nouvelle-Ecosse.
M. Colby declare qu’il represente le comty dont la prosperity depend plus que tout autre de relations commerciales favorables avec les Etats-Unis et il manquerait a son devoir s’il restait inactif dans cette recherche d’une reciprocity juste et honorable. Cependant, il ne voit aucun aspect positif dans cette motion. Il laisse volontiers ces questions aux bons soins du Gouvemement, tout en croyant que celui-ci fera tout ce qui lui est possible de faire dans l’intyret du pays.
M. Chipman declare que la reciprocity a entraine la prospyrity en Nouvelle-Ecosse. Maintenant, cette province connait la recession, et la population affirme qu’il lui faut la ryciprocite ou une solution de re-
18 mai 1869
DEBATS DES COMMUNES
385
their resolution would be defeated. Perhaps the best way would be to let the Government carry through their measures just as they pleased, as any motion brought up against them was sure to be defeated. The people of Nova Scotia believed that Confederation was the cause of the loss of reciprocity. They therefore attributed all their losses to the lack of reciprocity. They were now confined to trade with Canada. They were flooded with manufactures from Canada, and when the Canadian manufacturers were asked what they would take in exchange, “Oh!” they said, “We will take anything you have to give; exchange in New York, exchange on London, gold or silver; American silver, if you have nothing better.” (Laughter.) The Canadians had taken, in addition, a little coal and fish, that was all. The value of land had fallen immensely. He had a little estate there himself, and would be glad to get rid of it on any terms. In coming up to Ottawa he had seen great quantities of flour going eastward; and on enquiry he was always told it was for Nova Scotia. That Province was being flooded with flour from Canada: in fact, if this went on much longer, the people of Nova Scotia would be reduced to a state of starvation. (Much laughter) The hon. gentleman went on for some time longer, preaching ruin and decay doctrine as regards Nova Scotia, and declared that loyalty and poverty were not apt to go together. He would vote for the amendment, although he might not approve of that contained in it.
Mr. Carmichael also supported the amendment, and contended that the trade relations of Nova Scotia had been much less satisfactory since Confederation than before it.
Mr. Blake next addressed the House, replying to some of the observations of the Nova Scotia members. It had been suggested that this subject should not be discussed, but a sufficient answer to that objection was found in the lengthy debate that day. For his part, he believed the subject to be one that ought to be discussed. We had, as had been well said, lived without this treaty, and could live without it, now that it was abolished. Still, it was unquestionably one of great importance to the Dominion, but especially to Nova Scotia. It was preposterous to suppose, whatever motive might actuate the American people, that these active politicians, 96068—25
change. II sait que la resolution sera rejetee. La meilleure solution est peut-etre de laisser le Gouvernement appliquer ses mesures comme bon lui semble, etant donne qu’on est certain que toute motion qui lui est contraire sera rejetee. La population de la Nouvelle-Ecosse pense que la formation de la Confederation est a l’origine de la perte de la reciprocity. Par consequent, elle attribue toutes ses pertes au manque de reciprocity. Elle ne peut maintenant commercer qu’avec le Canada. Elle est envahie de produits canadiens et lorsqu’on a demande aux fabricants canadiens ce qu’ils voudraient en echange, ils ont re-pondu: «Nous prendrons tout ce que vous avez a donner; les monnaies qui ont cours a New York et a Londres, de Tor ou de l’argent; mane de l’argent americain, si vous n’avez rien de mieux». (Rires.) En plus, les Canadiens ont pris un peu de charbon et de poisson, c’est tout. La terre a perdu enormyment de sa va-leur. II a lui-meme une petite propriety la-bas, et il serait heureux de s’en debarrasser a n’importe quel prix. En venant a Ottawa il a vu de grandes quantites de farine acheminees vers l’Est; et sur sa demande on lui a toujours repondu qu’elles etaient a destination de la Nouvelle-Ecosse. Cette province est envahie par la farine du Canada: en fait, si la situation persiste, la population de la Nouvelle-Ecosse mourra de faim. (Eclats de rire.) L’hon. depute continue pendant un certain temps, prechant la mine et la deterioration en ce qui concerne la situation en Nouvelle-Ecosse, et declare que loyaute et pauvrety ne peuvent aller de pair. Il votera pour l’amen-dement bien qu’il ne soit pas d’accord sur son contenu.
M. Carmichael appuie ygalement l’amende-ment, et affirme que les echanges commer-ciaux de la Nouvelle-Ecosse sont bien moins satisfaisants depuis l’instauration de la Confederation.
M. Blake s’adresse ensuite k la Chambre et repond a certaines des observations faites par les deputes de la Nouvelle-Ecosse. On a suggere que cette question ne devrait pas etre discutee, mais cette objection a yte suf-fisamment refutye par la longueur du dybat de ce jour. Quant a lui, il pense qu’il s’agit d’un sujet dont il convient de discuter. Comme on l’a tres bien souligne nous avons vecu sans ce Traity et nous pouvons nous en passer maintenant qu’il est aboli. Neanmoins, il ne fait aucun doute que cette question revet une grande importance pour le Dominion, et tout particulierement pour la Nouvelle-
386
COMMONS DEBATES
May 18, 1869
living so near us, should not be perfectly alive to the importance of the question. Under these circumstances, he could not feel that we at all prejudiced our position by boldly avowing that which every hon. gentleman had avowed during the debate, that it was of great importance to the healthful natural relations of trade, that this trade treaty should as far as possible be restored. That was the position affirmed by the member for Hochelaga, and no honourable gentleman had ventured to controvert it. He (Mr. Blake) did not understand that there was any difference between the hon. gentlemen around him, and the Government on this point; and as he could not construe this into a motion of want of confidence in a Ministry in which he certainly had no confidence, he would vote for going into Committee of Supply on this occasion. The hon. gentleman then referred to the speech of the member for Sherbrooke, which he characterized as a very remarkable one, and one which in coming from the Opposition side of the House, should have been received with such a storm of indignation as greeted the remarks of the member for Sbefford on a recent occasion. The member for Sherbrooke that evening told the House that Independence was coming, was inevitable, was not far off. The logical result of the statements of the member for Sherbrooke were these:—Reciprocity of trade is of the utmost consequence to the Dominion; the treaty establishing that reciprocity was mainly abolished because of the allegiance between England and her British North American dependencies, but one day or other the inevitable fate of these dependencies will be separation from the mother country, complete independence. Then reciprocal treaty relations would be at once conceded. Ergo we will never get a renewal of the treaty until our connection with England has been severed. (Hear, hear) The discussion having now taken place on this subject he thought it would conduce to the establishment of the good feeling which all were anxious to see maintained, if the mover were to withdraw his resolutions.
Hon, Mr. Anglin referred to the statements which had been made during the canvass in Hants, that if Mr. Howe was elected he would be sent to Washington to negotiate a new Reciprocity Treaty, and said he had hoped something would have been state by the Government as to what they purposed to do, [Mr. Blake—M. Blake.]
ficosse. II est absurbe de supposer, quels que soient les motifs qui puissent faire agir la population americaine, que ses politiciens actifs qui vivent si pres de nous ne puissent avoir parfaitement conscience de l’importance de cette question. Dans ces circonstances, il ne pense pas qu’il puisse nous etre prejudi-ciable d’avouer temerairement comme chaque depute l’a fait au cours du debat que cette question joue un role fort important dans des relations commerciales naturelles et saines, et que dans la mesure du possible, ce Traite doit etre renouveie. Voila la position defendue par le depute d’Hochelaga, et per-sonne n’a os6 la contester. II (M. Blake) ne voit pas de divergences a ce sujet entre la position de ses honorables amis et celle du Gouvernement; et comme il ne peut pas l’in-terpreter comme une motion de defiance envers un Cabinet auquel il n’accorde cer-tainement pas sa confiance, il votera pour que la Chambre se constitue en Comite des Subsides. L’honorable depute fait ensuite allusion au discours du depute de Sherbrooke, discours pas tres remarquable, & son avis, et qui, venant de l’Opposition, aurait du en-gendrer une tempete d’indignation semblable a celle qui a accueilli les observations du depute de Shefford il y a peu de temps. Le depute de Sherbrooke nous a declare que l’independance est inevitable et qu’elle est toute proche. Les consequences logiques des declarations du depute de Sherbrooke sont les suivantes: le reciprocite du commerce revet une importance primordiale pour le Dominion; le traite etablissant cette reciprocite est aboli principalement k cause de l’aliegeance entre 1’Angleterre et ses dependances de l’Amerique du Nord britannique, mais un jour ou l’autre les liens qui relient ces dependances a la Mere Patrie seront rompus et l’indepen-dance sera totale. Ce jour-la, un traite de reciprocite reglant les relations sera imme-diatement accorde. Par consequent, nous n’ob-tiendrons jamais un renouvehement de ce Traite tant que nos liens avec 1’Angleterre n’auront pas ete rompus. (Bravos.) Etant donne que le debat a maintenant eu lieu a ce sujet, il pense que si l’auteur des resolutions veut bien les retirer, cela permettra de res-taurer l’amitie que nous sommes tous desi-reux de sauvegarder.
L'hon. M. Anglin fait allusion aux declarations faites lors de la campagne eiectorale a Hants selon lesquelles, si M. Howe etait eiu, il serait envoyd a Washington pour negocier un nouveau traite de reciprocite; il declare qu’il avait espere que le Gouvernement annon-cerait ses intentions, ce qui aurait garanti le
18 mai 1869
D&BATS DES COMMUNES
387
which would have warranted the withdrawal of the amendment, or if it was not withdrawn would have warranted the House in voting it down,
Sir George E. Cartier—It must be voted upon.
Hon. Mr. Anglin—In that case I must vote for it.
The House divided on Hon. Mr. Dorion’s amendment, which was negatived. Yeas 19;
Nays 111.
The Yeas were Messrs. Connell, Holton, Dorion, Anglin, Le Vesconte, Forbes, Rymal, Paquet, Geoffrion, Bourassa, Godin, Coffin, Coupal, Killam, Ross, (Victoria); Carmichael, Cheval, Bechard and Chipman.
The House then went into Committee of Supply—Two or three items were adopted without discussion, and the Committee rose.
The House adjourned at 1.30 a.m.
retrait de l’amendement ou, s’il n’avait pas ete retire, aurait assure son rejet par la Chambre.
Sir Gsorge-6. Cartier declare qu’il faut le mettre aux voix.
L'hon. M. Anglin repond que, dans ce cas, il votera en sa faveur.
La Chambre rejette l’amendement de M. Dorion par 111 voix contre 19.
Ont vot6 pour: MM. Connell, Holton, Dorion, Anglin, Le Vesconte, Forbes, Rymal, Paquet, Geoffrion, Bourassa, Godin, Coffin, Coupal, Killam, Ross (Victoria), Carmichael, Cheval, Bechard et Chipman.
La Chambre se constitue en Comity des Subsides. Deux ou trois credits sont adoptes sans debat, et la seance du Comite est levee.
La Chambre s’ajourne a lh30.
96068—251
19 mai 1869
DEBATS DES COMMUNES
389
HOUSE OF COMMONS
Wednesday, May 19, 1869
