
CANADA
Douse of Commons Debates
Debats be la Cbambre bes Communes
THIRD SESSION	TROISIEME SESSION
FIRST PARLIAMENT	PREMIERE LEGISLATURE
33 VICTORIA
Comprising the period from the fifteenth of February, 1870 to the twelfth of May, 1870
Periode comprise entre le quinzieme jour de fevrier 1870 et le douzteme jour de mai 1870
VOLUME III
99263-1
© Minister of Supply and Services Canada 1979	© Ministre des Approvisionnements et Services Canada 1979
Cat. No. X 1-013
N°de cat. X 1-013
FOREWORD/AVANT-PROPOS
This bilingual volume of Parliamentary Debates for the Third Session of the First Parliament, held in 1870, completes the first phase of Parliament’s Centennial Project, the publication of a record of its Debates for the years 1867 to 1874.
Since official reporting, in English only, of its Debates was begun by the Senate in 1871, future volumes of Senate Debates will be a reprinting of the original English together with a French translation. The House of Commons, however, did not have its Debates officially reported until 1875; therefore, future volumes of its deliberations will continue, as with the present volume, to be selected and edited largely from contemporary newspaper reports.
Professor Peter B. Waite of Dalhousie University, well known for his writings on this period of Canada’s political history, is again the editor and compiler of these Debates. For its continuation, this project depends on the interest of the Parliamentary Librarian, and particularly the active collaboration of the Assistant Parliamentary Librarian, Miss A. P. Hardisty, their associates and staff, to whom we offer our sincere thanks.
Ce recueil bilingue des debats parlementai-res de la troisieme session du premier Parle-ment, tenue en 1870, vient terminer la premiere phase du projet du Centenaire du Parlement, soit la publication d’un compte rendu de ses debats, des annees 1867 a 1874.
Puisque les comptes rendus officiels des debats du Senat ont debute en 1871 en anglais seulement, les prochains volumes de ces debats consisteront en une reimpression de l’original anglais et une traduction frangaise. La Cham-bre des communes, cependant, n’a pas eu de compte rendu de ses debats avant 1875. Les futurs recueils de ses deliberations contien-dront done, comme celui-ci, une selection de comptes rendus tires surtout des journaux de l’epoque.
Le professeur Peter B. Waite, de l’Universite Dalhousie, connu pour ses travaux sur l’his-toire politique de cette periode est une fois de plus le redacteur de ces debats. La poursuite de ce projet depend de l’interet du Bibliothecaire parlementaire et de la collaboration soutenue de la Bibliothecaire parlementaire adjointe, MUe A. P. Hardisty, et de leur personnel, que nous tenons a remercier sincerement.
The Honourable/L’honorable Henaude Lapointe
Speaker of the Senate/President du Senat
The Honourable/L’honorable James Jerome
Speaker of the House of Commons/President de la Chambre des Communes
Joint Chairmen of the Joint Committee on the Library of Parliament/Presidents conjoints du Comite mixte de la Bibliotheque du Parlement
Ottawa, Canada July/juillet 1976
ill
99263-1%
PREFACE/PRfiFACE
The publication of this volume of Debates of the Third Session of Canada’s First Parliament marks the mid-point of the project. We are again fortunate in having Professor Peter B. Waite, whose historical research on the Confederation era is well known, as editor.
This, the Third Session of Parliament, lasted for almost 3 months in the Spring of 1870. Near the close of the Session, on May 2, a bill was introduced constituting the former district of Assiniboia into the Province of Manitoba, the Deed of Surrender was sent to the Colonial Office in London by the Hudson’s Bay Company on May 7 and on May 10 the Company received its £300,000 from the Government of Canada. During the preceding months, Louis Riel had been in office as President of a Second Provisional Government at Fort Garry while the settlers there lobbied for provincial rather than territorial status for the colony. Manitoba was to become the 5th Province of Canada on July 15, 1870.
For the Debates of this Session, as for those of the Second Session, a bilingual format has been adopted. Unfortunately, because of the continuing brevity of parliamentary reporting in French language newspapers, the French version is again a translation from the English.
Professor Waite, in his Introduction, has acknowledged the essential cooperation and assistance of the Assistant Parliamentary Librarian, Miss. A. Pamela Hardisty. A number of staff from the Information and Reference Branch of the Library have also assisted with various editorial tasks. I should also like to thank Mr. A. Audette of the Parliamentary Translation Division for his cooperation and assistance, and Mr. J. J. Flowers and his colleagues from the Publishing Centre of the Department of Supply and Services whose thoughtful workmanship has been of considerable value.
Avec la publication de ce volume des debats de la troisieme session de la premiere legislature du Canada, la premiere moitie du projet est completee. Le professeur Peter B. Waite, dont les recherches sur l’epoque de la Confederation sont bien connues, a bien voulu une nouvelle fois en etre le redacteur.
La troisieme session du Parlement, au prin-temps de 1870, dura presque trois mois. Le 2 mai, alors que la session tirait a sa fin, un projet de loi constituant l’ancien district d’As-siniboia en la province du Manitoba fut presente a la Chambre; le 7 mai, la Compagnie de la Baie d’Hudson transmettait l’Acte de reddi-tion au Ministere des Affaires coloniales a Lon-dres et le 10 mai, la Compagnie recevait une indemnisation de £300,000 du Gouvernement canadien. Au cours des mois precedents, Louis Riel avait preside un deuxieme gouvernement provisoire implant^ a Fort Garry tandis les colons reclamaient pour la colonie un statut provincial plutot que territorial. Le 15 juillet 1870, le Manitoba devenait la cinquieme province du Canada.
Nous avons retenu pour les debats de cette session, comme pour ceux de la deuxieme session, une presentation bilingue. Puisque les comptes rendus des debats parlementaires con-tinuent de paraitre sous une forme tres som-maire dans les journaux de langue frangaise, la version frangaise est de nouveau une traduction de l’anglais.
Dans son introduction, le professeur Waite, a deja signale la collaboration des plus precieu-ses de MUe A Pamela Hardisty, bibliothecaire parlementaire adjointe. Certains membres du personnel du Service de consultation et reference de la bibliotheque ont egalement contri-bue a la realisation de ce projet en se chargeant de divers travaux de redaction. J’aimerais egalement remercier M. A. Audette, chef de la Division des traductions parlementaires, de la collaboration et de l’aide qu’il nous a apportees, ainsi que M. J. J. Flowers et ses collegues du Centre d’edition du ministere des Approvision-nements et Services dont le bon travail nous a ete d’un apport precieux.
Erik J. Spicer
Parliamentary Librarian/Bibliothecaire parlementaire Library of Parliament/Bibliotheque du Parlement
Ottawa, Canada July/juillet 1976
V
INTRODUCTION
INTRODUCTION
I must record first of all my appreciation of the skilful assistance of Miss Pamela Hardisty, Assistant Parliamentary Librarian. There have been numerous exigencies attendant upon presenting these debates and Miss Hardisty’s expert help was essential. To Parliament and to the Pariamentary Librarian, Mr. Erik Spicer, Canada has reason to be grateful for sponsoring the publication of the Debates of the Parliament of Canada from 1867 to the beginning of official reporting of Senate Debates in 1871 and House of Commons in 1875. Each year’s debates seems to add, geometrically as it were, to the importance of the project as a whole.
This edition of the House of Commons Debates of 1870 is based upon two sources, the reports given daily in the Toronto Globe of the time, and those of the semi-official debates, made by the Ottawa Times.1 Broadly speaking, the former were more lively, the latter more comprehensive. The Globe would frequently print a brisk interchange across the House; the Ottawa Times not infrequently preferred to stultify it. The Times liked to put reports into a form of anonymity—“the hon. member denied having done any such thing”, or by omitting the interchange altogether. Notwithstanding that weakness, however, there is no doubt that the Ottawa Times has made a contribution to our knowledge of the Session of 1870; if the prose with which their reporters clothed the speeches of our parliamentarians of 1870 was not always pithy, they sometimes covered the ground better than the Toronto Globe. In the later weeks of the debates, however, the Ottawa Times largely copied the Globe.
In this edition I have tried to capture the virtues of both sources. The broad base of the debates is provided by the Ottawa Times. Against that I have placed the debates of the Toronto Globe. If the Globe’s version of a speech is shorter, but shows information or exchanges across the House that the Times
1 On March 15, 1870, Charles Tupper, Chairman of the Joint Committee on reporting and printing the Debates, reported a recommendation that Debates be published in both languages and that the tender of Mr. Cotton, of the Ottawa Times be accepted. Hence the name, “Cotton Debates” for the semi-official debates of this year.
Je tiens d’abord a remercier vivement Mlle Pamela Hardisty, bibliothecaire parlementaire adjointe, qui m’a apporte une aide precieuse. La publication de ces debats a souleve plu-sieurs problemes et n’aurait pu se realiser sans la collaboration de Mlle Hardisty. Le Canada a tout lieu d’etre reconnaissant envers le Parle-ment, et en particulier envers M. Erik Spicer, bibliothecaire parlementaire, qui a bien voulu collaborer a la publication des debats du Parle-ment du Canada de 1867 jusqu’a ce que les comptes rendus officiels soient publies, soit 1871, pour les debats du Senat, et 1875, pour ceux de la Chambre des communes. II me semble par ailleurs que le projet prend de plus en plus d’importance au fur et a mesure que les debats de chaque annee sont publies.
La presente edition des Debats de la Chambre des communes de 1870 se fonde sur deux sources: les rapports publies quotidiennement dans le Globe de Toronto de l’epoque et les comptes rendus des debats semi-officiels, paraissant dans le Times d’Ottawa1. De fa?on generate, les premiers etaient plus vivants, les seconds, plus detailles. II n’etait pas rare que le Globe reproduisit des echanges animes entre parlmentaires; de son cote, le Times preferait souvent leur enlever toute leur saveur. II aimait donner aux rapports un caractere ano-nyme:	«L’honorable depute nie avoir fait
pareille chose*; parfois meme, il omettait carre-ment l’echange. II n’en demeure pas moins, malgre cette faiblesse, que le Times a contribue a nous faire connaitre la session de 1870; si la prose que leurs reporters ont mise dans la bouche de nos parlementaires de 1870, n’etait pas toujours vigoureuse, il reste qu’ils ont parfois rendu compte de la situation mieux que leurs collegues de Toronto. Dans les dernieres semaines des debats, cependant, le Times s’est fortement inspire du Globe.
J’ai essaye, dans la presente edition, de prendre le meilleur de chaque source. Le Times fournit toutes les donnees de base, le caractere general des debats. J’ai place en regard les comptes rendus du Globe. Si la version d’un discours donnee par le Globe etait plus courte, mais revelait des renseignements ou reprodui-
1 Le 15 mars 1870, Charles Tupper, president du Comite mixte des rapports et impressions des debats, fait rapport d'une recommandation proposant la publication des debats dans les deux langues et l’acceptation de la sou-mission de M. Cotton, du Times d’Ottawa. D’ou le nom de Cotton Debates donne aux debats semi-officiels de cetta annee-la.
VU
omits, I have included such information or exchanges. If the Globe’s version of a speech was longer—as it occasionally was—I have omitted the Times’ version and substituted the Globe’s.
The Globe had its weaknesses of course. Its readers in Ontario did not know the Maritime MP’s very well, nor were they acquainted with many of the problems of Nova Scotia and New Brunswick that those MP’s raised. The Globe thus tended to give rather less than justice to their speeches. Charles Tupper’s speech of Friday, February 18, 1870 is ten times longer in the Times than in the Globe. This does not mean that the present-day reader is better off; Tupper was never one to err on the side of brevity. It does mean that his speech is more conscientiously reported. Joseph Howe’s interesting little rebuttal to William McDougall in the Debate on the Address in Reply to the Speech from the Throne is altogether omitted by the Globe.2 Occasionally the Globe's prejudices show through. It had no love for Sir Francis Hincks, that renegade Reformer, as the Globe saw him. When in debate Sir Francis and Sir George Cartier rose together, Cartier said waspishly, “I will defend myself, if you please!” Whereupon Sir Francis, according to the Toronto Globe, “sat down discomfited, amid laughter.”3 The Globe could be just as cavalier with speeches in French. The speech of Joseph-Octave Beaubien (MP, Montmagny) is reported by the Globe in 8 lines, the Times in 42.4
It has to be emphasized, however, that neither the Globe’s version nor the Times’ is complete. No version of the debates of 1870 can be. That is lost beyond recall. The newspapers usually reported the substance of a speech not the words. Occasionally a member would give the text of his speech to the reporters of the Ottawa Times, and extensive speeches of some of the lesser mortals of the House have almost always been preserved this way. A. W. Savary (MP, Digby), who moved the Address in Reply, February 17, 1870, is an example. Normally both the Times and the Globe would report only about 1/3 of the actual words of an important member of the House, Sir John A. Macdonald, Sir George Cartier, Sir Francis Hincks on the Government side, Alexander Mackenzie or Luther Holton of the Opposition. MP’s of lesser importance were usually reported in a much more condensed fashion than that.
2	Col. 120, Cotton Debates. Infra, p. 89.
3	Globe, May 10, 1870. Infra, p. 1458.
4	On Tuesday, March 9, 1870. Infra, p. 313-314.
sait un echange entre parlementaires que le Times omettait, j’ai pris en consideration ces elements. Si la version du Globe etait plus longue, ce qui s'est produit a 1’occasion, je 1’ai choisie au lieu de celle du Times.
Certes, le Globe avait ses faiblesses. Ses lec-teurs de l’Ontario ne connaissaient guere les deputes des provinces Maritimes, ni les nom-breux problemes de la Nouvelle-Ecosse et du Nouveau-Brunswick qu’ils exposaient en Chambre. Le Globe avait done tendance a ne pas donner a leurs discours toute l’importance qu’ils meritaient. Le discours prononce par Charles Tupper le vendredi 18 fevrier 1870 etait dix fois plus long dans le Times que dans le Globe. Cela ne veut pas dire que le lecteur d’aujourd’hui en sait plus long: Tupper n’a jamais ete un modele de concision. Cela signi-fie simplement que son discours a ete rapporte plus fidelement. Le Globe a carrement passe sous silence l’interessante petite replique de Joseph Howe a William McDougall dans le debat sur l’Adresse en reponse au discours du trone2. II arrive que les prejuges du Globe transparaissent. II n’avait aucune affection pour sir Francis Hincks, par exemple, ce refor-miste renegat, comme il le voyait. Au cours d’un debat ou sir Francis et sir George-12 Cartier ont voulu prendre la parole en meme temps, ce dernier aurait dit d’un ton acerbe: «Je vais me defendre moi-meme, si vous le permet-tez!» Sur quoi, selon le Globe, sir Francis «s’est rassis, decontenance, au milieu des riresV Mais le Globe pouvait etre tout aussi desinvolte a l’egard des discours de francophones. Le discours de Joseph-Octave Beaubien (depute de Montmagny) est rapporte en 8 lignes dans le Globe, en 42 dans le Times4.
II est a souligner, toutefois, que ni la version du Globe, ni celle du Times n’est complete. Aucune version des debats de 1870 ne peut l’etre. Tout cela est irrevocablement perdu. Les journaux rendaient en general la substance d'une intervention, non les paroles. II arrivait a l’occasion qu’un parlementaire donne le texte de son discours aux reporters du Times, et e’est presque toujours ainsi qu’ont ete preserves les longs discours des plus grands de la Chambre. A. W. Savary (depute de Digby), qui a presente l’Adresse en reponse au discours du trone, le 17 fevrier 1870, en est un exemple. D’ordinaire, le Times et le Globe ne rapportaient que le tiers environ des mots effectivement prononces par un parlementaire important, sir John A. Macdonald, sir George-E. Cartier, sir Francis Hincks, du cote du gouvernement, Alexander Mackenzie ou Luther Holton, du cote de l’oppo-sition. Pour les deputes de moindre impor-
2	Col. 120,Cotton Debates. Infra, p. 89.
3	Globe, 10 mai 1870. Infra, p. 1458
4	Le mardi 9 mars 1870. Infra, p. 313-314.
Vlll
Of course reporters were human, and a striking phrase or a bit of wit that caught the reporter’s ear would sometimes be preserved. Macdonald in a jocular mood once quoted Canning’s famous rhyming despatch to Sir Charles Bagot, H. M. Minister at The Hague, of January 31, 1826. The Times caught it more accurately than did the Globe.
(Decypher. Separate, secret and confidential)
Sir,
In matters of commerce the fault of the Dutch
Is offering too little and asking too much.
The French are with equal advantage content,
So we clap on Dutch bottoms just 20 per cent...
(English)—We clap on Dutch bottoms just 20 per cent
(French)—Vous frapperez Falck avec 20 per cent.5
Usually, however, it was the Globe that caught Macdonald in some of his characteristic interchanges across the House. Macdonald had always a great store of literary allusions, jokes, puns (he was fond of puns), generated by his native wit and by the reading which, over the years, he had sorted into his capacious mind. On one occasion Alexander Mackenzie compared Macdonald’s government with a well-known description of Sir Robert Peel’s British ministry of the 1840’s, as an “aggregate of hypocrisy.” Macdonald corrected Mackenzie’s quotation. “Organized hypocrisy,” he said. Mackenzie was quick to reply, “Yes, an organized hypocrisy at one time, but now as my hon. friend on my right suggests, it has evidently become a ‘disorganized’ one”.6 On March 9, 1870, Edward Blake introduced a private bill, “further to secure the independence of Parliament.” Young Blake was serious, but Sir John Macdonald was not. He tossed across the House, “I think Parliament is sufficiently independent already.”7 The next day, March 10,
51 have quoted the original despatch. See Capt. J. Bagot, ed., George Canning and his friends, 2 vols. (New York, 1909), I, 321. Donald Creighton cites this on p. 251, of The Old Chieftain, (Toronto, 1955). See infra, p. 560, for the Times’ version.
6	February 18,1870. Infra, p. 56.
7	Infra, p. 309.
tance, le compte rendu des interventions etait habituellement beaucoup plus condense.
Bien sur, les reporters sont des humains, et une tournure ou une expression interessante ou u'n mot d’esprit qui frappaient l’oreille d’un journaliste etaient parfois preserves. Macdonald, qui se sentait un jour d’humeur face-tieuse, a cite la celebre depeche en vers de Canning a sir Charles Bagot, ministre de Sa Majeste a La Haye, en date du 31 janvier 1826. Le Times l’a rapportee plus fidelement que le Globe.
(Dechiffrer. Separe, secret et confidentiel)
Sir,
In matters of commerce the fault of the Dutch
Is offering too little and asking too much.
The French are with equal advantage content,
So we clap on Dutch bottoms just 20 per cent ...
(English)—We clap on Dutch bottoms just 20 per cent
(French)—Vous frapperez Falck avec 20 per cent.5
Cependant, c’etait d’habitude le Globe qui sai-sissait Macdonald dans certains de ses echan-ges caracteristiques avec ses adversaires en Chambre. Macdonald avait toujours une reserve inepuisable d’allusions litteraires, de plaisanteries, de calembours (il adorait les calembours) qu’il devait a son humour naturel et aux lectures qu’il avait, au fil des ans, clas-sees dans sa prodigieuse memoire. Un jour, comparant l’administration Macdonald a une description bien connue du ministere britanni-que de sir Robert Peel, dans les annees 1840, Alexander Mackenzie la qualifie de «masse d’hypocrisie». «Hypocrisie organisee», corrige Macdonald. Et Mackenzie de repondre sans tarder: «Oui, hypocrisie organisee naguere, mais maintenant, comme le laisse entendre mon honorable collegue de droite, c’est de toute evidence une hypocrisie «desorganisee6.» Le 9 mars 1870, Edward Blake presente un bill prive pour «renforcer i’independance du Parlement». Le jeune Blake est serieux, mais sir John Macdonald ne l’est pas. II lance dans la Chambre:
5	J’ai cite la depeche originale. Voir capitaine J. Bagot, ed., George Canning and his friends, 2 vols. (New York, 1909), I, 321. Donald Creighton cite ce texte a la page 251, dans The Old Chieftain (Toronto, 1955). Voir Infra, p. 560, pour la version du Times.
6	18 fevrier 1870, Infra, p. 56.
7	Infra, p. 309.
IX
99263-2
1870, on the proposed Franchise Bill to establish a Dominion franchise in the place of four different provincial franchises, Macdonald in one of his characteristic touches, gave Alexander Mackenzie a touch of appreciative flattery:
Hon. Mr. Wood asked if the general elections would be held on the same day.
Hon. Sir John A. Macdonald said the Bill did not provide they should be held on the same day.
Mr. Mackenzie—I suppose you have no objection.
Hon. Sir John A. Macdonald—I have the greatest objection. If we had the general election on the same day, my hon. friend would not have the opportunity he had on former occasions of making a number of able speeches before the elections came off.
Mr. Mackenzie—Well, then, I shall make this offer—I will engage to stay at home if you make the elections simultaneous all over. (Applause.)
Hon. Sir John A. Macdonald—As there were many Richmonds on the field in the time of Richard the Third, so there might be many Mackenzies. (A laugh.)
Mr. Mackenzie—Or many Macdonalds. (Renewed laughter.)8
The Globe also caught some of Cartier’s interventions which, though rarely literary, were sometimes amusing and not infrequently vulgar. The House occasionally liked his touches of argumentum ad hominem:
Hon. Sir George-E. Cartier—...he had no objection to water drinking, but his hon. friend the member for Shefford [L. S. Huntington] had drunk too much water in the course of his speech, he had drowned his ideas in the three tumblers of cold water he had swallowed. (Laughter.)
Hon. Mr. Huntington—How do you know there was not any whisky in it?
«Je pense que le Parlement est deja assez independant7.# Le lendemain, le 10, au cours d’un debat sur le bill concernant les elections, qui vise a etablir une election pour l’ensemble de la Puissance au lieu de quatre elections provinciates differentes, Macdonald, selon une de ses habitudes caracteristiques, adresse a Alexander Mackenzie une petite flatterie elogieuse:
L’honorable M. Wood demande si les elections generates auront lieu le meme jour.
L’honorable sir John A. Macdonald dit que
le pro jet de loi ne le prevoit pas.
M. Mackenzie—J’imagine que vous n’y voyez aucune objection.
L'honorable sir John A. Macdonald—Je
m’y oppose fermement. Si les elections generates ont lieu le meme jour, mon honorable ami n’aura pas la chance qu’il avait anterieurement de prononcer d’eloquents discours avant la tenue des elections.
M. Mackenzie—Je vous fais une offre. Je m’engage a rester chez moi si les elections ont lieu partout le meme jour. (Applaudis-sements.)	,
L’honorable sir John A. Macdonald—S’il y a deja eu beaucoup de Richmonds sur le champ de bataille au temps de Richard III, il pourrait maintenant y avoir de nom-breux Mackenzies. (Un rire.)
M. Mackenzie—Ou de nombreux Macdonalds. (Nouveaux rires.)8
Le Globe a aussi reproduit certaines interventions de Cartier, qui, bien que rarement litteraires, etaient parfois amusantes et assez souvent vulgaires. La Chambre ne detestait pas, a l’occasion, ses arguments ad hominen:
L’honorable sir George-E. Cartier—...Je ne m’oppose pas au fait de boire de l’eau, mais mon honorable ami, le depute de Shefford [L. S. Huntington] en a trop bu pendant son discours. II a sans doute noye ses idees dans les trois grands verres d’eau froide qu’il a avatee. (Rires.)
L’honorable M. Huntington—Etes-vous sur qu’ils ne contenaient pas de whisky?
8	Infra, p. 344-345. The use of “Honourable” in the debates of the time might be mentioned, since it is followed in this edition. Not only were all members of the Dominion Cabinet given this appellation, but also any MP’s who had been in Colonial cabinets before 1867, or who, under dual representation, were currently members of provincial cabinets in Quebec or Ontario. E. B. Wood was Treasurer of Ontario.
8	Infra, p. 344-345. II est peut-etre bon de signaler l’usage de l’epithete -honorable* dans les debats de l'cpo-que, puisque la coutume sera suivie dans la presente edition. Portaient ce titre non seulement tous les mem-bres du cabinet de la Puissance, mais aussi tous les deputes qui avaient fait partie de cabinets coloniaux avant 1867 ou qui, par une double representation, cumu-laient des fonctions au Gouvernement de la Puissance et dans un cabinet provincial, au Quebec ou en Ontario. E. B. Wood etait president du Conseil du tresor de l’Ontario.
X
Hon. Sir George-£.. Cartier—If there was whisky in it that was just what he did the other day; he had sent a boy for some before he spoke. (Renewed laughter.)
... The member for Shefford had uttered almost a threat that the [American] bonding system would be abrogated if reciprocity did not take place.
Hon. Mr. Huntington said he did not say so. If he did it was owing to the water he had drunk. (Laughter.)9
The Giobe’s penchant for preserving something of the humour of the House also permits a glimpse of the House’s degeneration, under the influence either of whisky or a dull speech, or both. T. R. Ferguson, (MP Cardwell), Ontario, was a notorious bore, and in an hour for private members’ bills, after the dinner recess on April 22nd, launched, by his unenviable reputation, an unseemly debate. He was trying to talk out the Canada Central Railway Bill, to which he was opposed, and exhibited a map of the proposed route. Sir George Cartier rose to a point of order. It was improper, Cartier said, to produce any printed document in the House. T. R. Ferguson claimed he did not hear Cartier and asked him to repeat his objections. This Cartier did, in French. Whereupon John Sand-field Macdonald rose and to everyone’s astonishment spoke on the same theme in Gaelic. Cartier then took the floor again and said he was going now to speak in Latin, which he proceeded to do with help from Sir John A. Macdonald. This was such a tremendous success that he immediately announced that he was going to speak in Greek. “He then, amid a multitude of noises and much laughter, proceeded to jumble together a dozen of Greek words having no connection with each oth-
Hon. Mr. Le Vesconte, in Spanish, said it was time the discussion should cease.
Hon. Sir John A. Macdonald was of the
opinion of the last speaker.
Hon. Mr. Abbott objected to a discussion on serious matters being carried on in that House in the Choctaw language. (Hear, hear.)
The hour for private Bills having elapsed the discussion was postponed.10
On the other hand, the Session of 1870 faced difficult problems, and perhaps it was entitled to its levity on April 22nd. The North-West
9	infra, p. 468-470.
10	Infra, p. 1158.
L'honorable sir George-£ Cartier—S'il y en avait, alors il aura fait comme moi 1’autre jour, quand j’ai envoye un groom en cher-cher avant de parler. (Nouveaux rires.)... Le depute de Shefford a presque menace d’annuler le systeme d’entreposage si la reciprocity n’est pas etablie.
L'honorable M. Huntington—Je n’ai pas dit cela, ou sinon, c’est a cause de toute l’eau que j’ai bue. (Rires.)9
Le gout du Globe de conserver quelque peu l’humour de la Chambre nous permet aussi d’avoir une petite idee de la degenerescence de celle-ci, sous 1’influence du whisky ou d’un discours assommant, ou de l’un et 1’autre. Le depute de Cardwell (Ontario), T. R. Ferguson, raseur notoire, lance la Chambre dans un debat incongru, suivant sa reputation peu enviable, pendant l’heure reservee aux mesures d’initia-tive parlementaire, apres la pause du diner, le 22 avril. Essayant de faire trainer en longueur 1’etude du Bill sur le chemin de fer central du Canada, auquel il s’oppose, il exhibe une carte de la voie proposee. Sir George-£. Cartier invo-que le Reglement. Il est contraire aux regies, dit-il, de produire a la Chambre un document imprime. T. R. Ferguson pretend qu’il n’a pas entendu et demande a Cartier de repeter ses objections. Cartier s’execute, en frangais. La-dessus, John Sandfield Macdonald se leve a son tour et, a la stupeur generate, se met a parler de la meme question, en gaelique. Cartier reprend la parole pour faire savoir qu’il va maintenant s’exprimer en latin, ce qu’il fait d’ailleurs, avec l’aide de sir John A. Macdonald. Le succes est tel qu’il annonce tout de suite que c’est en grec qu’il va parler. «I1 se met alors, au milieu du tumulte et des rires, a baragouiner les uns a la suite des autres une douzaine de mots grecs sans lien entre eux...»
L'honorable M. Le Vesconte dit en espagnol qu’il est temps que la discussion prenne fin.
L'honorable sir John A Macdonald dit qu’il partage 1’opinion de M. Le Vesconte.
L’honorable M. Abbott s’oppose a ce qu’une discussion sur des sujets importants se fasse dans la langue des Chactas. (Bravo!)
L’heure prevue pour la discussion des Bills d’interet prive etant ecoulee, la discussion a ete reportee a plus tard.10
Par ailleurs, le Parlement s’est heurte a de graves problemes pendant la session de 1870 et peut-etre ce manque de serieux du 22 avril
9	Infra, p. 468-470.
10	Infra, p. 1158.
XI
99263—2V2
question, which had looked so disarmingly simple in the Session of 1869, now took on frightening proportions. There was a sharp debate on the Government’s handling of the Manitoba difficulties when the House opened in February. But when the first rumours of the shooting of Thomas Scott (it actually occurred on March 4, 1870) reached Ottawa, on March 29th, tension in the House positively crackled. The bitterness and the intransigeance of many of the Ontario members over the shooting of Scott is a salutary reminder of the hard time that Macdonald had with refractory Protestants who believed Scott a white knight innocent of wrong-doing. They labelled as traitors those who negotiated with “rebels” or the representatives of rebels. By far the most refreshing and cooling speech in this whole acrid debate was from A. G. Archibald, of Nova Scotia, on May 7th, and whose appointment as Manitoba’s first Lieutenant Governor came just two weeks later.11 The Manitoba Bill, put together with a great deal of difficult negotiation with the delegates from Manitoba, was placed before the House on May 2nd, by Sir John A. Macdonald. Then, just before coming down to the House for the afternoon sitting of Friday, May 6, 1870, Macdonald was struck down with an attack of kidney stones so severe that he was unconscious within a few seconds. He was to be out of action until well after the Session of 1870 closed on Thursday, May 12, 1870.12 The Manitoba Bill, piloted now by Sir George Cartier, became law, but some of the bills that the Government had introduced that session were never passed, partly owing to opposition from the Government’s own supporters, partly to pressure of time and events. The Supreme Court Bill, for example, introduced by Macdonald on March 18th, was given up by the Government on May 10th, and it remained for the government of Alexander Mackenzie to establish the Supreme Court of Canada in 1875. The Franchise Bill, establishing a Dominion franchise to replace four different provincial franchises, was also given up. And although it was to be re-introduced by Macdonald in the years to come, a Dominion
11	Infra, p. 1436-1444 William McDougall (1822-1905) had been appointed Lieutenant-Governor of Rupert’s Land and the North-West Territories in 1869, but never took office owing to Red River resistance to his doing so.
12	See Donald Creighton, John A. Macdonald: the old chieftain (Toronto, 1955), 67-9, or P. B. Waite, Macdonald: his life and world (Toronto, 1975), 83-4.
etait-il excusable. La question du Nord-Ouest, qui avait paru d’une simplicity si desarmante la session d’avant, prenait alors des proportions alarmantes. A l’ouverture de la session en fevrier, il y eut un violent debat sur la fagon dont le gouvernement traitait des difficultes du Manitoba. Quand les premieres rumeurs voulant que Thomas Scott ait ete fusille (c’est arrive exactement le 4 mars 1870) ont atteint Ottawa, le 29 mars, la tension qui regnait a la Chambre a atteint son paroxysme. L’amerture et l’intransigeance de nombreux deputes onta-riens devant la fusillage de Scott sont un excellent rappel des difficultes qu’a rencontrees Macdonald avec les protestants insoumis qui voyaient Scott comme un chevalier loyal, innocent de tout mal. Ils qualifiaient de traitres ceux qui negociaient avec les «rebelles» ou leurs representants. Le discours le plus rafrai-chissant, le plus rassurant de tout ce debat virulent, c’est de loin celui qu’a prononce le 7 mai A. G. Archibald, de la Nouvelle-Ecosse, qui devint le premier lieutenant-gouverneur du Manitoba tout juste deux semaines apres.11 C’est le 2 mai que sir John A. Macdonald depo-sait a la Chambre le Bill du Manitoba, redige apres de longues et penibles negociations avec les delegues du Manitoba. Mais juste avant de se rendre a la Chambre pour la seance de l’apres-midi, le vendredi 6 mai suivant, Macdonald fut frappe d’une attaque de calcul renal si aigue qu’il demeura inconscient pendant quel-ques secondes. II ne put revenir a la vie politique que longtemps apres la cloture de la session, le 12 mai 187012 Le Bill du Manitoba, defendu alors par sir George-E. Cartier, a ete adopte, mais certains autres bills presentes par le gouvernement au cours de cette session ne l’ont jamais ete, en partie a cause de l’opposi-tion des partisans memes du gouvernement, en partie a cause des pressions du temps et des circonstances. Ainsi, le Bill sur la Cour supreme, depose par Macdonald le 18 mars, a ete abandonne par le gouvernement le 10 mai, et c’est le gouvernement d’Alexander Mackenzie qui a du creer la Cour supreme du Canada en 1875. Le Bill sur les elections, qui remplagait les quatre elections provinciales differentes par une seule election au niveau de la Puissance, a aussi ete abandonne. Meme s’il devait etre presente de nouveau par Macdonald dans les annees a venir, ce n’est qu’en 1885 qu’on a vote des elections generales pour l’ensemble de
11	Infra, p. 1436-1444 William McDougall (1822-1905) fut nomme lieutenant-gouverneur de la Terre de Rupert et des Territoires du Nord-Ouest en 1869, mais n’est jamais entre en fonctions parce que Riviere-Rouge s’y opposait.
12	Voir Donald Creighton, John A. Macdonald: The Old Chieftain (Toronto, 1955), 67-69, ou P. B. Waite, Macdonald: his life and world (Toronto, 1975), 83-84
Xll
franchise did not become law until 1885, and even then only under special circumstances.13
With other bills, notably the Banking bill, and the bill establishing Dominion banknotes, the Government had great difficulties and had to accept substantial amendments. It was Sir Francis Hincks’ first session as Macdonald’s new Finance Minister14, and he had a hard time of it. His old Reform colleagues resented his return to politics after fourteen years out of Canada—“Rip van Winkle” he was called by Luther Holton—especially when Hincks was now on the Conservative side of politics. Hincks’ banking proposals got rough treatment from the bankers and the Commons, and substantial changes were made. There was also continual pressure to revise the tariff upwards, notably from Montreal. At one point, on the Rate of Interest Bill, another of Hincks’ measures, an amendment by Luther Holton was actually forced upon the Government, 70 votes to 67. That was on a Saturday evening, April 23rd, when doubtless too many Conservatives had taken Saturday night off. But that the Government did not have too much strength to spare was evidenced by a minor supply vote two days earlier, when the Government was defeated 68-66.15 On top of all of this there were problems with the United States, the impending withdrawal of British troops from all of British North America, and the difficult task of setting up the combined British-Canadian peacemaking force that was to undertake the great overland march to Red River in the summer of 1870.
The Session of 1870 also shows a sharpening of party lines, perhaps owing to Hincks, or to Manitoba, or to the increasing force of Alexander Mackenzie as one of the principal leaders of the Opposition. (It was as yet without an official leader.) Mackenzie had hard common sense, a tough way of speaking and even tougher rebuttals:
...he had never known anything approaching to such a wretched misconception—such a wretched abortion of a tariff, as the Finance
13	See P. B. Waite, Canada 1874-1896: arduous destiny (Toronto, 1971), 140-1.
14	Hincks (1807-1885) succeeded John Rose, being sworn in on October 9, 1869.
15	Infra, p. 1120-1121
la Puissance et, encore la, dans des circons-tances bien particulieres seulement.13
Quant aux autres bills, notamment le Bill sur1 les banques et celui qui prevoyait remission de billets de banque de la Puissance, le gouverne-ment a eu bien du mal a les faire adopter, apres avoir du accepter des modifications considerables. C’etait la pemiere session de sir Francis Hincks comme nouveau ministre des Finances de Macdonald14 et il n’a pas eu la tache facile. Ses anciens collegues de la Reforme lui en voulaient d’etre revenu a la politique apres quatorze annees d’absence du Canada (Luther Holton l’appelait «Rip van Winkle#), d’autant plus qu’il se trouvait maintenant du cote des conservateurs. Ses propositions concernant les banques ont ete assez mal accueillies par les banquiers et la Chambre, et ont du subir des changements importants. En outre, on ne ces-sait de le presser, surtout a Montreal, de haus-ser les tarifs. A un moment donne, meme, un amendement de Luther Holton au Bill sur le taux d’interet presente par Hincks a carrement ete impose au gouvernement par 70 voix contre 67. C’etait le 23 avril, un samedi soir ou mani-festement trop de conservateurs avaient pris conge. Mais deux jours plus tot, un vote de moindre importance sur les subsides, oO le gouvernement fut defait par 68 voix contre 66, avait demontre qu’il n’etait guere plus fort qu’il fallait.15 Et pour couronner le tout, il y avait des problemes avec les fitats-Unis, le retrait imminent des troupes britanniques de toute l’Amerique du Nord britannique et la lourde tache de former un groupe de mediation mixte canada-britannique pour entreprendre la grande marche vers la Riviere-Rouge a l’ete de 1870.
La session de 1870 marque egalement un dur-cissement des positions du parti, peut-etre a cause de Hincks ou du Manitoba, ou encore de la force croissante d’Alexander Mackenzie, l’un des principaux leaders de l’opposition (qui n’avait pas encore de chef officiel). Mackenzie avait un gros bon sens, la parole dure et la replique encore plus brutale:
...il n’a jamais connu de conceptions aussi
tordues que celles du ministre des Finances
ni un tarif aussi abominable au terme des
13	Voir P. B. Waite, Canada 1874-1896: arduous destiny (Toronto, 1971), 140-141
14	Hincks (1807-1885) a succede a John Rose; il a ete assermente le 9 octobre 1869.
15	Infra, 1120-1121.
Xlll
Minister, after three or four months of incubation, had brought forth, (cheers and laughter).
Hon. Sir George-E. Cartier—One of your friends was eight months in office, and produced nothing.
Mr. Mackenzie—Better to produce nothing than to produce a monster, (cheers).16
Mackenzie’s interventions were frequently clever and vigorous; but he could not always avoid a waspish tone, a lack of openness and generosity. It seemed occasionally to suggest that he was the narrow little Scotchman that a later Governor-General, Lord Dufferin, alleged him to be. On April 27, 1870, Mackenzie and Sir Francis Hincks rose together. The Speaker recognized Sir Francis. Mackenzie did not like it:
Mr. Mackenzie—I rose first. I have risen seven times during the course of this debate without having the opportunity of addressing the House.
Hon. Sir Francis Hincks said he would yield to Mr. Mackenzie.
Mr. Mackenzie—I will take no favours from the Finance Minister, he may go on.17
Sir John A. Macdonald was not without his own form of temper. He was not above charging disloyalty freely against his opponents when their proposals happened not to suit him. Those of independent spirit, like Sir A. T. Galt or some of the younger members of the House, who were already talking of freeing Canada from some Imperial controls, were accused by Macdonald of simply playing with annexation to the United States. Here Macdonald was not being especially pro-British; he was after all a Highlander brought up in Canada; but his sense of realism was offended by anyone naive enough to suppose that Canada, without the protection of the British Crown, could live beside the United States as an independent or even quasi-independent entity. Macdonald did not believe it possible. After the events of the previous 25 years who was to say he was entirely wrong? But Macdonald also found it easy, too easy, to get up a show of virtuous indignation when anyone suggested changes in relationships with Ureat Britain that he happened to find unwise or even inconvenient. Still, most responsible men in Canada did not think, not yet, that Canada could survive alone. And the recognition by the United
trois ou quatre mois d’incubation. (Applau-
dissements et rires.)
L'honorable Sir George-£. Cartier—L’un des votres a ete huit mois en fonction et il n’en est rien sorti.
M. Mackenzie—II vaut mieux ne rien pro-duire que de produire un monstre. (Applaudissements.)16
Les interventions de Mackenzie etaient sou-vent intelligentes et energiques; mais il ne pou-vait pas toujours s’empecher d’avoir un ton acerbe, de manquer d’ouverture et de genero-site. Il semblait parfois etre vraiment le petit Ecossais etroit d’esprit qu’un gouverneur-gene-ral, lord Dufferin, pretendra plus tard qu’il etait. Le 27 avril 1870, Mackenzie et sir Francis Hincks se levent en meme temps. L’Orateur donne la parole a sir Francis, ce qui n’a pas l’air de plaire a Mackenzie:
M. Mackenzie—Je me suis leve le premier. J’ai demande la parole sept fois au cours de ce debat, sans avoir la chance de m’adres-ser a la Chambre.
L’honorable Sir Francis Hincks dit qu’il cede la parole a M. Mackenzie
M. Mackenzie—Je n’accepterai aucun traite-ment de faveur du ministre des Finances; qu’il poursuive.17
Sir John A. Macdonald avait, lui aussi, son caractere. Il ne se genait pas pour taxer ses adversaires de deloyaute quand leurs propositions ne lui plaisaient pas. Les partisans de l’independance qui, comme sir A. T. Galt ou certains jeunes deputes, parlaient deja d’af-franchir le Canada de certains controles impe-riaux, etaient accuses par lui de simplement jouer avec l’annexion aux Etats-Unis. Non pas que Macdonald fut particulierement probritan-nique; apres tout, c’etait un Ecossais des Hau-tes-Terres eleve au Canada; mais son sens du realisme etait offense par quiconque se montrait assez naif pour croire que le Canada pour-rait, sans la protection de la Couronne britan-nique, subsister a cote des Etats-Unis comme entite independante ou meme quasi indepen-dante. A ses yeux, ce n’etait pas possible. Apres les evenements des 25 annees precedentes, qui allait dire qu’il avait tout a fait tort? Mais Macdonald trouvait vraiment facile, trop facile, de montrer une sainte indignation quand on suggerait une modification des relations avec la Grande-Bretagne qu’il jugeait imprudente, voire inopportune. Pourtant, la plupart des gens serieux au Canada ne croyaient pas, pas encore, que le Canada pourrait survivre seul.
16	Infra, p. 1243.
17	Infra, p. 1232.
XIV
16	Infra, p. 1243.
17	Infra, p. 1232.
States of the character of Canada’s relationship with Great Britain was to be a long and slow process. The Washington Treaty negotiations of 1871 were a step in this direction, as also the first major step toward easing the Canadian-American tensions of the decade of the 1860’s.
1871 was also the year that British Columbia entered Confederation. In fact, as Parliament prorogued, on Thursday, May 12, 1870, the British Columbia delegates were already two days at sea, on their way from Victoria to San Francisco, the first stage on their long journey to Ottawa.
Et il a fallu beaucoup de temps pour que les Etats-Unis reconnaissent le caractere particu-lier des relations canado-britanniques. Les negociations du Traite de Washington de 1871 ont ete un pas dans cette direction, et aussi le premier pas important vers une detente Canada-Etats-Unis, a pres les fortes tensions des annees 1860.
L’annee 1871 a aussi marque l’entree de la Colombie-Britannique dans la Confederation. En fait, a la cloture de la session, le jeudi 12 mai 1870, les delegues de la Colombie-Britannique etaient deja partis de Victoria depuis deux jours, en route pour San Francisco, premiere etape de leur long voyage jusqu’a Ottawa.
P. B. Waite
Dalhousie University/Universite Dalhousie
Halifax, Canada July, 1976/juillet 1976
xv
CABINET MINISTERS
MEMBRES DU CABINET
HOUSE OF COMMONS FIRST PARLIAMENT
THIRD SESSION—FEB. 15, 1870 TO MAY 12, 1870
CHAMBRE DES COMMUNES PREMIERE LEGISLATURE
troisiEme session—du 15 fEv. 1870 au 12 mai 1870
Prime Minister, Minister of Justice and Attorney
General.................
Minister of Militia and
Defence.................
Minister of Customs.......
Minister of Finance.......
Hon. Sir John Alexander Macdonald L’honorable sir George-Etienne Cartier
Hon. Samuel Leonard Tilley Hon. Francis Hincks
Minister of Public Works .... L’honorable Hector-Louis Langevin
Minister of Inland Revenue Secretary of State for the
Provinces...............
President of the Privy
Council.................
Minister of Marine and
Fisheries...............
Postmaster General .......
Minister of Agriculture...
Secretary of State of
Canada..................
Receiver General..........
Superintendent General of Indian Affairs............
Hon. Alexander Morris Hon. Joseph Howe
Hon. Peter Mitchell Hon. Alexander Campbell Hon. Christopher Dunkin
Hon. James Cox Aikins L’honorable Jean-Charles Chapais
Hon. Joseph Howe
1	Hon. Edward Kenny
Premier Ministre, Ministre de la Justice et Procureur general
Ministre de la Milice et de la Defense
Ministre des Douanes
Ministre des Finances
Ministre des Travaux publics
Ministre du Revenu interieur
Secretaire d’Etat pour les provinces
President du Conseil prive
Ministre de la Marine et des Pecheries
Ministre des Postes
Ministre de l’Agriculture
Secretaire d’Etat du Canada
Receveur general
Surintendant general des Affaires indiennes
1 Senator/Senateur
NAMES OF MEMBERS
NOMS DES DEPUTES
IN ALPHABETICAL ORDER AND CONSTITUENCIES
Abbott, Hon. John Joseph Caldwell...
Anglin, Hon. Timothy Warren........
Archambault, Hon. Louis............
1 Archibald, Hon. Adams George.....
Ault, Samuel ......................
Beaty, James.......................
Beaubien, Hon. Joseph-Octave.......
Bechard, Frangois..................
Bellerose, Joseph-Hyacinthe........
Benoit, Basile.....................
Bertrand, Charles-Frederic-Adolphe ...
Blake, Edward......................
Blanchet, Joseph-Goderic ..........
Bodwell, Ebenezer Vining...........
Bolton, John.......................
Bourassa, Frangois.................
Bowell, Mackenzie..................
Bowman, Isaac Erb .................
Bown, John Young...................
Brousseau, Jean-Docile.............
Brown, James ......................
Burpee, Charles ...................
Burton, Francis Henry..............
Caldwell, William Murray...........
Cameron, Hugh......................
Cameron, Hon. John Hillyard........
Cameron, Malcolm Colin.............
Campbell, Hon. Stewart.............
Carling, Hon. John.................
Carmichael, James Williams.........
Caron, Georges.....................
Cartier, Hon. Sir George-Etienne...
Cartwright, Richard John...........
Casault, Napoleon..................
Cayley, Michael ...................
Chamberlin, Brown..................
Chauveau, Hon. Pierre-Joseph-Olivier
Cheval, Guillaume alias St. Jacques.
Chipman, William Henry.............
Cimon, Simon-Xavier................
Cockburn, Hon. James...............
Coffin, Thomas.....................
Colby, Charles Carrol..............
Connell, Hon. Charles..............
Costigan, John ....................
Coupal dit La Reine, Sixte.........
Crawford, James ...................
Crawford, John.....................
Currier, Joseph Merrill............
PAR ORDRE ALPHABETIQUE ET LEUR CIRCONSCRIPTION
Argenteuil, Quebec Gloucester, New Brunswick L’Assomption, Quebec Colchester, Nova Scotia Stormont, Ontario
Toronto (City) East, Ontario Montmagny, Quebec Iberville, Quebec Laval, Quebec Chambly, Quebec Temiscouata, Quebec Durham West, Ontario Levis, Quebec Oxford South, Ontario Charlotte, New Brunswick Saint-Jean, Quebec Hastings North, Ontario Waterloo North, Ontario Brant North, Ontario Portneuf, Quebec Hastings West, Ontario Sunbury, New Brunswick Durham East, Ontario
Restigouche, New Brunswick Inverness, Nova Scotia Peel, Ontario Huron South, Ontario Guysborough, Nova Scotia London (City), Ontario Pictou, Nova Scotia Maskinonge, Quebec Montreal (Cite) est, Quebec Lennox, Ontario Bellechasse, Quebec Beauharnois, Quebec Missisquoi, Quebec Quebec (comte), Quebec Rouville, Quebec King’s, Nova Scotia Charlevoix, Quebec Northumberland West, Ontario Shelburne, Nova Scotia Stanstead, Quebec Carleton, New Brunswick Victoria, New Brunswick Napierville, Quebec Brockville (town), Ontario Leeds South, Ontario Ottawa (City), Ontario
1 Elected in by-election, September 9, 1869.
XIX
Daoust, Jean-Baptiste....
Dobbie, Thomas William ...
Dorion, Hon. Antoine-Aime.
Drew, George Alexander....
Dufresne, Joseph ........
Dunkin, Hon. Christopher ...
Deux-Montagnes, Quebec Elgin East, Ontario Hochelaga, Quebec Wellington North, Ontario Montcalm, Quebec Brome, Quebec
Ferguson, Thomas Roberts
Ferris, John...............
Forbes, James Fraser.......
Fortier, Mo'ise ...........
Fortin, Pierre.............
Cardwell, Ontario Queen’s, New Brunswick Queen’s, Nova Scotia Yamaska, Quebec Gaspe, Quebec
Galt, Hon. Sir Alexander Tilloch
Gaucher, Guillaume Gamelin...
Gaudet, Joseph...............
Gendron, Pierre-Samuel ......
Geoffrion, Felix ............
Gibbs, Thomas Nicholson .....
Godin, Fran?ois-Benjamin ....
Grant, James Alexander ......
Gray, Hon. Col. John Hamilton .. Grover, Peregrine Maitland ..
Sherbrooke (ville), Quebec Jacques-Cartier, Quebec Nicolet, Quebec Bagot, Quebec Vercheres, Quebec Ontario South, Ontario Joliette, Quebec Russell, Ontario
Saint John (City & County), New Brunswick Peterborough East, Ontario
Hagar, Albert...............
Harrison, Robert Alexander ....
Heath, Edmund...............
2	Hincks, Hon. Sir Francis ..
Holmes, John................
Holton, Hon. Luther Hamilton
Howe, Hon. Joseph...........
Huntington, Hon. Lucius Seth
Huot, Pierre-Gabriel........
Hurdon, Francis.............
Hutchison, Richard .........
Prescott, Ontario
Toronto (City) West, Ontario
Pontiac, Quebec
Renfrew North, Ontario
Carleton, Ontario
Chateauguay, Quebec
Hants, Nova Scotia
Shefford, Quebec
Quebec (Cite) est, Quebec
Bruce South, Ontario
Northumberland, New Brunswick
Irvine, Hon. George......................... Megantic, Quebec
Jackson, George............................. Grey South, Ontario
Joly, Henri-Gustave ........................ Lotbiniere, Quebec
Jones, Alfred............................... Halifax, Nova Scotia
Jones, Francis.............................. Leeds North, and Grenville North, Ontario
Keeler, Joseph......................
Kempt, George ......................
Kierzkowski, Hon. Alexandre Edouard
Killam, Frank.......................
Kirkpatrick, Thomas.................
Northumberland East, Ontario Victoria South, Ontario Saint-Hyacinthe, Quebec Yarmouth, Nova Scotia Frontenac, Ontario
Lacerte, Elie..............
Langevin, Hon. Hector-Louis
Langlois, Jean.............
Lapum, James...............
Lawson, Peter..............
Le Vesconte, Hon. Isaac....
Little, William Carruthers ....
Saint-Maurice, Quebec Dorchester, Quebec Montmorency, Quebec Addington, Ontario Norfolk South, Ontario Richmond, Nova Scotia Simcoe South, Ontario
McCallum, Lachlin .......
McCarthy, Thomas ........
McConkey, Thomas David...
McDonald, Angus Peter....
Macdonald, Donald Alexander McDonald, Edmund Mortimer
Monck, Ontario Richelieu, Quebec Simcoe North, Ontario Middlesex West, Ontario Glengarry, Ontario Lunenburg, Nova Scotia
2 Elected in by-election, November 13, 1869.
Antigonish, Nova Scotia
McDonald, Hugh....................
Macdonald, Hon. Sir. John Alexander,
K.C.B.............................
Macdonald, Hon. John Sandfield....
3	McDougall, John Lorn ............
McDougall, William................
McDougall, Hon. William, C.B......
MacFarlane, Robert................
McGreevy, Thomas .................
McKeagney, Hon. James ............
Mackenzie, Alexander..............
McMillan, Donald..................
McMonies, James...................
Magill, Charles...................
Masson, Louis-Frangois-Rodrigue...
Masson, Luc-Hyacinthe.............
Merritt, Thomas Rodman............
Metcalfe, James ..................
Mills, David......................
Morison, John.....................
Morris, Hon. Alexander ...........
Morrison, Angus...................
Munroe, John......................
Kingston, Ontario Cornwall (Town), Ontario Renfrew South, Ontario Trois-Rivieres (Ville), Quebec Lanark North, Ontario Perth South, Ontario Quebec (Cite), Ouest, Quebec Cape Breton, Nova Scotia Lambton, Ontario Vaudreuil, Quebec Wentworth North, Ontario Hamilton (City), Ontario Terrebonne, Quebec Soulanges, Quebec Lincoln, Ontario York East, Ontario Bothwell, Ontario Victoria North, Ontario Lanark South, Ontario Niagara (Town), Ontario Elgin West, Ontario
O’Connor, John............................... Essex, Ontario
Oliver, Thomas............................... Oxford North, Ontario
Paquet, Anselme-Homere ...........
Pelletier, Charles-Alphonse-Pantaleon
Perry, Charles....................
Pickard, John ....................
Pinsonneault, Alfred..............
Pope, John Henry..................
4	Pouliot, Barthelemy .............
Power, Patrick ...................
Pozer, Christian Henry............
Berthier, Quebec Kamouraska, Quebec Peterborough West, Ontario York, New Brunswick Laprairie, Quebec Compton, Quebec L’lslet, Quebec Halifax, Nova Scotia Beauce, Quebec
Ray, William Hallett...
Read, Hon. Robert ....
Redford, James........
Renaud, Auguste ......
Robitaille, Theodore ...
Ross, James ..........
Ross, Hon. John Jones. Ross, John Sylvester...
Ross, Walter..........
Ross, William.........
Ryan, George..........
Ryan, Michael Patrick Rymal, Joseph.........
Annapolis, Nova Scotia Hastings East, Ontario Perth North, Ontario Kent, New Brunswick Bonaventure, Quebec Wellington Centre, Ontario Champlain, Quebec Dundas, Ontario Prince Edward, Ontario Victoria, Nova Scotia King’s, New Brunswick Montreal (Cite) Ouest, Quebec Wentworth South, Ontario
Savary, Alfred William.....
Scatcherd, Thomas..........
5	Scriver, Julius...........
Senecal, Louis-Adelard.....
Shanly, Walter ............
Simard, Georges-Honore.....
Simpson, Wemyss Mackenzie
Digby, Nova Scotia
Middlesex North, Ontario
Huntington, Quebec
Drummond et Arthabaska, Quebec
Grenville South, Ontario
Quebec (Cite), Centre
Algoma (The Provisional Judicial District
of), Ontario
3	Elected in by-election, July 12,1869.
4	Elected in by-election, July 14,1869.
5	Elected in by-election, October 30,1869.
xxi
Smith, Hon. Albert James................... Westmorland, New Brunswick
Snider, George ............................ Grey North, Ontario
Sproat, Alexander ......................... Bruce North, Ontario
Stephenson, Rufus.......................... Kent, Ontario
Stirton, David............................. Wellington South, Ontario
Street, Thomas Clark....................... Welland, Ontario
Sylvain, Georges Voxal .................... Rimouski, Quebec
Thompson, David................
Thompson, John Hall ...........
Tilley, Hon. Samuel Leonard, C.B.
Tremblay, Pierre-Alexis........
Tupper, Hon. Charles, C.B......
Haldimand, Ontario Ontario North, Ontario Saint John (City), New Brunswick Chicoutimi et Saguenay, Quebec Cumberland, Nova Scotia
Wallace, John .............
Walsh, Aquila..............
Webb, William Hoste........
Wells, James Pearson.......
White, John................
Whitehead, Joseph..........
Willson, Crowell...........
Wood, Hon. Edmund Burke....
Workman, Thomas............
Wright, Alonzo.............
Wright, Amos...............
Albert, New Brunswick Norfolk North, Ontario Richmond et Wolfe, Quebec York North, Ontario Halton, Ontario Huron North, Ontario Middlesex East, Ontario Brant South, Ontario Montreal (Cite) Centre, Quebec Ottawa (Comte), Quebec York West, Ontario
Young, James
Waterloo South, Ontario
CONSTITUENCIES BY PROVINCE WITH
NAME OF MEMBERS ELECTED
PROVINCE OF NEW BRUNSWICK
Albert.................................
Carleton ..............................
Charlotte..............................
Gloucester ............................
Kent...................................
King’s.................................
Northumberland.........................
Queen’s................................
Restigouche............................
St. John (City)........................
St. John (City & County) ..............
Sunbury ...............................
Victoria...............................
Westmorland............................
York...................................
PROVINCE OF NOVA SCOTIA
Annapolis..............................
Antigonish.............................
Cape Breton............................
Colchester ............................
Cumberland.............................
Digby..................................
Guysborough............................
Halifax ...............................
Hants..................................
Inverness .............................
King’s.................................
Lunenburg..............................
Pictou........V........................
Queen’s................................
Richmond...............................
Shelburne..............................
Victoria...............................
Yarmouth...............................
PROVINCE OF ONTARIO
Addington......................:.......
Algoma (The Provisional Judicial District of) ..
Bothwell...............................
Brant North............................
Brant South............................
Brockville (Town), with the Township of
Elizabethtown thereto attached.......
Bruce North............................
Bruce South............................
CIRCONSCRIPTIONS PAR PROVINCE
ET NOMS DES DEPUTES ELUS
PROVINCE DU NOUVEAU-BRUNSWICK John Wallace Hon. Charles Connell John Bolton
Hon. Timothy Warren Anglin Auguste Renaud George Ryan Richard Hutchison John Ferris
William Murray Caldwell Hon. Samuel Leonard Tilley, C.B.
Hon. Col. John Hamilton Gray Charles Burpee John Costigan Hon. Albert James Smith John Pickard
PROVINCE DE LA NOUVELLE-ECOSSE
William Hallett Ray Hugh McDonald Hon. James McKeagney 1 Hon. Adams George Archibald Hon. Charles Tupper, C.B.
Alfred William Savary Hon. Stewart Campbell Alfred Jones Patrick Power Hon. Joseph Howe Hugh Cameron William Henry Chipman Edmund Mortimer McDonald James Williams Carmichael James Fraser Forbes Hon. Isaac Le Vesconte Thomas Coffin William Ross Frank Killam
PROVINCE D’ONTARIO James Lapum
Wemyss Mackenzie Simpson David Mills John Young Bown Hon. Edmund Burke Wood
James Crawford Alexander Sproat Francis Hurdon
XXlll
1 Elected in by-election, September 9, 1869.
Cardwell.................................
Carleton ................................
Cornwall (Town), with the Township of Cornwall thereto attached ...................
Dundas ..................................
Durham East..............................
Durham West..............................
Elgin East...............................
Elgin West ..............................
Essex....................................
Frontenac................................
Glengarry................................
Grenville South .........................
Grey North...............................
Grey South...............................
Haldimand................................
Halton...................................
Hamilton (City)..........................
Hastings East ...........................
Hastings North...........................
Hastings West............................
Huron North .............................
Huron South .............................
Kent.....................................
Kingston.................................
Lambton..................................
Lanark North ............................
Lanark South ............................
Leeds North and Grenville North..........
Leeds South..............................
Lennox ..................................
Lincoln .................................
London (City)............................
Middlesex East...........................
Middlesex North..........................
Middlesex West...........................
Monck ...................................
Niagara (Town), with the Township of Niagara
thereto attached.......................
Norfolk North............................
Norfolk South............................
Northumberland East......................
Northumberland West excepting therefrom the
Township of South Monaghan.............
Ontario North............................
Ontario South............................
Ottawa (City)............................
Oxford North.............................
Oxford South.............................
Peel.....................................
Perth North..............................
Perth South..............................
Peterborough East........................
Peterborough West .......................
Prescott.................................
Prince Edward ...........................
Renfrew North ...........................
Renfrew South ...........................
Russell..................................
Thomas Roberts Ferguson John Holmes
Hon. John Sandfield Macdonald
John Sylvester Ross
Francis Henry Burton
Edward Blake
Thomas William Dobbie
John Munroe
John O’Connor
Thomas Kirkpatrick
Donald Alexander Macdonald
Walter Shanly
George Snider
George Jackson
David Thompson
John White
Charles Magill
Hon. Robert Read
Mackenzie Bowell
James Brown
Joseph Whitehead
Malcolm Colin Cameron
Rufus Stephenson
Hon. Sir John Alexander Macdonald, K.C.B.
Alexander Mackenzie Hon. William McDougall, C.B.
Hon. Alexander Morris Francis Jones John Crawford Richard John Cartwright Thomas Rodman Merritt Hon. John Carling Crowell Willson Thomas Scatcherd Angus Peter McDonald Lachlin McCallum
Angus Morrison Aguila Walsh Peter Lawson Joseph Keeler
Hon. James Cockburn John Hall Thompson Thomas Nicholson Gibbs Joseph Merritt Currier Thomas Oliver Ebenezer Vining Bodwell Hon. John Hillyard Cameron James Redford Robert MacFarlane Peregrine Maitland Grover Charles Perry Albert Hagar Walter Ross
2	Hon. Sir Francis Hincks
3	John Lorn McDougall James Alexander Grant
2	Elected in by-election, November 13, 1869.
3	Elected in by-election, July 12,1869.
XXIV
Simcoe North...................
Simcoe South...................
Stormont.......................
Toronto (City) East............
Toronto (City) West............
Victoria North.................
Victoria South.................
Waterloo North.................
Waterloo South.................
Welland........................
Wellington Centre..............
Wellington North...............
Wellington South...............
Wentworth North................
Wentworth South................
York East......................
York North.....................
York West......................
PROVINCE OF QUEBEC
Thomas David McConkey William Carruthers Little Samuel Ault James Beaty
Robert Alexander Harrison John Morison George Kempt Isaac Erb Bowman James Young Thomas Clark Street James Ross
George Alexander Drew David Stirton James McMonies Joseph Rymal James Metcalfe James Pearson Wells Amos Wright
PROVINCE DE QUEBEC
Argenteuil ............
Bagot..................
Beauce.................
Beauharnois............
Bellechasse............
Berthier...............
Bonaventure ...........
Brome .................
Chambly................
Champlain..............
Charlevoix.............
Chateauguay............
Chicoutimi et Saguenay . ..
Compton................
Deux-Montagnes ........
Dorchester ............
Drummond et Arthabaska
Gaspe..................
Hocljelaga.............
Huntington.............
Iberville .............
Jacques-Cartier .......
Joliette ..............
Kamouraska.............
Laprairie..............
L’Assomption ..........
Laval..................
Levis .................
L’lslet ...............
Lotbiniere.............
Maskinonge.............
Megan tic..............
Missisquoi ............
Montcalm...............
Montmagny..............
Montmorency ...........
Montreal (Cite) Centre ....
Montreal (Cite) Est....
Montreal (Cite) Quest .
Hon. John Caldwell Abbott Pierre-Samuel Gendron Christian Henry Pozer Michael Cayley Napoleon Casault Anselme-Homere Paquet Theodore Robitaille Hon. Christopher Dunkin Basile Benoit Hon. John Jones Ross Simon-Xavier Cimon Hon. Luther Hamilton Holton Pierre-Alexis Tremblay John Henry Pope Jean-Baptiste Daoust Hon. Hector-Louis Langevin Louis-Adelard Senecal Pierre Fortin
Hon. Antoine-Aime Dorion 4 Julius Scriver Francois Bechard Guillaume Gamelin Gaucher Fran^ois-Benjamin Godin Charles-Alphonse Pantaleon Pelletier Alfred Pinsonneault Hon. Louis Archambault Joseph-Hyacinthe Bellerose Joseph-Goderic Blanchet s Barthelemy Pouliot Henri-Gustave Joly Georges Caron Hon. George Irvine Brown Chamberlin Joseph Dufresne Hon. Joseph-Octave Beaubien Jean Langlois Thomas Workman Hon. Sir George-Etienne Cartier Michael Patrick Ryan
4	Elected in by-election, October 30, 1869.
5	Elected in by-election, July 14,1869.
xxv
Napierville................................ Sixte Coupal dit La Reine
Nicolet.................................... Joseph Gaudet
Ottawa (Comte)............................. Alonzo Wright
Pontiac ................................... Edmund Heath
Portneuf................................... Jean-Docile Brousseau
Quebec (Cite) Centre....................... Georges-Honore Simard
Quebec (Cite) Est ......................... Pierre-Gabriel Huot
Quebec (Cite) Ouest........................ Thomas McGreevy
Quebec (Comte)............................. Hon. Pierre-Joseph-Olivier Chauveau
Richelieu.................................. Thomas McCarthy
Richmond et Wolfe ......................... William Hoste Webb
Rimouski................................... Georges Voxal Sylvain
Rouville................................... Guillaume Cheval, alias St. Jacques
Saint-Hyacinthe............................ Hon. Alexandre Edouard Kierzkowski
Saint-Jean ................................ Francois Bourassa
Saint-Maurice.............................. Elie Lacerte
Shefford .................................. Hon. Lucius Seth Huntington
Sherbrooke (Ville)......................... Hon. Sir Alexander Tilloch Galt
Soulanges.................................. Luc-Hyacinthe Masson
Stanstead ................................. Charles Carrol Colby
Temiscouata................................ Charles-Frederic-Adolphe Bertrand
Terrebonne................................. Louis-Fran?ois-Rodrigue Masson
Trois-Rivieres (Ville)..................... William McDougall
Vaudreuil.................................. Donald McMillan
Vercheres.................................. Felix Geoffrion
Yamaska.................................... Moi'se Fortier
XXVI
15 fevrier 1870
DEBATS DES COMMUNES
1
HOUSE OF COMMONS
Tuesday, Feb. 15, 1870
The House having met at three o’clock, was summoned by a message from His Excellency, to meet in the Senate Chamber. Having attended and being returned.
NEW MEMBERS
Mr. Speaker informed the House that during the recess he had received communications; he also informed the House that during the recess the Clerk had received from the Clerk of the Crown in Chancery, Certificates of the Election and Return of the following Members, to fill up vacancies which had occurred during the recess:—
Of John Lome McDougall Esq., for the South Riding of the County of Renfrew.
Of Barthelemy Pouliot, Esq., for the Electoral District of L’lslet.
Of the Hon. Sir Adams George Archibald, for the Electoral District of Colchester (Nova Scotia).
Of Julius Scriver, Esq., for the Electoral District of Huntingdon.
Of the Hon. Sir Francis Hincks, K.C.M.G., C.B., for the North Riding of the County of Renfrew.
Of the Hon. Christopher Dunkin, for the Electoral District of Brome; and
Of the Hon. Alexander Morris, for the South Riding of the County of Lanark.
The newly elected members having previously taken the oath, were severally introduced and took their seats.
Mr. Speaker reported, that when the House did attend His Excellency the Governor General this day in the Senate Chamber, His Excellency was pleased to make a Speech to both Houses of Parliament, of which Mr. Speaker said he had, to prevent mistakes, obtained a copy, which he read to the House as follows:—
Honourable Gentlemen of the Senate,
Gentlemen of the House of Commons,
I recur, with confidence, to your advice, and have much satisfaction in being enabled, on the present occasion, to summon you to the
CHAMBRE DES COMMUNES
Le mardi 15 fevrier 1870
La Chambre se reunit a trois heures; elle est convoquee par Son Excellence a se reunir dans la salle des deliberations du Senat. Les deputes r6pondent A la convocation et reviennent.
NOUVEAUX MEMBRES
M. l'Orateur avise la Chambre des communications qu’il a regues pendant l’intersession; il informe aussi la Chambre que le greffier a regu, pendant l’intersession, du greffier de la Couronne a la Chancellerie, les certificats d’election des deputes mentionnes ci-dessous qui occuperont les sieges liberes pendant l’intersession:
De M. John Lome McDougall, pour la cir-conscription electorale du comte de Renfrew-Sud.
De M. Barthelemy Pouliot, pour la circons-cription electorale de 1’Islet.
De l’honorable sir Adams George Archibald, pour la circonscription electorale de Colchester (Nou velle-Ecosse).
De M. Julius Scriver, pour la circonscription electorale de Huntingdon.
De l’honorable sir Francis Hincks, K.C.M.G., C.B., pour la circonscription electorale du comte de Renfrew-Nord.
De l’honorable Christopher Dunkin, pour la circonscription electorale de Brome; et
De l’honorable Alexander Morris, pour la circonscription electorale du comte de Lanark-Sud.
Les membres nouvellement elus pretent ser-ment, sont presentes a tour de role a la Chambre et prennent leurs sieges.
M. l'Orateur fait rapport que lorsque cette Chambre s’est rendue ce jour aupres de Son Excellence le Gouverneur general, dans la salle des seances du Senat, il a plu a Son Excellence d’adresser un discours aux deux Chambres du Parlement et que, pour prevenir les erreurs, il en a obtenu une copie dont il fait la lecture a la Chambre comme suit:—
Honorables Messieurs du Senat,
Messieurs de la Chambre des Communes,
C’est avec confiance que j’ai recours a vos avis et avec beaucoup de satisfaction que je puis en la presente occasion vous reunir, pour
2
COMMONS DEBATES
February 15, 1870
discharge of your public duties at the period of the year most convenient to yourselves.
The circumstances under which we meet are in many respects auspicious. The bounty of Providence crowned the harvest with abundance, and made the Fisheries unusually productive; in many districts existing industries have been enlarged, and new enterprises have started into activity, furnishing fresh avenues for commerce, and additional employment for our people; whilst every day new sections of the country are being opened to the labours of the husbandman. The trade and wealth of the Dominion are on the increase, and the equal administration of the laws maintains, as heretofore, the enjoyment of a general sense of security.
I have watched, with much anxiety, the course of events in the North-West Territories. Unfortunate misapprehensions of the intentions with which the country was sought to be acquired by Canada have led to complications of a grave character. With a view to their removal, I have thought it desirable to exhaust every means of conciliation, before adopting other measures; and the latest advices lead me to expect that the groundless alarms entertained by a portion of the inhabitants, have given place to a desire to listen to the explanations which I have caused to be made to them. Efforts made in the spirit which has animated my Government throughout, can scarcely fail to accomplish an equitable and peaceful solution of the existing difficulty, and thereby secure the speedy incorporation of the NorthWest Territories with Canada, an object so earnestly desired by the Empire and the Dominion.
As the Act for the temporary Government of the Territories when united with Canada, will expire at the close of the present Session, a measure providing for their Government will be submitted for your consideration.
The Charters of most of the Banks of the Dominion were, last Session, extended for a limited period, with the view that during the interval the questions of Banking and Currency should receive the consideration which their importance demands. A measure intended to ensure safety to the community, without interfering with the legitimate operations of the Banks will be submitted for your consideration, and will, I trust, be found calculated to place those important interests upon a sound and stable basis.
l’accomplissement de vos devoirs publics, a une epoque de l’annee qui est la plus a votre convenance.
Les circonstances dans lesquelles nous nous rencontrons sont favorables a beaucoup d’egards. Grace a la Providence, l’abondance a couronne les travaux des champs, et la production des pecheries n’a pas ete ordinaire. Dans plusieurs districts, les operations des industries existantes se sont agrandies et de nouvel-les entreprises sont entrees en activite, fournis-sant des avenues additionnelles au commerce et un accroissement d’emploi pour nos populations, tandis que de nouvelles sections du pays s’ouvrent chaque jour aux travaux du labou-reur. Le commerce et la richesse de la Puissance sont en voie d’accroissement, et la juste administration des lois maintient, comme auparavant, l’existence d’un sentiment general de securite.
J’ai suivi avec beaucoup d’anxiete le cours des evenements dans les Territoires du Nord-Ouest. De malheureux malentendus quant aux intentions dans lesquelles le Canada cherchait a acquerir le pays, ont conduit a des complications d’une nature grave. En vue de les faire disparaitre, j’ai cru qu’il etait desirable d’epui-ser tous les moyens de conciliation avant de recourir a d’autres mesures, et les dernieres nouvelles m’induisent a esperer que les alar-mes non fondees, qu’entretenait une partie des habitants, ont fait place au desir de preter l’oreille aux explications que je leur ai fait donner. Des efforts faits avec l’esprit qui n’a cesse d’animer mon Gouvernement ne peuvent guere manquer d’amener une solution equitable et pacifique de la difficulty existante, et d’assurer par la la prompte annexion des Territoires du Nord-Ouest au Canada, objet que desirent si vivement l’Empire et la Puissance.
Comme l’Acte pourvoyant au gouvernement temporaire des Territoires apres leur union avec le Canada expire a la fin de la presente session, il sera soumis a votre consideration une mesure pour pourvoir a leur gouvernement.
Les chartes de la plupart des Banques de la Puissance furent, pendant la derniere session, prolongees pour un temps limite pour donner, dans l’intervalle, aux questions de banque et de circulation monetaire, le temps de recevoir la consideration que leur importance demande. II sera soumis a votre consideration une mesure destinee a assurer la securite a la societe sans nuire aux operations legitimes des banques, et j’ai l’espoir qu’elle sera trouvee propre a asseoir ces grands interets sur une base sure et solide.
[Mr. Speaker—M. l’Orateur.]
15 fevrier 1870
DEBATS DES COMMUNES
3
The Laws in force on the subject of the Elective Franchise, and the regulation of Parliamentary Elections in the several Provinces of the Dominion, vary much in their operations, and it is important that uniform provision should be made, settling the Franchise and regulating Elections to the House of Commons. A measure upon this subject will be submitted for your consideration.
Under the operation of an Act of the Imperial Parliament, passed in the year 1869, to amend the laws relating to the Coasting Trade, and Merchant Shipping in British Possessions, a period of two years is given to the Legislatures of the several Colonies of the Empire to make provision for the regulation of the Coasting Trade. In the absence of legislation on the subject, within the period named, the provisions of the Imperial Law will be in force. The extent and value of our internal commerce, render legislation on this subject desirable, and a measure with regard to it will be submitted for your consideration.
The creation of a Court of Appeal under the powers conferred upon you by the Union Act, is a matter deserving your attention. A measure will be submitted to you for the establishment of such a Court, and for conferring upon it certain original jurisdiction.
The year 1871 is that in which the next decennial Census is fixed by law to take place. As there are different laws on the subject in the several Provinces, it will, therefore, be necessary to pass a General Act, to establish a uniform and accurate system throughout the Dominion. Steps have already been taken to secure the co-operation of Newfoundland and Prince Edward Island; and, I trust, a Census upon one system will be made simultaneously in all Her Majesty’s British North American Possessions. I need not expatiate on the importance of the information which the tables of the Census are calculated to afford, as, in addition to their interest and value on general grounds, it must be recollected that upon them depends the readjustment of the Parliamentary representation.
Gentlemen of the House of Commons,
I have directed that the accounts of the last year shall be laid before you. The Estimates for the present financial year will also be submitted. They have been framed with every regard to economy, compatible with the efficiency of the Public Service; and you will, I trust, be of opinion that the Finances are in a satisfactory state, and that the people can, without inconvenience, afford, for the service of her Majesty,
Les lois en force concernant le droit de suffrage, et reglementant les elections parlemen-taires dans les diverses provinces de la Puissance varient beaucoup dans leur operation et il importe qu’il soit pourvu d’une maniere uniforme a la fixation du droit de vote et a la reglementation des elections de la Chambre des Communes. Une mesure sur le sujet sera soumise a votre consideration.
Par un Acte du Parlement imperial, passe en l’annee mil huit cent soixante-neuf, pour amen-der la Loi concernant le cabotage et la marine marchande dans les possessions britanniques, il est accorde deux ans aux legislatures des diverses colonies de l’Empire pour voir a la reglementation de leur commerce cotier. En l’absence de legislation sur le sujet, pendant la periode fixee, les dispositions de l’Acte imperial seront en force. L’etendue et la valeur de notre Commerce interieur rendent desirable la passation d’une loi sur ce sujet, et une mesure s’y rapportant sera soumise a votre consideration.
La creation d’une Cour d’appel, sous l’auto-rite a vous conferee par l’Acte d’Union, est un sujet qui merite votre attention. Il vous sera soumis une mesure pour 1'etablissement d’une telle Cour, et pour lui conferer une certaine juridiction de premiere instance.
L’annee 1871 est celle fixee par la loi pour prendre le prochain recensement decennal. Il y a sur le sujet des lois differentes dans les diverses provinces; il va etre, en consequence, necessaire de passer un Acte general etablis-sant un systeme uniforme et exact dans toute la Puissance. Il a deja ete pris des mesures pour obtenir la cooperation de Terre-Neuve et de l’ile du Prince-Edouard, et j’ai l’espoir qu’il sera fait simultanement un recensement d’apres le meme systeme dans toutes les possessions de Sa Majeste dans l’Amerique du Nord britannique. Je n’ai pas besoin d’appuyer sur l’importance des renseignements que les tableaux du recensement sont de nature a four-nir; outre leur interet et leur valeur sous des rapports generaux, il faut se rappeler que d’eux depend le reajustement de la representation parlementaire.
Messieurs de la Chambre des Communes,
J’ai donne ordre que les comptes de l’annee derniere soient mis devant vous. Le budget des depenses de la presente annee fiscale vous sera aussi soumis. Il a ete prepare en ayant particu-lierement egard a l’economie compatible avec l’efficacite du service public, et je me flatte que vous serez d’avis que les finances sont dans un etat satisfaisant, et que le peuple peut, sans inconvenient, fournir, pour le service de Sa
4
COMMONS DEBATES
February 15, 1870
the supplies which it will be the duty of my Government to ask you to vote.
Honourable Gentlemen of the Senate,
Gentlemen of the House of Commons,
The Act respecting the Militia and Defence of the Dominion has not failed to engage my attention. The high spirit and loyalty of the people are placed in a clear light by the fact that the Active Militia have, voluntarily, come forward largely in excess of the quota required, as well as by the zealous attendance of the various Corps at the annual training in the camps, and by the promptness with which they assembled in force, at the call of duty, on more than one occasion, when Fenian marauders threatened the peace of the country.
I have observed, with great satisfaction, the efforts which have been made in several of the Provinces of the Dominion to foster and encourage immigration to our shores. The continued progress of great public works, in many portions of the country, will afford the opportunity of early employment to intending immigrants, and I look forward with confidence to the addition of a large and valuable class of settlers to our population during the coming season.
During the Summer and Autumn I had the opportunity of visiting different parts of the Dominion. I proceeded first to Quebec, thence to the Maritime Provinces; and at halifax, I had the honour of receiving His Royal Highness Prince Arthur. Subsequently I attended His Royal Highness in a tour to the Province of Ontario. Everywhere the great capabilities of the country, and the proofs of vigorous industry made themselves apparent, and it became my pleasing duty to report to Her Majesty’s Government, as the result of my observations, that the inhabitants of the Dominion are well contented with their position and prospects, and that the wish nearest their hearts is to avail themselves of the franchises and full powers of legislation, which they possess, in order to build up, as a portion of the British Empire, institutions of their own choice, by laws of their own making.
I now leave you to the labours of the session, with earnest aspirations for your complete success.
On motion of the Hon. Sir John A. Macdonald, His Excellency’s speech was ordered to be taken into consideration tomorrow.
PRELIMINARY PROCEEDINGS
Resolved, That the Votes and Proceedings of this House be printed, being first perused by
[Mr. Speaker—M. l'Orateur.l
Majeste, les subsides qu’il sera du devoir de mon gouvernement de vous demander de voter.
Honorables Messieurs du Senat,
Messieurs de la Chambre des Communes,
L’Acte touchant la Milice et la Defense de la Puissance n’a pas manque d’etre l’objet de toute mon attention. La noble ardeur et la loyaute du peuple apparaissent au grand jour par le fait que la Milice active est volontaire-ment venue de l’avant en nombre bien supe-rieur au contingentement requis, aussi bien que par l’empressement zele des differents corps a assister aux exercices de camp annuels, et par la promptitude avec laquelle ils s’assem-blerent en force a l’appel du devoir, en plus d’une occasion, lorsque les maraudeurs fenians menagaient la paix du pays.
J’ai remarque avec beaucoup de satisfaction les efforts qui ont ete faits dans plusieurs des provinces de la Puissance pour aider et encou-rager l’immigration a nos rivages. Le progres de grands travaux publics, qui continue sur plusieurs points du pays, fournira l’occasion a ceux qui se proposent d’immigrer d’etre employes de bonne heure, et j’attends avec confiance l’addition a notre population d’une classe nombreuse et precieuse de colons, dans le cours de la saison prochaine.
Pendant l’ete et l’automne, j’eus l’occasion de visiter differentes parties de la Puissance. Je me rendis d’abord a Quebec, ensuite aux Provinces Maritimes; et a Halifax, j’eus l’honneur de recevoir Son Altesse royale, le prince Arthur. Subsequemment, j’accompagnai Son Altesse royale dans sa visite a la province d’Ontario. Partout se manifesterent les grandes ressources du pays, et les preuves d’une vigou-reuse industrie; et j’eus a remplir l’agreable devoir de faire rapport au Gouvernement de Sa Majeste, comme le resultat de mes observations, que les habitants de la Puissance sont bien satisfaits de leur position et de l’avenir qu’ils ont devant eux, et que leur plus ardent desir est de prendre avantage des franchises et pleins pouvoirs de legislation qu’ils possedent, pour fonder, comme portion de l’Empire britan-nique, des institutions de leur propre choix par des lois faites par eux.
Je vous laisse maintenant aux travaux de la session avec le plus vif desir qu’ils soient cou-ronnes du succes le plus complet.
Sur la motion de l'honorable sir John A. Macdonald, le discours de Son Excellence doit etre pris en consideration, demain.
PROCEDURES PRELIMINARIES
II est decide—Que les Proces-verbaux de la Chambre soient imprimes, apres avoir ete etu-
15 fevrier 1870
DEBATS DES COMMUNES
5
Mr. Speaker, and that he do appoint the printing thereof, and that no person but such as he shall appoint do presume to print the same.
Resolved, That Select Standing Committees be appointed for the following purposes: 1. On Privileges and Elections.—2. On Expiring Laws.—3. On Railways, Canals and Telegraph Lines.—4. On Miscellaneous Private Bills.—5. On Standing Orders.—6. On Printing.—7. On Public Accounts.—8. On Banking and Commerce.—9. On Immigration and Colonization.
Resolved, 1st.—That if anything shall come in question touching the return of election of any Member, he is to withdraw during the time the matter is in debate; and all Members returned upon double returns are to withdraw until their returns are determined.
Resolved, 2nd.—That if it shall appear that any person has been elected or returned a Member of this House, or hath endeavoured so to be, by bribery or any other corrupt practices this House will proceed with the utmost severity against all such persons as shall have been wilfully concerned in such bribery or other corrupt practices.
Resolved, 3rd.—That the offer of any money or other advantage to any member of the House of Commons, for the promoting of any matter whatsoever, depending or to be transacted in the Parliament of the Dominion of Canada, is a high crime and misdemeanor, and tends to the subversion of the Constitution.
LIBRARY OF PARLIAMENT
Mr. Speaker laid before the House, the Report of the Librarian of the House of Commons, on the state of the Library of Parliament.
The number of books in the Library at the opening of last session, was estimated at 61,500 volumes. Since then, about 1,500 volumes have been added; making a total of 63,000.
dies en detail par M. l’Orateur, et que celui-ci ordonne l’impression, et que nul autre que la personne designee ne se permette d’en faire l’impression.
II est decide—Que soient designes des Comites permanents pour traiter des questions sui-vantes: 1. Des privileges et elections.—2. Des lois qui expirent.—3. Des chemins de fer, des canaux et des lignes telegraphiques.—4. Des divers Bills d’interet prive.—5. Du Regle-ment.—6. De l’imprimerie.—7. Des comptes publics.—8. De la banque et du commerce.—9. De l’immigration et de la colonisation.
II est decide (premierement)—Que si une question quelconque survient concernant les resultats d’election d’un depute, celui-ci doit se retirer pendant que la question est debattue, et que tous les deputes, qui sont elus une deuxieme fois, doivent se retirer jusqu’a ce que les resultats soient determines.
II est decide (deuxiemement)—Que si une personne est elue ou reelue membre de la Chambre, ou a essaye de l’etre en achetant des voix ou en utilisant d’autres manoeuvres de corruption, la Chambre condamnera avec la plus grande severite toutes les personnes impliquees volontairement dans l’achat des voix ou dans d’autres manoeuvres de corruption.
II est decide (troisiemement)—Que l’offre d’une somme d’argent ou de quelque autre avantage a un membre de la Chambre des Communes, en vue de promouvoir une cause quelconque qui releve du Parlement de la Puissance du Canada ou qui y serait negociee, cons-titue une infraction et un crime graves, et mene a la subversion de la Constitution.
BIBLIOTHEQUE DU PARLEMENT
M. l'Orateur presente a la Chambre, le rapport du bibliothecaire de la Chambre des Communes concernant la bibliotheque du Parlement.
Le nombre de livres contenus dans la bibliotheque a l’ouverture de la derniere session se chiffrait a 61,500. Depuis ce temps, 1,500 volumes ont ete acquis, ce qui porte le total des volumes a 63,000.
99263-3
16 fevrier 1870
DEBATS DES COMMUNES
7
HOUSE OF COMMONS
Wednesday, Feb. 16, 1870
