 at three o’clock.
PUBLIC ACCOUNTS
Hon. Sir Francis Hincks presented the report of the Committee on Public Accounts on the return respecting the Bank of Montreal, referred to them.
SEIGNIORIAL ACT
Mr. Godin introduced a Bill intituled: “An Act to amend the Seigniorial Act, Chap. 41, Consolidated Statutes for Lower Canada.”
REPORTS
Hon. Sir John A. Macdonald presented reports of the penitentiaries for 1869; also correspondence relating thereto; also reports relating to the refunding of duty to Messrs. Gooderham & Worts of Toronto, to the appointment of Postmaster at Waterloo, Shef-ford County, and to Oakville Harbour.
SALARIES OF JUDGES
Mr. Ryan (Kings, N.B.,) asked why there was a difference between the salaries of the several Judges of the Supreme Court in the Maritime Provinces, and that received by the several Judges of the Provinces of Quebec and Ontario.
Hon. Sir John A. Macdonald said the reason of the difference was that the salaries of the Judges were fixed by an Act of Parliament. Why Parliament passed that Act he could not take upon himself to say, but the Government could only pay the salaries fixed by that Act.
PILOTAGE
Mr. Workman asked whether it was the intention of the Government to introduce during the present session a Bill to assimilate the systems of Pilotage which now prevail throughout the Dominion, and to remove the disabilities which the vessels of Quebec and Ontario now labour under in Nova Scotia and New Brunswick ports.
Hon. Sir John A. Macdonald said it was not their intention to do so this session, but hoped to introduce a Bill on the subject next Session.
CHAMBRE DES COMMUNES
Le mercredi 13 avril 1870
L’Orateur ouvre la seance a trois heures.
COMPTES PUBLICS
L’honorable sir Francis Hincks presente le rapport du Comite des comptes publics sur le dossier concernant la Banque de Montreal, lequel lui avait ete confie.
ACTE SEIGNEURIAL
M. Godin presente un Bill intitule: «Acte pour amender l’Acte seigneurial refondu, Cha-pitre 41 des Statuts refondus pour le Bas-Canada».
RAPPORTS
L'honorable sir John A. Macdonald presente les rapports des penitenciers pour l’annee 1869, ainsi que la correspondance qui s’y ratta-che; il presente egalement des documents concernant la remise faite a MM. Gooderham et Worts de Toronto de certains droits d’accise, la nomination d’un maitre de poste a Waterloo, dans le comte de Shefford, et le havre d’Oakville.
TRAITEMENT DES JUGES
M. Ryan (Kings, N.-B.) demande pourquoi il existe une difference entre les traitements des juges de la Cour supreme des provinces Mariti-mes et ceux de plusieurs juges du Quebec et de l’Ontario.
L'honorable sir John A. Macdonald dit que
cette difference vient de ce que les traitements des juges sont fixes par un Acte du Parlement. Il n’est pas en mesure de dire pourquoi le Parlement a vote cet Acte; mais le fait est que le Gouvernement doit s’y tenir.
PILOTAGE
M. Workman demande si le Gouvernement a l’intention de presenter, au cours de la presente session, un Bill pour uniformiser les systemes de pilotage actuels de la Puissance et pour supprimer les restrictions actuellement impo-sees aux navires du Quebec et de l’Ontario dans les ports de la Nouvelle-Ecosse et du N ouveau-Brunswick.
L'honorable sir John A. Macdonald repond que le Gouvernement n’en a pas l’intention pour cette session, mais qu’il espere le faire durant la prochaine session.
99263-66%
1008
COMMONS DEBATES
April 13, 1870
PICTOU AND CAPE BRETON STEAMERS
Mr. Cameron (Inverness) asked whether it was the intention of the Government, during the present Session, to subsidize any steamer to ply between the Railroad Terminus, Pictou, N.S., and any Port in Cape Breton.
Hon. Sir John A. Macdonald said it was not
their intention to do so this Session.
TRANSATLANTIC MAIL SERVICE
Hon. Dr. Tupper asked the Government the following questions:—1st. Has the Inman Company, under the terms of their contract, right to employ in the Trans-Atlantic Postal Service such a slow steamer as the City of Cork, said steamer being generally considered, both in regard to her rate of speed and passenger accommodation, unfit for such service? 2nd. Has the Government taken any measures to ascertain whether the Inman steamer City of Boston, which left Halifax, January 28, for Liverpool, with mails and a large number of passengers, was overloaded and thus rendered incapable of resisting the gales experienced by the Cunard steamer Nemesis, and the Allan steamer Nestorian, and troop ship Orontes, which vessels encountered the same weather and reached their destinations in safety, while the fate of the City of Boston is still a matter of uncertainty and doubt?
Hon. Sir John A. Macdonald said, with respect to the first question, that the Inman Company had a right to use the same steamers under contract with our Post Office Department as they had under the Imperial contract. The City of Cork was one of the steamers which they had a right to employ under the Imperial contract. In answering the second question, he could say that the Government had taken measures to ascertain the particulars alluded to, and had received a letter from the New York agent of the Company, and to the effect that the City of Boston was not overloaded, and that the regulations of this line on this point were very stringent and always carried out.
DEBT OF THE PROVINCES
Hon. Mr. Wood asked the following questions:—
1st. Does the determination of the amount of the debt of the late Province of Canada with the several items and the amount of each item composing that debt rest with, and is it imposed upon, the Government and Parliament of Canada, or does it rest with, and is it
[Hon. Sir John A. Macdonald—L’hon. sir John A Macdonald.]
TRAVERSIER A VAPEUR ENTRE PICTOU ET LE CAP BRETON
M. Cameron (Inverness) demande si, durant cette session, le Gouvernement a l’intention d’accorder des subventions en vue d’etablir un service de traversier a vapeur entre le terminus du chemin de fer a Pictou, N.-E., et un port quelconque du Cap Breton.
L’honorable sir John A. Macdonald repond que le Gouvernement n’en a pas l’intention pour cette session.
SERVICE POSTAL TRANSATLANTIQUE
L’honorable Dr Tupper pose les questions suivantes au Gouvernement:—l4” question: La Compagnie Inman a-t-elle le droit, aux termes de son contrat, d’utiliser pour le service postal transatlantique un navire a vapeur aussi lent que le City of Cork, generalement considere comme impropre a ce service en raison de sa lenteur et du type de locaux prevus pour les passagers? 2e question: Le Gouvernement a-t-il pris des mesures pour verifier si le navire a vapeur City of Boston de la Compagnie Inman, qui a quitte Halifax le 28 janvier a destination de Liverpool avec du courrier et de nombreux passagers, etait surcharge et n’a done pu resister aux tempetes qu’ont affrontees les navires a vapeur Nemesis de la Compagnie Cunard et Nestorian de la Compagnie Allan, ainsi que le navire de guerre Orontes, lesquels sont tous arrives a destination sans encombre, alors que le sort du City of Boston reste un mystere?
L’honorable sir John A. Macdonald repond, qu’en ce qui concerne la premiere question, le contrat conclu avec le ministere des Postes du Gouvernement canadien autorise la Compagnie Inman a utiliser les navires a vapeur men-tionnes dans le precedent contrat avec le Gouvernement imperial et que le City of Cork est l’un de ces navires. II repond affirmativement a la deuxieme question et ajoute qu’il a regu une lettre du representant de la Compagnie Inman, a New York, affirmant que le City of Boston n’etait pas surcharge et que les reglements de la Compagnie a cet egard sont tres rigoureux et toujours observes.
DETTE DES PROVINCES
L’honorable M. Wood pose les questions suivantes:—
l4re question: Appartient-il et incombe-t-il au Gouvernement et au Parlement du Canada de determiner les divers elements de la dette de l’ancienne Province du Canada, ainsi que le montant de chaque element de ladite dette, ou cette tache appartient-elle et incombe-t-elle au
13 avril 1870
DEBATS DES COMMUNES
1009
imposed upon, the Arbitrators under the British North America Act?
2nd. Have the Arbitrators under the British North America Act anything to do with settling and determining the several items, or any of them, and the amounts thereof which shall compose that debt of the late Province of Canada and the aggregate debt of the said Province, or is the jurisdiction of the said Arbitrators in respect of said debt and several items thereof limited to the apportionment of the excess of said debt over $62,500,000 between the Province of Quebec and the Province of Ontario?
Hon. Sir John A. Macdonald said that was a question of law, and the mover, being a lawyer, was as able to answer it as he was. He would say to his honourable friend as a doctor once said when asked casually what he thought of a certain case. The doctor’s reply was, “I think you had better take advice on the subject”. (Laughter.)
Hon. Mr. Wood said he wished to know the decision of the Government on the subject.
Hon. Sir John A. Macdonald—It is a question of law.
INTERCOLONIAL RAILWAY
Hon. Mr. Connell moved for the names of the parties who have tendered for locomotives, etc., on the Intercolonial Railway.—Carried.
DOMINION SHIPPING Mr. Fortin moved for the correspondence and the return of the number of vessels owned in the Dominion in July, 1867. He believed that the present returns were not correct, the names being given of those registered, which do not represent those really owned.
Hon. Sir George-E. Cartier said that if he could show the number was greater they would all be delighted.
Mr. Fortin said that in the return presented in 1863, the tonnage was 808,431, and in 1867 the returns showed 32,000 less, and he could not believe that the tonnage had decreased, the contrary, he was persuaded, being the fact. He desired to obtain a list of the vessels sold, wrecked or otherwise disposed of, as he was persuaded there was a larger number credited than were owned in the Dominion. He knew it was difficult to obtain such a return, as they were obliged to follow the vessels to ascertain
Conseil d’arbitrage, conformement a l’Acte de l’Amerique du Nord britannique?
2e question: Le Conseil d’arbitrage institue par l’Acte de l’Amerique du Nord britannique participe-t-il de quelque maniere que ce soit a l’etablissement d’un ou de divers elements de la dette ou a la determination de leur montant, ces elements constituant la dette de l’ancienne Province du Canada et la dette globale de ladite province, ou le pouvoir du Conseil d’arbitrage, quant a ladite dette et a ses divers elements, se limite-t-il a la repartition entre le Quebec et l’Ontario du montant de la dette en sus de $62,500,000?
L’honorable sir John A. Macdonald repond qu’il s’agit d’une question de droit, et que le motionnaire, etant avocat, pourrait y repondre aussi bien que lui. II repete a son honorable ami ce qu’un medecin retorqua un jour ou on lui demandait, en passant, ce qu’il pensait d’un certain cas: «Je crois que vous devriez prendre une consultation a ce sujet». (Rires.)
L’honorable M. Wood replique qu’il desire connaitre la decision du Gouvernement.
L’honorable sir John A. Macdonald repete qu’il s’agit d’une question de droit.
CHEMIN DE FER INTERCOLONIAL
L'honorable M. Connell demande les noms des parties ayant soumissionne pour des locomotives et autre materiel ferroviaire relative-ment au chemin de fer Intercolonial.—Motion adoptee.
NAVIRES DE LA PUISSANCE
M. Fortin demande le depot de la correspondence et des dossiers concernant les navires appartenant a des ressortissants de la Puissance en juillet 1867. II croit que les dossiers actuels ne sont pas exacts, les noms mention-nes etant ceux des navires enregistres, non ceux qui appartiennent effectivement a des Canadiens.
L'honorable sir George-E. Cartier retorque que la Chambre serait enchantee s’il pouvait prouver qu’il y avait en fait un plus grand nombre de navires.
M. Fortin dit que le dossier presente en 1863 indiquait une flotte jaugeant 808,431 tonneaux, et qu’en 1867, les dossiers accusaient une baisse de 32,000 tonneaux; loin de croire que la jauge totale a diminue, il est persuade qu’elle a aug-mente. II desire une liste des navires vendus, perdus ou dont on a autrement dispose, parce qu’il est convaincu que la Puissance possede, en fait, moins de navires qu’on ne lui en attri-bue. II sait qu’il est difficile de dresser une telle liste etant donne qu’il faudrait suivre la
1010
COMMONS DEBATES
April 13, 1870
what had become of them. He did not desire to blame the officials for this, as they had, no doubt, done what they could, and he thought that if the lists were produced errors could be pointed out.
Mr. McDonald (Lunenburg) said that in the lists appeared the names of those which had been broken up twenty years before. It was most important to have a correct list prepared, and none had yet been made up.
Motion carried.
GOVERNMENT ADVERTISING
Mr. Young moved for the return of amounts paid by any of the departments for subscriptions and advertising in newspapers in 1869.
COMMUNICATION WITH NORTH-WEST TERRITORY
Dr. Grant, in moving for the Reports of the Public Works on the route of Mr. Dawson through the Thunder Bay region, said he was simply desirous of obtaining the fullest information bearing upon the very important subject of the selection of the best line of communication with the North-West Territories. He was of opinion the Government had acted judiciously in opening up at present the old canoe route of the Hudson’s Bay Co., which he hoped would be more a temporary rather than a permanent means of communication, providing the information he had received from various sources would coincide with the observations of the Department of Public Works made last season. It is a well known fact that the Thunder Bay region possesses all the physical characteristics peculiar to Laurentain regions generally, abounding in high hills and deep ravines, by far the most expensive physical difficulties to be overcome in the construction of any road. During the recent debate on the Nipigon country, the hon. member for Algoma adverted to a dam about to be built on the Matawin River, half a mile in length and sixty feet high, by which the water was to be elevated 30 feet above its present level. The estimated cost was $12,000, but from information he had received, and from his personal knowledge of the country, such a dam as proposed would cost $120,000, if not more. He was anxious from these various facts which had come within the knowledge of many, that the results of the examinations made last fall should be brought down, so that some reliable idea might be formed of the practicability or probable cost of the proposed Canal route from Thunder Bay to Fort Garry. He was of opinion this matter could not be too forcibly brought under the notice of the Government, as the remoteness of
[Mr. Fortin—M. Fortin.]
trace de tous les navires pour savoir ce qu’ils sont devenus. II ne veut pas imputer l’erreur aux fonctionnaires qui ont sans doute fait de leur mieux, et il croit que si l’on examinait les listes, on pourrait y deceler des erreurs.
M. McDonald (Lunenburg) affirme que les listes contiennent des noms de navires perdus, il y a vingt ans. On n’a pas encore prepare de liste adequate et il serait important de le faire.
La motion est adoptee.
PUBLICITE DU GOUVERNEMENT
M. Young demande le depot d’un etat indiquant les sommes payees par chaque ministere pour s’abonner a des journaux et pour y passer des annonces, en 1869.
COMMUNICATIONS AVEC LE TERRITOIRE DU NORD-OUEST
Dr Grant demande le depot des rapports des Travaux publics concernant la route suggeree par M. Dawson a travers la region de Thunder Bay, et dit qu’il desire simplement obtenir le plus de renseignements posssible, en vue de choisir la meilleure voie de communication avec le Territoire du Nord-Ouest. Il estime que le Gouvernement a judicieusement agi en ouvrant maintenant l’ancienne route pour canoe de la Compagnie de la Baie d’Hudson laquelle, il l’espere, ne sera qu’un moyen de communication temporaire, si les renseignements qu’il a re?us de diverses sources coincident avec les observations faites par le ministere des Travaux publics, la saison derniere. Il est notoire que la region de Thunder Bay pos-sede toutes les caracteristiques physiques par-ticulieres aux regions des Laurentides qui abondent generalement de grandes collines et de ravins profonds, obstacles naturels dont le franchissement est tres couteux lorsqu’on construit une route. Au cours du recent debat sur la region du lac Nipigon, 1’honorable depute d’Algoma a fait allusion a un barrage qu’on s’apprete a construire sur la riviere Matawin, barrage d’un demi-mille de longueur et de soixante pieds de hauteur qui relevera de 30 pieds, le niveau actuel de l’eau. Le cout estima-tif de cette construction est de $12,000, mais d’apres les renseignements qu’il a re?us et d’apres ce qu’il connait de la region, un tel barrage couterait $120,000 au minimum. En raison de ces divers faits portes a la connais-sance de nombreuses personnes, il attend avec impatience la publication des resultats des etudes faites l’automne dernier, qui permet-tront d’avoir une certaine idee de la navigabi-lite et du cout du canal envisage entre Thunder Bay et Fort Garry. Il estime que le Gouvernement ne devrait pas prendre une decision pre-
13 avril 1870
DfiBATS DES COMMUNES
1011
this country, and the consequent difficulty of getting reliable information in regard to it, might lead to the expenditure of large sums of money on a route which ultimately might be of no practical utility. We had only to advert to the early history of the public works of this country to be reminded, how, from insufficiency of information, larger sums of money had been expended without any beneficial result, such as in the connection of Lakes Huron and Ontario through the Trent region, fully half a million was thus thrown away prior to the finding out of a direct means of communication. What he should like to see, would be Lake Nipigon taken as a base of operations, and observations extended east and west in order to gain accurate information concerning that whole section of country, with a view to the formation of a permanent way to the Red River Territory, in the meantime the Thunder Bay Route would serve as a temporary means of communication.
Hon. Dr. Tupper said he had not sufficient information to say, how far the statements, that the route from Thunder Bay to Fort Garry was all but impracticable, were well founded; but he was satisfied that even if the most sanguine expectations of the promoters of that route were well founded, it was obvious that it must be a very imperfect line of communication, as it would be closed by winter six months in the year. He regarded the discovery made by Prof. Bell, who was declared by Sir W. Logan to be an able and reliable man, as very important. Prof. Bell informed the Committee of Agriculture and Immigration that the country, from the head of Lake Superior to Lake Nipigon, and for 90 miles westward towards Fort Garry, was very favourable for a line of railway, and he was informed that for 100 miles further it was of the same character. We know that for 90 miles east of Fort Garry, the country was level and the soil of good quality. Under these circumstances he hoped that no time would be lost in making a thorough survey from Nipigon to Fort Garry, as it was evident, that, if we would make the NorthWest Territory an important part of this Dominion, we must have rapid, easy, and constant communication with it from here at all seasons of the year.
Mr. Holmes said he was glad the hon. member for Russell had asked for the reports so far as made last fall by the Public Works Department, and under, he believed, the able charge of Mr. Munro. He knew something of the peculiarities of that section of country, and from the various reliable accounts he received,
maturee, puisque l’eloignement de cette region et, partant, la difficulty d’obtenir des rensei-gnements surs en ce qui la concerne, peuvent mener a des depenses considerables pour une route qui pourrait, ulterieurement, n’etre d’au-cune utilite. Nous n’avons qu’a nous reporter aux debuts des travaux publics dans ce pays pour nous rappeler comment, par manque de renseignements, on a depense inutilement des sommes plus importantes encore. Ainsi, pour relier le lac Huron au lac Ontario, en passant par la region de Trent, on a gaspille un demi-million avant de trouver un moyen de communication direct. Ce qu’il preconise, c’est que le lac Nipigon serve de base d’exploration vers l’est et l’ouest afin d’obtenir des renseignements precis sur l’ensemble de cette region en vue de l’etablissement d’une route permanente vers le territoire de la Riviere Rouge; entre-temps, la route de Thunder Bay servirait de voie de communication provisoire.
L’honorable Dr Tupper dit que le manque de renseignements l’empeche de se prononcer sur les declarations selon lesquelles la route entre Thunder Bay et Fort Garry serait impra-ticable; d’apres lui, meme si les previsions les plus optimistes des promoteurs de cette route sont fondees, il n’en est pas moins evident que cette voie de communication serait tres mediocre puisqu’elle serait fermee durant l’hiver, soit six mois par an. II considere la decouverte du professeur Bell, que sir W. Logan estime competent et digne de confiance, comme tres importante. Le professeur Bell a en effet informe le Comite de 1’Agriculture et de l’lm-migration que la region s’etendant de la source du lac Superieur jusqu’au lac Nipigon et sur une distance de 90 milles a l’ouest, vers Fort Garry, convenait parfaitement a la construction d’une voie ferree; il a ajoute que les 100 milles suivants seraient tout aussi favorables, d’apres ce qu’on lui avait dit. Nous savons que sur une distance de 90 milles a l’est de Fort Garry, le pays est plat et le sol, de bonne qualite. Il (Dr Tupper) espere done qu’on ne tardera pas a etudier de maniere approfondie la zone situee entre le lac Nipigon et Fort Garry, car il est evident que si nous voulons faire du Territoire du Nord-Ouest une partie importante de la Puissance, nous devons pouvoir nous y rendre rapidement, facilement et en tout temps.
M. Holmes dit qu’il est heureux que l’hono-rable depute de Russell ait demande au minis-tere des Travaux publics de deposer les rapports faits jusqu’a l’automne dernier sous la direction competente de M. Munro. Il connait quelque peu les caracteristiques de cette partie du pays, et d’apres les divers comptes rendus
1012
COMMONS DEBATES
April 13, 1870
he thought the construction of a road in the Thunder Bay region would be attended with great difficulty and a very large expenditure of public money. He was one of those who believed that the sooner we had a permanent way to the North-West the better. He had considerable experience in road construction, and felt satisfied that the mountainous country about Thunder Bay and westward would not prove very conducive to road construction. What he would like to see, would be a continuous route such as a railroad to the NorthWest, which must take the place of any land and water communication as proposed by Mr. Dawson. Under these circumstances he hoped a thorough exploration would be made through the level country to the north of Lake Superior, in the Nipigon region, as recommended by Professor Bell, before the Government would undertake the expenditure of large sums of public money on the road now in process of construction.
Hon. Mr. Langevin said that when Dawson was sent out, he was sent to open up a temporary road to Fort Garry. The work was commenced, and the road built, except 27 miles. Mr. Dawson, in his report, recommended the construction of a very large and expensive dam. Mr. Munro was afterwards sent up to make further examinations as to the feasibility of the route. This gentleman’s report had only been in for a few days. New surveys were to be made of the region between Nipigon and Fort Garry, the object of which was to discover whether a mixed route of land and water would not be best. Measures would be adopted to ensure that no difficulty should arise between the surveyors and Indian tribes of that section. Next session the Government would be able to tell the House whether or not a better road cannot be had to the North-West.
Mr. Mackenzie said the land in the Nipigon country was a terra incognita to every one. No one had been there who was qualified to state what were the facilities offered by this section of country. He himself believed that the Nipigon route would be the longest, as the lake was further from Fort Garry than Thunder Bay, which was also the best harbour. Because there was some good available land in Nipigon, was no reason why that route should be adopted. He cautioned the Government against paying too much attention to hints about a new country without a thorough examination. By the present route they had about 300 miles of water communication, and 130 miles of land, and so far the route was favourable. The Nipigon was difficult to reach in many ways, and they knew little of the country except the land around the
[Mr. Holmes—M. Holmes.]
qu’il a recjus et qui sont dignes de foi, il pense que la construction d’une route dans la region de Thunder Bay poserait de graves problemes et entrainerait des depenses considerables de deniers publics. II est l’un de ceux qui estiment que plus vite on disposera d’une route perma-nente vers le Nord-Ouest, mieux cela vaudra. II a beaucoup d’experience dans la construction de routes et estime, a ce titre, que la region montagneuse aux environs de Thunder Bay et a l’Ouest ne se prete pas beaucoup a ce genre d’amenagement. Ce qu’il preconise en revanche, c’est la construction d’une voie ininter-rompue de communication comme une voie ferree, vers le Nord-Ouest, au lieu d’une route ou d’une voie navigable, comme l’a propose M. Dawson. II espere done, qu’on explorera a fond le territoire plat au nord du lac Superieur, dans la region du lac Nipigon, comme le recom-mande le professeur Bell, avant que le Gouver-nement ne depense des sommes considerables pour la route actuellement en voie de construction.
L'honorable M. Langevin dit que la mission de M. Dawson etait d’ouvrir une route tempo-raire vers Fort Garry. On a commence les tra-vaux, et 27 milles de route seulement restent a construire. Dans son rapport, M. Dawson recommandait la construction d’un barrage imposant et tres couteux. Par la suite, on avait envoye M. Munro etudier plus avant cette voie et son rapport n’a ete reeju qu’il y a quelques jours. On doit entreprendre bientot de nouvel-les etudes sur la region entre le lac Nipigon et Fort Garry, afin de determiner si une voie mixte par terre et par eau ne constituerait pas la meilleure solution. On prendra des mesures pour eviter toute difficulty avec les tribus indiennes de ce secteur. Le Gouvernement pourra done, a la prochaine session, preciser a la Chambre si l’on peut reellement construire une meilleure route vers le Nord-Ouest.
M. Mackenzie dit que la region du lac Nipigon est totalement inconnue pour tout le monde. Aucune personne competente ne s’y est rendue pour constater les possibilites qu’elle offre. Pour sa part, il croit que la route du Nipigon serait la plus longue, puisque le lac se trouve plus loin de Fort Garry que de Thunder Bay, qui est aussi le meilleur havre. Le fait qu’on trouve de la bonne terre dans la zone du Nipigon ne suffit pas pour choisir cette route. Il avertit le Gouvernement de ne pas prendre de decisions prematurees au sujet d’un nouveau territoire, s’il n’a pas etudie a fond ce dernier. Par la route actuelle qui, jusqu’a present, s’est averee tres utile, il y a a franchir 300 milles sur l’eau et 130 milles sur terre. Le lac Nipigon est difficile d’acces a bien des egards, et l’on ne connait presque rien de ce territoire,
13 avril 1870
DEBATS DES COMMUNES
1013
shores of that lake. Nipigon Lake was 160 feet above the water level of Lake Superior, and the harbour at the mouth of Nipigon river was not in any way as favourable as the Thunder Bay harbour. He would like to know if the survey of Mr. Dawson was the same as that made by the Department of Public Works.
Hon. Mr. Howe said that Thunder Bay appeared to him to be a great harbour formed by nature. He trusted that the Minister of Public Works would give the whole matter, of such vast importance, an earnest and prudent consideration.
Dr. Grant said it was a well known fact, that all those who have either seen or written about this section of the country agree as to its level character. The recent work of Mr. Russell, of this city, contains much useful information on this very subject, and it is well known that the vast Laurentian Range, which crosses a great portion of the Dominion of Canada, is backed up by a level country extending up the valley of the Ottawa towards the Montreal River, and on to the Winnipeg basin. Such is also corroborated by various explorers who have visited these sections of the country. Prof. Bell pointed out the existence of a level Silurian country in the Nipigon region entirely different from what was generally supposed, and well adapted for railway communication. Lake Nipigon is 150 feet above the level of Lake Superior, instead of 400 feet as generally stated. He was not aware that any particular survey of the Matawin and Shebandowan had been made by Mr. Dawson, where public works, involving a large expenditure of money, were to be constructed. Last session when the Government learned the facts, an examination under the charge of their able chief, Mr. Page, was at once set on foot, and now it is known from the physical features of that section that it will be an exceedingly difficult matter to hold the requisite body of water, even after the proposed dam on the Matawin was constructed. The fact of gentlemen holding mineral lands about Thunder Bay should not be a sufficient reason for the advocacy of this route in preference to a more available means of communication. He felt satisfied the Nipigon country would offer all the physical peculiarities favourable to railway construction, and he hoped that the day was not far distant when the first link of such a railroad would be commenced, and extended to the Atlantic on the one hand and the Pacific on the other, and thus consolidate our Dominion.
The motion was carried.
sauf les alentours du rivage. Ce lac se trouve a 160 pieds au-dessus du niveau du lac Superieur, et le havre a l’embouchure de la riviere Nipigon est loin d’offrir les memes avantages que le havre de Thunder Bay. II (M. Mackenzie) desire savoir si l’etude faite par M. Dawson etait la meme que celle du ministere des Tra-vaux publics.
L'honorable M. Howe estime que Thunder Bay est un havre naturel ideal. II espere que le ministere des Travaux publics considerera serieusement et judicieusement cette si impor-tante question.
Dr Grant dit que tous ceux qui ont visite ce territoire ou qui l’ont decrit conviennent qu’il est plat. Le recent ouvrage de M. Russell, de cette ville, contient beaucoup de renseigne-ments tres utiles a ce sujet, et l’on sait parfaite-ment qu’au-dela de la vaste chaine des Lauren-tides, qui traverse une grande partie de la Puissance, le territoire est plat et s’etend jus-qu’a la vallee de l’Outaouais, vers la riviere Montreal et jusqu’au bassin de Winnipeg. Plu-sieurs explorateurs, qui ont parcouru ces terri-toires, abondent dans le meme sens. Le profes-seur Bell souligne qu’il existe, dans la region du Nipigon, un terrain silurien plat, ne ressem-blant en rien aux descriptions qu’on en fait generalement, et se pretant parfaitement a la construction d’une voie ferree. Le lac Nipigon se trouve a 150 pieds au-dessus du niveau du lac Superieur et non pas a 400 pieds, comme on le dit en general. II ne savait pas que M. Dawson avait fait des leves dans la region de Matawin et Shebandowan ou l’on devait entre-prendre des travaux de construction entrainant des depenses considerables. II rappelle que, lorsque le Gouvernement en a ete informe au cours de la derniere session, il a charge imme-diatement le competent M. Page d’entrepren-dre une etude sur cette zone; et on sait main-tenant qu’en raison des caracteristiques physiques de ce territoire, il serait extreme-ment difficile d’y retenir la quantite d’eau necessaire malgre le barrage qu’on projette de construire sur la riviere Matawin. Le fait que certaines personnes possedent des terrains riches en mineraux aux environs de Thunder Bay, ne devrait pas justifier le choix de cette route, de preference a une voie de communication plus aisee. Il est convaincu que la zone du lac Nipigon comporte toutes les caracteristiques physiques propices a la construction d’une voie ferree, et il souhaite voir bientot le jour ou Ton entreprendra la construction d’un chemin de fer se prolongeant vers Test jusqu’a l’Atlantique et vers l’ouest jusqu’au Pacifique, pour renforcer notre Puissance.
La motion est adoptee.
1014
COMMONS DEBATES
April 13, 1870
LAND IMPROVEMENT FUND
Hon. Mr. Wood moved for the appointment of a Select Committee on the Land Improvement Fund of Upper Canada. He said that motion referred to the resolution, which was considered the other day. The Leader of the House was the guardian of its liberties, and he called upon that hon. gentleman to see that nothing was placed upon the Journals of the House, which might be established as a precedent injurious to those liberties. He had moved a certain resolution relating to the “Upper Canada Land Improvement Fund,” and on objection being taken thereto by the hon. member for Bellechasse on the ground that the House could not consider the resolution in the manner proposed, and that it should have originated in Committee of the Whole. The ruling of the Speaker was that the “objection was good,” that “he thought the resolution should originate in Committee of the Whole,” and that “unquestionably the resolution involved a charge on the public purse of the Dominion.” He thought that inadvertently the Speaker, for the moment, had fallen into an error by mistaking the legal scope and object of the resolution, as distinguished from a resolution or motion having for this direct object a charge on the revenue or imposition of a tax or impost, which, by the rules of the House and the 54th section of the British North America Act, could only be moved by first being recommended by a message from the Crown. The resolution proposed was no effectual step in the direction of appropriating any part of the public revenue, or imposing any tax or impost. But if passed, it would be barren of results. The rule of that House in that respect was the same as that of the Commons in England, except that the Commons retained the right of approaching the Crown in such cases, as well as in all others, with its constitutional advice. But the right of addressing the Crown in respect of the appropriation of any part of the public revenue or taxation was taken away from that House by the 54th section of the British North America Act, but nevertheless leaving it to the House, where any case arose wherein it might appear to be the duty of the House to point out to Government public charges which ought to be incurred, the undoubted right and authority so to do, by the adoption of a resolution expressing an abstract opinion in favour of the proceeding, which might necessitate a future grant of money. That did not finally bind the House to make the grant. It was not, in fact, by the rules of the House and the law of Parliament, even a step in that direction. It simply threw upon the Government of the day the responsibility of accepting or rejecting the recommendation. He
[Dr. Grant—Dr Grant.]
FONDS D’AMELIORATION DES TERRES
L'honorable M. Wood propose l’institution d’un comite special pour l’etude du Fonds d’amelioration des terres du Haut-Canada. II dit que cette motion se rapporte a la resolution examinee l’autre jour. Comme le leader de la Chambre defend les privileges de cette der-niere, il demande a cette honorable personne de bien vouloir veiller a ce qu’on ne consigne dans les journaux de la Chambre aucun fait susceptible d’etre considere comme un precedent prejudiciable a ces privileges. II (l’honora-ble M. Wood) avait propose une resolution relative au «Fonds d’amelioration des terres du Haut-Canada» et l’honorable depute de Bellechasse s’y etait oppose en alleguant que la Chambre ne pouvait pas l’etudier telle quelle et qu’elle aurait du etre presentee en Comite plenier. L’Orateur avait declare que «l’objec-tion etait valable*, qu’a son avis, la resolution aurait du en effet etre presentee en Comite plenier et qu’elle impliquait sans nul doute un prelevement de fonds a meme les deniers publics de la Puissance. II croit que, par inad-vertance, l’Orateur a confondu la portee et l’ob-jet legal de la resolution. Celle-ci ne visait pas directement le prelevement de fonds ou la fixation d’une taxe ou d’un impot qui, en vertu des reglements de la Chambre et de l’article 54 de l’Acte de l’Amerique du Nord britannique, ne peuvent etre demandes que si un Message de la Couronne en fait au prealable la recommanda-tion. La resolution ne fait pas reellement un pas vers la repartition d’une part quelconque des deniers publics ou vers la fixation d’une taxe ou un impot quelconque et, si on l’adopte, elle sera sans consequence. La regie de la Chambre, a cet egard, est la meme que celle de la Chambre des Communes de Londres, sauf que dans ces cas comme dans tous les autres, les Communes britanniques se reservent le droit de donner a la Couronne leur avis du point de vue constitutionnel. Or, aux termes de l’article 54 de l’Acte de l’Amerique du Nord britannique, la Chambre a perdu le droit de s’adresser a la Couronne en ce qui concerne le prelevement d’une partie quelconque des reve-nus publics ou l’imposition d’une taxe. Cepen-dant, si la Chambre croit qu’il est de son devoir dans certains cas, de faire valoir au Gouverne-ment la necessity d’affecter des fonds publics a des fins particulieres, elle a le droit et le pou-voir irrefutables de le faire par l’adoption d’une resolution qui, bien que sans effets immediats, peut entrainer plus tard l’allocation de deniers publics. En fait, une telle resolution n’impose aucun engagement, et d’apres les reglements de la Chambre et la loi du Parle-ment, elle n’est pas necessairement suivie d’une mesure plus concrete. Elle donne simple-ment au Gouvernement, le pouvoir d’accepter
13 avril 1870
d£bats des communes
1015
would admit that the right of that House, to which he referred, should be exercised with reserve, for in a certain sense it might lead to the evasion of a wholesome rule affecting the public expenditure. But that it was one of the ancient and undoubted rights and privileges of the House to express its opinion on all questions affecting the interest of the public, and also to express, in general terms, its opinion upon the merits of any particular case, as was proposed in the resolution declared out of order, without directly asserting that a grant of money should be made, or was required, was well settled and should not be surrendered without due consideration, nor without the deliberated and express sanction of the House. The ruling in the present case had prevented the House from expressing its opinion on a subject vitally affecting the interests of half a million of people. And he (Hon. Mr. Wood), who had undertaken their advocacy, was subjected to the odium of having proceeded irregularly in bringing their suit before that House. If the record stood unamended it could at anytime be cited against him, and to it he could make no reply. He would of necessity plead guilty, whereas, in truth and fact his resolution was strictly in order, and on its merits he was entitled to the opinion of the House. He had, therefore, two objects in view, one was to prevent the ruling of the Speaker from being drawn into a precedent, and the other was to set himself right before the country. The honour and good faith of the country was involved in this matter, and he thought the House ought to listen particularly to the complaints of those people and see whether they were well founded. He moved, (seconded by Mr. Oliver) the appointment of the following Select Committee:—Hon. Messrs. Anglin, Archibald and Smith; Messrs. Savary, Bolton, Colby, Masson (Terrebonne); Hon. Mr. Dorion; Messrs. Scatcherd, Drew, Ferguson, Irvine, and the mover.
Mr. Casault said the question raised by the member for Brant was a purely legal one, and one that should and must be submitted to the Arbitrators and not to this House. The mover only desired to make an impression on the Arbitrators, otherwise he would not have brought the matter here.
Hon. Mr. Wood denied that he had done so, his only object being to protect the poor settlers.
Mr. Casault entered into details at considerable length with regard to the formation and disposal of the fund in question.
Mr. Ferguson said the last speaker had wandered from the point. The question was simply
ou de rejeter la recommandation. II pourrait admettre que la Chambre n’exerce qu’avec cir-conspection, le droit en question qui, dans un certain sens, risque de la faire deroger a une regie essentielle quant aux deniers publics. Mais la Chambre jouit depuis tres longtemps du droit et du privilege incontestables d’expri-mer son opinion sur toutes les questions relatives a l’interet public et de donner son avis general sur un cas particulier quelconque, comme le proposait la resolution declaree irre-cevable, sans pour autant qu’il y ait lieu ou necessite d’affecter des fonds publics. Ce droit est bien etabli et on ne saurait l’abolir sans raison valable, ni sans le consentement deli-bere et expres de la Chambre. La decision rendue, dans le cas present, a empeche la Chambre d’exprimer son opinion sur un sujet d’une importance capitale pour les interets d’un demi-million de gens. Et lui (l’honorable M. Wood) a ete odieusement accuse d’avoir enfreint le reglement en defendant les droits de ces personnes devant cette Chambre. Si les choses en restaient la, la question pourrait etre citee en tout temps a son detriment, et il n’au-rait rien a repondre. II devrait plaider coupa-ble, alors qu’en verite, sa resolution etait tout a fait pertinente et que son bien-fonde l’autori-sait a demander l’avis de la Chambre. II a done deux buts: empecher que la decision de l’Ora-teur ne devienne un precedent et demontrer a la population qu’il a raison. Cette affaire met en jeu l’honneur et la bonne foi du pays, et il croit que la Chambre devrait ecouter les plain-tes de ces gens et en verifier le bien-fonde. Il propose (appuye par M. Oliver) la nomination d’un comite special comprenant les deputes suivants; les honorables messieurs Anglin, Archibald et Smith; MM. Savary, Bolton, Colby, Masson (Terrebonne); l’honorable M. Dorion, MM. Scatcherd, Drew, Ferguson, Irvine, et le motionnaire.
M. Casault dit que la question soulevee par le depute de Brant est une question strictement juridique laquelle doit etre soumise au Conseil d’arbitrage et non a cette Chambre. Le motionnaire a simplement voulu impressionner les arbitres, autrement il n’aurait pas souleve cette question ici.
L'honorable M. Wood refute cette allegation, affirmant que son seul souci est de prote-ger les pauvres colons.
M. Casault explique longuement le mode de constitution et d’utilisation du fonds en question.
M. Ferguson dit que le dernier orateur s’est perdu en digressions. La question etait simple-
1016
COMMONS DEBATES
April 13, 1870
whether the settlers had been induced to purchase land and settle them on the understanding that they were to be allowed one-fourth of the price for improvements. The question was whether it was intended to deal fairly with the settlers and carry out the agreement with them in good faith. The moment that the Order in Council was cancelled giving this amount, subsequent purchasers would have no claim; but those who had purchased previously, although they had not paid up, were clearly entitled to the deduction. Had Mr. Casault not been afraid of his case he would not oppose the Committee which was composed of members from all the Provinces. He said he had twelve months ago offered to submit the case to Mr. Cameron alone, who was an Upper Canadian.
Mr. Jackson said this was a matter for common sense rather than law. It was clear that the Order in Council did not confer the grant but the law itself, in which the Order in Council and the Act was explicit, that there should be one-fourth of the school funds in the Huron Tract set aside for improvements, the balance to form the Common School Fund. He denied that an Order in Council could rescind this, as all the funds from that land were to be set aside for improvements or for Common School Funds. It must be remembered too that half a dollar an acre had better be added to the price to provide for the improvement.
It being six o’clock the Speaker left the chair.
After recess,
The House went into Committee on the Bill intituled: “An Act respecting the Canada Central Railway”, Mr. Jones (Leeds and Grenville) in the chair.
Hon. Mr. Macdonald (Cornwall) said he had given considerable attention to that matter, but would not detain the House with a long speech—The hon. gentleman spread out a map on the floor of the House, and pointed out certain localities, occasioning considerable merriment amongst the members—He said when the proper time came he would give the people of Ontario to understand that their rights were laughed out of that House when that Bill which assailed those rights was brought forward. It would be a matter for the hustings, to show that laughter was raised when a Bill came up which wanted to give away thousands of acres of public lands to advance the interests of a monopoly and a ring. He had no personal interest in the matter, but
[Mr. Ferguson—M. Ferguson.]
ment de savoir si l’on avait persuade les colons d’acheter une terre et de s’y etablir en leur laissant croire qu’ils beneficieraient d’un quart du prix a des fins d’amelioration. II s’agit de determiner si l’on avait l’intention de traiter honnetement avec les colons et de respecter les engagements pris a leur egard. Des l’instant ou le Conseil a decrete l’annulation de l’accord relatif a cette somme, les acheteurs eventuels ne pouvaient reclamer quoi que ce soit; mais ceux qui avaient deja achete une terre, meme s’ils ne l’avaient pas entierement payee, avaient droit a cette reduction. Si M. Casault n’etait pas aussi intimide par cette situation, il ne s’opposerait pas a la formation de ce comite lequel se compose de deputes provenant de toutes les provinces. II dit qu’il y a douze mois, il a propose qu’on soumette l’affaire exclusive-ment a M. Cameron qui vient du Haut-Canada.
M. Jackson estime que c’est une question de bons sens plutot qu’une question de droit. Il est evident que le decret en Conseil n’implique pas l’octroi de la subvention, mais la loi, qui expli-cite le decret en Conseil et l’Acte, stipule clai-rement que 25 pour cent des fonds de la region du lac Huron doivent etre consacres aux ameliorations, et que le reste constitue le Fonds scolaire commun. Il nie qu’un decret en Conseil puisse abolir cette regie, puisque tous les fonds provenant de cette terre doivent servir aux ameliorations ou etre verses dans le Fonds scolaire commun. Il rappelle egalement qu’il fau-drait hausser le prix des terres de cinquante cents l’acre, aux fins d’ameliorations.
L’Orateur leve la seance a six heures.
A la reprise de la seance,
La Chambre se forme en Comite sous la presidence de M. Jones (Leeds et Grenville), pour etudier le Bill intitule: «Acte relatif a la Compagnie de chemin de fer du Canada Central*.
L’honorable M. Macdonald (Cornwall) dit
qu’il a examine cette question avec la plus grande attention, mais qu’il ne retardera pas la Chambre en pronongant un long discours— L’honorable depute etale une carte geographi-que sur le plancher de la Chambre et indique certaines localites a la plus grande joie des deputes—Il dit que, le moment venu, il fera comprendre aux Ontariens qu’on s’est moque de leurs droits a la Chambre lors de la presentation d’un Bill qui lese ces droits. On pourrait en tirer parti dans un programme electoral pour montrer que seuls des rires ont accueilli un Bill ayant pour objet de donner des milliers d’acres de terres publiques a un monopole ou a une clique. Cette affaire ne l’interesse pas per-sonnellement; il defend simplement les interets
13 avril 1870
DEBATS DES COMMUNES
1017
merely moved in on public grounds. If it were a School Bill that were up, the half of the members of the House would be round this map to see where a certain school house was to be located; the hon. gentleman went on to point out localities on the map, and to show that the proposed line should not receive the support of the House. He would move at the proper time an amendment to the effect “that the line of road now in course of construction between the City of Ottawa and Carleton Place should not form part of the Central Railway, as far as respects the claim for any grant of public lands”.
Hon. Mr. Chauveau said the interests of the Dominion Government were as much concerned in this matter as those of the Local Governments. The Government of Quebec was greatly interested in the preservation of the public lands, and was against granting them to any Company whatsoever. The principle enunciated by the Premier of Ontario as to the inexpediency of handing over the lands was worthy the attention of the House, and before the Bill passed its third reading he (Mr. Chauveau) would propose an amendment which would embody that principle.
Hon. Mr. Abbott said the Company was not a bogus Company, the enterprise was not a swindling one. He then went into a long explanation of the details connected with the history of the Company.
The hours allotted to private Bills having elapsed, the Committee rose and reported progress.
EASTER MONDAY
Hon. Mr. Holton said before proceeding with orders of the day he would like to say a word respecting the meeting of the House on Monday, which was the only unlimited day they had for private Bill Legislation. He hoped the Government would arrange to allow the House to meet on Monday in order that the House should have before the last sands of the Session had run out, one more open day for private Bills.
Mr. Ferguson hoped the Government would not make any rash promise on the subject. If some hon. gentlemen had not brought forward motions for the purpose of making long speeches the House would have finished long ago. He thought that if the House sat on Monday it would cause great inconvenience to many members who did not expect that the House would sit on that day.
Hon. Sir John A. Macdonald said he would take steps to ascertain, before tomorrow night, the sentiments of the House on the subject.
publics. S’il s’agissait d’un Bill sur les ecoles, la moitie des membres de la Chambre serait reunie autour de cette carte afin de voir ou se situerait une certaine ecole; l’honorable depute indique d’autres endroits sur la carte pour con-vaincre la Chambre de ne pas appuyer le projet de voie ferree. II presentera, en temps oppor-tun, une modification disant que «la voie actuellement en construction entre la ville d’Ottawa et Carleton Place ne devrait pas faire partie du chemin de fer du Canada Central, aux fins de la demande d’une concession quel-conque de terres publiques».
L’honorable M. Chauveau dit que, dans cette affaire, les interets du Gouvernement de la Puissance sont en cause au meme titre que ceux des gouvemements locaux. Le Gouvernement du Quebec est desireux de conserver les terres publiques et s’oppose a ce qu’on les cede a une compagnie quelle qu’elle soit. Le principe enonce par le premier ministre de l’Ontario quant a l’inopportunite de conceder des terres, merite l’attention de la Chambre, et avant de proceder a la troisieme lecture du Bill, il (M. Chauveau) proposera un amendement en faveur de ce principe.
L’honorable M. Abbott dit que la Compagnie en question n’est pas une Compagnie frau-duleuse et que l’entreprise n’est pas malhon-nete. II donne ensuite avec force details l’historique de la Compagnie.
Comme le temps alloue aux Bills prives est ecoule, le Comite leve la seance et fait rapport.
LUNDI DE PAQUES
L’honorable M. Holton mentionne qu’avant de revenir a l’ordre du jour, il desire donner son avis sur la seance que la Chambre devrait tenir lundi, seul jour entierement reserve a la discussion des Bills prives. Il souhaite que le Gouvernement autorise la Chambre a tenir seance lundi, afin de lui accorder, avant que la session ne s’acheve, une journee supplemen-taire pour discuter de ces Bills.
M. Ferguson souhaite que le Gouvernement ne fasse aucune promesse inconsideree a ce sujet. Si certains honorables deputes n’avaient pas presente des motions dans le seul but de faire de longs discours, la Chambre serait deja ajournee depuis longtemps. Il estime que de nombreux deputes, qui n’ont pas prevu de sieger lundi, seront tres ennuyes si la Chambre tient neanmoins seance ce jour-la.
L’honorable sir John A. Macdonald dit qu’il prendra des mesures pour s’enquerir avant
1018
COMMONS DEBATES
April 13, 1870
Mr. Mackenzie said several gentlemen on his side of the House had left Ottawa after pairing off with gentlemen on the other side, and after he had expressed his opinion that the House would sit on Monday. Those gentlemen went away with that belief. He hoped the House would sit on Monday, as there were no conscientious objections to do so on the part of hon. members, (hear, hear).
The subject then dropped.
BILLS FROM THE SENATE
Several Bills from the Senate were read a first time.
MASTERS’ AND MATES’ CERTIFICATES
A Bill intituled: “An Act respecting Certificates to Masters and Mates of Ships” was read a third time and passed.
COMMITTEE OF SUPPLY
The House then went into Committee of Supply—Hon. Col. Gray in the chair.
On the item of $25,000 for the police of the Dominion,
Mr. Mackenzie said that there was an increase of $5,000. He asked what was the reason of the increase?
Hon. Sir John A. Macdonald said the police were very strong just now, for reasons the hon. gentleman would understand. They were very numerous on the frontier at present.
Item agreed to.
On the items of Water Police, Montreal, of $8,030,
Hon. Sir John A. Macdonald claimed credit for a reduction from $11,628 voted last year.
Mr. Mackenzie said there had been a discussion on the matter last session, and the Government promised to bring forward regulations that would make the service uniform. They were at present under municipal direction.
Hon. Sir John A. Macdonald said, from the nature of Quebec harbour, the municipality had no control over the whole of it. For the purpose of keeping order, a system of harbour police was adopted.
Mr. Mackenzie said the ground he took last session was, that the police would be much
[Hon. Sir John A. Macdonald—L'hon. sir John A. Macdonald.]
demain soir, de l’opinion de la Chambre a ce sujet.
M. Mackenzie dit que plusieurs deputes, de son cote de la Chambre, ont quitte Ottawa apres pairage avec des deputes d’en face, et apres qu’il eut dit que la Chambre tiendrait seance lundi. Ils sont done persuades qu’il en sera ainsi. II espere que la Chambre tiendra seance lundi, puisque les honorables deputes n’ont pas d’objection reelle a ce sujet. (Bravo!)
On passe a autre chose.
BILLS DU SENAT
Plusieurs Bills du Senat sont lus une premiere fois.
CERTIFICATS DE CAPITAINES ET DE SECONDS DE NAVIRES
Un Bill intitule: «Acte concernant les certifi-cats de capitaines et de seconds de naviresx est lu une troisieme fois et adopte.
COMITE DES SUBSIDES
La Chambre se forme ensuite en Comite des Subsides sous la presidence de l’honorable colonel Gray.
Concernant la somme de $25,000 affectee au service de la police de la Puissance,
M. Mackenzie declare qu’il y a $5,000 de plus qu’auparavant et demande pourquoi.
L’honorable sir John A. Macdonald dit
qu’actuellement, l’effectif de la police est tres important pour des raisons que l’honorable depute connait. II ajoute que les policiers sont tres nombreux a la frontiere a l’heure actuelle.
Le credit est adopte.
Au sujet d’une somme de $8,030 affectee au service de la police du havre de Montreal,
L’honorable sir John A. Macdonald dit qu’il a reussi a reduire ce credit qui etait de $11,628 l’an dernier.
M. Mackenzie dit qu’on a traite de cette question au cours de la derniere session et que le Gouvernement avait promis d’instituer des reglements afin d’uniformiser le service qui releve actuellement de la municipalite.
L’honorable sir John A. Macdonald dit que
la municipalite n’exerce pas son controle sur l’ensemble des havres du Quebec, etant donne leur nature. Afin de maintenir l’ordre, on a adopte un systeme de police portuaire.
M. Mackenzie dit qu’a la derniere session, il etait d’avis que la police serait beaucoup plus
13 avril 1870
DEBATS DES COMMUNES
1019
more efficient under the local administration, than under the control of officials who were not present. That had not been done, and he supposed it would not be. The present charges on vessels was one-fourth more than would be required under a different system.
Hon. Dr. Tupper thought that local management would be more likely to increase the charges. He thought that there was a good ground made out for a reduction of charges on vessels.
That item, and also that of $9,456 for the river police at Quebec, were carried.
Item of $45,270, for salaries and contingencies of the Senate, was passed.
On the item of $80,065, for salaries and contingencies of the Commons,
Mr. Mackenzie called attention to the item of $5,000 for postage and telegrams. His impression was that the postage was now about $2,300, and he did not see what need there was for such an amount to be expended on telegrams.
Hon. Sir Francis Hincks said it was the
same item as last year—Item carried.
On salaries and contingencies for Sergeant-at-Arms’ estimate $40,468.75,
Hon. Mr. Anglin thought there were many more sessional clerks than any need existed for. Item carried without explanation.
On the item of $1,000, to pay the Chairman of Commissioners under the House of Commons Internal Economy Act, in full of all services, attendances and travelling expenses during the year,
Mr. Mackenzie said this Commission consisted of three members of the Government, the Speaker as Chairman. That hon. gentleman received a salary of $3,200, besides the ordinary sessional allowance to members. He considered that that allowance was ample remuneration for his duties. The Speaker of the House, under the former system, had to manage the affairs of the House during recess, and he could now surely do that, with the assistance of three members of the Government. Yet the Government offered him an additional $1,000, which made his salary actually nearly $5,000. He objected to such a vote ever being allowed to pass the Committee.
efficace si elle relevait de l’administration locale plutot que de fonctionnaires ne se trou-vant pas sur place. On n’a pas tenu compte de son opinion, et il suppose qu’on ne le fera pas. Les frais actuellement imposes aux navires sont superieurs de 25 pour cent a ce qu’ils auraient ete sous un autre regime.
L’honorable Dr Tupper estime qu’une administration locale aurait plutot tendance a aug-menter les frais. II croit done que e’est une bonne raison pour reduire les frais imposes aux navires.
Ce credit, ainsi que le credit de $9,456 pour la police de rade a Quebec sont adoptes.
Le credit de $45,270 pour les traitements et les depenses contingentes du Senat est adopte.
Au sujet de la somme de $80,065 pour payer les traitements et les depenses contingentes de la Chambre des Communes,
M. Mackenzie attire l’attention de la Chambre sur la somme de $5,000 demandee pour payer les frais de port et de telegrammes. D’apres lui, les frais de port s’elevent actuellement a environ $2,300, et il ne voit pas pour-quoi on aurait besoin de $2,700 pour les frais de telegrammes.
L'honorable sir Francis Hincks dit que la
somme est la meme que l’annee derniere—Le credit est adopte.
Au sujet de la somme de $40,468.75 pour les traitements et les depenses contingentes des sergents-d’armes,
L’honorable M. Anglin croit que les employes de session sont trop nombreux. On adopte le credit sans plus d’explications.
Au sujet du credit de $1,000 devant servir de paiement au President des commissaires nomme en vertu de l’Acte sur l’economie interne de la Chambre des Communes, pour tous services, frais de sejour et de voyage durant l’annee,
M. Mackenzie dit que la Commission com-prend trois membres du Gouvernement et est presidee par l’Orateur. Cet honorable depute regoit un traitement de $3,200, en plus de l’in-demnite de session habituelle. Il estime que cette indemnite le remunere largement. Selon le systeme precedent, l’Orateur de la Chambre devait s’occuper des affaires de la Chambre pendant les vacances parlementaires, et l’Ora-teur actuel peut surement le faire lui aussi, d’autant plus qu’il dispose de l’aide de trois membres du Gouvernement. Cependant, le Gouvernement veut lui offrir $1,000 de plus, ce qui porterait son traitement a pres de $5,000. Il s’oppose fermement a l’adoption d’un tel credit.
1020
COMMONS DEBATES
April 13, 1870
Hon. Sir Francis Hincks said the Speaker was put to considerable expense by those duties, and it was quite open to the House to give him the additional sums as recompense.
Mr. Young thought it an objectionable item. He thought that if the Speaker’s salary was too low it should be increased, but that system of increasing salaries by side-winds, which had been in force during the past two years, was very objectionable. Duties had devolved upon the Speaker before, and could not be more onerous now that he was assisted by members of the Government.
Hon. Sir John A. Macdonald said the increase was not by a side-wind; it was a direct vote of the House. The Speaker received his salary for duties devolving upon him during the session.
Mr. Mackenzie—And during the recess.
Hon. Sir John A. Macdonald said the Speaker had no responsibility during the recess at all. Previously the Committee of Contingencies fulfilled those duties. The Speaker did not live in Ottawa, and was often obliged to come down at considerable expense. Considerable economy had resulted from the alteration, and he thought the House would not object to the increase.
Mr. Mackenzie said he should do so for one. The Minister of Justice did not wish to mislead the House; but, with regard to the Committee of Contingencies, it had not reported for two years, and the Speaker had always entire control of the House during recess. There was another aspect. If they increased the salary of the Speaker of the Commons in that way, they must also increase that of the Speaker of the Senate. He thought the Government had acted quite wrongly in introducing that item in the estimates, and he should move that it be struck out.
Hon. Sir John A. Macdonald said he should be happy to place the Speaker of the Senate on a similar footing, if that House would accept a similar commission; for there would be a considerable saving effected thereby.
On a division the item was struck out by 32 votes to 23.
On the item of $6,000, for the Parliamentary Library,
[Mr. Mackenzie—M. Mackenzie.]
L'honorable sir Francis Hincks affirme que les fonctions de l’Orateur sont tres astreignan-tes et qu’il est tout a fait normal que la Cham-bre lui accorde cette somme supplemental a titre de compensation.
M. Young s’oppose a un tel credit. II est d’avis que si la remuneration de l’Orateur est insuffisante, il faut l’augmenter, mais que ce moyen detourne utilise depuis deux ans en vue d’accorder des augmentations, est reprehensible. L’Orateur a toujours ete charge de certai-nes fonctions, et celles-ci ne sont certainement pas plus penibles maintenant qu’il dispose de l’aide de membres du Gouvernement.
L'honorable sir John A. Macdonald repli-que qu’on n’a pas eu recours a des moyens detournes pour obtenir une augmentation; cel-le-ci est mise aux voix officiellement a la Chambre. L’Orateur est remunere pour les fonctions dont il a ete charge au cours de la session.
M. Mackenzie—Et au cours des vacances parlementaires.
L'honorable sir John A. Macdonald dit que
l’Orateur n’a aucune fonction a remplir durant les vacances parlementaires. Auparavant, c’etait le Comite des Depenses contingentes qui remplissait ces fonctions. L’Orateur n’habitait pas Ottawa et devait s’y rendre souvent, ce qui entralnait des frais considerables. Il croit qu’en raison des economies realisees grace au chan-gement, la Chambre ne s’opposera pas a l’aug-mentation proposee.
M. Mackenzie dit que, quant a lui, il s’y opposerait. Le ministre de la Justice ne veut pas induire la Chambre en erreur, mais le Comite des Depenses contingentes n’a pas presente de rapport depuis deux ans, et l’Orateur a continue d’avoir le controle total de la Chambre durant les vacances parlementaires. Par ailleurs, si l’on augmente le traitement de l’Orateur de la Chambre des Communes, il faut egalement augmenter celui de l’Orateur du Senat. Il estime que le Gouvernement a commis une erreur en presentant cet article dans le budget des depenses, et il propose qu’on le supprime.
L’honorable sir John A. Macdonald dit qu’il serait enchante de mettre l’Orateur du Senat sur un pied d’egalite avec celui de la Chambre a condition que le Senat y consente, car il en resulterait une economic appreciable.
Mise aux voix, l’article est rejete par 32 voix contre 23.
Au sujet de la somme de $6,000 demandee pour la Bibliotheque du Parlement,
13 avril 1870
DEBATS DES COMMUNES
1021
Hon. Mr. Wood asked what was to be done in the matter of compensation to the two Provinces for their Libraries now in the Dominion Library?
Hon. Sir Francis Hincks—I wish you may get it.
Mr. Mackenzie said if the Government made a good use of the books, it would be better to say nothing of that item—Carried.
Item of $10,000 for printing, binding and distributing the laws—Carried.
Item of $24,000 for the St. Lawrence and Ottawa Railway for two special trains daily during the session of Parliament—Carried.
Item of $35,000 for printing, printing-paper, and book-binding—Carried.
On the item for $7,000 for Commission for making provision for the Uniformity of the Laws of the Provinces,
Mr. Young said last year the expense had been $20,000, and this year it was $7,000. He would like to know how that occurred? What was the progress made, and when would the work be completed?
Hon. Sir John A. Macdonald said, as to the first question, he would say that the Government had considered it necessary to appoint only one gentleman as Commissioner, instead of a considerable number. Papers would be laid before the House to show exactly the progress made.
Mr. Mackenzie said that according to that confession the Government had deliberately violated the law. Money was voted to pay a Commission, but that Commission had never been issued; in other words, the Government had put their hands in the public purse for nothing, (hear, hear).
Hon. Sir John A. Macdonald said the Commission, not being one under the Great Seal, one person could be appointed, instead of a number.
Hon. Mr. Anglin said he regarded the whole Commission as a waste of money. There was not the slightest probability of the Local Governments giving up their privileges, and therefore no assimilation of the laws could take place. He believed the money was not only wasted, but employed for purposes he could not approve of.
L'honorable M. Wood demande quel mon-tant les deux provinces obtiendront a titre de compensation pour leurs bibliotheques regrou-pees maintenant dans la Bibliotheque de la Puissance.
L’honorable sir Francis Hincks—Je vous souhaite d’obtenir une compensation!
M. Mackenzie dit que si le Gouvernement fait bon usage des livres, il serait preferable de ne rien dire de cet article—Le credit est adopte.
Un credit de $10,000 pour l’impression, la reliure et la diffusion des lois est adopte.
Un credit de $24,000 devant servir d’octroi a la Compagnie du Saint-Laurent et de l’Ou-taouais, pour la mise en service de deux trains speciaux par jour durant la session du Parle-ment, est adopte.
Un credit de $35,000 pour l’impression, le papier a imprimer et la reliure est adopte.
Au sujet de la somme de $7,000 demandee pour faire face aux depenses de la Commission pour l’uniformisation des lois des provinces,
M. Young dit que l’annee derniere, le credit etait de $20,000 et que, cette annee, il est de $7,000. Il demande ce qui s’est produit, ou en sont les travaux, et quand prevoit-on les terminer?
L’honorable sir John A. Macdonald repond, en ce qui concerne la premiere question, que le Gouvernement a juge bon de ne nommer qu’un seul commissaire et en ce qui concerne la deuxieme, qu’on deposera en Chambre, des documents indiquant exactement l’etat des travaux.
M. Mackenzie replique que, d’apres cette declaration, le Gouvernement a deliberement viole la loi. La Chambre a vote des credits pour une Commission qui n’a jamais vu le jour. En d’autres termes, le Gouvernement s’est servi a meme les deniers publics sous de faux pretex-tes. (Bravo! Bravo!)
L'honorable sir John A. Macdonald dit que, comme la Commission n’est pas formee en vertu du Grand Sceau, le Gouvernement peut parfaitement ne nommer qu’un seul commissaire.
L’honorable M. Anglin avance que, d’apres lui, la Commission n’entraine qu’un gaspillage d’argent. Les gouvernements provinciaux ne se departiront pas de leurs privileges, et l’on ne pourra done pas uniformiser les lois. Il croit que non seulement l’on gaspille l’argent, mais qu’on l’utilise a des fins qu’il desapprouve.
1022
COMMONS DEBATES
April 13, 1870
Hon. Sir John A. Macdonald said the money was wanted to complete a very valuable paper, which would be laid before the House.
Hon. Mr. Wood considered the Commission was a waste of money and brains.
Mr. Mills said the Local Governments should have first been consulted. The Province of Quebec was not included in the proposed assimilation of the laws, nor could the Legislature of that Province give consent to any such scheme. He did not think the project should have been undertaken.
Hon. Dr. Tupper defended the item.
Mr. Jones (Leeds and Grenville) said that when the Finance Minister brought down a tariff to impose $500,000, for taxation purposes, he would oppose the item.
Hon. Sir John A. Macdonald said that if the House refused this item, after having voted a sum for a similar purpose last year, they would be making fools of themselves.
The item was carried.
The following items were carried:—
$1,000 for contingencies of the Clerk of the Crown in Chancery.
$2,000 for Miscellaneous Printing.
$2,400 for Observatory of Quebec; $4,800 for Toronto; $500 each at Kingston and Montreal; $750 at Halifax, and $800 for New Brunswick.
Some discussion arose as to the manner in which the $800 for New Brunswick was expended.
Hon. Mr. Holton proposed that the words should be added, “In connection with the University of New Brunswick.”
Hon. Sir John A. Macdonald said the grant of last year had been expended in erecting a building, and it would have to be in effect thrown away, if this clause was added.
Hon. Mr. Holton said the vote of last session was diverted, and it was not too late to alter the error.
Hon. Sir John A. Macdonald said the building was completed, and this vote would be expended in scientific operations.
L’honorable sir John A. Macdonald dit
qu’on a besoin de cet argent pour achever un document tres important qui sera depose en Chambre.
L’honorable M. Wood estime que la Commission constitue un gaspillage d’argent et d’efforts.
M. Mills dit qu’on aurait du d’abord consul-ter les gouvernements provinciaux. La province de Quebec est exclue du projet d’unifor-misation des lois, et le Parlement de cette province ne saurait consentir a une telle initiative. II estime qu’on n’aurait pas du entrepren-dre cette tache.
L’honorable Dr Tupper defend le credit.
M. Jones (Leeds et Grenville) dit que si le
ministre des Finances avait propose un credit de $500,000, il s’y serait oppose.
L’honorable sir John A. Macdonald estime que si la Chambre refuse d’adopter ce credit alors qu’elle en a adopte un pour une raison semblable l’annee derniere, elle se rendra ridicule.
Le credit est adopte.
Les credits suivants sont egalement adop-tes:—
$1,000 pour les depenses contingentes du greffier de la Couronne en chancellerie.
$2,000 pour impressions diverses.
$2,400, $4,800, $500, $500, $750 et $800 aux observatoires de Quebec, Toronto, Kingston, Montreal, Halifax et celui du Nouveau-Bruns-wick, respectivement.
Les deputes discutent de la maniere dont sont depenses les $800 alloues au Nouveau-Brunswick.
L'honorable M. Holton propose qu’on ajoute la mention «relativement a l’Universite du N ouveau-Brunswick».
L’honorable sir John A. Macdonald expli-que que, l’annee derniere, la subvention a permis d’entreprendre la construction d’un edifice qu’il faudrait abandonner si cette clause etait ajoutee.
L’honorable M. Holton dit que la subvention votee, lors de la derniere session, n’a pas ete utilisee aux fins voulues et qu’il n’est pas trop tard pour y remedier.
L'honorable sir John A. Macdonald dit que
la construction de l’edifice est terminee et que les credits demandes serviront a des travaux scientifiques.
[Hon. Mr. Anglin—L’hon. M. Anglin.]
13 avril 1870
DEBATS DES COMMUNES
1023
Mr. Mills called attention to the absence of any reports from those observatories. He thought they had a right to have some reports before they passed those votes. The institutions were under the control of the Local Governments, but as they voted the money the House had a right to know what was done. He did not think this vote should be pressed.
Hon. Mr. Holton said, after the explanation of Sir John A. Macdonald, he would withdraw his resolution.
In reply to Mr. Mills,
Hon. Sir John A. Macdonald said that no professors had been appointed in Nova Scotia and New Brunswick, which accounted for there being no reports.
Hon. Mr. Connell, who had commenced the discussion, said he should make a motion on the question of concurrence.
On the item of $3,890 for salaries and contingent expenses of the Statistical Office, Halifax,
Hon. Mr. Wood called the attention of the Minister of Justice to that item.
Hon. Mr. Dunkin said the grant was continued under an unrepealed Act of the Province of Nova Scotia.
Hon. Sir John A. Macdonald said, as the office existed before the Union, the Dominion Government were bound to take charge of it.
After some discussion the item was passed, as was also the item of $1,580 for salaries of 316 deputy registrars of Nova Scotia.
On the item of $700 for protonotaries’ returns of births, marriages and deaths, for the Province of Quebec,
Mr. Mackenzie said the item was entirely partial and utterly useless.
Hon. Mr. Dunkin said it was like the other item.—Carried.
The item of $156,110, to meet the possible amount required in the fiscal year ending 30th June, 1871, for the taking of the census, was carried.
On the item of $39,772, consisting of various sums for immigration and quarantine,
M. Mills souligne que les observatoires n’ont presente aucun rapport. II estime que la Cham-bre est en droit de reclamer certains rapports avant d’adopter ces credits. Les institutions relevent des gouvernements provinciaux, mais comme c’est la Chambre qui adopte les credits, elle a le droit de savoir ce qu’on en fait. II croit qu’il n’y a pas lieu de presenter cet article.
L'honorable M. Holton dit qu’etant donne l’explication de sir John A. Macdonald, il retire sa motion.
En reponse a M. Mills,
L’honorable sir John A. Macdonald dit
qu’on n’a nomme aucun professeur en Nou-velle-Ecosse et au Nouveau-Brunswick, ce qui explique l’absence de rapports.
L’honorable M. Connell, qui avait amorce la discussion, dit qu’il devrait presenter une motion concernant la mise aux voix.
Au sujet de la somme de $3,890 demandee pour le traitement et les depenses contingentes du Bureau de la Statistique, a Halifax,
L’honorable M. Wood attire l’attention du ministre de la Justice sur ce credit.
L'honorable M. Dunkin explique qu’on continue a accorder la subvention en vertu d’un Acte inabroge de la province de Nouvelle-Ecosse.
L'honorable sir John A. Macdonald dit que, comme le Bureau existait avant l’Union, le Gouvernement de la Puissance est oblige d’en assumer la responsabilite.
Apres discussion, le credit est adopte, de meme qu’une somme de $1,580 pour payer les salaires de 316 sous-registrateurs de la Nou-velle-Ecosse.
Au sujet de la somme de $700 demandee pour faire face aux depenses relatives aux etats des naissances, deces et mariages, presentes par les protonotaires de la province de Quebec,
M. Mackenzie dit que cet article est extre-mement partial et tout a fait inutile.
L'honorable M. Dunkin souligne qu’il est de la meme nature que l’article precedent.— Motion adoptee.
Un credit de $156,110, pour les depenses de recensement durant l’annee financiere expi-rant le 30 juin 1871, est adopte.
Au sujet de la somme de $39,772 demandee pour faire face a diverses depenses relatives a l’immigration et a la quarantaine,
1024
COMMONS DEBATES
April 13, 1870
Hon. Mr. Dunkin, being called upon to explain, said that there was in that sum total a sum of $2,200 for agents for the North-West. Of course, if we did not get the country, the item would be saved; but if we got it, the money would not be lost in procuring immigration for that fine country.
Hon. Mr. Wood called attention to the $1,000 vote to Mr. Donaldson, Immigration Agent in Toronto. Considering his intelligence and ability, he did not think that sum was sufficient.
Hon. Mr. Dunkin recognized the value of Mr. Donaldson’s services, but a great part of his services were rendered to the Province of Ontario. He thought that many of those agents were not sufficiently paid.
Hon. Mr. Wood contended that Mr. Donaldson had duties as onerous as those of Montreal and Quebec.
Hon. Mr. Dunkin said he would consider the matter before the Supplementary Estimates were brought down.
Hon. Mr. Holton suggested that items in this vote should be taken separately.
That course was agreed to, and the vote of $18,212 for salaries of immigration agents and employees was solely taken up. The item was carried.
Item of $2,600 for Medical inspection (Quebec) was carried. On item of $12,000 for Quarantine, Grosse Isle, $3,900 for St. John N.B., and $4,060 for Halifax,
Hon. Mr. Anglin said the sum of $1,050 for a boat crew at those places was exorbitant. In St. John an assistant Physician at $400 was put down which they had never known before.
Hon. Mr. Dunkin was told that the cost of boatmen was less than before Confederation.
The item was then carried.
On the item of $14,000 for travelling expenses and contingencies (Europe and Canada), Hon. Mr. Dunkin said the increase from $7,000 over last year was owing to additional agents.
Hon. Mr. Holton asked whether the Government had already exceeded the appropriations
L'honorable M. Dunkin, a qui l’on a demande des explications, dit que ce chiffre comprend $2,200 pour les agents du Territoire du Nord-Ouest. Evidemment, si ce Territoire ne revient pas a la Puissance, nous epargne-rons cette somme, mais si nous l’obtenons, les credits que nous affecterons a l’immigration dans cette region, ne seront pas perdus.
L’honorable M. Wood parle de la somme de $1,000 qu’on veut accorder a M. Donaldson, agent de l’immigration a Toronto. II estime qu’a cause de l’intelligence et des aptitudes de ce fonctionnaire, cette somme est insuffisante.
L'honorable M. Dunkin reconnait la valeur des services rendus par M. Donaldson, mais souligne qu’une grande partie de ses services est destinee a la province de l’Ontario. II estime que nombre de ces agents ne sont pas convena-blement remuneres.
L'honorable M. Wood soutient que M. Donaldson s’acquitte de taches aussi onereuses que celles des agents de Montreal et de Quebec.
L’honorable M. Dunkin dit qu’il etudiera la question avant le depot des previsions de depenses supplementaires.
L’honorable M. Holton propose que ces credits soient etudies un a un.
La proposition est acceptee, et il est resolu qu’une somme de $18,212 soit affectee aux salaires des agents et des employes de l’immigration. Le credit est adopte.
Un credit de $2,600 est adopte pour le service d’inspection medicale (Quebec). Au sujet des sommes de $12,000, $3,900 et $4,060 demandees pour faire face aux depenses occasionnees par la quarantaine a Grosse-Ile, a Saint-Jean (Nou-veau-Brunswick) et a Halifax, respectivement,
L’honorable M. Anglin juge exorbitante la somme de $1,050 allouee au service de bateliers. A Saint-Jean, une somme de $400 est prevue pour l’assistant du medecin; cet article n’exis-tait pas auparavant.
L’honorable M. Dunkin dit que le service de bateliers coute moins cher actuellement qu’a-vant la Confederation.
Le credit est adopte.
Au sujet de la somme de $14,000 demandee pour payer les frais de voyage et les depenses contingentes (Europe et Canada), l'honorable M. Dunkin impute l’augmentation de $7,000 a la nomination d’agents supplementaires depuis l’annee derniere.
L’honorable M. Holton demande si le Gou-vernement a deja depasse le montant demande?
[Hon. Mr. Dunkin—L’hon. M. Dunkin.]
13 avril 1870
DEBATS DES COMMUNES
102S
on the vote which was to create future expenses?
Hon. Mr. Dunkin said it was to provide for the future. The sum included every contingency. He would give further information on concurrence.
Mr. Mackenzie objected to that course. They had given the hon. gentleman two occasions, and they ought to be ready with their explanations.
Hon. Mr. Dunkin said there was $23,000 actually voted last year, instead of $15,000 as shown by the estimate. An expenditure of $15,000 had been incurred in the relief of 6,000 poor immigrants in transportation and sustenance. That expenditure had been absolutely unavoidable, notwithstanding the rule the Government had adopted. There was a perceptible increase in the number of immigrants remaining in the Country. In 1866 and 1867 the number had been about 10,000. In 1868 it was 13,000 but last year it reached 18,630. Next year they expected a further large increase. The item was then carried.
Items of $21,500 for Marine and Emigrant Hospital at Quebec; of $18,526 for Marine Hospitals in New Brunswick and Nova Scotia, hospital at St. Catharines and maintenance etc., of shipwrecked and sick and distressed seamen at several ports of the Dominion; of $16,056 for pensions, were agreed to.
On the vote of $6,000,000 for the Intercolonial Railway,
Hon. Mr. Anglin said he hoped the work would be pushed forward this year. The Minister of Militia yesterday made a boast as to the progress of the work, but people in the locality knew better, and he hoped the work would be hurried forward more actively than last year.
Mr. Mackenzie said the hon. gentleman seemed to forget that the road was not built specially for the people of that locality. He did not think the people of that particular locality had more right to speak than people of another locality. He hoped that there would be no particular hurry merely to please people of any particular locality. What the people wanted was cheapness, and that was what they required more than haste.
Mr. Walsh said the work was progressing satisfactorily.
Mr. Mackenzie said nothing could be worse than the way in which the Government was managing the Intercolonial Railway, and the
L'honorable M. Dunkin repond qu’il s’agit de pourvoir aux besoins futurs. La somme com-prend toutes les depenses contingentes. II don-nera de plus amples renseignements lors de la mise aux voix.
M. Mackenzie s’oppose a cette ligne de con-duite. L’honorable depute a eu, a deux reprises, l’occasion d’expliquer cette question, et cela devrait suffire.
L’honorable M. Dunkin declare que, l’annee derniere, on a, en fait, adopte un credit de $23,000, et non pas de $15,000 comme l’indique le budget des depenses. Les $15,000 etaient destines au transport et a la subsistance de 6,000 immigres pauvres. Cette depense etait absolu-ment inevitable, nonobstant la regie adoptee par le Gouvernement. On avait note une augmentation appreciable du nombre d’immi-grants au Canada: en 1866 et 1867, ils etaient 10,000 environ; en 1868, 13,000, et l’annee derniere, 18,630. On s’attend a d’autres augmentations importantes l’annee prochaine. Le credit est alors adopte.
Les credits suivants sont adoptes: $21,500 pour l’hopital de la Marine et des Emigres, a Quebec; $18,526 pour des hopitaux de la Marine, au Nouveau-Brunswick et en Nouvelle-Ecosse, pour l’hopital de St. Catharines, ainsi que pour porter secours aux marins naufrages, malades et en detresse dans plusieurs ports de la Puissance; $16,056 pour des pensions.
Au sujet de la somme de $6,000,000 demandee pour le chemin de fer Intercolonial,
L’honorable M. Anglin espere qu’on fera avancer les travaux cette annee. Hier, le minis-tre de la Milice a vante le progres des travaux, mais les habitants de la region ne trouvent pas que tout va si bien, et il souhaite qu’on accelere les travaux plus qu’on ne l’a fait l’annee derniere.
M. Mackenzie dit que l’honorable depute semble oublier qu’on ne construit pas la voie specialement pour les habitants de cette region. A son avis, ceux-ci ne sont pas plus en droit d’intervenir que les habitants d’une autre region. II espere qu’on n’accelerera pas les travaux simplement pour plaire aux habitants d’une region particuliere. Pour les gens, il importe plus de s’en tirer a peu de frais que de voir les travaux progresser rapidement.
M. Walsh dit que les travaux progressent de fagon satisfaisante.
M. Mackenzie soutient que rien n’est pire que la fagon dont le Gouvernement mene l’af-faire du chemin de fer Intercolonial et que
1026
COMMONS DEBATES
April 13, 1870
system they were pursuing would lead to endless delays and troubles. He did not wish to be a prophet of evil, but he thought those evils were ripening fast, and would produce fruit much sooner than was expected. As to suffering from the abrogation of the bonding system, the people of the West cared nothing. They would no more send their produce to Europe by that road than they would by the Pacific Railway; and they would find it cheaper, even under the monstrous resolutions of the Finance Minister, to purchase American goods at any price in that market rather than bring them from Europe over that road. He had been amused to hear the Minister of Militia make his annual speech last night, and he only hoped he would not repeat it again next time the Railway discussion came up, because he (Mr. Mackenzie) had it by heart. (A laugh.) Everybody knew the railway would be utterly valueless in a commercial point of view. It was to be built, because they had bargained to build it. They should keep to their bargain, and that was the beginning and end of the reason for its construction. The New Brunswick people were about to make a railway by the valley of St. John, by which the Intercolonial would be utterly killed, for the traffic would go by the shorter route. The present route for the Intercolonial would never have been adopted but for the intolerable proclivities of gentlemen opposite, who were determined to have the route most expensive to the country. He had been a silent spectator of the debate last night, and he must say that the Minister of Militia never answered a single statement made by the hon. member for Sherbrooke. The Minister of Militia merely confined himself to telling the people in Ontario, as if adding insult to injury, the immense benefit they would derive from having that road built. The hon. gentleman knew too much of the commerce of Ontario to believe in the reality of his own statement. As to the abrogation of the bonding system, he (Mr. Mackenzie) would observe that the system would be continued just as long as the Americans found it was profitable. That threatening, as to the abrogation of the bonding system, by the Americans, was, to use one of their own phrases, “played out.”
Hon. Dr. Tupper said the argument as to the abrogation of the bonding system was first started by a member opposite, the member for Shefford.
Mr. Mackenzie said the report first came from his side.
Hon. Dr. Tupper was glad to know it, and proceeded to argue in favour of the course of the Government in the construction of railways.
[Mr. Mackenzie—M. Mackenzie.]
cette maniere de proceder entrainera sans cesse des retards et des problemes. II ne veut pas etre un oiseau de mauvais augure, mais n’en estime pas moins que les consequences facheuses de cette ligne de conduite se feront sentir plus tot que prevu. Quant a l’abrogation du systeme d’entreposage, les gens de l’Ouest ne craignent rien. Ils n’enverront pas plus leurs produits en Europe par cette route que par le chemin de fer du Pacifique; et il leur reviendra moins cher, malgre les resolutions odieuses du ministre des Finances, d’acheter des marchandises quel qu’en soit le prix, aux Etats-Unis que de les importer d’Europe par cette route. II (M. Mackenzie) dit que la veille, il a ete amuse d’enten-dre le ministre de la Milice prononcer son discours annuel, et il souhaite simplement qu’il ne le repete pas lors de la prochaine discussion sur le chemin de fer, car il (M. Mackenzie) le connait par coeur. (Rires.) Chacun sait que, du point de vue commercial, le chemin de fer n’aura aucune valeur. On le construira parce qu’on s’est engage a le faire. Le Gouvernement doit respecter ses engagements: c’est l’unique raison pour laquelle ces travaux sont entrepris. Au Nouveau-Brunswick, on est sur le point de construire un chemin de fer qui, passant par la vallee de Saint-Jean, sonnera le glas du chemin de fer Intercolonial, puisque le trafic emprun-tera surement la voie la plus courte. L’itine-raire du chemin de fer Intercolonial n’aura ete adopte que pour assouvir les penchants intole-rables des deputes de l’autre cote, determines a se doter de la route la plus couteuse. La veille, il avait ecoute le debat sans intervenir, et il affirme que le ministre de la Milice n’a repondu a aucune declaration de l’honorable depute de Sherbrooke. Le ministre de la Milice s’est contente d’expliquer aux Ontariens, comme pour ajouter l’injure au prejudice, quels avantages incommensurables ils tire-raient de la construction de cette voie. L’honorable depute connait trop bien la situation commerciale de l’Ontario pour croire ses pro-pres affirmations. En ce qui concerne l’abroga-tion du systeme d’entreposage, il (M. Mackenzie) fait observer que ce systeme restera en vigueur aussi longtemps que les Americains le jugeront profitable. Leur menace de supprimer ce systeme a, pourrait-on dire, «fait son temps*.
L'honorable Dr Tupper retorque que c’est un depute de l’autre cote, le depute de Shefford, qui a amorce la discussion a ce sujet.
M. Mackenzie en convient.
L’honorable Dr Tupper se dit content de l’apprendre, et se met a defendre la politique du Gouvernement en matiere de construction de chemins de fer.
13 avril 1870
DEBATS DES COMMUNES
1027
Hon. Sir George-E. Cartier was surprised at the remark of the hon. member for Lambton this evening on the Intercolonial, when he did not avail himself of the opportunity of the debate on the previous evening. He (Sir G.-E. Cartier) contended that he had established his position.
Mr. Mackenzie said he had not spoken, in consequence of physical weakness.
Hon. Sir George-E. Cartier said that altered the case.
The vote was then agreed to.
On item $59,200 for Nova Scotia Railway, re-vote $20,000,
Hon. Mr. Langevin said that part of the vote was required for rolling stock.
Mr. Mackenzie said it ought to be charged to capital.
This, and one of $5,000 to European and North American Railway, New Brunswick, were carried.
Hon. Mr. Holton suggested that the House should not go into Committee on the next item of $334,000 on the works for the construction of Canals and that the vote should be divided. That course should also be pursued in the case of public buildings, which were lumped at $625,000.
The suggestion was agreed to, and the Committee rose and reported progress, and asked leave to sit again this afternoon.
In reply to Hon. Mr. Holton,
Hon. Sir John A. Macdonald said they would go on with the Supply to-day (Thursday).
The House adjourned at 12:55 a.m.
IVhonorable sir George-E. Cartier s’etonne de la remarque faite ce soir sur le chemin de fer Intercolonial par l’honorable depute de Lambton, celui-ci n’ayant pas participe au debat de la veille. II (sir G.-E. Cartier) soutient qu’il a clairement defini sa position.
M. Mackenzie repond qu’il n’a pas participe au debat parce qu’il se sentait faible.
L’honorable sir George-E. Cartier dit que
cela change tout.
Les credits sont adoptes.
Au sujet de la somme de $59,200 demandee pour faire face aux depenses du chemin de fer de la Nouvelle-Ecosse (la somme de $20,000 votee de nouveau),
L’honorable M. Langevin dit qu’une partie des credits servira a acheter du materiel roulant.
M. Mackenzie replique qu’on devrait l’impu-ter au capital.
Ce credit, ainsi que celui de $5,000 pour le chemin de fer Europeen et Nord-Americain au Nouveau-Brunswick, sont adoptes.
L'honorable M. Holton propose que la Chambre ne se forme pas en Comite pour dis-cuter de la somme de $334,000 demandee pour les travaux d’amenagement des canaux, et qu’on mette le credit aux voix. On devrait a son avis proceder de la meme fa?on dans le cas des edifices publics pour lesquels une somme glo-bale de $625,000 est demandee.
La proposition est adoptee. Le Comite leve la seance, fait rapport et demande la permission de sieger de nouveau cet apres-midi.
En reponse a l’honorable M. Holton,
L’honorable sir John A. Macdonald dit
qu’on poursuivra la discussion sur les subsides aujourd’hui (jeudi).
La Chambre s’ajourne a minuit cinquante-cinq minutes.
14 avril 1870
DEBATS DES COMMUNES
1029
HOUSE OF COMMONS
Thursday, April 14, 1870
