 at the usual hour.
PETITIONS
Several petitions were presented for the establishment of Naval Schools, and for closing Railways and Telegraph Lines on Sundays.
SEAMEN’S CLOTHING
A Bill intituled: “An Act for the better protection of Clothing and Property of Seamen in Her Majesty’s Navy”—read a third time.
SUPERANNUATION FUND
Hon. Sir Francis Hincks moved the House into Committee on the Superannuation Resolutions—Carried.
In Committee,
Hon. Mr. Anglin asked what effect it would have on old officers when it was desirous they should retire. Was the superannuation fund to be taken out of the stoppages from the officers who were to contribute, or were the Lower Provinces to be burdened with payments for the worn out servants of the old Province of Canada?
Hon. Sir Francis Hincks said the public service would not suffer by the proposal. At present the Lower Provinces were paying salaries for men who were not capable of performing their duties, but whom it had never been the policy of any Government to dismiss without provision.
Hon. Mr. Anglin said he had heard of a case in which a gentleman, thought to be too old to be worth money by the Premier of Ontario, who did not possess much of the milk of human kindness when dealing with public functionaries, had been dismissed by that gentleman, and was now attached to the public service of the Dominion, from which he would be superannuated in a year or two. He (Hon. Mr. Anglin) was of opinion that the old Province of Canada alone should provide for its old servants.
Mr. Godin—It would be unjust that old officers should be allowed to retire on a fund to which they had not contributed.
CHAMBRE DES COMMUNES
Le samedi 16 avril 1870
L’Orateur ouvre la seance a l’heure habi-tuelle.
PETITIONS
Plusieurs petitions sont presentees relative-ment a l’etablissement d’ecoles navales et a la suspension, le dimanche, des services ferro-viaire et telegraphique.
HARDES DES MATELOTS
Troisieme lecture du Bill intitule: «Acte pour mieux proteger les hardes et effets des mate-lots de la flotte de Sa Majeste*.
SYSTEME DE PENSION
L’honorable sir Francis Hincks appelle la Chambre a discuter en Comite des resolutions concernant un systeme de pension pour les officiers du Service civil—Motion adoptee.
En Comite,
L’honorable M. Anglin demande quelles seraient les repercussions de ces mesures sur les officiers ages qui devraient etre mis a leur retraite. Les fonds seraient-ils puises a meme les cotisations des fonctionnaires, ou est-ce que les provinces de l’Est devraient participer aux paiements de pension verses aux officiers «epuises» de l’ancienne Province du Canada?
L'honorable sir Francis Hincks dit que la
proposition ne porterait pas prejudice au Service civil. Les provinces de l’Est versent actuel-lement des traitements a des officiers incapa-bles de s’acquitter de leurs taches, mais aucun gouvernement n’a eu comme politique de les licencier sans appointements.
L'honorable M. Anglin dit qu’on lui a rap-porte le cas d’une personne maintenant a l’em-ploi du Service civil de la Puissance duquel il sera pensionne dans un an ou deux, que le premier ministre ontarien, qui n’etait pas tendre dans ses rapports avec les fonctionnaires, considerait trop vieux et avait par consequent renvoye. II (l’honorable M. Anglin) est d’avis que l’ancienne Province du Canada devrait s’occuper elle-meme de son personnel age.
M. Godin dit qu’il serait injuste que les vieux fonctionnaires puissent recevoir une pension d’un fonds auquel ils n’ont pas cotise.
1052
COMMONS DEBATES
April 16, 1870
Hon. Mr. Langevin said the contributions from the officials to this fund would be placed in the consolidated revenue. Whether, therefore, there was enough or not from these to meet the payments, they would be made to the retiring officers. There would, therefore, be no injustice to the younger officers, on account of the immediate retirement of the older. There would also be a saving to the public service from these retirements.
Mr. Burpee objected that the Civil Service was almost altogether in the hands of people from Ontario and Quebec, and in the Lower Provinces this would be felt to be an injustice.
Mr. Mackenzie explained that the Civil Service was not merely confined to the inside work. It included all the outside officers as well.
Hon. Sir Francis Hincks said the Bill had been framed so as to make the principle of superannuation self-supporting. If the number of officers in the Civil Service was small from the Maritime Provinces, the revenue paid proportionately in the Maritime Provinces was also small.
Mr. McDonald (Lunenburg) said the injustice was not in the contributions being levied on the officers, as they would be taxed rate-ably. It was in there being so few to be taxed for the allowance who were employed here from the Lower Provinces. When Confederation took place the old officers of Canada should have been drafted to the two Provinces until an equality was established between those and the officers from Nova Scotia and New Brunswick. This was in fact promised. But out of the $306,000 paid to the officers employed at Ottawa only $1,000 went to men belonging to Nova Scotia. New Brunswick was rather better represented having ten here at $10,500. The revenue from Customs derived from these two Provinces was two millions, a larger sum per head than what was contributed by Quebec or Ontario. And this did not represent the whole, as a large number of articles formerly coming from Britain, were now paid for to Ontario manufacturers. He believed, however, that there were some of the old officers in the Lower Provinces who would benefit by the proposal, with benefit to the revenue.
L'honorable M. Langevin dit que les cotisa-tions que les officiers verseraient a cette caisse, seraient deposees dans le Fonds du revenu con-solide. Que ces cotisations soient suffisantes ou non pour couvrir les paiements, ceux-ci seraient quand meme verses aux officiers mis a la retraite. Les jeunes officiers ne seraient done pas penalises en raison de la retraite immediate des officiers tres ages. De plus, ces mises a la retraite seraient une source d’econo-mies pour le Service civil.
M. Burpee objecte que le Service civil est presque entierement compose de gens du Quebec et de l’Ontario et que les presentes mesures seraient considerees comme une injustice dans les provinces de l’Est.
M. Mackenzie explique que le Service civil n’est pas uniquement constitue d’officiers qui travaillent a Ottawa, mais aussi de ceux qui travaillent a l’exterieur de la capitale natio-nale.
L'honorable sir Francis Hincks dit que le Bill a ete congu pour permettre au systeme de pension de se financer par lui-meme. Si le nombre des officiers des provinces Maritimes faisant partie du Service civil est peu eleve, l’impot paye proportionnellement par ces provinces est egalement peu eleve.
M. McDonald (Lunenburg) dit que l’injus-tice ne vient pas du fait que l’on preleve des cotisations sur les salaires des officiers, puis-que ces deductions seraient faites proportionnellement, mais vient plutot du nombre limite de fonctionnaires versant des cotisations qui sont originates des provinces Maritimes. Lors-que la Confederation a vu le jour, les officiers ages du Canada auraient du etre affectes au service des deux provinces de fagon a etablir l’egalite entre ces derniers et les officiers venant de la Nouvelle-Ecosse et du Nouveau-Brunswick. On avait promis cette egalite. Mais des $306,000 verses aux fonctionnaires en poste a Ottawa en guise de salaire, seulement $1,000 ont ete payes a des personnes venant de la Nouvelle-Ecosse. Le Nouveau-Brunswick est mieux represente, avec 10 hommes et un total de $10,500. Les droits douaniers pergus dans ces deux dernieres provinces se chiffrent a deux millions de dollars, soit un montant per capita plus eleve que les contributions du Quebec ou de l’Ontario. Et ce montant ne represente qu’une partie des transactions puisque les Maritimes achetent des manufacturiers onta-riens, de grandes quantites de marchandises autrefois importees de Grande-Bretagne. II croit toutefois que certains fonctionnaires ages des provinces Maritimes retireraient des avan-tages pecuniaires de cette proposition.
[Mr. Godin—M. Godin.]
16 avril 1870
DEBATS des communes
1053
Mr. Pickard thought we should have started with a clean sheet, and not have any old officers to pension off at the end of three years.
Mr. Carmichael said there was no dissatisfaction in Nova Scotia as to these appointments. He did not want to see any more made as they would not be from the friends of Nova Scotia, (hear, hear).
Hon. Mr. Tilley said it was an erroneous impression that there had been a large number of new appointments. The reality was that a number were engaged by the day who had, some of them, been on for seven years. These had been made officers, and their names appeared now on the list, instead of on a pay sheet as formerly.
Mr. Hutchison could not see why they should legislate for public servants who ought to lay up something themselves for a rainy day.
Hon. Dr. Tupper said that the legislation was not for the benefit of the Civil Service, but for the benefit of the country, by means of what would be a most unpopular tax, and if the hon. gentleman would ask the Civil Servants he would find it so. It was necessary to have a measure of this kind to provide for efficient service.
Mr. Mackenzie said when the resolutions were introduced he said that he approved of the principle, and in doing so, alluded to the principle of Life Insurance policies, practically adopted in them without considering the precise relations of abatements made to the sums paid. He regretted to-day to find the objection raised that possibly some of the old servants of the Province of Canada might obtain some advantage which the Maritime Provinces might not get. He would be the last to ask that the Maritime Provinces should pay one farthing of any obligation which ought to be imposed upon the late Province. But their friends in the Lower Provinces must take into consideration that they were in an altogether different position. In the Local Governments of Ontario and Quebec they had at present no departments such as Customs, for they were handed over to the Dominion Government, and it was quite impossible to turn those men out of doors merely because of the change. No reasonable man would admit the necessity of doing so with regard to the extra amount contributed by the Maritime Provinces as contended by some members. There were some other matters which ought to be considered. The Library of the late Province of Canada, was valued at $200,000, which, of itself, would
M. Pickard pense que nous aurions du tour-ner la page et commencer a neuf sans devoir mettre de vieux fonctionnaires a la retraite apres trois ans.
M. Carmichael dit qu’il n’existe pas de mecontentement en Nouvelle-Ecosse a l’egard de ces nominations. II ne voudrait pas qu’on procede a d’autres nominations parce qu’elles ne seraient pas faites par les amis de la Nouvelle-Ecosse. (Bravo!)
L’honorable M. Tilley dit qu’il est faux de penser qu’il y a eu un grand nombre de nouvel-les nominations. En realite, un certain nombre de personnes avaient ete engagees a la journee, certaines ayant deja travaille pendant sept ans. On les avait done titularisees et leurs noms figuraient maintenant sur la liste plutot que sur une feuille de paie.
M. Hutchison ne voit pas pourquoi ils devraient legiferer en faveur de fonctionnaires qui devraient eux-memes assurer leurs vieux jours.
L'honorable Dr Tupper dit que ce n’est pas le Service civil qui beneficiera de cette mesure, mais le pays tout entier. II s’agit d’une taxe extremement impopulaire, et si l’honorable depute veut bien le demander aux officiers du Service civil, il s’en rendra compte lui-meme. De telles mesures sont necessaires pour fournir un service efficace.
M. Mackenzie dit qu’au moment ou les resolutions ont ete presentees, il a dit qu’il en approuvait le principe et ce faisant, voulait faire allusion au principe des polices d’assu-rance-vie sur lesquels ces resolutions semblent se baser sans toutefois etablir de relations precises entre les retenues effectuees et les sommes versees. Il regrette aujourd’hui qu’on souleve l’objection que certains fonctionnaires ages de la Province du Canada obtiendraient peut-etre des avantages qui ne seraient pas accordes a ceux des provinces de l’Est. Il serait le dernier a demander que les provinces Mariti-mes payent un sou des obligations qui incom-bent a l’ancienne Province du Canada, mais leurs amis des provinces Maritimes doivent prendre en consideration le fait que leurs situations respectives sont entierement differen-tes. Les gouvernements du Quebec et de l’On-tario ne possedent plus de ministere des Douanes parce qu’ils l’ont remis au Gouverne-ment de la Puissance, et il est vraiment impossible de renvoyer ces fonctionnaires pour cette unique raison. Aucun homme sense n’approu-verait un tel renvoi meme si l’on doit conside-rer le montant excedentaire verse par les provinces Maritimes comme certains deputes le pretendent. D’autres points plus importants meritent notre attention. La Bibliotheque de
1054
COMMONS DEBATES
April 16, 1870
exceed by ten times the excess that would come under the present resolution from the Maritime Provinces. The furniture and fittings of the present House, which were the property of the late Province, were worth $250,000, which became the property of the Dominion by the Confederation Act. But no one proposed that the Maritime Provinces should pay any portion of that. Those considerations showed that if there were things on one hand, there were also facts on the other hand. With regard to the taxation of the Maritime Provinces he had no doubt that they bore their share, but the collection of small amounts in small places cost much more in proportion than in the larger Provinces. In the case of Customs, the proportion of cost of collection to the amount collected was in Ontario and Quebec 6 per cent; in New Brunswick it cost nearly 9 per cent, and in Nova Scotia it was about 10 per cent. He deprecated sectional discussion, but considered that it was desirable that when those questions arose they should be disposed of in a satisfactory way.
Hon. Mr. Howe had confidence in the House to do justice to the smaller Provinces. He was more afraid of his colleagues, for they were very often unjust and unfair. (Hear and laughter.) He thought it might be well for them to go around and hang a dozen out of each office. (Laughter.)
The first and second resolutions were then agreed to.
On the third resolution,
Mr. Godin objected that the officers while contributing at the rate of four per cent for an annuity, ran the risk of deriving no benefit from it. It ought to provide that the families should derive the benefit from these contributions. He would be prepared to move an amendment to that effect in concurrence providing that the widow should be entitled to half the annuity.
Hon. Sir Francis Hincks said he was perfectly aware there was opposition on the part of the Government employees to the scheme. The Government had considered the whole matter, and did not intend to turn themselves into an insurance company for the benefit of the relatives of deceased officers of the Civil Service. The measure was not for the benefit of employees, but for the protection and benefit of the public, and to enable the Government to get rid of persons who had arrived at a time of life when they could no longer perform their work efficiently.
l’ancienne Province du Canada est evaluee a $200,000, montant qui represente dix fois la somme que les Maritimes devraient verser en vertu de la presente proposition. L’ameuble-ment et les installations de la presente Cham-bre, laquelle etait la propriety de l’ancienne Province, valent $250,000 et sont passes a la Puissance en vertu de l’Acte de la Confederation. Mais personne n’a suggere que les provinces Maritimes en payent une partie. Ces considerations montrent que, s’il existe d’une part certaines objections, il existe aussi certains faits. En ce qui concerne les impots leves dans les provinces Maritimes, il ne doute pas que ces dernieres payent leur juste part, mais la perception de minimes sommes dans de petites localites coute proportionnellement plus a l’Etat que celle effectuee dans les provinces plus grandes. Dans le cas des douanes, le cout de la perception par rapport a la somme perdue s’etablit a 6 pour cent pour le Quebec et l’Onta-rio, a 9 pour cent pour le Nouveau-Brunswick, et a environ 10 pour cent pour la Nouvelle-Ecosse. Il desapprouve les querelles partisanes, mais il pense qu’il est preferable de regler ces questions de fa?on satisfaisante lorsqu’elles se presentent.
L’honorable M. Howe croit que les Communes feront justice aux petites provinces. Il craint davantage ses collegues parce qu’ils sont tres souvent injustes et partiaux. (Bravo! Rires.) Il pense qu’ils feraient bien de faire la tournee et d’en prendre une douzaine par bureau. (Rires.)
Les premiere et seconde resolutions sont acceptees.
Quant a la troisieme resolution,
M. Godin objecte que les fonctionnaires, tout en cotisant a un regime de rente au taux de 4 pour cent, risquent de n’en retirer aucun avantage. La clause devrait par consequent sti-puler que les families des fonctionnaires ont droit a la rente provenant de ces cotisations. Il est pret a deposer un amendement en ce sens, a l’effet que la veuve devrait avoir droit a la moitie de la rente.
L’honorable sir Francis Hincks dit qu’il sait parfaitement que les fonctionnaires du Gou-vernement s’opposent au projet. Le Gouverne-ment a etudie la chose attentivement et il n’a pas l’intention de se transformer en compagnie d’assurances pour le benefice des parents des fonctionnaires decedes. Ces mesures ne sont pas prises pour le benefice des employes, mais pour la protection du public, et pour permettre au Gouvernement de se defaire des personnes qui, a cause de leur age, ne peuvent plus accomplir leur travail de fa^on efficace.
[Mr. Mackenzie—M. Mackenzie.]
16 avril 1870
DEBATS DES COMMUNES
1055
Mr. Scatcherd said he had often heard the question asked:	“Where do Government
employees come from,” but no living man could answer it with certainty. (A laugh.) He had heard that the employees were opposed to the measure. Well, the taxpayers were opposed to an increase of taxation to support those men. Those employees were ten times better paid than the usual class of persons in their circumstances throughout the country.
Mr. Pope argued it would be unjust to diminish the salaries of officers to establish a Superannuation Fund.
After some further discussion the Committee rose and reported the resolutions without amendment. Concurrence on Tuesday.
The resolutions were then carried, and the Committee rose and reported.
The House then went into Committee of Supply:
The item for the Miscellaneous Improvement of Rivers was passed—$2,600.
On the item of $10,000 for a road between Ste-Anne-des-Monts and Fox River, a discussion arose, it being objected that it was local work.
Hon. Mr. Langevin said the road was being built as a means of reaching part of the coast on which shipwrecks were frequent.
Mr. Mackenzie said it was only a short time ago that a road had been constructed for the purpose of conciliating a member who supported the Government.
Hon. Mr. Howe said he agreed with the remarks of the hon. member for Lambton but in the present case there were exceptional circumstances. The Government were responsible for the lives of its people in navigation, and the road was required in case of wrecks. There was nothing so degrading as the squabble for money to build roads with.
Mr. Forbes was opposed to those grants in toto. He had as strong a claim for a road in his own country, and thought if they had roads in one part, they ought to have them in all. It was a bad principle.
Hon. Dr. Tupper thought the hon. member stood in his own light. If he had so good a case he ought to assist in obtaining this present
M. Scatcherd dit qu’il a souvent entendu poser la question suivante: «D’ou les employes du Gouvernement viennent-ils?» Mais per-sonne n’a pu y repondre avec certitude. (Rires.) II a entendu dire que les employes s’opposent a cette mesure. Eh bien, les contri-buables, eux, s’opposent a une augmentation de taxes au profit de ces fonctionnaires. Ils re?oi-vent deja dix fois le salaire normalement verse aux personnes qui occupent des postes similai-res.
M. Pope soumet qu’il serait in juste de dimi-nuer le salaire des fonctionnaires pour creer un systeme de pension de retraite.
Apres avoir discute de la question plus lon-guement, le Comite leve la seance et fait rapport des resolutions sans amendement. La discussion est reportee a mardi.
Les resolutions sont alors adoptees et le Comite se leve et fait rapport.
La Chambre se forme alors en Comite des Subsides:
Le poste concernant diverses ameliorations des rivieres est adopte—$2,600.
La discussion s’engage sur le poste de $10,000 pour la construction d’une route reliant Ste-Anne-des-Monts et Riviere-aux-Renards, certains objectant qu’il s’agit de travaux relevant des autorites locales.
L'honorable M. Langevin dit que l’on cons-truit cette route afin d’atteindre une partie de la cote ou les naufrages sont frequents.
M. Mackenzie dit qu’il y a peu de temps, on a construit une route dans le but de gagner les faveurs d’un depute qui appuie le Gouvernement.
L’honorable M. Howe dit qu’il est d’accord avec les remarques de l’honorable depute de Lambton, mais que dans le cas present, les circonstances sont exceptionnelles. Le Gouvernement est responsable de la vie de ses citoyens en mer et on a besoin d’une telle route en cas de naufrages. II n’y a rien de plus degra-dant que les querelles d’argent pour la construction de routes.
M. Forbes s’oppose entierement a ces subventions. II pourrait lui aussi reclamer a bon droit une route pour sa propre region, et il pense que si l’on accorde des routes a l’un, il faut en accorder a tous. Le principe est mauvais.
L’honorable Dr Tupper pense que l’honora-ble depute devrait enlever ses ceilleres. Si ses arguments etaient si valables, il devrait plutot
1056
COMMONS DEBATES
April 16, 1870
road, for he thereby would aid in obtaining a grant for his own county.
Mr. Mackenzie—Log rolling.
Mr. Forbes wished the Dominion to provide nothing which it was the duty of the Local Legislature to furnish.
Hon. Sir John A. Macdonald contended that it was a proper work for the Dominion. The importance of the road was shown by the Telegraph Company having prepared to put up a line along it.
Mr. Scatcherd thought a good case was not sufficient to warrant the construction of the road, for they had a good case for roads in the County of Bruce, where they had paid for them, but the Government refused to build them. The road was 118 miles long, and he would like to know whether the present vote was to complete the work, or was it but the commencement of a heavy expenditure?
Mr. Mackenzie said that the grant asked for would not be more than $10 a mile, and that would not go far in making a road through a rugged mountain country. He foresaw that it was the beginning of a large expenditure, and would therefore move that the item be struck out.
Lost on a division.
Mr. Mackenzie again moved that the words be added to the item, “provided no further sum shall be granted to said road.”—Carried.
In reference to Miscellaneous Roads and Bridges, $5,000,
Hon. Mr. Langevin stated that it was for the Temiscouata Road, and for the Military Road at Huntingdon.
Hon. Mr. Holton said that the last road had been made a military road at the instance of Mr. Rose, who had promised it during his canvass. The grant was wholly indefensible.
It being six o’clock the Committee rose.
After recess,
Hon. Mr. Abbott moved the House into Committee on the Canada Central Railway.
encourager la construction de la presente route puisqu’il aiderait ainsi a obtenir une subvention pour sa propre region.
M. Mackenzie—Marchandage.
M. Forbes estime que la Puissance ne devrait pas fournir de fonds pour des entreprises qui devraient etre financees par le gouvernement local.
L’honorable sir John A. Macdonald sou-tient que le cas est du ressort de la Puissance. Le fait que la Compagnie de telegraphe se prepare a installer une ligne le long de cette route en demontre l’importance.
M. Scatcherd pense que des arguments vala-bles ne sont pas suffisants pour justifier la construction de la route, puisque d’autres bons arguments militaient aussi en faveur de la construction de routes dans le comte de Bruce ou la population les avait payees, mais le Gouvernement avait refuse de les construire. La route a 118 milles de longueur, et il aimerait savoir si le present vote servira a completer les travaux ou si c’est le prelude d’une couteuse entreprise?
M. Mackenzie dit que la subvention deman-dee ne depasserait pas $10 le mille et qu’un tel montant sera insuffisant pour construire une route dans cette region montagneuse. II prevoit que le vote entrainera de fortes depenses et il propose done que la question soit rayee de l’ordre du jour.
Le poste est rejete a la majorite des voix.
M. Mackenzie propose de nouveau que les mots suivants soient ajoutes au poste, «a condition qu’aucune somme supplementaire ne soit accordee pour la construction de ladite route*. Motion adoptee.
En ce qui concerne le poste Routes et ponts divers, $5,000,
L’honorable M. Langevin declare que ces fonds sont destines a la route de Temiscouata et au chemin militaire de Huntingdon.
L'honorable M. Holton dit que cette der-niere route avait ete convertie en chemin militaire a la demande de M. Rose, qui en avait fait la promesse durant sa campagne electorate. Le subside est absolument indefendable.
Il est six heures du soir et le Comite leve la seance.
A la reprise de la seance,
L'honorable M. Abbott appelle la Chambre a discuter en Comite du chemin de fer Central du Canada.
[Hon. Dr. Tupper—L’hon. Dr Tupper.]
16 avril 1870
DEBATS DES COMMUNES
1057
Hon. Sir John A. Macdonald said the member for Cornwall desired to be still further heard in opposition to the measure.
Hon. Mr. Abbott said that his opposition could be given at the other stages.
Hon. Mr. Holton said that all the arguments had been urged for three days before the Committee, and urged to iteration; he might say in the words of Shakespeare, “damnable iteration,” (a laugh).
The Speaker—Order.
Hon. Mr. Holton said he had yet to learn that he could be called to order for quoting Shakespeare, one of their classical authorities.
Mr. McDougall (Renfrew) said that the House should not be called to postpone its legislation at this late season, to suit the convenience of the member for Cornwall who ought to have been in his place.
The House then went into Committee, passed the Bill without amendments, rose and reported, and the third reading was fixed for Wednesday.
BANQUE DU PEUPLE
Hon. Mr. Holton moved the second reading of the Bill intituled: “An Act to continue in force the provisions of divers Acts relating to La Banque du Peuple”—carried; and the House went into Committee, passed the Bill with two verbal amendments, which were concurred in, and the Bill was fixed for a third reading on Wednesday.
CHURCH OF ENGLAND SYNOD
Hon. Mr. Campbell moved the second reading of a Bill intituled: “An Act to extend the operation of the Act of the Legislature of the late Province of Canada, 19 and 20 Viet., chapter 141, concerning the Synod of the Church of England in Canada, to the Province of Nova Scotia.” The object is to give power to the Synod of Nova Scotia to join the Synod of Canada.
Mr. Mackenzie opposed the Bill on the ground of its not being a matter for legislation by this Parliament. There was no established church here and the different churches could meet without hindrance. With regard to any rights to be obtained, these should be decided on by the Local Legislatures.
Hon. Mr. Abbott said the question was whether they should free two bodies already incorporated from trammels imposed on them by such legislation. All that was asked for was
L’honorable sir John A. Macdonald dit que
le depute de Cornwall desire expliquer plus longuement les raisons de son opposition a cette mesure.
L’honorable M. Abbott repond qu’il pourra manifester son opposition a un autre moment.
L'honorable M. Holton dit que tous les arguments ont ete plaides et repetes durant trois jours devant le Comite, et il ajouterait dans les mots de Shakespeare, «maudite reiteration*. (Rires.)
L’Orateur rappelle a l’ordre.
L'honorable M. Holton dit qu’il ne savait pas qu’il pouvait etre rappele a l’ordre pour avoir cite Shakespeare qui est l’un des grands auteurs classiques.
M. McDougall (Renfrew) dit que la Cham-bre ne devrait pas etre appelee a reporter l’adoption de lois a ce moment tardif de la session pour se plier au desir du depute de Cornwall qui aurait du etre a sa place.
La Chambre se reunit alors en Comite, adopte le Bill sans amendement, leve la seance, fait rapport, et la troisieme lecture est fixee a mercredi.
BANQUE DU PEUPLE
L’honorable M. Holton propose la deuxieme lecture du Bill intitule: «Acte pour continuer en force les dispositions de divers Actes concer-nant la Banque du Peuple*—adopte; et la Chambre se forme en Comite, adopte le Bill en y proposant deux amendements oraux, et la troisieme lecture est fixee a mercredi prochain.
SYNODE DE L’EGLISE D’ANGLETERRE
L’honorable M. Campbell propose la deuxieme lecture du Bill intitule: «Acte pour etendre a la Province de la Nouvelle-Ecosse, l’effet de l’Acte de la Legislature de la ci-devant Province du Canada, 19-20 Victoria, chapitre 141, relatif au Synode de l’Eglise d’An-gleterre en Canada*. Le but du Bill est d’auto-riser le Synode de la Nouvelle-Ecosse a se join-dre au Synode du Canada.
M. Mackenzie s’oppose au Bill parce que le sujet n’est pas de la competence du present Parlement. II n’existe pas ici d’Eglise d’Etat et les differentes Eglises peuvent se reunir sans empechement. En ce qui concerne l’obtention de certains droits, la decision releve des legislatures locales.
L’honorable M. Abbott dit que la question est de savoir s’ils doivent liberer deux organis-mes deja incorpores, des entraves imposees par une telle legislation. Tout ce qu’on demande,
1058
COMMONS DEBATES
April 16, 1870
power to act together, which they could not do now.
Mr. Mills contended that this Parliament could not take away the individual power of the Nova Scotia Synod by their Act, and confer it on a different body to be constituted by this Act. The Bill was altogether too indefinite, and there was no more difficulty in those two Synods meeting together voluntarily than there was in the Pan-Anglican Synod some time ago.
Hon. Mr. Dunkin agreed that the Parliament had power to legislate on the matter. The Bill touched no denomination except the one which asked for it, and could hurt nobody.
Hon. Mr. Holton said he was very much in favour of the Bill as a sequel to the union of the Provinces, but he was very jealous of any legislation which might establish a precedent that would look like legislation on religious subjects, or rather Church organizations. The House ought to consider more maturely and with fuller benches the principle involved in the Bill.
Hon. Mr. Campbell said he would not object to consent to a postponement, were it not for the lateness of the session. The Episcopal Church in Nova Scotia wanted no more privileges than were conferred on any other denomination, but would be content with no less.
Hon. Col. Gray said if the Bill were confined to Nova Scotia alone he would say nothing on the subject; but its provision went to other Provinces also. In New Brunswick there was a large and influential portion of the Episcopal Church which did not wish to be united to any other Synod.
Hon. Mr. Campbell said he held in his hand a letter from the Bishop of Fredericton asking his friends to vote for this measure.
Hon. Sir John A. Macdonald said he had at first some difficulty respecting this Bill. He thought now they could legislate, and if they could they ought. It was in consequence of the passing of the Clergy Reserve Act that the Constitution was sought for by the Church of England. The Local Legislatures cannot give the authority sought to be obtained, and so the central body must do so. The Act only gives power to the Synod to meet as a General Assembly, the Diocesan Synod alone having the power to deal with the temporalities. This Act does not affect property at all, which this Parliament has nothing to do with.
c’est la possibility de s’unir, ce qui n’est pas possible actuellement.
M. Mills soutient qu’il n’appartient pas a ce Parlement d’enlever au Synode de la Nouvelle-Ecosse, le pouvoir individuel accorde en vertu d’une loi et de l’accorder a un organisme different qui serait constitue en vertu de la presente loi. Le Bill est trop vague et il n’est pas plus difficile pour ces deux Synodes de se reunir sur une base volontaire qu’il ne l’a ete pour le Synode pananglican, il y a quelque temps.
L'honorable M. Dunkin reconnait que le Parlement peut legiferer en cette matiere. Le Bill ne touche aucune confession si ce n’est celle qui en fait la demande et ne peut nuire a personne.
L’honorable M. Holton dit qu’il est tres en faveur de ce Bill qui constitue une suite a l’union des provinces, mais il se mefie beau-coup de toute legislation qui pourrait etablir un precedent qui ressemblerait a une legislation en matiere de religion ou d’organismes ecclesiastiques. La Chambre devrait etudier plus serieusement, lorsqu’un plus grand nombre de deputes seront presents, le principe en cause dans ce Bill.
L'honorable M. Campbell dit qu’il ne s’ob-jecterait pas a un ajournement si la session n’etait pas deja si avancee. L’Eglise episcopate de la Nouvelle-Ecosse, pour sa part, ne desire pas recevoir plus de privileges qu’une autre confession, mais ne se contentera pas de moins.
L'honorable colonel Gray dit que si le Bill ne touchait que la Nouvelle-Ecosse, il n’aurait aucune objection; mais ses dispositions tou-chent aussi d’autres provinces. Il existe au Nouveau-Brunswick une partie importante et influente de l’Eglise episcopate qui ne desire pas s’unir a aucun autre Synode.
L’honorable M. Campbell dit qu’il tient dans sa main une lettre de l’eveque de Fredericton demandant a ses amis de voter en faveur de cette mesure.
L'honorable sir John A. Macdonald dit qu’il a d’abord eu certaines objections face a ce Bill. Il pense maintenant que le Parlement peut legiferer et que, s’il le peut, il doit le faire. C’est a la suite de l’adoption de la Loi concer-nant les reserves du clerge que l’Eglise d’An-gleterre desire cette constitution. Les legislatures locales ne peuvent pas accorder le pouvoir demande et il appartient done au Gouverne-ment central de le faire. La loi ne fait qu’accor-der au Synode, le pouvoir de se reunir en assemblee generate, le Synode diocesain etant seul habilite a s’occuper des biens temporels. Cette loi ne touche pas aux biens immeubles
[Hon. Mr. Abbott—L’hon. M. Abbott.]
16 avril 1870
DEBATS DES COMMUNES
1059
Mr. Mackenzie said that the Canada Presbyterian Church organized themselves into a General Synod last season, and would meet as a General Synod this season. It was quite competent for other churches to do the same.
Hon. Sir John A. Macdonald—They don’t wish to do so.
Mr. Mackenzie said he had just learned that there were several petitions against the Bill.
Hon. Mr. Campbell said the rights of the parties petitioning were reserved in a provision.
Mr. Mackenzie said he would ask that they should be produced at the next stage.
Hon. Sir John A. Macdonald said he would consent.
The Bill was read a second time by consent. Further discussion reserved till before the Committee on Wednesday.
MERCHANTS’ BANK HALIFAX
On motion of the Hon. Mr. Archibald, the Bill intituled: “An Act to amend the Act to incorporate the Merchants’ Bank of Halifax”, was read a second time and taken into Committee and passed without an amendment, and read a third time and passed
COMMITTEE OF SUPPLY
The House again went into Committee of Supply, and resumed discussion on the item of Miscellaneous Roads.
Hon. Sir John A. Macdonald said the Huntingdon Road was assumed as a military road from the representations of the military officers. Sir John Rose was not here when the decision was arrived at.
Hon. Mr. Holton said that might be, but he would venture to say that the requisition was made at the instance of Mr. Rose, who during the election a short time previous, had promised to use his influence to make this a military road.
Mr. Mackenzie asked for the officers’ letter. Some people might be apt to draw ugly inferences from the coincidence of dates. He himself, of course, would not think of doing so.
sur lesquels il n’appartient pas au present Par-lement de statuer.
M. Mackenzie dit que l’Eglise presbyte-rienne du Canada s’etait constitute en Synode general, la saison derniere et se reunirait en tant que Synode general au cours de cette saison. Les autres Eglises peuvent faire de meme.
L’honorable sir John A. Macdonald dit
qu’elles ne le desirent pas.
M. Mackenzie dit qu’il vient d’apprendre qu’il existe plusieurs petitions demandant le retrait du Bill.
L’honorable M. Campbell dit que les droits des petitionnaires sont proteges par une disposition de la loi.
M. Mackenzie dit qu’il demanderait qu’on les produise au stade suivant.
L’honorable sir John A. Macdonald dit qu’il y consentirait.
Le Bill est lu une deuxieme fois avec l’assen-timent de la Chambre. On prevoit une periode de discussion avant la reunion en Comite, mercredi.
BANQUE DES MARCHANDS D’HALIFAX
A la demande de l’honorable M. Archibald, le Bill intitule: «Acte pour amender l’Acte incorporant la Banque des Marchands d’Hali-fax», est lu une deuxieme fois, etudie en Comite, adopte sans amendement, et lu une troisieme fois et adopte.
COMITE DES SUBSIDES
La Chambre se reunit a nouveau en Comite des Subsides et reprend la discussion en rapport avec les chemins et ponts.
L'honorable sir John A. Macdonald dit que
la route de Huntingdon a ete designee chemin militaire a la suite des faits exposes par les officiers militaires. Sir John Rose n’etait pas present au moment ou la decision a ete prise.
L'honorable M. Holton dit que c’est possible, mais il oserait dire que la demande a et6 faite a l’instance de M. Rose qui, durant les elections qui avaient eu lieu peu de temps auparavant, avait promis d’user de son influence pour transformer cette route en chemin militaire.
M. Mackenzie demande a voir la lettre des officiers. Certaines personnes pourraient etre portees a tirer des conclusions hatives a cause de la coincidence des dates. Lui-meme, evidem-ment, ne penserait pas a faire une telle chose.
1060
COMMONS DEBATES
April 16,1870
Hon. Mr. Anglin thought it was time these roads should be assumed by the municipalities. The Matapedia road and others were getting thickly settled now.
ITEMS PASSED
Surveys and Inspections, $20,000; Arbitrations and awards, $10,000; Miscellaneous works not otherwise provided for, $10,000; Rents, repairs etc., $45,000; heating public buildings, Ottawa, $32,000.
On the item for public buildings generally, (revote) $20,000.
Hon. Mr. Langevin said the Government henceforth intended to do away with insurance on public buildings in Ottawa and throughout the Dominion. They intended to have an insurance of their own.
Hon. Mr. Holton—Hear, hear.
The item was carried.
Richibucto Harbour (2 years), $4,000; Amherst Harbour and House Harbour, Magdalen Islands, $4,000; Windsor and Annapolis Railway, $31,600; Western Extension N.B., $70,000; Eastern Extension, $12,500; Fredericton Branch, $7,500; Maintenance of Steamers, Quebec, $53,700.
Hon. Dr. Tupper called attention to the necessity of retaining the services of the steamer Druid at Halifax, as it was absolutely necessary to have such a vessel to be used for the relief of ships in distress. She might have been used to great advantage in the search for the missing steamer City of Boston.
Hon. Mr. Tilley explained that the Druid was found not to be a suitable vessel. It was intended to sell her, and in the meantime employ the Lady Head.
After some discussion the various items for subsidies to steamers, including communication between Halifax and Cork, etc., $37,541; tug service between Montreal and Kingston, $12,000; for lighthouse and coast service in Quebec, and salaries of lighthouse keepers, $12,097; maintenance of lighthouses, $17,147; construction, $104,000; maintenance of new lighthouses, $3,200; between Quebec and Montreal—salaries, $3,825; maintenance, $6,825;
On item $4,200, for steamer Richelieu,
Mr. Mackenzie asked what duties of that steamer could not be performed by the Government steamer.
L’honorable M. Anglin pense qu’il est temps que ces routes soient prises en charge par les municipalites. Les regions desservies par la route de la Matapedia et par d’autres routes sont assez peuplees maintenant.
CREDITS ADOPTES
Arpentage et inspections, $20,000; arbitrage et adjudication, $10,000; travaux divers pour lesquels il n’est pas autrement prevu, $10,000; loyers, reparations, etc., $45,000; chauffage des edifices publics d’Ottawa, $32,000.
Pour les edifices publics en general (a revoter) $20,000.
L'honorable M. Langevin dit que le Gouver-nement a l’intention de se defaire des assurances couvrant les edifices publics a Ottawa et dans toute la Puissance. Le Gouvernement a done l’intention d’avoir ses propres assurances.
L'honorable M. Holton—Bravo!
Le credit est adopte.
Havre de Richibucto (2 ans) $4,000; havres d’Amherst et aux Maisons, lies de la Madeleine, $4,000; chemin de fer de Windsor a Annapolis, $31,600; embranchement Ouest du Nou-veau-Brunswick, $70,000, et prolongement Est, $12,500; embranchement de Fredericton, $7,500; entretien du Vapeur Quebec, $53,700.
L’honorable Dr Tupper attire l’attention sur l’importance de retenir les services du vapeur Druid a Halifax parce qu’il est absolument necessaire de posseder ce genre de navire pour porter secours aux bateaux en detresse. Un tel navire aurait ete tres utile pendant les recher-ches entreprises pour retrouver le vapeur dis-paru City of Boston.
L'honorable M. Tilley explique que le Druid ne repond pas au besoin. On a l’intention de le vendre et de se servir du Lady Head entre-temps.
Apres discussion, on alloue pour divers vapeurs, y compris pour la ligne entre Halifax, Cork et d’autres villes, $37,541; pour le service de remorquage entre Montreal et Kingston, $12,000; pour l’entretien des phares et le service cotier du Quebec et pour le paiement des salai-res des gardiens de phare, $12,097; pour l’entre-tien des phares, $17,147; la construction, $104,000; pour l’entretien des nouveaux phares, $3,200; entre Quebec et Montreal—salaires, $3,825; pour l’entretien, $6,825;
A propos du credit de $4,200 pour le vapeur
Richelieu,
M. Mackenzie demande quelles sont les taches que ce vapeur peut executer que le
[Mr. Mackenzie—M. Mackenzie.]
16 avril 1870
DEBATS DES COMMUNES
1061
Sir John A. Macdonald said that the Government steamer drew too much water, and was unable to approach the lighthouses.
The item was carried.
Trinity House, Quebec, $7,488; do, Montreal, $7,614; removal of wrecks, $2,000; lighthouses above Montreal, $54,504; do, Nova Scotia, $75,364; New Brunswick, $30,562;
On the item of $8,000 for the Sable and Seal Islands Humane Establishments,
Sir John A. Macdonald, in reply to Mr. Mackenzie, said that the British Government contributed £400 sterling to the Sable Island expenses.
Cape Race Light, $1,000; Fisheries Maintenance, etc., of La Canadienne, $9,000.
On the item for salaries of Fishery Inspectors and Wardens, $24,500,
Mr. Mackenzie said that Fishery Overseers were altogether unnecessary, especially in ports where, like Sarnia, there were other Government officials. They paid some of them $200 for collecting $1,000 of Revenue. It was perfectly ridiculous. He hoped the Government would give some promise that they would abolish the office.
Hon. Sir John A. Macdonald said these duties were very important on the Maritime coast. He did not know very much about their duties on inland lakes.
Mr. Mackenzie said they had in fact no duties whatever to perform. It was absurd to talk of preventing poaching in the fisheries. The owners would take care that the offence was not committed.
It was then carried.
On item $9,000 for fish-ways and oysters, and for fish breeding,
Mr. Mackenzie called attention to the condition of the Ottawa River. It was the next largest to the St. Lawrence, but was utterly destroyed by the manufacturers of lumber being permitted, against the law, to empty all their saw-dust into the river. It not only destroys the navigation, which was a grievous
vapeur du Gouvernement ne peut pas accom-plir.
L'honorable sir John A. Macdonald dit que
le navire a vapeur du Gouvernement a un tirant d’eau trop grand et ne peut pas s’appro-cher des phares.
Le poste est adopte.
Maison de la Trinite, Quebec, $7,488; idem, Montreal, $7,614; remorquage des epaves, $2,000; pour les phares en amont de Montreal, $54,504; idem, Nouvelle-Ecosse, $75,364; Nou-veau-Brunswick, $30,562;
A propos du credit de $8,000 pour l’etablisse-ment de secours aux lies de Sable et aux Phoques,
L'honorable sir John A. Macdonald, en reponse a M. Mackenzie, dit que le Gouvernement britannique contribue 400 livres sterling pour couvrir les depenses de Tile de Sable.
Le phare du cap Race, $1,000; entretien pour les pecheries de la goelette La Canadienne, $9,000.
Au sujet du credit de $24,500 pour les salaires des officiers des Pecheries et des gardes-peche,
M. Mackenzie dit que les officiers des Pecheries sont tout a fait inutiles, specialement dans les ports ou, comme a Sarnia, il y a deja d’autres representants du Gouvernement. Certains sont payes $200 pour en percevoir $1,000. C’est une situation tout a fait ridicule. II espere que le Gouvernement promettra d’abolir le poste.
L’honorable sir John A. Macdonald dit que
ces taches sont tres importantes sur la cote Est. II connait assez mal les taches des inspecteurs des lacs de l’interieur.
M. Mackenzie dit, qu’en realite, ils n’ont aucune fonction. II est absurde de continuer a parler de prevention du braconnage en ce qui regarde les pecheries. Les proprietaires se chargeraient eux-memes d’empecher ces mefaits.
Le poste est alors adopte.
Au sujet du credit de $9,000 pour payer le cout des passes-migratoires, de la formation des bancs d’huitres et pour la propagation du poisson,
M. Mackenzie attire l’attention sur l’etat de la riviere Ottawa. C’est le plus grand affluent du Saint-Laurent, mais les fabricants de bois jettent leur sciure de bois illegalement et sont en train de la detcriorer completement. Non seulement, ils nuisent ainsi a la navigation, ce qui est en soi un fait grave auquel certains
99263-69
1062
COMMONS DEBATES
April 16, 1870
matter, and which some member of the Government ought to give his attention to, but it also destroyed the fish; and that river which ought to contain the choicest fish was now without any inhabitant of the finny tribe, except the wretched catfish. He thought it a shame that the rivers should be destroyed in that manner.
Hon. Sir John A. Macdonald admitted that the deposits of saw-dust from these mills was very injurious, but he did not see how the Government could deal with the matter except as it affected the fish. The Bill at present before the House, giving additional powers on the Ottawa River, might enable them to deal with the evil, but they must expect to meet determined opposition from the manufacturers in any endeavours to compel them to consume their own saw-dust.
Mr. Mackenzie said the matter demanded the most serious consideration of the Government, many of their rivers were utterly destroyed by receiving refuse of mills poured into the stream. As to there being no fish in the river, if they kept it clear they would soon have some. In Scotland and England protection had been afforded, and the value of an acreage was increased on some rivers in Scotland from £2 per acre to £5, and the same results would follow here. So long, however, as persons were allowed to build their manufactories, so as to pour their refuse into the streams, it would be utterly useless to promote fisheries.
Mr. Fortin said that there was a clause in the Fishery Act which provided for those cases.
Mr. Mackenzie—But it is never put in force.
Mr. Fortin said it was very difficult to do so.
Mr. Mackenzie said that the deposits in the river were in some places 20 feet high, and seriously endangered the navigation by the constant changing of the position.
Mr. Forbes hoped that the Government would consider the whole subject, and bring down a measure on the general question of fisheries next Session.
Mr. Mackenzie—They are always willing to consider. (Laughter.)
On item of $57,708 additional for protection of fisheries by a Marine Police,
membres du Gouvernement devraient prefer leur attention, mais ils tuent aussi le poisson; et cette riviere, qui devrait etre peuplee des meilleurs poissons, ne contient plus un seul habitant des eaux, a part les vulgaires pois-sons-chats. II pense qu’il est honteux que les rivieres puissent etre ainsi deteriorees.
L'honorable sir John A. Macdonald admet que cette sciure de bois est tres dommageable, mais il ne voit pas comment le Gouvernement peut intervenir si ce n’est pour proteger le poisson. Le Bill dont la Chambre est actuelle-ment saisie, donne au Gouvernement des pou-voirs supplementaires sur la riviere Ottawa et peut l’aider a regler une partie de la question, mais la Chambre doit s’attendre a une vive opposition de la part des fabricants devant toute tentative visant a les obliger a consom-mer leur sciure de bois.
M. Mackenzie dit que le Gouvernement doit etudier tres serieusement cette question parce qu’un grand nombre de rivieres sont en tres mauvais etat a cause des dechets deverses par les scieries. La riviere se repeuplera rapide-ment de poissons lorsque l’eau aura retrouve sa limpidite. L’Ecosse et l’Angleterre se sont don-nees cette protection et la valeur des terrains situes en bordure de certaines rivieres d’Fcosse est passee de 2 a 5 livres sterling l’acre et il est possible d’obtenir des resultats semblables ici. Cependant, aussi longtemps que l’on permettra la construction de manufactures le long des cours d’eau et qu’elles y deverseront leurs dechets, il sera absolument inutile d’encoura-ger les pecheries.
M. Fortin dit qu’il existe une clause de l’Acte concernant les Pecheries a cet effet.
M. Mackenzie dit qu’elle n’est jamais appliquee.
M. Fortin dit que c’est tres difficile de le faire.
M. Mackenzie dit que les depots accumules atteignent 20 pieds de hauteur en certains endroits et que leur deplacement constant rend la navigation dangereuse.
M. Forbes espere que le Gouvernement pren-dra la chose en consideration et proposera les mesures appropriees concernant les Pecheries au cours de la prochaine session.
M. Mackenzie dit que le Gouvernement est toujours dispose a etudier. (Rires.)
A propos d’une somme additionnelle de $57,708 pour la protection des pecheries (Police Maritime),
[Mr. Mackenzie—M. Mackenzie.]
16 avril 1870
DEBATS DES COMMUNES
1063
Mr. Mackenzie asked explanations of this item.
Hon. Sir John A. Macdonald said it was the intention of the Government to place in the Gulf of St. Lawrence six vessels like La Cana-dienne, to act as Marine Police for the protection of the fisheries. Government had made up their mind to put an end to the system of licensing, on account of the depredations which had been committed on their shores last year, and to prevent encroachment this year, had determined to organize the force.
Mr. Mackenzie wished to know if the vessels were to be chartered, or to be manned by crews selected by the Government.
Hon. Sir John A. Macdonald said the vessels were to be chartered for one year, with the option of retaining them for another. They were to be manned by crews selected by the Government, and great care would be observed in selecting the officers, who would exercise considerable powers, and required to be men of discretion and judgment.
The Committee rose and reported progress, and asked leave to sit again.
WELLAND CANAL
Hon. Mr. Langevin laid on the table returns relative to the Welland Canal.
The House rose at 11:30 p.m. and adjourned to Tuesday.
M. Mackenzie demande des eclaircissements sur ce point.
L’honorable sir John A. Macdonald dit qu’il est dans l’intention du Gouvernement de placer six bateaux semblables a La Canadienne dans le Golfe Saint-Laurent, lesquels agiront comme Police Maritime pour la protection des pecheries. Le Gouvernement a decide de mettre un terme au systeme des permis a cause des depredations qui ont eu lieu sur les rives l’annee derniere, et c’est pour prevenir de telles situations qu’il s’est decide a mettre sur pied ce corps policier.
M. Mackenzie desire savoir si les navires seront affretes ou equipes d’hommes choisis par le Gouvernement.
L’honorable sir John A. Macdonald dit que
les vaisseaux seront affretes pour un an, avec option de renouvellement pour une autre annee. Les equipages seront choisis par le Gouvernement et le choix des agents sera fait avec le plus grand soin. Ceux-ci jouiront de pou-voirs considerables et devront done faire preuve de discretion et d’un jugement sur.
Le Comite leve la stance et fait rapport de l’etat de la question et demande de sieger a une seance ulterieure.
CANAL WELLAND
L'honorable M. Langevin depose les dossiers relatifs au canal Welland.
La seance est levee a 11 h 30 du soir, et la Chambre est ajournee jusqu’a mardi prochain.
99263—69'/2
19 avril 1870
DEBATS DES COMMUNES
1065
HOUSE OF COMMONS
Tuesday, April 19, 1870 ABSENCE OF THE SPEAKER—NO HOUSE
The House did not meet this afternoon, owing to the absence of the Speaker, who was detained at Prescott on account of the cars failing to make connections. He sent a telegram about half-past three o’clock, saying he would arrive at five; but, the members having waited till that time, and the' Speaker not making his appearance, they adjourned till half-past seven. The House was prepared to proceed with business by nominating a Speaker pro tem, but the Government considered such a course would not be in accordance with Parliamentary procedure.
