DOMINION OF CANADA
OFFICIAL REPORT
OF
DEBATES
HOUSE OF COMMONS
THIRD SESSION—FOURTEENTH PARLIAMENT
14-15 GEORGE V, 1924
IN SIX VOLUMES
Volume I: Pages 1-1020 Volume III: Pages 2013-3040 Volume V: Pages 4037-4877
Volume II: Pages 1021-2012 Volume IV: Pages 3041-4035 Volume VI: Index •
VOLUME CLXI
COMPRISING THE PERIOD FROM THE FOURTH DAY OF APRIL TO THE TWELFTH DAY OF MAY, 1924, INCLUSIVE
OTTAWA F. A. ACLAND
PRINTER TO THE KING’S MOST EXCELLENT MAJESTY 1924
OANAD^
House of Commons
OFFICIAL REPORT
Hebates
Friday, April 4, 1924
