DOMINION OF CANADA
OFFICIAL REPORT
OF
DEBATES
HOUSE OF COMMONS
FOURTH SESSION—FOURTEENTH PARLIAMENT
15-16 GEORGE V, 1925
VOLUME III, 1925
COMPRISING THE PERIOD FROM THE FIFTEENTH DAY OF APRIL TO THE ELEVENTH DAY OF MAY, 1925, INCLUSIVE
BEING
VOLUME CLXVII FOR THE PERIOD 1875-1925
INDEX ISSUED IN A SEPARATE VOLUME
OTTAWA F. A. ACLAND
PRINTER TO THE KING'S MOST EXCELLENT MAJESTY
1925
CANADA.
House ol
Commons Debotes
OFFICIAL REPORT
Wednesday, April 15, 1925
