DOMINION OF CANADA
OFFICIAL REPORT
DEBATES
HOUSE OF COMMONS
FIRST SESSION—FIFTEENTH PARLIAMENT
16-17 GEORGE V, 1926
VOLUME IV, 1926
COMPRISING THE PERIOD FROM THE SIXTH DAY OF MAY TO THE EIGHTH DAY OF JUNE, 1926, INCLUSIVE
BEING
VOLUME CLXXIII FOR THE PERIOD 1875-1926
INDEX ISSUED IN A SEPARATE VOLUME

OTTAWA F. A. ACLAND
PRINTER TO THE KING’S MOST EXCELLENT MAJESTY 1926
CANADA
House of
Commons Debates
OFFICIAL REPORT
Thursday, May 6, 1926
