DOMINION OF CANADA
OFFICIAL REPORT
OF
DEBATES
HOUSE OF COMMONS
FIRST SESSION—FIFTEENTH PARLIAMENT
16-17 GEORGE V, 1926
VOLUME V, 1926
COMPRISING THE PERIOD FROM THE NINTH DAY OF JUNE TO THE SECOND DAY OF JULY, 1926. INCLUSIVE
BEING
VOLUME CLXXIV FOR THE PERIOD 1875-1926
INDEX ISSUED IN A SEPARATE VOLUME
OTTAWA F. A. ACLAND
PRINTER TO THE KING’S MOST EXCELLENT MAJESTY 1926
Canada
House of Commons Debates
OFFICIAL REPORT
Wednesday, June 9, 1926.
