 at 3 o’clock.
Prayers
HOUSE BUSINESS
Hon. Mr. LANGEVIN in reply to Hon. Mr. SMITH said it was not the fault of the engineers if their report of the Baie Verte Canal had not been completed sooner. Eight or ten days of the best part of the season had been lost through troubles with the men. The people in the neighborhood, too, had interfered and delayed this survey by destroying the surveyors’ marks.
Hon. Sir GEORGE-E. CARTIER brought down the returns respecting the defence of the country up to the 17th of February, from 1st May 1870. He said there were more papers to be copied yet.—Referred to the Printing Committee.
Hon. Sir A.T. GALT suggested that arrangements be made for having an accurate report made of the Debates on the British Columbia measure.
Hon. Mr. HOLTON approved of the suggestion.
Hon. Sir GEORGE-E. CARTIER said the Government would consider the matter. While on his feet he would mention that with due diligence the House might be prorogued at Easter. (Cheers.) He would therefore move, without giving formal notice, that sittings be held on Saturdays, and that Government Orders have precedence.
Mr. JONES (Leeds North and Grenville North) hoped the Government would not comply with the suggestion of the hon. member for Sherbrooke and the hon. member for Chateauguay. The local papers gave very fair reports and he thought there was no necessity for anything further.
Hon. Sir GEORGE-E. CARTIER was reminded that next Saturday would be a statutory holiday, but it would be well to make Thursday a Government day. He moved a resolution to that effect, which was carried.
Mr. SCRIVER referred to the regulations affecting the distribution of land grants in Manitoba, and asked the intention of the Government with respect to the Volunteers who had already been discharged.
Hon. Sir GEORGE-E. CARTIER said they would be entitled to the same privileges as other Volunteers in Manitoba. All connected with the expedition would be dealt with in the most liberal manner.
* * *
PRIVATE BILLS
The following Bills were read a third time and passed:—
Bill No. 19. An Act to authorize the incorporated Village of Trenton to impose and collect Harbour Dues, and for other purposes—Mr. BROWN.
Bill No. 28. An Act to extend the provisions of the Act authorizing the imposition and collection of Harbour Dues by the Corporation of the Town of Owen Sound—Mr. SNIDER.
Mr. SCATCHERD asked whether it is the intention of the Government to place the Volunteers called out during the last Fenian raid on the same footing in respect to a grant of land with the Volunteers in Manitoba.
Hon. Sir GEORGE-E. CARTIER replied that the Volunteers who were good and generous enough to hire themselves for a year or perhaps two years, if required, must receive special considerations from the Government, but it was intended that those who served during the last Fenian raid should be remunerated in this way. As a matter of course, to all Volunteers who served in repelling the Fenian raid, the Government would be willing to facilitate as much as possible their obtaining free grants of land on condition of settlement.
Mr. MILLS asked whether the contractors of sections 3, 4, 5, 6 and 7 of the Intercolonial Railway who have thrown out their contracts have been released from their obligation; and whether the Government has in any way promised or agreed to indemnify such of those contractors and their sureties as may have performed work in excess of the amount paid before the abandonment of such contract; and also whether any payment or promise of payment has been made of liabilities incurred by the contractors to third parties?
Hon. Mr. LANGEVIN replied in the negative to all these questions.
Mr. MAGILL moved for copies of the Commission and instructions to commissioners on the subject of canal enlargement, etc. —Carried.
COMMONS DEBATES
220
March 20, 1871
Mr. CAMERON (Huron South) moved the second reading of Bill (No. 11) to annex the village of Seaforth to the South Riding of the county of Huron.
Hon. Sir GEORGE-E. CARTIER said the constituencies would be re-adjusted after the completion of the census. He hoped the hon. member would let the Bill drop.
Mr. CAMERON (Huron South) said as the village stood at present, if an election should take place before the next elections, Seaforth would be disfranchised. If at the completion of the census, it should be found that no increase has taken place in the county, no redistribution would take place, and the village would have no voice in the legislation for this Dominion. It was immaterial to him whether the village was annexed to the North or to the South Riding so long as the inhabitants could be properly represented.
Hon. Sir GEORGE-E. CARTIER said it was very unlikely that any elections would take place in Ontario before the redistribution of constituencies, and he thought this House should wait until the change should take place in the regular way. They did not know what political party they might be serving by annexing the village to any particular riding.
Hon. Mr. HOLTON thought the Bill should be referred to a special committee. It was manifestly unjust that the village should be disfranchised.
The Bill was allowed to stand over.
Mr. BOURASSA moved that the House go into Committee to consider certain resolutions for the creation of a special fund, to be denominated ‘‘The Liquor Inspection Fund.’’
Hon. Mr. MORRIS said the Bill if carried would entail great expense. There was no doubt that a great deal of the liquors used in the country were adulterated. The Bill was out of order, as it proposed the creation of a new office.
The Bill was ruled out of order and was dropped.
On motion to resume the adjourned debate on the proposed motion of Mr. Harrison for the second reading of Bill (No. 29)—An Act to remove doubts as to the liabilities to Stamp Duties of Premium Notes taken or held by Mutual Fire Insurance Companies,
The SPEAKER ruled as follows: That the Bill is to remove doubts, and declares that certain notes shall be deemed to be promissory notes within the meaning of the Act 31 Vic. chap. 9, and shall be subject to the duties thereby imposed; and it provides that all such notes heretofore given and not stamped shall be made valid by a double stamp. There being no
appropriation of money proposed, there need be no recommendation from the Crown; and the objection rests on the ground that as it involves an additional charge on the people, the Bill should have originated in Committee of the Whole, and, moreover, should have been proposed by a Minister. It appears to me that the Bill is merely declaratory, and that it involves no new charge except in so far as the double stamps duty may effect that purpose. On looking carefully at the 31st Vic., Cap. 9, I find by section 7 that the Governor in Council may declare that any kind or class of circumstances as to which doubts exist, shall be chargeable with any and what duty under the Act, and by sections 10, 11, and 12, provisions are enacted to render valid notes in the hands of innocent holders and notes passed to third parties. The provision as to double stamps in the present Bill is merely an extension of a former Act in its remedial clauses to the class of notes here declared to be within that Act. The Bill is one which, therefore, in my opinion, may be properly introduced and proceeded with by a private member. The question generally whether private members may introduce and proceed upon measures relating to taxation, which was discussed in the course of the argument, is one of very great importance, and, though not needful to the discussion of the present objections, I think it proper to say a few words upon it to the House. Instances may undoubtedly be found in the journals of the English House of Commons, of Bills and motions by private members to increase taxation, some of which have passed unchallenged; whilst in other cases the indirect assent of a Minister has been deemed sufficient. Recently, however, (in 1869) a high authority, Sir Thomas Erskine May, stated before a Joint Committee of the two Houses of Parliament that, ‘‘no private member is permitted to propose an Imperial tax upon the people—it must proceed from a Minister of the Crown, or be in some other form declared to be necessary for the public service.’’ I think the House may properly accept of this as the correct construction of the rules regulating the introduction of similar measures. The motion or Bill should either be introduced by a Minister, or if introduced by a private member (a practice which should not be encouraged) a Minister should assume the responsibility of it by signifying the consent of the Government to its being entertained by the House. If the House agree with me as to the desirability of adopting the constitutional restriction, it will become my duty to enforce the observance of the rule hereafter.
After some discussion on the point of order,
Hon. Mr. HOLTON objected to the Bill on its merits. It was an ex post facto measure, an Act to give vitality to securies now dead.
Hon. Mr. MORRIS said the course of the hon. member for Chateauguay was rather inconsistent. When the Bill was under discussion before the hon. member had informed the House that he would have no objection to it, if the Government would introduce it. Now, the hon. member objected to it on its merits. He (Hon. Mr.
COMMONS DEBATES
March 20, 1871
221
Morris) thought it was very desirable that the Bill should pass to remove doubts as to the validity of securities issued by Mutual Insurance Companies.
Hon. Mr. HOLTON said he had made no reference whatever as to the merits of the Bill in the former discussion on it. In fact, he could not have expressed any opinion of the kind until the point of order was decided.
Hon. Mr. SMITH (Westmorland) thought that some such measure was a necessity, and he should support it.
Hon. Mr. ABBOTT would be very unwilling to favour any legislation which would tend to cover any violation of the laws, or, by retrospective enactments to make persons liable to contracts which had become null. He thought the measure now proposed was very necessary, as in consequence of there being no doubt as to the liability of Promissory Notes to stamp duty, it would enable such Notes as otherwise might be illegal to be rendered by the payment of double duty. He was decidedly in favour of the increase.
The Bill was then read a second time and was referred to a Committee of the Whole on Wednesday next.
* * *
EXCISE DUTIES
The House then went into Committee to consider the following resolutions, Mr. HARRISON in the chair.
1.	That it is expedient to amend section 7, of the Inland Revenue Act, 1868, Vic, Cap. 50, by providing that, paraffin wax in a solid state, grease for lubricating purposes and being fluid, lubricating oil made from crude petroleum without being subjected to any process of distillation, tar and other refuse removed from the still without passing through the worm or condensor, and any article produced from such tar or refuse without further process of distillation shall be exempt from any duty of excise.
2.	That it is expedient to amend section 29, of the Act 33 Vic., Cap. 3 (to establish and provide for the Government of the Province of Manitoba), by authorizing the Governor in Council to reduce all or any of the duties of excise, payable in the said Province during the period of three years from the passing of the said Act, under any provisions of the laws of Canada respecting inland revenue, which he may see fit to declare applicable to the said Province, to such rates as he may deem expedient in view of the duties of customs payable during that period on like articles imported into the said Province.
In reply to Hon. Mr. Holton, Hon. Mr. MORRIS explained that the Manitoba Act had continued the excise laws in force in the old Province of Assiniboia, for a period of three years, but it was found
that in consequence the people of Manitoba were not in so good a position with regard to some articles as were the people of other Provinces, and the object of the Bill was to place them in the same position by giving discretionary power to the Governor in Council to conform the duties of Excise to those of Customs.
Hon. Mr. HOLTON objected to this power being given to the Government, as vesting in them the power of fixing taxation which should only belong to the House.
The resolutions were passed; reported to be received tomorrow.
* * *
BANKS AND BANKING
Hon. Sir FRANCIS HINCKS moved the second reading of Bill (No. 53) an Act relating to Banks and Banking.
Motion carried and Bill referred to the Standing Committee on Banks and Commerce.
* * *
FISHING BY FOREIGN VESSELS
Hon. Mr. TUPPER moved the second reading of Bill (No. 48) ‘‘an Act further to amend the Act respecting fishing by foreign vessels’’—(from Senate). He explained that under the present law, a vessel on being seized was compelled to be taken to the nearest port and placed under the jurisdiction of the nearest Customs officer. The House would easily understand that there might be many cases in which the nearest Customs Officer might not be in a position to protect the vessel and it was therefore proposed that the vessel should be sent to any port as directed by the Minister of Marine and Fisheries. It also proposed to vary in some degree the mode of distributing the proceeds of seizures.
Hon. Mr. SMITH (Westmorland) said there could be no objection to the first portion of the measure, and if it was necessary that there should be any distribution of prize money, the second portion might be very desirable, but he was decidedly of opinion that parties effecting any capture should be above all suspicion of having any pecuniary interest in the result of the seizure, and that they should in no way partake of the proceeds.
Hon. Mr. HOLTON read the second portion of the Bill, and objected that it was a measure that could not be originated in the Senate.
Consideration of measure therefore postponed.
* * *
INDEPENDENCE OF PARLIAMENT
Hon. Sir GEORGE-E. CARTIER moved that the second reading of Bill No. 42, ‘‘An Act further to amend the Act securing
COMMONS DEBATES
222
March 20, 1871
the Independence of Parliament.’’ He explained that the object of the Bill was to place the law on the Independence of Parliament in the same position as it had been under the old Act of the Parliament of Canada, rendering it incompetent for the Government to employ any member of the House in any service whatever.
Hon. Mr. HOLTON accepted the Bill very cordially as a step in the right direction, but did not think it went far enough. It was illusory to suppose that it reverted to the system under the old Province of Ontario, as there was nothing to prevent officers such as Registrars and Sheriffs from sitting in the House.
Hon. Sir GEORGE-E. CARTIER pointed out that under the old law those officers had been appointed by the Province, but as the Dominion Government had no power over those officers there was no reason why they should be excluded from the House.
Mr. WELLS said that under the Insolvent Act, Sheriffs were charged with many duties from the Dominion Government, and there was no doubt that if they did not discharge those duties properly, the Government would find means to punish them, and maintain that there were precisely the same reasons for excluding a Sheriff from the Dominion Parliament as there were to exclude him from the Local Legislature.
Hon. Sir GEORGE-E. CARTIER was surprised the hon. member did not see the difference. Sheriffs were not appointed or paid by the Dominion Government, nor had the Government any power to dismiss them.
Hon. Mr. HOLTON said that there were good reasons for excluding Sheriffs and other such officers, from Parliament, which he should urge at the proper time. All servants subject to the influence of the Crown ought to be excluded.
Motion passed, and Bill to be referred to a Committee of the Whole House tomorrow.
* * *
MILITIA AND DEFENCE
Hon. Sir GEORGE-E. CARTIER moved the second reading of Bill No. 43: ‘‘An Act to amend the Act regulating the Militia and Defence of the Dominion.’’ He explained that its object was to extend the Militia Act to the Province of Manitoba and to British Columbia when admitted into the Dominion. He referred to a previous remark he made on the subject to the effect that the Militia Law of Canada could not be improved, and read a letter which he had recently received from Mr. Reade, the Registrar of Her Majesty’s Judicial Committee, who was well known as an eminent legal man, an eminent Parliamentary man, and a great literary character, and who, on Sir George Cornwall Lewis taking a position in Lord Palmerston’s Government, succeeded that gentleman in the temporary management of the Edinburgh Review, and who, on the
death of Sir George, assumed the management of that publication permanently, in which Mr. Reade stated that he considered the Canadian Militia Law most admirable, and would be well satisfied to see it applied to England.
Hon. Mr. HOLTON said he supposed the gentleman referred to admired the Militia Bill because it did in Canada what no one had ever proposed in England: it established the system of conscription. There might be many in England, who, like Mr. Reade, would be glad to see that system in force there, but there had never yet been a single eminent man, who had dared to propose such a measure to the Imperial Parliament.
Mr. BLANCHET drew attention to the report of the Adjutant General, shewing defects in the system, instancing that a District Adjutant General, ranking as Lieut. Colonel, might be placed in command of officers really his senior.
Hon. Sir GEORGE-E. CARTIER said there were many recommendations in the report of the Adjutant General which were well worthy of consideration, and which would no doubt be acted upon as soon as practicable. He promised that the Government would consider the matter.
The motion passed, the Bill to be referred to a Committee of the Whole House tomorrow.
* * *
NORTH WEST
Hon. Sir GEORGE-E. CARTIER moved the second reading of Bill No. 44, ‘‘An Act to make further provision for the Government of the North West Territories’’ (from Senate). He explained that the Bill was simply a re-enactment of what had been passed in the first instance as a temporary measure, it being considered a more advisable mode than continuing the former Act.
Hon. Mr. HOLTON said he saw no particular objection to the Bill.
Motion carried, and Bill to be referred to a Committee of the Whole House tomorrow.
* * *
HOUSE IN COMMITTEE OF SUPPLY
On motion of Hon. Sir FRANCIS HINCKS, the House went into Committee of Supply, Mr. HARRISON in the chair.
In the items for Penitentiaries,
Hon. Mr. HOLTON called attention to the increase this year as compared with last in regard to Kingston. Then it required but
COMMONS DEBATES
March 20, 1871
223
$112,841, now, however, $117,091. Both the Warden and Deputy Warden were receiving an augmentation.
Hon. Sir GEORGE-E. CARTIER said that the Government were convinced that for the minimum salaries the service of proper Wardens could not be secured. Mr. Creighton was a valuable officer. When they reflected that such an officer had to spend his whole time within the institution, being denied the pleasures of congenial society, and that these officers were men of ability, they would conclude that the Government in allowing the highest salary sanctioned by the law, were acting commendably.
Hon. Mr. HOLTON thought the salary was not excessive, if the officers were suitable. But it was a mistake to suppose that the figures were the measure of their emoluments, they being granted a variety of advantages, including house rent, which went to make their salaries very respectable.
Item passed.
Rockwood Asylum, $82,734.
Hon. Mr. HOLTON called attention to the increase here also. There was a difference against this year of $7,000 in the articles of skilled labour and messengers.
Hon. Sir GEORGE-E. CARTIER: And building materials.
Hon. Mr. HOLTON could not conceive of the connection between these and skilled labour.
Hon. Sir FRANCIS HINCKS said if the Opposition were taking a vote for Public Works, they would say they wanted so much for the buildings, but therein would be comprised skilled labour and materials. It was another way of stating the same thing.
Hon. Sir GEORGE-E. CARTIER observed that with regard to Rockwood the Government had a large claim against Ontario for the inmates, amounting to $47,000.
Hon. Mr. HOLTON: Not out of this vote. He wished for explanations of the increase this year.
Hon. Sir GEORGE-E. CARTIER said it was due to the
increase in the number of inmates.
Hon. Mr. HOLTON: The chief increase was in an item having no reference to the number.
Hon. Sir GEORGE-E. CARTIER: That institution, like every other continued increasing. The cost naturally augmented with the increase of the number of criminal lunatics.
Hon. Mr. HOLTON thought it would be as well for the hon. gentleman to do a bold thing at once—and he was able to do such things—and admit he knew nothing about the estimate. (Laughter.)
Hon. Sir GEORGE-E. CARTIER said it was not under his control. He had a certain number of figures before him which he also gave to the House. (Hear, hear, and laughter.)
Item carried.
Halifax Penitentiary, $21,136.
In reply to Hon. Mr. Holton, Hon. Mr. TUPPER said there was a very small increase here, except for the building materials. Last year the Penitentiary had no Warden, and the services were temporarily performed by one of the keepers. This year there was an addition, but at the lowest rate of salary for a Warden. The building materials covered the main portion of the increase.
Item carried.
Penitentiary St. John, N.B., $52,173.
Hon. Mr. HOLTON said this expenditure in New Brunswick had increased beyond all proportion to that connected with any of the other institutions. He was quite sure the Minister of Customs, who was always ready to make a defence of anything, no matter how monstrous, could say something in favour of this item. (Hear, and laughter.)
Hon. Sir GEORGE-E. CARTIER replied there was no argumentation in New Brunswick, the present apparent one being the result of an error, instead of $9,300 for the maintenance, there should be but $6,946, which he moved should be substituted therefore.
Hon. Mr. HOLTON said that was the most satisfactory explanation of all. (Hear, hear.)
The remaining items under this head, amounting to $3,500, were agreed to without discussion.
Light-houses and coast service, construction of light-houses, fog-trumpets, &c., $79,700.
Hon. Mr. HOLTON said he had little information on the subject of this class of items, and hoped some of the hon. members from the coasts would be prepared to correct any errors that might have been committed in the selection of sites for those structures and in other matters. There was no class of appropriations he would vote for with greater pleasure than those for light-houses on the coast. (Cheers.)
COMMONS DEBATES
224
March 20, 1871
Mr. THOMPSON (Haldimand) asked if there was an appropriation for a light-house at Port Maitland.
Hon. Mr. TUPPER replied in the affirmative.—Item carried.
Salaries of light-house keepers, &c., Quebec, $230,071 carried, as was also that for maintenance of light-houses, $18,929.
Between Quebec and Montreal—salaries, $2,880; maintenance, etc., of light-houses, $6,825.
Hon. Mr. HOLTON asked what was meant by maintenance.
Hon. Mr. TUPPER: All kinds of expenses such as provisions, oil, &c.
The remainder of the appropriations under this head were agreed to, the whole amounting to $303,577.
* * *
THE MURDER OF MR. MCGEE
Hon. Sir GEORGE-E. CARTIER said he had been questioned lately by the hon. member for Chateauguay as to whether any money had been paid in reward for the services in connection with the detection and arrest of the murderer of the late Mr. McGee. He found on enquiry at the office of the Minister of Justice that no portion of the promised reward had been paid. Six or seven applications were under the consideration of the Minister of Justice, but no decision in regard to them had yet been reached.
It being six o’clock the House adjourned.
AFTER RECESS
For the protection of the Fisheries (Marine Police), $70,000.
Hon. Mr. HOLTON objected to the last item, and asked for details.
Hon. Mr. TUPPER said the cause of the increase over the vote of last year was because last year’s estimate was insufficient.
After some further discussion the item was carried.
On the item of $73,400 for salaries and contingencies of culler’s offices at Quebec, Montreal and Sorel,
Mr. BOLTON objected to the increase of $3,500 over the estimate of last year.
Hon. Mr. MORRIS said he had promised last year that the service should be made self-sustaining, and he had done so. The scale of charges had been so revised as to enable an increased amount to be met, and without imposing any undue burden on the trade. It was not proposed to increase the number of cullers.
After some discussion the following estimates comprised under the head of culling timber, were carried:—
Quebec Office...67,925.00 Montreal... 3,800.00 Sorel...1,675.00
The detailed items of the estimate $8,500 for steamboat inspection, and $8,100 for Indians, were carried without discussion.
The following items under the head of ‘‘miscellaneous,’’ were also carried without discussion:—
Printing Canada	Gazette... $2,500.00	Postage...1,200.00
Miscellaneous Printing...5,000.00
On the item of $50,000 to provide one half of the British share of the Expenditure in reference to Surveys of the boundary line, between Canada and the United States of America, on the 49th parallel of North Latitude,
Hon. Mr. HOLTON asked for explanations.
Hon. Sir GEORGE-E. CARTIER said it had become necessary to settle the boundary line between the Dominion and the United States, and the American Government were prepared to pay one half of the expense. Great Britain had proposed to Canada to pay one fourth of the whole amount, the Imperial Government paying the other one fourth. It would take between two and three years to complete the work, and the cost to this country would be something like $150,000. The line to be surveyed was about 800 miles in length, extending from Lake of the Woods to the Rocky Mountains. This action was taken in consequence of a supposition on the part of the American Government that the Hudson’s Bay Company had encroached upon United States Territory.
Hon. Mr. HOLTON thought that if this country had a right to bear any part of the expense we should bear the whole of it. There was no valid reason that he could perceive for sharing it between the two Governments. His own opinion was that Canada should bear the whole of it, and show our fellow countrymen at home that we could bear our own burdens. We had acquired the North West Territory and had no idea of surrendering one foot of it to our neighbours (hear, hear), and it was our own business to see that the boundary line between the two countries was established.
Hon. Sir FRANCIS HINCKS said that the supposed error in the location of the boundary line had been discovered by persons in the employ of the American Government, and as they had no diplomatic relations with us, they proposed to the Imperial Government that a Joint Commission should be appointed for the
COMMONS DEBATES
March 20, 1871
225
purpose of establishing the boundary line and that each Government should bear half of the expenses. The Imperial Government applied to the Dominion Government, asking them to pay half of the expenses incurred by Great Britain. He quite agreed with the hon. member opposite that this country should bear the whole of the expense.
Hon. Mr. McDOUGALL (Lanark North) could not see the
necessity for so large an expenditure as the line had been run once before. He could not agree with the hon. member for Chateauguay, in the opinion that Great Britain should bear none of the expense. Either the Hudson’s Bay Company or the Imperial Government ought surely to sell us this great North West estate with the boundaries properly defined. Under the circumstances, he thought the generosity of Great Britain ought to be acknowledged by accepting their offer.
Item carried.
On the item of $400,000 for opening up communication with North West Territory,
In reply to Hon. Mr. Holton, Hon. Sir FRANCIS HINCKS said that when the vote first passed the House, every possible information had been given on the subject.
Hon. Mr. McDOUGALL (Lanark North) thought some details might be supplied as to the manner in which the money would be expended so that the House ought not to vote so large an amount blindly.
Hon. Sir FRANCIS HINCKS said that when the hon. member for North Lanark had been a member of the Government, he had asked for a blind vote for a million and a half dollars.
Hon. Mr. McDOUGALL (Lanark North) said that on that occasion it was understood that the money would not be expended without being submitted to the House.
Hon. Mr. HOLTON thought they were certainly entitled to some information as to the way in which it was intended to expend the money.
Hon. Mr. LANGEVIN said he had not anticipated that the item would have come up for discussion that evening or he would have had full details of the matter. He might mention, however, among the works to be provided for out of the vote asked for, the building of steam launches for the line between Shebandowan Lake and the north angle of the Lake of the Woods, the building of two steamers for Rainy Lake and the Lake of the Woods, the erection of sheds for the use of emigrants, the completion of the road from Prince Arthur’s landing to Shebandowan Lake, the completion of a number of Portages, some of which were in bad order, the completion of the road from the north west angle of the Lake of the Woods to the
eastern end of the 30 miles of road from Fort Garry. On another occasion he would be prepared to supply every information.
Mr. SCATCHERD thought it a matter of very great regret that in every circumstance connected with the North West there should be so much of mystery, and he thought if this mystery was continued, the sooner Canada got rid of the North West the better; for emigrants would never go there so long as the Government itself was in such entire ignorance on the subject, and he thought it very undesirable that such a large expenditure could take place where so little was known.
Hon. Mr. HOWE said that all the expenditure with regard to the North West could be traced in the public accounts, and if anything further was required the proper departments would be most willing to supply it.
Mr. MILLS said that what was more particularly wanted was information as to the communication with the North West, and he thought the item should be delayed until full particulars could be given. He then spoke of the route proposed by Mr. Dawson, commenting severely on that officer, and the mistakes made by him.
Hon. Mr. LANGEVIN said he had already undertaken to be prepared to give full information on this matter on a future occasion; but he must repel the accusation brought against Mr. Dawson. He had never known a more able, hard working officer than Mr. Dawson. He had done his work well, and had the full confidence of his Department, and the money placed in his hands had been expended well and in the interest of the public, and he could not allow the hon. member to attack the gentleman without defending him, and at the proper time he would be prepared to show that the accusations made against Mr. Dawson, now renewed, were false. As to the expedition which had been sent, if the officers in charge of that expedition had followed the suggestion made by Mr. Dawson, had profited by his experience and his knowledge of the country, a very large sum of money would have been saved to the country, and a great deal of the fatigue and hardship which the troops had to endure would have been avoided. He was sorry that these accusations had been brought at this time when he was not prepared with details, but at the proper time he would be prepared to prove all he had said.
Hon. Mr. McDOUGALL (Lanark North) said that from his knowledge and experience of Mr. Dawson, he would go almost as far in his favour as the Minister of Public Works had gone, in testifying to his devotion to the country and his ability to discharge the duties thrown upon him. If, however, the disregard of the experience and knowledge of the country which Mr. Dawson possessed had led to a large and unnecessary expenditure the Government was to blame, for if the Government had assumed the whole conduct of the expedition themselves, instead of handing it over to officers who, from their inexperience, were necessarily incompetent, they would without doubt have effected a large
COMMONS DEBATES
226
March 20, 1871
saving. He thought that if the survey that had been commenced by the Government when he had been in power had been carried out, he could look forward with confidence to a good result.
Mr. Dawson, although he believed him to be a very able man, and capable of forming good opinions on these matters, did not profess to be an engineer of the type of Mr. Page, and fearing, therefore, that some of his estimates might not turn out to be correct, the Government thought proper to make a more accurate survey of a part of the route, and the result was that one of Mr. Dawson’s propositions for a dam to raise the waters of Lake Shebandowan had been found almost impracticable.
Similar mistakes might have been made, and in this rough country, he considered it particularly necessary that the most accurate surveys should be made before deciding on any route, and he hoped the Minister of Public Works would send competent engineers to continue the work from the point where it had left off, and carry it to a conclusion. With reference to Mr. Dawson also, he desired to refer to some reports in the newspapers, and to representations and misrepresentations made with respect to Mr. Dawson’s road, but if any one inferred that there was a complete road from Thunder Bay to Shebandowan, they certainly misunderstood Mr. Dawson’s statements, and the public reports made on the subject. He must say that a very unfair attack had been made on Mr. Dawson in this respect.
Hon. Sir GEORGE-E. CARTIER said this appropriation obtained some two years ago, was necessarily a blind one. The Government had to feel their way. He was not prepared to say what would be the cost of the expedition, but he could confidently say that it would be under the one million of dollars which had been estimated.
Hon. Mr. HOLTON: Not much.
Hon. Sir GEORGE-E. CARTIER would not hold out any expectation that it would be much below one million of dollars, but still, it would be less than had been anticipated. He regretted that it had been found necessary to expend money in this way, but still the Dominion had gained in one way through it. The world had learned more of it, in consequence of those troubles than would have been acquired in fifty years under ordinary circumstances. The result of that knowledge would be the rapid settlement of the North West. It had shown that there was a route through our own Territory to Manitoba, and that Canada could punish evil-disposed persons wherever they might be found within her borders. The money had not only been necessarily expended in asserting the authority of the dominion, but out of evil good had come.
It had shown the American Government, and people too, that Great Britain valued the attachment of this country and would maintain the colonial connection. He referred to the article on the Red River Expedition which had appeared in Blackwood’s Magazine, and said it was calculated to excite ridicule and nothing
else. When Col. Wolseley returned from Manitoba he came by the Dawson route, and that was the highest honour which could be paid to the gentleman who constructed that road. It showed that whatever might be said of the road, it had been chosen by a man who had experience of the country through which it ran, as the best means of communication between Fort Garry and Canada.
In reply to the hon. member for Lanark North, he would say that the reason why the Canadian Government had not undertaken the management of the expedition was, that at the time the country was under the control of the Imperial Government, and the Dominion had, therefore, no authority to send an expedition there.
Hon. Mr. McDOUGALL (Lanark North):	That argument
won’t do.
Hon. Sir GEORGE-E. CARTIER: Why?
Hon. Mr. McDOUGALL (Lanark North) said if our Government had asked for a transfer of the North West at any time, it would have been made in twenty-four hours.
Hon. Sir GEORGE-E. CARTIER said the Canadian Government had not demanded a transfer of the North West Territories from the Imperial Government at the time, because they had no means of putting down the rebellion in mid-winter. It was thought better to leave the matter in their own hands. He thought Hon. Mr. McDougall was wrong in issuing his proclamation at the time he did, but his intention was good. Then, when he found he differed from his colleagues, he ran away from the Government to the Opposition. (Hear, hear, and laughter from the Opposition.)
Hon. Mr. LANGEVIN said that he could not furnish the details of the expedition referred to. In 1869-70 it amounted to $170,150; in 1870, up to December 31st, to $120,723; a portion of this would be borne by the Imperial Government. Of this there had been expended on the Fort William road, $173,900; on the road from Fort Garry to the Lake of the Woods, $53,439; Col. Dennis’s survey, $10,723; and the survey by Mr. Munro, $3,500; boats for transport service, $40,573; survey of Northern Route, $2,034. Expenses to be incurred:—
Transport service (including steam launches)	$67,729
Two steamers	$36,000
Contingencies	$31,271
Oskowdagi Bridge	$800
Fort William road	$4,200
Small dams and other improvements	$27,000
Lake of the Woods to Fort Garry road	$60,000
Surveys	$10,000
$237,000
COMMONS DEBATES
March 20, 1871
227
Mr. MILLS said the Hon. Minister for Public Works had charged him with misrepresenting the condition of the road. He would inform the hon. member that he had made no statements with respect to the road, but that he had spoken of newspaper reports concerning the roads. He would repeat again that he read such reports.
Hon. Mr. LANGEVIN said he had no intention of charging the hon. member with misrepresenting anything. He merely wished to deny the statements made by certain newspapers concerning the state of the road.
Mr. MILLS said the Hon. Minister of Militia had directly stated that the article which had appeared in Blackwood’s Magazine was the words of Col. Wolseley. In that article serious charges had been made against the Government, which were either true or false.
Hon. Sir GEORGE-E. CARTIER: They were false.
Mr. MILLS said that if so, it was all the more necessary that they should be refuted beyond the possibility of a doubt. For the honour of public men in this Dominion they should be proved untrue in as public a manner as they had been circulated.
Hon. Mr. HOWE was not satisfied that the articles in question were written by Col. Wolseley, and hoped they were not, for if they had been written by him, he certainly was not worthy of the trust reposed in him. He had slandered not only the gentlemen on the Treasury Benches, but an hon. gentleman opposite, and indeed every public man in Canada. He considered these articles gross, infamous and false, and therefore he did not believe Col. Wolseley had written those articles.
Mr. HOLMES alluded to the attack made on Mr. Dawson by the member for Bothwell, and made a few remarks in his defence.
Hon. Mr. HOLTON said that the Minister of Militia had stated that the expenditure was necessary, and that the expedition was necessary. He was not prepared to dispute that necessity under the circumstances existing last spring, but who were responsible for the necessity? He said most unhesitatingly that hon. gentlemen opposite were fully responsible, because they proceeded in utter ignorance of the circumstances of the country of which they proposed to take possession. That ignorance was admitted by those gentlemen in the legislation they proposed to Parliament later, and for that ignorance, and the large expenditure which had resulted, they must be held responsible.
Hon. Sir GEORGE-E. CARTIER: We do not deny our responsibilities.
Hon. Mr. HOLTON continued that the result of the ignorance of hon. gentlemen as to the circumstances of the North West in the autumn of 1869, was blood shed and turmoil, and the necessity for the despatch of a military expedition at a cost of nearly a million dollars. The Minister of Militia had expressed the hope that the
expenditure would not amount to so large a sum, but on referring to the Public Accounts, and a return subsequently submitted, it would be found that the expenditure had already exceeded half a million, while a large amount would necessarily have to be added. With reference to the expenditure made by Mr. Dawson for the establishment of a line of communication from Thunder Bay to Fort Garry, he was not prepared to criticise it, but he very much feared that they were frittering away large sums of money without getting any tangible value for it. He feared the Government were not properly seized of a distinct object to be gained by the expenditure. His view was that they should secure a thorough line of communication on some definite plan, and not vote large sums of money in the absence of such a plan.
Hon. Sir GEORGE-E. CARTIER said the hon. member for Chateauguay had stated that the Government were responsible in this matter. When the Government brought any measure before the House they explained the object of their propositions, and if the House was satisfied, how could the Government be charged with ignorance. If there was any responsibility it surely must be shared by the House, a majority of which had endorsed the proposals of the Government. After the return of the hon. member for Lanark North and himself from England, they reported their proceedings in England, that they had made an arrangement with the Hudson’s Bay Company, with the sanction of the Imperial Government. They brought their measure before the House, stated under what circumstances, and under what arrangements, the North West Territory was to be transferred, and the House almost unanimously endorsed their proposals. The Government expected that the difficulty was solved, and the House shared their expectation, and passed an address for the transfer of the Territory.
The hon. member for Chateauguay said that they ought to have known the feelings of the people.
While what they knew they stated, they might have been under some misapprehension, with regard to the welcome of Canadian authority, and he admitted that he himself was disappointed, but everyone was disappointed; no one anticipated that there would be any difficulty. They had been informed that the people were so dissatisfied with the rule of the Hudson’s Bay Company that they would gladly receive Canadian rule. If the hon. member for Chateauguay had known beforehand that this was not the case, why had he not warned the Government. He might mention that even Governor MacTavish informed them that everything would be right, and that there would be no difficulty. As to the figures of the hon. member for Chateauguay, that hon. gentleman had shown that in the course of eight months something like half a million had been expended. Well only four months remained to be accounted for, and adding a proper proportion for this unexpired time, it would be seen that the expenditure would fall very far short of a million, especially when it was remembered that the first period included by far the heaviest expenditure.
Mr. WORKMAN referred to the remarks of the hon. member for Hants, and said that whoever might be the author of the article in Blackwood, he was quite sure that Col. Wolseley was incapable of either writing of uttering anything which he knew to be false.
COMMONS DEBATES
228
March 20, 1871
Hon. Sir GEORGE-E. CARTIER said that if the Member for Montreal would compare the remarks made by Col. Wolseley at the complimentary dinner in Montreal, with the statements made in the articles in Blackwood, he must come to the conclusion that, provided Col. Wolseley had written these articles, one of the statements was false.
Mr. JONES (Leeds North and Grenville North) referred to the article in Blackwood’s Magazine, condemning Col. Wolseley for having written it.
Hon. Mr. HOLTON said the Government had incurred the responsibility of their ignorance of affairs in the North West. They had the means of acquiring knowledge and having failed to take advantage of the opportunity afforded them, they deserved the whole blame.
Hon. Mr. McDOUGALL (Lanark North) did not think there was ground for this charge of attempting to force on the Northwest a despotic system of government. With regard to the article which Col. Wolseley was charged with writing, he thought it would have been well for the hon. members of the Opposition to have refrained from making the statements they had done, for it might turn out after all, that that gentleman was not the author. The article was certainly written in bad taste, and misrepresented the public men in Canada. So far as it related to himself (Hon. Mr. McDougall) he did not care, for military men coming from England here were disposed to snobbery in speaking of Canadians. Many of the charges against Canadian public men, however, were entirely unfounded, and so far as any of them were true they merely exposed disagreements which any Canadian going to England could see amongst the public men of the Imperial Parliament.
Hon. Mr. ANGLIN protested against the attempt of the Government to throw the responsibility of their bungling on the House.
Hon. Sir FRANCIS HINCKS said the Government had done as well as could reasonably have been expected of them under the
circumstances. The measure was only a temporary one and there was no disposition to over-ride the feeling and wishes of the people of Manitoba. The hon. member attempted to excuse the rebellion in Manitoba in his anxiety to throw all the blame on the Government.
Hon. Mr. HOLTON said that the hon. gentlemen opposite, by their Act of last session, giving the people of Manitoba responsible government, justified the people of that province in their rebellion.
After some further discussion the item was carried.
The items under the head of
‘‘Customs’’	$525,336.25
Inland Revenue	$147,400.00
Post Office	$858,000.00
Public Works	$890,042.00
Minor Revenues	$10,000.00
All the estimates with the exception of the Board of Works and Militia having been carried, the Committee rose and reported.
Hon. Sir FRANCIS HINCKS moved the second reading of Bill (No. 54), an Act to idemnify the members of the Executive Government and others for the unavoidable expenditure of public money, in excess of the Parliamentary grant, incurred in repelling the threatened invasion of the Fenians in 1870. —Carried.
Third reading tomorrow.
The House adjourned at 11.35 p.m.
COMMONS DEBATES
March 21, 1871
229
HOUSE OF COMMONS
Tuesday, March 21, 1871
