DOMINION OF CANADA
OFFICIAL REPORT
OF
DEBATES
HOUSE OF COMMONS
THIRD SESSION—SIXTEENTH PARLIAMENT
19-20 GEORGE V, 1929
VOLUME II, 1929
COMPRISING THE PERIOD FROM THE FOURTH DAY OF APRIL, 1929, TO THE THIRTEENTH DAY OF MAY, 1929, INCLUSIVE
BEING
VOLUME CLXXXI FOR THE PERIOD 1875-1929
INDEX ISSUED IN A SEPARATE VOLUME
OTTAWA F. A. ACLAND PRINTER TO THE-KING’S MOST EXGBi 1929	-
‘TT Till \ JiTTY
.... - -
SA8K. LEGISLATIVE LIBRARY
JUN 9- 1930
REGINA
CANADA
House of
Commons Debates
OFFICIAL REPORT
Thursday, April 4, 1929
