DOMINION OF CANADA
OFFICIAL REPORT
OF
DEBATES
HOUSE OF COMMONS
FOURTH SESSION—SEVENTEENTH PARLIAMENT
23-24 GEORGE V, 1933
VOLUME II, 1933
COMPRISING THE PERIOD FROM THE FIFTEENTH DAY OF NOVEMBER, 1932, TO THS**^"**
TWENTY-FIRST DAY OF FEBRUARY, 1933, INCLUSIVE BEING
VOLUME CXCV FOR THE PERIOD 1875-1933
INDEX ISSUED IN A SEPARATE VOLUME
rar
VIMM
• effort,Mi&
3 1
CANADA
House of Commons ©etrates
OFFICIAL REPORT
Tuesday, November 15, 1932
