DOMINION OF CANADA
OFFICIAL REPORT
OF
DEBATES
HOUSE OF COMMONS
SIXTH SESSION—SEVENTEENTH PARLIAMENT
25-26 GEORGE V, 1935
VOLUME III, 1935
COMPRISING THE PERIOD FROM THE TWENTY-NINTH DAY OF MARCH, 1935, TO THE THIRD DAY OF JUNE, 1935, INCLUSIVE
BEING
VOLUME CCV FOR THE PERIOD 1875-1935
INDEX ISSUED IN A SEPARATE VOLUME
OTTAWA
J. O. PATENAUDE, I.S.O.
PRINTER TO THE KING’S MOST EXCELLENT MAJESTY







CANADA
House of Commons Debates
OFFICIAL REPORT
Friday, March 29, 1935
