DOMINION OF CANADA
OFFICIAL REPORT
OF
DEBATES
HOUSE OF COMMONS
SECOND SESSION—EIGHTEENTH PARLIAMENT
1 GEORGE VI, 1937
VOLUME I, 1937
COMPRISING THE PERIOD FROM THE FOURTEENTH DAY OF JANUARY, 1937, TO THE EIGHTEENTH DAY OF FEBRUARY, 1937, INCLUSIVE
BEING
VOLUME CCXI FOR THE PERIOD 1875-1937
INDEX ISSUED IN A SEPARATE VOLUME
OTTAWA
J. O. PATENAUDE, I.S.O.
PRINTER TO THE KING’S MOST EXCELLENT MAJESTY
CANADA
House of Commons deflates
OFFICIAL REPORT
Thursday, January 14, 1937
SECOND SESSION—EIGHTEENTH PARLIAMENT—OPENING
The parliament which had been prorogued from time to time to the 14th day of January, 1937, met this day at Ottawa, for the dispatch of business.
