DOMINION OF CANADA
OFFICIAL REPORT
OF
DEBATES
HOUSE OF COMMONS
SECOND SESSION—EIGHTEENTH PARLIAMENT
1 GEORGE VI, 1937
VOLUME III, 1937
COMPRISING THE PERIOD FROM THE TWENTY-THIRD DAY OF MARCH, 1937, TO THE TENTH DAY OF APRIL, 1937, INCLUSIVE
BEING
VOLUME CCXIII FOR THE PERIOD 1875-1937
INDEX ISSUED IN A SEPARATE VOLUME
OTTAWA
J. O. PATENAUDE, I.S.O.
PRINTER TO THE KING’S MOST EXCELLENT MAJESTY 1937

CANADA
i>ouse Of
Commons debates
OFFICIAL REPORT
Tuesday, March 23, 1937
