 at 3 o’clock.
Prayers
AFTER ROUTINE
SEIGNIORIAL TENURES
Mr. POPE moved for a return showing the amount distributed under the Seigniorial Act to each municipality according to returns made in 1864; the amount distributed up to January, 1871; the amount placed to the credit of the several municipalities indebted to the Government on account of the Municipal Loan Fund; and the reasons for any change in the distribution.—Carried.
* * *
LIGHTHOUSES
Mr. KEELER asked when will the lighthouses of Lake Ontario be lighted for the purposes of navigation for the present season.
Hon. Mr. TUPPER said, in consequence of the prospect of an early opening of navigation, instructions had already been issued for the purpose.
* * *
CRIMINAL PROSECUTIONS
Mr. SAVARY moved for correspondence respecting the duty or liability of the Dominion or Local Governments to defray the cost of criminal prosecutions.
Carried after a short discussion.
* * *
NORTH WEST TERRITORY
Hon. Mr. McDOUGALL (Lanark North) moved the House into Committee of the whole to consider the following resolutions:
1.	That it appears, from an Order in Council and Memorandum of the 1st of March, 1871, transmitted by His Excellency the Governor General, for the information of this House, that the system approved by an Order in Council of the 23rd September, 1869, for the survey and subdivision of Townships in the North West Territory, has been materially altered to the disadvantage of intending settlers.
2.	That the area of Townships has been reduced from eight miles square to six miles square, and each quarter section or lot from two hundred acres to one hundred and sixty acres.
3.	That the allowance for roads, which under the former system was added to, and included in the section, thereby leaving the location and direction of roads to the judgment of future settlers (as under the American system) has been limited to one chain in width, and ordered ‘‘to be set out and allowed between all Townships and sections,’’ without any reference to their utility or convenience.
4.	That the proposed distribution of the 1,400,000 acres appropriated by Act of Parliament ‘‘towards the extinguishment of the Indian Title to the lands in the Province of Manitoba,’’ among all the half breed residents, instead of limiting the said grant to, and dividing it ‘‘among the children of the half breed heads of families residing in the Province at the time of the transfer to Canada’’ is a violation of the express conditions of the appropriation, and contrary to law.
5.	That the restriction of the right of pre-emption to ‘‘surveyed’’ and unappropriated public lands in Manitoba, while this right is secured by Act of Congress to settlers in the unsurveyed as well as the surveyed lands of the United States, will tend to discourage settlement in that Province, especially in view of its small area, its large reserves, its northernly climate, and its distance from the markets of the world.
6.	That the exclusion of Foreigners from the rights of ‘‘preemption’’ and ‘‘homestead’’ in Manitoba, while they are freely admitted to these rights in the States and Territories of the American Republic, is practically to exclude them from the Province, and to contradict and annul the policy approved by the House in voting money to maintain emigration agents in foreign countries.
7.	That while the best lands of the Crown in Ontario are offered to settlers at 70 cents per acre, and in Quebec at prices ranging at from 60 to 20 cents per acre, the regulation which fixes the minimum price of public lands in the distant Province of Manitoba at one dollar per acre, will discourage emigration to that Province, descriminating, as it does in favour of the older Provinces, as is in
COMMONS DEBATES
344
April 6, 1871
direct opposition to the policy of ‘‘free grants’’ and ‘‘cheap lands for settlement,’’ which the people of this Dominion, through their Local Legislatures, have recently and distinctly affirmed.
8.	That the assumption of authority by the Executive Government to prescribe oaths to settlers to authorize its agents to administer such oaths, and to declare guilty of perjury all persons who may falsely swear them, is illegal and unconstitutional, inasmuch as the right to prescribe oaths, inflict penalties or extend the criminal law, belongs exclusively to Parliament.
9.	That an humble Address be presented to His Excellency the Governor General, praying to provide for the issue of amended regulations for the survey, distribution, settlement and sale of lands in Manitoba, pursuant to the foregoing Resolutions.
Hon. Mr. McDOUGALL (Lanark North) said that the existing regulations were such as to interfere with the settlement of the North West. Whether through ignorance or through a set purpose, it would seem as if this were the very object they had in view. There was in the United States pre-emption right by which it was provided that a settler had the first right to purchasing the land which he occupied at a minimum price. This privilege is now secured to squatters in the unsurveyed part of the North West, but the language conveyed the impression that none but subjects of Her Majesty by birth or naturalization were entitled to it. He thought if it were a sound policy to invite foreigners to settle amongst us, they should be entitled to do so on the same footing as our own citizens. He did not wish to occupy the time of the House, but he would like to refer to an order in Council, by which a system or scheme of survey had been agreed upon. Under that system, the lots and townships were too small in extent. The farms consisted of 160 acres of land, and the townships were only six miles square. It would present difficulties in municipal government, and would interfere with the settlement of the Province, the farms being too small.
Another matter he objected to was laying out the future roads on the map. In the United States experience had proved that it was better to leave it to the settlers to decide where roads should be run. The experience of Ontario was against the system of rectangular roads. Government had assumed the right to take the 1,400,000 acres and distribute it in their own way, among another class to that intended. It was the desire to resist the assumption of power which induced him to draw attention to the matter. Considering that in Ontario the public lands were offered at 70 cents per acre it was preposterous to ask $1 per acre for land 1,000 miles further west, and whatever hon. gentlemen might say the people would not believe that they desired to see that country thickly settled while they charged so much for the land. Ontario offered very possible inducements to induce settlers by way of easy payment, while in Manitoba lands
could not be obtained under $1 per acre cash. With regard to the administration of oaths, the executive Government had no power to administer oaths, which could only be obtained by Legislative enactment, and the course taken by the Government in this respect was not correct. He hoped the Government would at all events amend the resolutions in three respects; first, to secure the pre-emptive right of all settlers whether upon surveyed or unsurveyed lands; second, that both pre-emptive and homestead rights would be made free and accessible both to subjects and foreigners; and third, that the price of the public lands should be considerably reduced.
Hon. Mr. MORRIS was unable to concur in the view taken in the second and third resolutions, and thought the change in the size of the lots would be very beneficial. The country lay alongside a territory in which the same system was adopted, and there was no doubt that 160 acres of good prairie land were fully equal to 200 acres of the ordinary land in Ontario. The system being the same as that adopted in Minnesota and Dakota was well known to the class of emigrants that was to be attracted, and this was a strong argument in favour of its adoption in Manitoba. The honourable member for Lanark had objected to the allowances for roads, but the plan had worked most admirably in Quebec and Ontario, and though it was not in force in the United States, many of the American surveyors had expressed their approval of it, and the Government thought they could not do better than adopt a system which had proved so acceptable.
As to the allotment of the land among the half-breeds, the hon. member had objected to the interpretation put upon the Act in that respect by the Order in Council, but the terms of the Act fully justified the Order in Council, and it was certainly desirable that the term ‘‘children of the half-breeds’’ should include all children whether of mature age or not. As to the exclusion of foreigners from the right of pre-emption and homestead, he believed the member for Lanark was to some extent correct in his views, but not entirely. The Government were willing to go as far as the States in this matter. In Canada an alien was required to reside a certain period in the country, and to comply with the naturalization laws; in the States an alien could settle upon a lot of land, but his patent would not issue until after a period of three years. While, therefore, he believed every encouragement and facility should be afforded to settlers, it was necessary to retain some such safeguard as the Americans provided, and only a patent when the settler should have determined to assume all rights and obligations of a British subject, and on the payment of a small fee necessary to cover the expense of the survey. If, however, the settler desired to obtain a title to his land at once he could do so by paying $1 an acre. The American lands cost $1.25 an acre, and the Government had fixed the price in order to offer every encouragement for settlers, and taking care at the same time that the lands should not be undervalued. The House was unanimously agreed that these lands were valuable, and he considered it would be anything but true wisdom to undervalue
COMMONS DEBATES
April 6, 1871
345
these lands. It was no hardship to ask a man to wait three years for his title, when at the end of that time he received a practically free grant.
The member for Lanark had objected that the regulations at present did not admit of entrance on unsurveyed lands. The original Act of Congress, after which the Canadian Act was framed, expressly provided that there should be no settlement on unsurveyed lands, or on lands with respect to which the Indian title should not be extinct. There was an Indian title in Manitoba, and the matter had to be approached with the utmost delicacy, and with a view to secure a firm and binding union with the warlike tribes of Indians in that country, unless they wished a repetition of the scenes which had taken place in some of the Western States of America. The Government had every desire to complete the survey, but they had to proceed very carefully for this reason, so that settlers might take possession of the lands without any fear of interference or danger. The member for Lanark had charged that the regulations seemed to be framed purposely to prevent settlement, but he could point to every action of the Government, their treatment of the volunteers, their desire to open a line of water communication, and everything they had done to show that their earnest desire was to encourage emigration to the utmost extent possible. The objection that had been taken in the matter of the administration of oaths could be very easily remedied.
Mr. BOWELL desired to call attention to the regulations respecting volunteers. Only those of the two battalions settling under the homestead rights, were entitled to the 160 acres grant. Those volunteers who had been discharged, and those who did not become actual settlers were not entitled to the grant. He was sure this was not the object of the Government.
Hon. Sir GEORGE-E. CARTIER: Hear, hear.
Mr. BOWELL took this as a favourable indication that the Government would so amend the Act as to include all the volunteers who had been connected with the Red River expedition.
Hon. Sir GEORGE-E. CARTIER assured his hon. friend that it was the intention of the Government to deal in the most liberal manner with all the volunteers, even extending to those at St. Helen’s Island who had shown a disposition to go to Red River with the expedition. The only ones who would not be entitled to free grants were those who had been discharged for misconduct, and he was happy to say there were very few such cases. Free grants would be given without conditions of settlement to all others, and this would not deprive them of the right of securing an additional lot in the same manner as other settlers. The price of $1 per acre was put on the land in order to prevent mere speculators from getting hold of the lands. These regulations had been adopted after mature consideration of the American system, and would be well suited for the speedy settlement of the Province. Actual settlers received free grants, and it was only actual settlers that the Government wished to encourage in taking up lands. They desired to exclude land companies from monopolizing large tracts. It was the British North
American land company which had impeded the settlement of the Eastern Townships and the Government wished to guard against a repetition of such speculations in the future, so far as the North West was concerned. He was glad the hon. member for Lanark had brought this matter before the House in no party spirit, but with the object of amending regulations which had been framed in haste and in which some clerical errors, he observed, had been made.
Mr. SCHULTZ said he feared he might be considered presumptuous to address the House so late in the session, yet, he was encouraged to do so by the information that this matter had been delayed somewhat awaiting the arrival of the Manitoba members. In giving his views upon it, he would simply refer to the principle adopted as shown by the Orders in Council. And first, he would refer to the order relating to the system of surveys. He stated decidedly and confidently that in his belief, and in the belief of the people he represented, the plan of survey of the Province of Manitoba was superior to that of the Province of Ontario. (Hear, hear.) There could be no reasonable doubt that the Americans had struck the true principle in the matter of survey, and that it was the best adopted to a prairie country. There was no doubt, too, that it would be found as advantageous on the north side of the boundary line, as it had been proved to be on the south of it. Had the Province of Manitoba been as large as he had hoped it would have been, he would have been of opinion that townships eight miles square with two hundred acre lots would have been better than six miles square townships, with 160 acre lots. But, remembering that the Province was small, and that one-twentieth of the lands were set apart for the Hudson’s Bay Company, it was better that the lots should be small. The regulation reserving woodlands, and permitting settlers on prairie lands to purchase 40 acres each of this woodland reserve, was an excellent provision.
With respect to road allowances, he had very little experience, but he would give the experience of the settlers in the Western States. Before a country was settled and before lands became valuable it made very little difference where the roads ran, but in a well settled country, it was a different matter. In conversation with a very intelligent settler in Minnesota, he had been assured that this regulation had become a very objectionable feature indeed in settling that part of the state. It was all very well for the public to run the road in the most direct line, but it was not so pleasant to the man through whose land the road ran. He gave an instance of where a Democrat who lived in a Republican neighbourhood had a road run through his lot, not because it was necessary to locate it there, but because he differed in politics from his neighbours. (Laughter.)
If he were allowed to make a suggestion, he would recommend the government to increase the road allowance from one chain to one and a half in width. Few in this House, perhaps, had any practical experience of prairie countries, and he could assure them that it made a very great difference whether these roads were broad or not in Manitoba. Existing roads were two chains wide, and in Minnesota they varied from 80 to 100 feet in width. In prairie countries, the surface of the prairie, untouched by the plough and shovel, presented the best roads—it was impossible to construct a
COMMONS DEBATES
346
April 6, 1871
better. After cutting through one track with wagon wheels a new track could be chosen. In winter, too, when the fences were too close together, the road became drifted, so that until late in the spring, after the melting of the last snow, they were rendered impassable. If Government would consent to make the breadth of the road one and a half, instead of one chain in breadth, it would please the people he represented, and, he believed, the whole of Manitoba.
With respect to the grant of 1,400,000 acres to the half-breeds, he was instructed by his constituents to thank Government for them. He might explain that the people in his constituency were almost entirely mixed races. He was also instructed by them to say that they did not believe the stories against the volunteers, and that they were anxious to have them remain and settle in the Province. (Cheers.) He might say, in addition for his constituents, that they had some hesitation in accepting this grant of 1,400,000 acres. They feared that it would bring them into collision with the Indians, the lands being for the extinction of the Indian titles. They said, unless these Indians were satisfied with something more than this concession to the half-breeds, it would not be sufficient and they were anxious to have some satisfactory assurance respecting this point. He hoped it would be given before the discussion closed. With respect to the distribution of lands, he believed the Government regulation would please the people of Manitoba.
He might mention, with respect to the census, that the belief in Red River settlement was that the census lately taken there was somewhat incorrect. They did not say it was wilfully done, but from the hasty manner in which it was done and from the fact that it was taken for a special purpose there were very grave inaccuracies in it, and he would be very glad to be assured that the census now about to be taken throughout the Dominion would be extended to Manitoba as well. (Hear, hear.)
He referred to the settlement of the Crown Lands, and expressed his gratification at the assurance of the Government that precautions would be taken against permitting speculators to buy up lands in Manitoba. He mentioned as an instance of the evils of permitting such men to get hold of large tracts of country, a place in Minnesota, where on one side of the road there was a prosperous settlement while the other side of it was yet a wilderness through being in the hands of what a resident in the neighborhood called ‘‘the cussed speculators.’’ (A laugh.) He hoped the Government would take every necessary precaution to prevent the lands in the North West from falling into the hands of the ‘‘cussed speculators.’’
He hoped there would be no grounds for further objections respecting settlers from foreign countries. Manitoba should be placed in a position to compete with the Western States in securing the emigration from Europe, and all settlers should be allowed equal privileges in the North West. If his suggestion on this point and his recommendation respecting road allowances were adopted, he would be perfectly satisfied with the Government resolutions. It seemed to him that the reservation of the woodlands was a most
important much needed provision—a provision which, if the inhabitants of Manitoba had not got, would have given rise to very grave difficulties in future. Immediately after the survey of the lands, the first settlers would have seized on these woodlands, thus greatly embarrassing settlers coming afterwards. The departure from the American system in this matter was, he believed, a wise one. He hoped that settlement in the North West, for a time, would be confined to Manitoba, and that no encouragement should be given to settle outside of it. There was no doubt that the Indians were, if not in an excited state, at least in a very unquiet state, not that they feared that the Government would deal unfairly with them, but they were anxious to know what policy would be adopted towards them. He would be very much pleased if the Government should give some outline of what that policy was to be.
Hon. Sir GEORGE-E. CARTIER said it was the determination of the Government, as soon as the House should be prorogued, to send a commissioner who was acquainted with the Indian character to Manitoba at once, and make such a treaty with the Indians who might be interested in the lands in Manitoba, that full security would be given to anyone who would obtain under these regulations any lot in the Province, and not only that, but the Government policy was to settle as much as they could with the Indians outside of Manitoba in the North West. (Hear.) For instance, in order that the fair region bordering on each side of the Saskatchewan should be settled as soon as possible, they would take care that the settlers should be secured against being disturbed in the enjoyment of their property. With respect to the road allowances, the Government would give full consideration to the suggestion of the hon. member for Lisgar.
Mr. SCHULTZ expressed his gratification at the explanations of the hon. Minister of Militia and especially those relating to the volunteers. He certainly thought that the liberality with which the Government had treated the volunteers had been perfectly deserved by them. Certainly if any class of men deserved the most favourable treatment at the hands of the Government, and to be recognized by the country, it was the volunteers who went to the Red River settlement. He was pleased that the concession had been made and the explanation offered. (Hear, hear.)
Mr. OLIVER objected to the clause permitting half breeds to take up lands at eighteen years of age, while whites were not permitted to do so before attaining their majority. He believed that no distinction should be made between the different races.
The House rose for recess at six o’clock.
AFTER RECESS
ELECTION BILL
Hon. Sir GEORGE-E. CARTIER said since the previous discussion some amendments had been suggested with regard to the list of electors, a difficulty having arisen in consequence of a
COMMONS DEBATES
April 6, 1871
347
duplicate list not being really a certified copy of a list. He was therefore prepared to introduce an amendment as follows: Any copy of the voters list certified as being a true copy thereof by the Clerk, Treasurer or Secretary Treasurer having made or having the custody of the original, shall be held to be a duplicate of such voters list for all the purposes of this Act, as respects the election of members to serve in the House of Commons. To meet other objections he would also propose the following amendments: Any Registrar who shall deliver to a Deputy Returning Officer any list of voters which shall not be conformable to the duplicate or certified copy of a voters list deposited in the office of such Registrar at least one month before the date of the writ of election, shall incur the penalty of $400 for each copy so delivered. Any Clerk, Treasurer, or Secretary-Treasurer who shall deliver to any Registrar any list of voters which shall not be conformable to that remaining of record in the office of such Clerk, Treasurer or Secretary-Treasurer, shall for each list so delivered incur a penalty of $400. The penalty hereby imposed shall be recoverable and appropriated in the manner provided by the 6th chapter of the consolidated statutes of the late Province of Canada with respect of penalties of like amount enforced by that chapter. The foregoing provisions of this section shall apply only to elections for the House of Commons of Canada, and to voters lists to be used at such elections. With regard to Nova Scotia, the laws prevailing of 1st July, 1867, would be reverted to, and the ballot which had since been introduced would be discontinued.
Hon. Mr. DORION said that he agreed with the amendments proposed to a very great extent. He thought it unnecessary, however, that two Justices of the Peace should recognize the lists to make them legal, and he thought one Justice was enough.
Hon. Sir GEORGE-E. CARTIER said he would introduce an amendment to province for one Justice.
Hon. Mr. DORION was perfectly satisfied with this, but regretted this Bill should be brought up now, instead of bringing up a complete Bill on settled principles when there was plenty of time for discussion. He did not think there was any necessity for the amendment inflicting a penalty for a falsified list as the law already made it a misdemeanor.
Hon. Sir GEORGE-E. CARTIER said that considering the previous amendment this provision was necessary.
Hon. Mr. DORION did not object to it, but thought it unnecessary.
Hon. Mr. CAMPBELL thought the principle being ceded, the House should go at once into Committee and consider the amendments. On the suggestion of Hon. Sir George-E. Cartier, he would explain the amendment he was going to propose. At the time of the Union, a revised list was prepared in Nova Scotia, and after scrutiny a complete register was formed on which the elections were held. He proposed to give the franchise to every one enjoying it at the time of the Union, irrespective of subsequent legislation of
the Local Government. Although there might not be a general election before another Session, vacancies might occur, and it was therefore necessary that a proper law should exist. To accomplish his object, he proposed to appoint a Commissioner for each district in Nova Scotia, to make their voters lists exactly what they would have been under the laws in force at the Union. He did not of course propose to interfere with the local elections, but the Local Legislature had interfered with the elections for the Dominion Government, and he proposed to correct this. The parties that had been excluded were all those having the ‘‘smell of Canada.’’
Mr. JONES (Halifax) thought the Bill dealt with the electors of Nova Scotia most unfairly. It took from the people of that Province that control over their own affairs, which the other Provinces enjoyed. The ballot system had become the law of the land, and while the Bill ceded it to New Brunswick, it refused it to Nova Scotia. In Quebec and Ontario, no employees of the Dominion Government enjoyed the franchise, and the same law existed in Nova Scotia, but was now to be taken away. He only asked that Nova Scotia should be placed in exactly the same position as the other Provinces. It was necessary that Nova Scotia should be protected from the influence and coercion of the heads of the departments at Ottawa, by disfranchising the employees of the Dominion Government altogether. He referred to the Inspection Law, as an instance of class legislation as while in every other city in the Dominion having a Board of Trade, the examiners were appointed by that Board, in Halifax they were appointed by the Governor in Council. Nova Scotia proposed to disfranchise every one drawing their annual salary from the Dominion, but not those who were employed temporarily or drawing only a small amount. The Bill was partial and unfair, and he was ashamed that any member from Nova Scotia should acquiesce in it. He objected to the amendment of the member for Guysborough, as placing the whole power in the hands of one Commissioner. For instance, if a Commission had to be appointed for Guysborough, no doubt the member for that county would have an extreme partisan appointed, and there would be no stopping him. The law ought to be general, the same throughout the Dominion; and he wanted to know whether the people of Nova Scotia were not to have the protection of their own laws.
(Here a number of members on the back Government benches attempted to drown the speaker’s voice by causing a variety of unseemly disturbances, of which the members of the Government took no notice.)
Mr. MACKENZIE called the attention of the Speaker to the fact, observing that if the Government could not make their supporters keep order they should say so openly.
The SPEAKER said that a certain amount of noise was allowed in Parliament, but on this occasion it was carried to excess; and he hoped the members would preserve order.
Mr. JONES (Halifax) then resumed, and said he would move when the House went into committee that the Dominion elections
COMMONS DEBATES
348
April 6, 1871
should be held under the law in operation in the various Provinces at the time such elections are held.
Mr. YOUNG said the Government had agreed to certain modifications with respect to Quebec, and he thought they ought to yield to the views of the people of Ontario and hold all the elections in that Province on one and the same day. He proceeded to point out the evils connected with the system of allowing the Government of the day to bring the elections in each county on whatever day they pleased. When the House went into committee he would move an amendment ‘‘That the elections in Ontario be held on the same day,’’ and he hoped the Minister of Militia would lay aside his crotchet on this subject and accept such amendment.
Hon. Mr. HOWE regretted very deeply that the member for Halifax should bring up day after day, topics which were only calculated to create irritation, without doing good. He complained that Nova Scotia was not to have the ballot. Did he not know that only last Session, the Local Legislature adopted the ballot, and this Session they had repealed it.
Mr. JONES (Halifax): No they have not.
Hon. Mr. TUPPER said the ballot was adopted a year ago; this year every member of the Government in the House of Assembly voted for its repeal, but the other House refused to accede.
Hon. Mr. HOWE said at all events the Bill had passed the popular branch by a majority. He desired to call the attention of the House to the following contrast. When he stood at the head of the party in Nova Scotia, they fought the whole Dominion, and won the elections, though every man connected with the Dominion was against them, and now the hon. member for Halifax came up whining for the disfranchisement of Dominion officials. The hon. member had got in for his (Hon. Mr. Howe’s) old county, into which he would not have set his foot without his (Hon. Mr. Howe’s) influence by a majority of nearly 400, but recently Mr. Garvie, supported by Mr. Jones, ran the same county, and was left in a minority of fifteen. What had done this? Why it was the wholesale abuse of him (Hon. Mr. Howe) behind his back. Of all the poor spectacles he had ever seen presented by any public man, he had never seen the equal of that presented by the hon. member for Halifax. He desired to disfranchise those who might have spent all their lives in their country’s service, but who might vote against him and his precious party at the next election. The hon. member must remember that in this House he met a body of gentlemen, who knew how to speak and act on wider views than those by which his conduct was governed.
Mr. MACKENZIE said the same rule should hold in every section of the Dominion. The question was not whether the Nova Scotia Government had acted from good or bad motives, but whether their act was consistent with the general law or not. In Ontario and Quebec certain officers of the Government were disfranchised and no good excuse could be urged for enfranchising
men holding similar offices in the Lower Provinces. The amendment proposed by the hon. member for Antigonish embodied a most dangerous principle. It gave the Government power to appoint Commissioners who might prepare voters lists and strike from it whoever they pleased. He (Mr. Mackenzie) approved of the motion of the hon. member for Halifax. It provided that the same machinery by which the local elections were managed should be employed in the Dominion elections. He could not give his assent to the appointment of Commissioners by the Government. Such officers could hardly be expected to be impartial in making out the voters lists.
Hon. Mr. TUPPER was certain that the hon. member for Lambton had not appreciated the amendment of the hon. member for Guysborough. In 1867, the anti-unionists in Nova Scotia carried the elections. A complete revolution had taken place in public sentiment since. The object of this amendment was to appoint Commissioners to add to the voters’ lists names which had within the last week been struck from them by the Local Legislature. The desire of the Government was to restore the election law to the position in which it stood in 1867.
Mr. MACKENZIE wished to know why these Commissioners were to be appointed in Nova Scotia alone. Why was it not done in Ontario?
Hon. Mr. TUPPER said a change had taken place in the basis of the franchise in Ontario. No such change had taken place in Nova Scotia. The same basis remained and all that was desired by this Bill was to add to the list names which had been excluded by recent legislation in the Parliament of Nova Scotia. It was absurd to expect that this House should adopt the election laws of the Local Legislatures, for in Nova Scotia, the ballot was adopted one session and in the following session the new law was repealed. While the Bill recently passed in Nova Scotia disfranchised the Dominion officials, it did not interfere with the employees of the Local Government. It was for this reason that he desired to see the election law in Nova Scotia restored to the condition in which it was in 1867.
Mr. BLAKE said that Dominion officials in Ontario were disfranchised, while employees of the Local Government had the right of voting. Why not treat the two Provinces in the same way? Was it right with the revelations of the other day to enfranchise Government officials? The franchise meant freedom of choice, but these men had not such freedom. They were under the curse of being obliged to vote at the dictation of their employers; and not in accordance with experience and the dictates of their conscience. They were now asked to decide whether the Government should or should not be allowed to use their horde of officers as tools to prevent the expression of public opinion in Nova Scotia. (Hear, hear.)
Hon. Mr. DUNKIN said the question was a very clear one. The Union Act declared that the elections should take place
COMMONS DEBATES
April 6, 1871
349
according to the laws in force in the different Provinces at the time of the Union until the Dominion Parliament chose to alter it. Several attempts had been made to change it, but it had not yet been done. England had outgrown the prejudices which were now urged. Though, two years ago, the Government proposed to disfranchise Government officials, last session, they adopted the opposite principle. There was no analogy between the legislatures of the States and Congress, and the different Provinces and the Dominion. The States were allowed a much wider field than the Provinces. The Local Legislature had no right to interfere with Dominion matters. The Government accepted the Ontario system, because there was nothing unfair or wrong, but in Nova Scotia, in order to prevent any men having the smell of Canada having any voice, they had declared that no employee of the Dominion Government should vote, but they had not disfranchised their own officials. There were very many more local employees than Dominion employees, and the matter was not only a wrong but an insult. The local legislature might do what they liked in their own elections, but why should they interfere in Dominion elections?
Hon. Mr. HOLTON said the question was whether or not, it was right that employees of the Dominion Government should vote for members of that House. They could not do so in the greater portion of the Dominion, and why should they be allowed to do so in Nova Scotia. The English law had only allowed employees of the Government in consequence of the enormous extension of the franchise which rendered it unimportant, whether a comparatively small number of employees should vote or not.
Hon. Mr. DUNKIN said the Canadian franchise was pretty nearly as extensive as the English.
Mr. MILLS said there was a great difference between these matters in England and Canada, as to the position of heads and subordinate officials, so that the Government in England had nothing like the direct influence over their employees voting that existed in Canada. He had no objection to the Government employees voting if only they had secret voting, but not otherwise—and so long as open voting existed they ought not to vote. This was already the case in Ontario and Quebec, and it ought to be the rule throughout the Dominion.
Hon. Mr. GRAY said there was no exclusion in New Brunswick, and no difficulty had ever arisen. The principle had recently been adopted in England and it ought to obtain in the whole Dominion. True, they had the ballot in New Brunswick, but Ontario and Quebec would not adopt it.
Mr. JONES (Halifax): Is the ballot good?
Hon. Mr. GRAY said it was.
Mr. JONES (Halifax): Why do you not give it to us in Nova Scotia?
Hon. Mr. GRAY: We have, but you will not keep it. You repealed it a few days ago.
Mr. JONES (Halifax): No, we did not.
Hon. Mr. GRAY said Nova Scotia legislators recently voted to repeal it. At any rate they in New Brunswick were content with the present system which they did not wish to see disturbed.
Mr. McDONALD (Antigonish) supported the Government Bill, stating they did not wish to disfranchise anybody in Nova Scotia, but to enfranchise some already disqualified by the Local Legislature. They had improperly disfranchised one set of officials, while leaving their own in possession of voter’s right which required as much protection from them as that of Dominion officials did from Canadian Ministers. He disapproved of any class legislation of this kind, of any restriction of the franchise proposed. He criticized some features of the election laws in the different provinces, finding fault with the provisions of the Ontario Law. He contended there was nothing dangerous in the appointment of Commissioners to put in names wrongfully struck off, and remove others improperly put in by Provincial authorities, so as to leave the lists in the same condition as in 1867. Gentlemen who contended for uniformity in respect of disfranchisement of the Dominion officials in all the Provinces were inconsistent, as they had advocated permission to the different Provinces to arrange the franchise as they pleased, in which case there would be no uniformity at all. He believed he would be doing an injustice to a large class by supporting the proposal for their disqualification.
Hon. Mr. ANGLIN said there was very little change proposed with regard to the Province of Ontario, the principal one being the completion of the polling on one day. They had been kept waiting week after week before legislating on this subject just to undo what the people of Nova Scotia had done. He had differed with his confreres around him to the extent of believing a general election law should be brought in. The Government had not done so, but proposed an entirely different principle for Nova Scotia from that authorized for Ontario. The members from Nova Scotia seemed to tremble in their shoes lest the servants, he might say the slaves, of the Dominion Government should be deprived of the right to vote. (Cheers.) Nothing more conclusively showed the change that had taken place in the sentiments of these gentlemen who had come here determined to defeat the Dominion Government, or struggle to the last for the repeal of the Union, than the zeal now displayed for the enfranchisement of their officials in that Province. He contended that it would be better and fairer to the officials themselves to deprive them of a right which the Canadian Government could secure the abuse of, at discretion.
Recent events demonstrated the readiness with which this could be done. He maintained the propriety of a uniform
COMMONS DEBATES
350
April 6, 1871
system, disqualifying all Government officials. At present Dominion employees swarmed in certain localities in the Lower Provinces and their votes would be practically at the command of the Canadian authorities. It would be monstrous to place the power contemplated in the hands of election Commissioners. It would be grossly perverted for party purposes, and the recent vote in this House declaring wrong was right and black was white, showed the kind of redress they might expect at its hands in case of abuses of the sort most probable. This Bill, he believed, would be tantamount to authorizing the Government of Canada to take such steps as it deemed necessary to secure the results of the forthcoming Provincial elections in its favour. (Opposition cheers.)
Mr. McDONALD (Lunenburg) said a most important provision of the Bill had been overlooked. Since this Bill had first been introduced, a law had been passed in Nova Scotia changing the election law. Hon. gentlemen in this House were anxious to make the Dominion law conform to that change. It had been asserted that Dominion officials swarmed in Nova Scotia. He denied that statement. In the County of Halifax there were not more than ten or twelve altogether, and that County might be taken as a fair specimen of every constituency in the Province. If the principle were correct that all Dominion officials ought to be disfranchised in Nova Scotia, let it be applied to all the Provinces. There were three times as many Local as Dominion officials. At the present moment there was a sum of $400,000 at command of the Local Government for the purchase of the forthcoming elections. Each constituency was allowed its quota of money for roads, bridges, &c., and each had a number of officials administering these funds and discharging official duties. Let all these employees be excluded, if the principle were to be promulgated at all. The Local Legislature had made such changes and modifications as suited the requirements of the Local Government, apart altogether from any principle. Were we to be dragged at the tail of every Provincial Legislature, to accept every change they chose to adopt? The present Bill but proposed to carry out the law in force in 1867; not to change the basis of the representation, but merely to decide as to the right as to certain names to appear on the electoral lists. While Dominion officials were liable to be influenced by the wishes of Dominion Ministers, he denied that in all cases this was the result, and cited instances to the contrary. If the principle was to be adopted, let it be extended to the Local Government officials, including road Commissioners swarming in all the constituencies, and who, from the temporary character of their appointments, were more likely to be influenced by Provincial Ministers than the Dominion officers in question by the heads of their departments. (Hear, hear.)
Hon. Mr. DORION found fault with the provisions of the Bill changing the number of electors for each polling place from 600 to 200, and transferring from the municipality to the returning officer the power of subdivision in the case of an excess of this number. He urged the confinement of the polling
within the limits of the territorial subdivision, so as not to draw voters away from their domiciles.
Hon. Sir GEORGE-E. CARTIER defended the points assailed, stating the municipalities in Lower Canada in the past had neglected their duty in this respect. As the polling was reduced to one day, they were obliged to give for it all the facilities possible. He had no objection to putting a small distance between the polling booths, but there was no use in providing for the discharge by municipalities of duties which they would continue to neglect.
Hon. Mr. DORION repeated his arguments in favour of leaving the law as it stands, continuing to municipalities the power of making the necessary subdivisions; and he also proposed granting this authority to Returning Officers in case they neglected the duty, and also an arrangement preventing the assembling of more than 200 voters at any place.
Hon. Mr. HOLTON supported the arguments of the previous speaker, and pointed out the liability of the proposals of the Bill to abuse.
Hon. Sir GEORGE-E. CARTIER promised to consider these suggestions, and announce his conclusions at a later stage.
Mr. BLAKE urged that the leaving of these matters to the municipality would result in securing the proper central location of the polling places, and the satisfactory creation of the subdivisions.
Hon. Sir GEORGE-E. CARTIER stated his willingness to accept some changes recommended, including some calculated to secure uniformity in the method of paying returning officers and greater economy.
Mr. COSTIGAN proposed an amendment providing that where dual representation was not in force, namely in New Brunswick and Nova Scotia, any one holding a seat in the Local Legislature should, before being nominated for a seat in the Commons, produce a certificate of his resignation of his seat in the former.
Hon. Sir GEORGE-E. CARTIER said it could be moved in concurrence.
Hon. Mr. DORION gave notice that he would propose a few amendments; first, returning officers in cities and towns should be selected from municipal councilors, and that in counties and ridings it should be either the Warden or Secretary-Treasurer, and in case those parties were disqualified, the Government should appoint whom they might; second, to disqualify all permanent officers of the Government receiving salaries from the Government; third, that
COMMONS DEBATES
April 6, 1871
351
contested elections should be tried before the ordinary tribunals of the country as in Ontario.
Mr. McDONALD (Antigonish) here replied sharply to a few remarks from Hon. Mr. Holton reflecting upon his consistency and abilities, stating he had always proved capable of defending himself either outside or inside of the House, and was not afraid of the member for Chateauguay, but was ready to meet him on any occasion.
On motion of Hon. Sir GEORGE-E. CARTIER the Speaker then left the chair and reported the Bill as amended. Concurrence to be taken on Saturday.
* * *
EXTENSION OF THE MILITIA ACT TO MANITOBA AND BRITISH COLUMBIA
On motion of Hon. Sir GEORGE-E. CARTIER, the House went into Committee on the Bill to extend the Militia Act to Manitoba and British Columbia, which was read a third time and passed.
* * *
SECOND AND THIRD READINGS
The following Bills were read a second and third time and passed:
An Act to permit the sale or lease of Rockwood Asylum.
An Act respecting certain officers of the Trinity House of Quebec.
* * *
INLAND REVENUE
On motion of Hon. Mr. MORRIS the House went into Committee to consider the following resolution:
That it is expedient to amend the 19th section of the Act passed in the now last session of Parliament, chapter 9, respecting Customs and Inland Revenue, by reducing to sixty-three cents per gallon, the duty of excise of sixty-five cents per gallon thereby imposed on spirits manufactured from molasses in bond: and that such reduction of duty shall take effect on and after the 15th day of April in the present year.
The Report was received and the resolution referred for incorporation in the Bill.
* * *
THE LIBRARY
On motion of Hon. Sir GEORGE-E. CARTIER the House went into Committee to consider a resolution on the subject of the Library of Parliament, and the salaries of the Librarian and other officers and servants. The resolution proposed that the Library be under the joint control of the Speaker of the two Houses, assisted during each session by a joint committee.
Resolution reported, when the Committee rose.
The House at twelve adjourned till Saturday.
COMMONS DEBATES
April 8, 1871
353
HOUSE OF COMMONS
Saturday, April 8, 1871
