DOMINION OF CANADA
OFFICIAL REPORT
OF
DEBATES
HOUSE OF COMMONS
THIRD SESSION—NINETEENTH PARLIAMENT
6 GEORGE VI, 1942
VOLUME II, 1942
COMPRISING THE PERIOD FROM THE FIFTH DAY OF MARCH, 1942, TO THE FIFTH DAY OF MAY, 1942, INCLUSIVE
BEING
VOLUME CCXXX FOR THE PERIOD 1875-1942
INDEX ISSUED IN A SEPARATE VOLUME
OTTAWA
EDMOND CLOUTIER
PRINTER TO THE KING’S MOST EXCELLENT MAJESTY 1942
CANADA
House of Commons
OFFICIAL REPORT
©efjates
Thursday, March 5, 1942
