DOMINION OF CANADA
OFFICIAL REPORT
OF
DEBATES
HOUSE OF COMMONS
THIRD SESSION—NINETEENTH PARLIAMENT
6 GEORGE VI, 1942
VOLUME III, 1942
COMPRISING THE PERIOD PROM THE SIXTH DAY OF MAY, 1942, TO THE ELEVENTH DAY OF JUNE, 1942, INCLUSIVE
BEING
VOLUME CCXXXI FOR THE PERIOD 1875-1942
INDEX ISSUED IN A SEPARATE VOLUME
OTTAWA
EDMOND CLOUTIER
PRINTER TO THE KING'S MOST EXCELLENT MAJESTY 1942
CANADA
House of Commons ©efiates
OFFICIAL REPORT
Wednesday, May 6, 1942
