DOMINION OF CANADA
OFFICIAL REPORT
OF
DEBATES
HOUSE OF COMMONS
FOURTH SESSION—NINETEENTH PARLIAMENT
7 GEORGE VI, 1943
VOLUME II, 1943
COMPRISING THE PERIOD FROM THE EIGHTH DAY OF MARCH. 1043, TO THE NINTH DAY OF APRIL, 1943, INCLDSIVK
BEING
VOLUME CCXXXV FOR THE PERIOD 1875-1943
INDEX ISSUED IN A SEPARATE VOLUME
OTTAWA
EDMOND CLOUTIER
PRINTER TO THE KING’S MOST EXCELLENT MAJESTY 1943
CANADA
House of Commons Rebates
OFFICIAL REPORT
Monday, March 8, 1943
