DOMINION OF CANADA
OFFICIAL REPORT
OF
DEBATES
HOUSE OF COMMONS
FOURTH SESSION—NINETEENTH PARLIAMENT
7 GEORGE VI, 1943
VOLUME III, 1943
COMPRISING THE PERIOD FROM THE TWELFTH DAY OF APRIL. 1943, TO THE TWENTY-SEVENTH DAY OF MAY, 1943, INCLUSIVE
BEING
VOLUME CCXXXVI FOR THE PERIOD 1875-1943
INDEX ISSUED IN A SEPARATE VOLUME
OTTAWA
EDMOND CLOUTIER
PRINTER TO THE KING'S MOST EXCELLENT MAJESTY
CANADA
Jfyoust of Commons Bebates
OFFICIAL REPORT
Monday, April 12, 1943
