DOMINION OF CANADA
OFFICIAL REPORT
OF
DEBATES
HOUSE OF COMMONS
THIRD SESSION—TWENTIETH PARLIAMENT
11 GEORGE VI, 1947
VOLUME III, 1947
COMPRISING THE PERIOD FROM THE FOURTEENTH DAY OF APRIL, 1947, TO THE TWELFTH DAY OF MAY, 1947, INCLUSIVE
BEING
VOLUME CCLVI FOR THE PERIOD 1875-1947
INDEX ISSUED IN A SEPARATE VOLUME
OTTAWA
EDMOND CLOUTIER, C.M.G., B.A., L.Ph., PRINTER TO THE KING’S MOST EXCELLENT MAJESTY CONTROLLER OF STATIONERY 1947
CANADA
2|ouse of Commons Betmtes
OFFICIAL REPORT
Monday, April 14, 1947
