 at 1/4 to 4 p.m.
Prayers
Mr. CUMBERLAND the newly elected member for Algoma was introduced by the Hon. Sir John A. Macdonald and the Hon. Sir Francis Hincks, and took his seat.
Mr. NATHAN: I have the honor to move an Address in reply to the speech of His Excellency the Governor General, which Address, I feel convinced, will commend itself to every member of this House.
In being entrusted with the duty of moving this Address, I fully appreciate the compliment that has been paid the by Province to which I belong, and in performing the duty, I crave that indulgence which this House is accustomed to accord to those who address it for the first time.
The recovery of His Royal Highness the Prince of Wales must necessarily be a matter of congratulation to every loyal Canadian, and the demonstrations of joy and thanksgiving that have been evinced by British subjects throughout the world cannot fail of awakening pleasurable feelings in the breasts alike of her most Gracious Majesty, H.R.H. the Prince, and all the Royal Family.
It will be our duty on Monday to assist in giving formal expression to the sense of gratitude of the Canadian people to the Almighty for the great mercy He has vouchsafed us, and I feel convinced that in no part of Her Majesty’s Empire will there have been a stronger or more sincere demonstration of joy than here.
We fully appreciate the necessity of the postponed meeting of Parliament, in view of the existence of grave considerations justifying that course. Again, since the last meeting of the House, has the peace of the country been disturbed by a threatened invasion of lawless individuals from the neighboring Republic. Thanks, however, to the promptness of the Government and the friendly action of the United States authorities, the evil was averted.
The facility offered by the vast extent and scattered population of this country, to evilly disposed persons, to enter upon such nefarious undertakings would appear to call for measures of protection at vulnerable points, and more particularly would this
appear to be the case at Fort Garry, where a body of militia should be retained to watch the safety of the community.
On the occasion I had referred to, as well as on previous occasions of a similar nature, the Canadian soldier had upheld his character for courage and endurance. Although circumstances prevented them meeting the disturbers of the tranquility of their country face to face, their discipline and energy were fully proved by their successfully overcoming the obstacles of a march to Manitoba, through such a difficult country and at a most inclement season of the year, in so short a period.
I am sure I only re-echo the feelings of all Canadians when I say that no reasonable expenditure on the part of the Government will be begrudged in defending the country from those outrages, and that the expenses that have been incurred in connection with the case in question, will be cheerfully voted.
I trust that the marked and ignominious failures of all the efforts these filibusters have yet made, will deter them from making any further attempts in the same direction.
We are glad to be informed that the Treaty of Washington which touched upon affairs of so much interest to this Dominion will be laid before the House, and that other communications bearing upon this important subject will be presented for our consideration, and I doubt not that the action taken will be that best calculated to serve the true interests of the country.
It must be universally gratifying to learn from His Excellency’s speech that so many subjects likely to promote our best interests have received that attention which their importance demands, not the least of which is the question of Immigration.
It is most satisfactory to know that a scheme for the encouragement of that movement will be laid before the House which will doubtless have the effect of attracting a larger share of European emigration to these shores than has hitherto reached us, and which will help to populate this large Dominion extending from ocean to ocean, and capable of supporting so many millions of souls. Money devoted to such an object cannot be more advantageously invested—for population only is needed to make this Dominion one of the richest countries in the world.
The admission of British Columbia must also be a subject of congratulation to this House. By confederation with that Province you have secured a territory of 220,000 square miles, a land rich in
COMMONS DEBATES
6
April 12, 1872
metals, rich in coal, rich in timber, rich in fish, whose valleys are natural pastures. A country that, with its enormous resources, must here long take its stand amongst the foremost Provinces of the Dominion.
Apart from the natural, the inherent wealth of the Province, you have by this connection secured an outlet for commerce on the Pacific seaboard, which must afford incalculable advantages and moreover such a measure was necessary as one of the steps in forming a compact nation out of a number of disunited Provinces which, with adverse interests, and with local prejudices and no machinery for counteracting these prejudicial influences, would never have commanded attention and respect, or gained that degree of prosperity which to-day characterizes the Dominion.
I need not say the House is fully prepared to make provision for the construction of the Canadian Pacific Railway, in accordance with the terms of union with British Columbia, as it is in fact a work of vital importance to the welfare of the Dominion.
Among the many advantages we may expect from the building of that road is the populating of the Great North-West, a country surpassing any on the continent as a wheat-producing district, and the giving to that fertile land markets both on the Atlantic and Pacific shores of this continent. It will further offer us the means of competing for, and probably securing the bulk of the trade between Europe and Asia, which must bring to the Dominion great accession of wealth, and so enable her to occupy the place to which she is entitled by her vast territory and favorable geographical position.
It is a source of gratification to learn that the preliminary survey of this road has been vigorously prosecuted. The extension of the canal system was a work of great importance, as well as a question of settling public lands in Manitoba and the North West Territory. The increase of the revenue of the Dominion was a matter for congratulation, indeed such increase was the best index of the general prosperity of the Dominion, for which the country was not a little indebted to the financial policy of the Government (Hear, hear.) It was highly gratifying to know that the work of consolidating the various Provinces had been carried out in a constitutional manner.
The hon. gentleman resumed his seat amid hearty applause.
Mr. CARTER: It would be impossible to find in the history of any Colonial Legislature that subjects of greater importance than those alluded to in his Excellency’s speech have been submitted for consideration.
Of the many important subjects alluded to, I believe there is not one which commends itself more warmly and strongly to honorable members than the reference which has been made to the recovery of H.R.H. the Prince of Wales and the appointment of a day of thanksgiving. All parties, without distinction as to nationality, religion, or political creed, will give a hearty response to the words of His Excellency. We should feel it our duty to return our thanks
that it has pleased Providence to avert the threatened danger, and to restore to health the heir to the British Throne.
The next paragraph in the speech alludes to the postponement of the meeting of Parliament, and I have no doubt, Mr. Speaker, that we shall find that the delay was prompted by a desire to serve the best interests of the country.
The recent invasion of the young Province of Manitoba by lawless persons from the United States is next referred to, and we have reason to congratulate the country on the prompt and successful measures for resistance taken by the local authorities and by the Government in sending aid to the inhabitants of the Province in order to prevent any recurrence of similar troubles.
To the volunteers themselves too much praise cannot be given for the prompt and efficient manner in which they discharged their duty at a season of the year when it was considered almost impossible for them to surmount the difficulties of a march to Fort Garry.
The importance of the Treaty of Washington cannot be overrated. He must look back to the time anterior to the events which took place, and which resulted in the appointment of the High Commission. There was a great feeling of anxiety in the country owing to the unsettled state of the relations between England and the United States. Fortunately the clouds of war which threatened us have been dispersed, and the effect has been a quietening of the public mind and a restoration of the trade of the country.
It would be premature to enter into a discussion of the details; the time for that will be when the papers are brought down. It is evident, however, from the manner in which the treaty was framed that England had every desire to extend her protection to Canada, and to sustain us in our undoubted rights, and I think that we have reason to congratulate ourselves, that Her Majesty should have selected as Commissioner that distinguished statesman, Hon. Sir John A. Macdonald.
The subject of immigration is of such vast importance, and so intimately connected with the development of the country and its resources, that it should command the earnest attention of the Government. In connection with the extension of our canal system, the construction of a Pacific Railway and other public works, this question must also be considered of great importance.
With reference to the recent acquisition of British Columbia, I think that I am expressing the feelings of all when I say that we have reason to congratulate ourselves upon the event, and that we have now among us representatives of that distant Province.
From the statements made to us by the gentleman who so ably moved the Address (Mr. Nathan), we cannot doubt that the acquisition of British Columbia is of such vast importance to the new Dominion that it will well repay any outlay by the country in
COMMONS DEBATES
April 12, 1872
7
carrying out the projected Pacific Railway. (Hear, hear.)
As to the finances of the country, it must be gratifying to all to know that our resources are such as to enable us to meet without embarrassment all the claims to be made upon us for the great public improvements foreshadowed in His Excellency’s speech.
It is a strong evidence of the great advantages that we derive from Confederation—advantages, I may say, that were scarcely anticipated. I entertain no doubt that if these improvements are carried out we shall be able to assume the proud position of being considered a great Nationality, but still retaining our connection with the British Crown, to shine as one of its brightest jewels in time of peace, and be a source of strength in time of war.
Hon. Mr. MACKENZIE then rose and said he proposed to offer a few remarks upon the Speech from the Throne:
In the first place he begged to offer his congratulations to the two young members who had in so creditable a manner moved and seconded the Address, and to tender his own welcome to them to the House.
The admission of British Columbia was a matter of sincere congratulation to himself and to those who usually acted with him (Hear, hear,) because he believed it was a geographical necessity to the Dominion and in the interests of Canada that all branches of the British Family on this continent should be united under the same government.
He made those remarks the more readily because he was quite aware of the misrepresentations that had been circulated so industriously by some of the highest persons in that province during the recent elections, making it appear that there was a very hostile feeling on the part of the Opposition here to the acquisition of that colony.
Their opposition was not to the introduction of the colony, but to the proposition to impose conditions that were utterly impossible of performance and utterly beyond the resources of the country. Even the hon. gentleman opposite, who led the House, admitted it was impracticable—by the extraordinary resolution he proposed at the last moment, to let some of his followers down easily who were disposed to offer some resistance to the general measure.
With reference to the delay in calling the House together, he considered it a most extraordinary statement to make in the Speech from the Throne that at the instance of the Imperial Government the meeting of the House was purposely delayed. The House had a right to know what was the nature of those communications: whether the Imperial Government acted upon their own volition in the matter, or whether, which was more probable, they had acted upon suggestions from this side of the water that it would be extremely convenient if the Imperial Government would only say that it was
desirable the House should not be called together as soon as usual. (Hear, hear.) Such an instance had occurred before now, and he would not be surprised to find that, after all, the real reasons for the delay were of the most trivial character.
As to the Speech, he considered it remarkable only for the absence of important measures which the interests of the country required. In fact the policy of the Government could not be found in the Speech; they were obliged to go beyond the Speech to the speeches and pamphlets of Ministers outside the House to find out what the views of Government were.
One irrepressible member of the Government in a recent speech at Montreal declared that the Government had determined on deepening Lake St. Peter, yet there was no reference to that matter in the Speech.
There was another speech by a member of the Government to which he felt bound to refer. Before we had completed Confederation, before we had time to consider the means that we should take to develop our great resources, we found another member of the Cabinet deliberately discussing in public the probability and wisdom of an entire separation from the Mother Country, and the establishment of some other form of government more congenial, he presumed, to that hon. gentleman and some of his associates. (Hear, hear.) He alluded of course to the Secretary of State for the Provinces (Hon. Mr. Howe). In the extraordinary pamphlet issued by that gentleman, he found the following language:—
‘‘I do not desire to anticipate the full and ample discussion which Parliament will give to England’s recent diplomatic efforts to buy her own peace at the sacrifice of our interests, or of that ‘comedy of errors’ into which she has blundered, but this I may say, that the time is rapidly approaching when Canadians and Englishmen must have a clear and distinct understanding as to the hopes and obligations of the future.
If Imperial policy is to cover the whole ground upon the faith of which our forefathers settled on and improved the land, then let that be understood and we shall know what to do.
But if shadows, clouds and darkness are to rest upon the future; if thirty millions of Britons are to hoard their ‘racial counters’ within two small islands, gather round them the troops and war ships of the empire and leave four millions of Britons to face forty millions and to defend a frontier of three thousand miles, then let us know what they are and our future policy will be governed by that knowledge.’’
This was the most extraordinary and unjustifiable language ever held by a Minister of the Crown, and was utterly unwarranted by circumstances. That minister seemed to think that the forty millions on the other side of the line were a horde of barbarous savages
COMMONS DEBATES
8
April 12, 1872
without any regard to public honour and decency, and ready the moment British troops were withdrawn to pounce on the Dominion and conquer it. (Hear, hear.)
While he (Hon. Mr. Mackenzie) was no republican, and while he believed that the United States had not acted as they should have done, yet he believed that such a sense of law and justice pervaded the mass of public men in that country, as would enable Canadians to repose in security after the British flag had ceased to float above them. (Hear, hear.)
The Secretary of State for the Provinces (Hon. Mr. Howe) anticipated something different. Had he any reason to believe that an invasion would take place? If so, he should make it public. The author of the pamphlet (Hon. Mr. Howe) had committed a most extraordinary mistake. He had supposed that nothing could enable them to exist on this continent if they had not man for man, and million for million with their neighbors. It was in reality a most unreasonable thing for the four millions in Canada to expect that its thirty-eight or forty million on the other side of the Atlantic Ocean should maintain a costly navy, chiefly on account of the Colonies, and at the same time maintain a strong army in Canada. (Hear, hear.)
He (Hon. Mr. Mackenzie) would not expect British tax payers should maintain a standing army in the North American continent to be, as Mr. Howe would insinuate in his speech, the sole means of defence against the irrepressible and suspicious people on the other side of the line. If the expressions in that pamphlet foreshadowed the policy of the administration; if they were looking to Separation, or Independence, or a new state of existence, or absorption into the neighbouring republic, let the Government say so boldly in the speech from the Throne and he would challenge them to the issue. (Cheers.)
The author of the pamphlet told them that one Cabinet Minister in England said that British America could not be defended. Well that was a mere question of strategy, the number of forts, and the lengths of the frontier.
The pamphlet also said that another English public man had stated that he wished to see the day when all the continent of America would repose and prosper under republican institutions. It was Hon. John Bright who said so, but he was not then a British Cabinet Minister. (Hear, hear.)
Mr. Bright never delivered such a sentence while he held a portfolio under the British crown. It was well known with what utter contempt gentlemen opposite once greeted every mention of the name of Mr. Bright; but now, when it suited their purpose, when it seemed to strengthen them in their policy of groping in the dark, they brought in the name of Mr. Bright in defence of their miserable policy. (Applause.)
It ill became a Minister of the Crown, like Mr. Howe, to
endeavour to destroy our sense of moral security. (Hear, hear.) If it were the intention of the Government at the instigation of a British Cabinet Minister, as Mr. Howe had insinuated, or at the instigation of foreign emissaries, as some might believe to alter the political relations of the country let that intention be placed boldly and fearlessly on record. (Hear, hear.)
He (Hon. Mr. Mackenzie) was quite aware that the Government was not alone in their views on that subject. The member for Lanark North (Hon. Mr. McDougall) recently delivered a speech in Hamilton on this matter. It was one of the curious instances of extremes meeting to find a gentleman like the Secretary of State for the Provinces (Hon. Mr. Howe) who, two sessions ago, was denounced by the member for Lanark North as a traitor, joining hands on the same platform with the gentleman who then denounced him. (Hear, hear.)
The member for Lanark North also informed his audience of the utterances of certain great personages in England as to our present and our future. When the English Government felt a disposition to speak on that matter he (Hon. Mr. Mackenzie), for one, would be prepared to consider it, but not till then. There was one important matter omitted from the speech. The seconder of the speech, the member for Brome (Mr. Carter) had said that the Treaty of Washington reflected the greatest credit on the distinguished statesman who represented Canada but where was the policy of the Government as to the Treaty set forth in the Speech?
The member for Brome would probably find that there was considerable difference of opinion as to the merits of the distinguished statesman when the House came to discuss the Treaty. The Member for Brome would be surprised to find that a majority of the House entertained a different opinion from his on that point.
In discussing the proposition to have the Commissioners reassembled and the Treaty re-discussed, the London Times said: ‘‘that proposition might be entertained, but it must not be rediscussed by the same Commissioners.’’ (Hear, hear.)
That House, as far as its Commissioner was concerned, would echo that sentiment. However, they might make allowance for the ignorance and incapacity of English statesmen. Coming to Canada, they could find no such excuse for the gentleman who represented the Dominion on that Commission. That seemed to be the opinion that prevailed with regard to the Treaty. There was no public man in England at the present moment who had given his opinion on that subject but had lamented the errors into which the Commissioners had fallen in respect both to Imperial and Canadian interests. He need not go further than the Secretary of State for the Provinces himself. He had said that the Treaty as concluded was a ‘‘comedy of errors.’’ (Laughter.)
These opinions on the Treaty would convince the member for Brome that he had made a mistake when he spoke of the credit that should be given to a ‘‘distinguished statesman.’’ They had also the
COMMONS DEBATES
April 12, 1872
9
authority of another Minister of the Crown on the treaty, whose opinion was pronounced on one of these festive occasions when they were more free than on others. Mr. Langevin had spoken at Quebec on the subject and had stated that the Canadian Commissioner and Canadian Government had reacted energetically against the treaty.
Mr. Langevin had also stated that Sir John A. Macdonald had been compelled to sign the Treaty. If that were the opinion of the Ministry, why had they not ventured to expound their policy in the Speech from the Throne? As to the remark of Mr. Langevin that Sir John A. Macdonald was compelled to sign the Treaty, he (Hon. Mr. Mackenzie) would remark that the general Instructions of the British Government did not contemplate the necessity or possibility of the whole of the Commissioners signing that Treaty.
The Instructions said expressly that the Treaty was to be signed by the commissioners or by a majority of them. (Cheers.) The ‘‘distinguished statesman’’ could not claim much credit for the Treaty against which he had protested. It did not reflect much credit on him to have signed a Treaty in which he did not believe. (Hear, hear.)
There was another serious omission in the Speech from the Throne. In consequence of the action of the Government some years ago—an action by which the Secretary of State for the Provinces was pitch forked into his seat and another gentleman into the Senate—in consequence of this action a course was pursued in reference to Nova Scotia which he (Hon. Mr. Mackenzie) believed to be entirely illegal and contrary to the Constitution, and would inevitably lead to future demands.
The Opposition had proposed the appointment of a Commission of Inquiry to inquire into the grievances complained of, and to prepare a general measure which would be submitted to the Imperial Parliament for the purpose of reconstructing the terms of the Confederation Act. Had their advice been followed, the present difficulties would never have arisen.
But to appease the complaining province for a time, the Government deliberately violated the terms of union. What was the natural consequence? New Brunswick felt aggrieved that she had been treated differently from Nova Scotia, and so they had Commissioners from New Brunswick visiting the Government, and it was understood that the Government had given them every reason to believe that some accommodation would be effected.
If that was the intention of the Government, why was there no mention of it in the Speech? If New Brunswick was not fairly treated he was prepared to consider her case, as he had been prepared to consider the case of Nova Scotia, and to give a just verdict. (Applause.)
He held that it was not proper for that House to violate the terms
of union. If it did so, they would have Quebec next complaining, and Ontario could not lag behind. Ontario might come in with her protest, and perhaps they might be able to show a strong case of injustice in the case of the great Province, one of whose constituencies he had the honour to represent.
As the matter now stood, the New Brunswick gentleman had either been deceived by the Government or the Government was deceiving the House. (Hear, hear.) Which was the correct position? That was a question for the House to decide. At present there was no possibility of trying Election cases from remote provinces. He asked the gentleman from British Columbia who moved the Reply, to consider what the consequences would be if there had been an equality of votes in the election in which he was concerned. Owing to the want of such a law, there was at present a seat vacant in the House. They had a general election coming on, and still there was no Controverted Election Law, no means by which to secure the parity of elections. (Hear, hear.)
Where also was the Supreme Court bill—a bill that was deemed so essential to the proper administration of justice in the provinces? There was no mention of it whatever. In truth, the policy of the government was a meager bill of fare. (Laughter.)
Mr. Mackenzie went on to refer to the conduct of the Lieutenant-Governor of Manitoba (Mr. Archibald), in reference to the obstacles he had thrown in the way of immigrants coming from Ontario procuring lands on which to settle. He referred to the letter of Mr. McMicken in illustration of the extraordinary state of things that prevailed in Manitoba.
He then went on to say that in the case of Mr. Archibald they had the extraordinary spectacle of a representative of the Crown venturing in the face of day to shake hands with a man who had been the head of what Colonel Wolseley had called a gang of banditti, a man who had taken the life of a loyal subject of the Queen. That was a matter the Government should have dealt with; but the Government had taken no notice of it, and it had been stated that Mr. Archibald had resigned. But a man capable of acting as he had done should not have had the chance of resigning, he should have been dismissed immediately from the position he had disgraced as a representative of the British Crown.
Hon. Mr. HOLTON: He may have followed instructions.
Hon. Mr. MACKENZIE said that he would ascertain that fact, as he intended to move for the instructions. He then proceeded to refer to that portion of the Speech from the Throne which had reference to the improvement of navigation. It would be desirable to know what the precise scheme of the Government was; whether it was their intention to attract the commerce of the West, whether they would so deepen our waters as to enable vessels to cross the ocean full laden or to enable them to discharge full cargoes at tide water, thence to be transhipped to Europe.
COMMONS DEBATES
10
April 12, 1872
On the subject of the improvement of navigation he could cordially agree with the Government if their scheme were such as to commend itself to the intelligence of the commercial men of the country. Yesterday, in asking for papers in relation to the Treaty the leader of the Government (Hon. Sir John A. Macdonald) indicated his determination not to discuss the Treaty at the present time. He (Hon. Mr. Mackenzie) was not at all certain if the Treaty should not be discussed wholly by itself. The extreme hostility manifested by the whole country to the policy that had laid the country prostrate at the feet of the American Government would justify an extensive and deliberate debate, even before entering on the Address.
The rule of the House, however, would not allow him to enter a discussion of the Treaty on its merits until the papers were produced. He had no observations to make, further than this, that he should only express his extreme regret that the Secretary of State, and the Government had severally conspired to shake the confidence of the country in the institutions under which they lived and prospered. (Loud cheers.)
Hon. Sir FRANCIS HINCKS said it was not his intention to follow his friend who had just spoken through all the matters of which he had spoken but merely to speak of a few.
With regard to the construction of the Pacific Railway as one of the conditions of the union with British Columbia and the statement that the resources of the country were inadequate, and the carrying out of that project, he wished to say that the contrary was the fact, and that the Minister of Militia was entirely correct in stating on a former occasion that that work could be constructed without adding to the burdens of the country.
With regard to the late calling together of the House he was surprised that the gentleman who had preceded him should express ignorance of the reasons for that occurrence for surely every one could see in the important questions connected with the Washington Treaty every reason for postponement of the meeting of Parliament. Congress had been sitting four months and had not arrived at a decision, and when the Imperial Government requested delay surely every one would see how important it was that in a question of such import, the Imperial and the Canadian Governments should be in perfect accord. The member for Lambton (Hon. Mr. Mackenzie) had spoken of a statement made at Montreal that the Government would undertake the deepening of Lake St. Peter, but if he took the statement made with the terms of the Speech the only inference was that such a work would not devolve upon the Dominion Treasury though the Government would be disposed to co-operate in the carrying out of the work.
With regard to the Speech of the hon. gentleman, his colleague (Hon. Mr. Howe), he would venture to say that he would be able to defend himself at the proper time. He (Hon. Sir Francis Hincks) had not always concurred in the views of the Secretary of State for the Provinces, but no one knowing him, would charge him with such views as those imputed to him by the hon. member for Lanark
North (Hon. Mr. McDougall). He felt sure that the views of the hon. gentleman were not dissimilar to those of a member of this House expressed in a London newspaper, the writer of which had preserved his incognito.
Hon. Mr. MACKENZIE: Who was the writer?
Hon. Sir GEORGE-E. CARTIER: The member for Lambton (Hon. Mr. Mackenzie).
Hon. Sir FRANCIS HINCKS: With regard to the speeches on the subject of the Washington Treaty occasionally made by members of the Government who have escaped from the control of his hon. friend, the First Minister (Hon. Sir John A. Macdonald), he had been one of those persons who had made one or two speeches on the subject and he would be happy indeed to find any one on the floor of that House who would grapple with the course he took.
There were two distinct subjects. The merits of the Treaty itself would have to be dealt with by that House, but there was another question which had been very much discussed during recess, that was the responsibility of the Canadian Government because his honorable friend the First Minister signed that Treaty. He was astonished to hear the hon. member for Lambton (Hon. Mr. Mackenzie) refer to that clause which said that the Treaty might be signed by a majority of the members of the Commission. The hon. gentleman must know that that clause was put in, that in case of death or unavoidable absence, there might not be a failure in the negotiations.
The hon. gentlemen (Hon. Mr. Mackenzie) and the language of the leading newspaper of his party, indicate them to have very extraordinary and wrong ideas in regard to the manner in which diplomatic proceedings are conducted, and he would explain to the House that when his hon. friend the First Minister was invited to take a seat on the Commission what would have been his duty were the assumptions of the hon. gentlemen opposite right. Why the first thing he should have done would have been to state that he would not take a seat on the Commission, unless upon the distinct understanding that he should not be bound to sign any Treaty which he did not agree to.
Had his hon. friend done that, but had sat on the Commission with the intention of not signing the Treaty, did it not meet his views he would have acted to the Imperial Government in a most dishonourable manner. He (the First Minister) knew perfectly well the conditions upon which he had to go there. Had he put such a condition as the hon. gentleman on the other side of the House would have had him to do, is there any member of this House who believes that the Imperial Government would have appointed him a commissioner?
It was of great advantage to Canada to have a Canadian on the Commission on the same conditions as the other Commissioners, viz: to obey the instructions of the responsible Minister of the
COMMONS DEBATES
April 12, 1872
11
Crown in England. The views and interests of Canada had been presented with fidelity and zeal by the First Minister, and it is most satisfactory to know with regard to the proceedings of this Treaty that there has been perfect accord among the thirteen members of the Canadian Government.
Leading statesmen in England on both sides of the House had thrown the responsibility on the Government. Mr. Disraeli on the Opposition side had charged the Government with the responsibility of the Treaty, which Mr. Gladstone immediately accepted, and it was unfair to throw the responsibility on his hon. friend, the First Minister, who came to the House as free as any other member to take whatever course he should think best in regard to the Treaty, and he felt sure that when the papers relative to the Treaty were laid before the House it would be shown that the Ministry have faithfully discharged their duty to the country and to the House, and it would be seen that the words of the Minister of Public Works (Hon. Mr. Langevin) spoken at Quebec, expressed the views of every member of the Cabinet, and that they did not agree with the Treaty, but the course they had taken could not be discussed until the papers were brought down. The hon. member for Lambton (Hon. Mr. Mackenzie) had referred to so many subjects that he (Hon. Sir Francis Hincks) could not answer them all, but had no doubt they would be replied to during the debate.
Hon. Mr. HOLTON said he could not allow the doctrine laid down by the Minister of Finance (Hon. Sir Francis Hincks) to pass without his earnest protest. He had supposed that the absurd grounds taken on behalf of the Premier in the press, that he had merely signed the Treaty in a perfunctory manner, following the instructions of the Imperial authorities, would not be taken there.
He had inferred from the terms of the Speech from the Throne that the Premier and his colleagues had accepted the full responsibility of the Treaty, that they had taken the ground that the Premier of Canada was responsible to the Parliament of Canada, and to no other power, in dealing with the interests of Canada, in the appointment conferred upon him, and only by reason of his position as the First Minister of Canada. Why was he appointed on the Joint High Commission, if not for the simple reason that he was supposed to have the confidence of the Parliament of Canada?
By reason of his official position it had been declared over and over again that the Imperial Government sought to protect our interests by placing on the Commission the First Minister of Canada and yet they were told today that he did not represent Canada, that he went there as the mere creature of the Imperial Government, having no responsibility to them.
That doctrine had been boldly averred by the Finance Minister (Hon. Sir Francis Hincks), and he (Hon. Mr. Holton) could not allow the debate to close without protesting earnestly against it. He held that no power on earth could have controlled the Prime Minister of Canada in respect to Canadian interests, as to how he should act, other than the Parliament of Canada to whom he was
responsible for all his acts. He would like to hear the Prime Minister himself affirm that he did not hold the doctrine expressed by his colleagues, because whatever diversities of opinion there might be as to the merits of the Treaty, he was convinced that Parliament, friendly though it were to gentlemen opposite, would not hesitate to affirm, when the proper time arrived, the doctrine which (Hon. Mr. Holton) had laid down.
Referring to the remark of the Finance Minister (Hon. Sir Francis Hincks) that the meeting of Parliament had been delayed in consequence of difficulties that had arisen with respect to the Washington Treaty, he (Hon. Mr. Holton) said those difficulties did not arise until after the time when Parliament ought to have been called. Parliament should have been called by the fifteenth of February, and the proclamation convening it should have been issued thirty or thirty-five days before that time, whereas no difficulties arose till after the fifteenth of February.
The Government could not, therefore, plead that excuse for delay. In England it was customary to call Parliament together when any special difficulty arose, and a delay in calling Parliament on account of a difficulty was a thing unknown; they assuredly were competent to deal with their own interest and it was placing Parliament and people of the country in a most humiliating position to be told that they were not left to deal with their own interests as a Parliament because some difficulty had arisen between the Imperial Government and the United States in respect of the Treaty. If the House had met on the fifteenth of February they would still have been in session, and any new phase of the question could have been communicated to them.
With respect to the position of the Secretary of State for the Provinces (Hon. Mr. Howe) he took the ground that a Minister of the Crown could not separate himself from his official capacity in the discussion of political matters. He maintained that all the Ministers were responsible for the utterances of the Secretary of State for the Provinces in respect of a very important subject, assailing the very foundations of their political system if they consented to remain colleagues of his after the utterance of those sentiments.
What were those utterances? If they had any significance whatever, they pointed to a revolution in Canada. The two great complaints against England in that speech were: she had withdrawn her troops, an unreasonable complaint, and that she had bartered our interests in the Washington Treaty, though that treaty was signed by his own political leader.
These were the two grave complaints against England, on which Mr. Howe founded—if, indeed, his language meant anything at all—a proposition to sever the connection, because the whole drift of his argument went to show that it was quite impossible for them to maintain their position in connection with the Empire under the present policy of the Empire. For that argument the hon. gentleman’s colleagues were equally responsible with himself. That
COMMONS DEBATES
12
April 12, 1872
was sound constitutional doctrine, and could not be successfully controverted.
With reference to the speech of the Minister of Marine (Hon. Senator Mitchell) at Montreal, undoubtedly the general inference in Montreal from it was that the deepening of Lake St. Peter would be placed upon precisely the same footing as those other improvements which were referred to in the Speech from the Throne. But the point he wished to make was, that there was an important variance between the Speech from the Throne and the utterance of Ministers. He regarded the utterances of the Minister of Finance (Hon. Sir Francis Hincks) and the Minister of Public Works (Hon. Mr. Langevin) on the Treaty as at variance with His Excellency’s Speech, which indicated that the Government had determined to take the true constitutional course and accept the responsibility for the Treaty. He would like to hear from the Premier on that point, and to be told by him that he did not endorse the monstrous doctrines—doctrines entirely subversive of colonial rights—laid down by the Minister of Finance.
Hon. Mr. McDOUGALL (Lanark North) thought he saw nothing that should delay the action of the House in respect to the Address. He had hoped that the practice of passing the Address without debate would be followed by this Parliament. The hon. member for Lambton (Hon. Mr. Mackenzie) had discussed at considerable length questions which he could not agree to. With respect to the Treaty of Washington referred to in the Address, they were promised so much of the correspondence as could, with due regard to Imperial and Canadian interests, be laid before them. The question is one of great importance, and we could easily see that it might be highly expedient that there should be some reserve in discussing the question. The House would look with great anxiety for such correspondence as the Government may think it expedient to submit. He had no hesitation in saying, that after reflecting upon the subject, and having discussed it with his constituents he felt it his duty to say at once that he was prepared to ratify the Treaty of Washington.
If he understood the Finance Minister (Hon. Sir Francis Hincks) that the Government is prepared to throw any obstruction in the way of or prevent the full ratification of the Treaty he felt sure that many in that House would be opposed to them. He dared say that the correspondence when sent down would show that everything had now been arranged satisfactorily to Canada. He did not hold himself responsible as a Member of that House for opinions which he had expressed at various times, and at Hamilton recently as a private citizen, but he would say that we should accept the Treaty as a portion of the empire, or be prepared to change our political relations with the Mother Country. He considered the speech or pamphlet of the Hon. Secretary of State for the Provinces (Hon. Mr. Howe) very injudicious, as coming from a gentleman holding a Ministerial office.
Hon. Sir FRANCIS HINCKS rose to explain that the hon. gentleman on the opposite side had misunderstood him as saying
that the Government was opposed to the Treaty, what he intended to convey was that the Government as a whole were opposed to the Treaty, but that since the signing of the Treaty a correspondence had been going on with the Imperial Government on the subject, and that on the correspondence coming down, the House would see that the two Governments were in entire accord.
AFTER RECESS
Hon. Mr. McDOUGALL (Lanark North) in resuming the debate said he would not continue his remarks further as he thought it inexpedient that the House should discuss the question of any change of constitution at the present time. They were there to pass the laws necessary in the interests of the country.
He was very well satisfied with the terms of the Address and the indications of the policy of the Government, although many important measures which the circumstances of the country required, and which ought to be dealt with during the present Session were not mentioned but no doubt these measures would be submitted as the session progressed. He concluded by particularizing a law for the trial of controverted elections as especially necessary.
Mr. STREET said he wished to make a few remarks on the paragraph of the speech respecting the canal system. Great agitation had prevailed through the country on the subject and he considered that the declaration made in the speech that the matter would be vigorously taken up would give very great satisfaction, and he trusted that the promise given would be carried out fully by the Government, and he was sure that they would be fully sustained by the House in voting any money for the carrying out of any satisfactory schemes.
Mr. MASSON (Terrebonne) said he rose to take exception to a remark made by the hon. member for Lambton (Hon. Mr. Mackenzie) in designating Mr. Riel as a leader of banditti.
He contended that so far from this being the case he was the leader of the whole French population of Manitoba, and said that if he wished he could at the present moment be returned to Parliament for half the counties in the Province. He did not wish to defend what Mr. Riel had done, but there was great injustice in the term made use of by the member for Lambton.
He then referred briefly to the withdrawal of the troops, maintaining a statement which he said he had previously made that that withdrawal had caused very great dissatisfaction among the people of Canada, and cited the report of the Hon. Mr. Campbell on the subject in his support.
COMMONS DEBATES
April 12, 1872
13
The Address was then passed paragraph by paragraph.
Hon. Mr. HOLTON thought that before the question closed they had a right to hear from the leader of the Government something respecting his action in subscribing to the Treaty of Washington—and especially as to the constitutional question of the responsibility or otherwise of himself and his colleagues in the matter. He (Hon. Mr. Holton) held that the hon. gentleman went to Washington in the capacity of Minister for Canada, and for the one purpose of representing and protecting Canadian interests, and in that capacity for whatever he did or forbore to do, he was responsible to that House.
Hon. Sir JOHN A. MACDONALD was sorry he could not respond to the request of his hon. friend, as he thought it would be highly inexpedient and not for the public interest or the advantage of the House to enter into the matter now. If the question was of such grave import it should not be discussed until the papers were fairly before the House.
As to the constitutional question the Government and every individual member of it were responsible to the House and the country for what they did as a Government.
As to the question of his personal responsibility and whether his position as a member of the Government and a Commissioner involved a twofold responsibility he must decline to discuss it until the whole course of the Government in regard to the Treaty and of himself, incidentally, was laid before the House. Then he would be ready to discuss the matter to the fullest extent.
He then moved for a Select Committee to draft the Address to His Excellency.
The motion carried and the Committee presented the Address, which was ordered to be engrossed and presented to His Excellency by such members as were of the Privy Council.
The House adjourned at 8.20 until Tuesday next.
COMMONS DEBATES
April 16, 1872
15
HOUSE OF COMMONS
Tuesday, 16th April, 1872
