DOMINION OF CANADA
OFFICIAL REPORT
OF
DEBATES
HOUSE OF COMMONS
FIRST SESSION—TWENTY-FIRST PARLIAMENT
13 GEORGE VI, 1949
VOLUME III, 1949
(SECOND SESSION)
COMPRISING THE PERIOD FROM THE TWENTY-THIRD DAY OF NOVEMBER, 1919, TO THE TENTH DAY OF DECEMBER, 1949, INCLUSIVE
BEING
VOLUME CCLXXI FOR THE PERIOD 1875-1949
INDEX ISSUED IN A SEPARATE VOLUME
OTTAWA
EDMOND CLOUTIER, C.M.G., B.A., L.PH., PRINTER TO THE KING’S MOST EXCELLENT MAJESTY CONTROLLER OF STATIONERY
1950
2113
HOUSE OF COMMONS
Wednesday, November 23, 1949
