 at 3 o’clock.
Prayers
Mr. DUGAS Member for the Electoral District of Montcalm, having previously taken the Oath, according to Law, and subscribed before the Commissioners the Roll containing the same, took his seat in the House.
ROUTINE BUSINESS
Hon. Sir FRANCIS HINCKS submitted, by command of His Excellency, the public accounts.
Hon. Sir JOHN A. MACDONALD moved, seconded by the Hon. Sir GEORGE-E. CARTIER, for a Committee to appoint the Standing Committees, composed of the leading members of both sides of the House, which was carried.
Hon. Mr. MACKENZIE —Address—Correspondence— Disposition of Crown Lands in the Province of Manitoba, and etc.
Hon. Mr. MACKENZIE —Address—Tenders submitted for construction of Pacific Railway.
Hon. Mr. MACKENZIE —Address—Correspondence with Lieut. Governor Archibald and Mr. McMicken. Land Commissioner, regarding Fenian Invasion of Manitoba, and etc.
Hon. Mr. MACKENZIE —Address—Reports of engineers or others—Location of Canal across St. Clair Flats by Government of the United States.
Mr. FOURNIER —Address—Correspondence—Refusal of Judge Bosse to comply with order to reside at Montmagny.
* * *
CROWN LANDS IN MANITOBA
Hon. Mr. MACKENZIE in moving for the correspondence regarding the disposition of Crown Lands in the Province of Manitoba, said: It would be recollected by the House that very great difference of opinion existed in the House at the time of the discussion on the Manitoba bill as to the effect which setting apart 1,400,000 acres of land would have upon the settlement of that
Province. A gentleman on this side of the House asserted at the time that the Bill, as passed, providing for so large a reservation, would be quite certain to produce complications of a very difficult and disagreeable character in that Province. These anticipations were realized, as every one knows who has paid any attention to the course of events immediately after the opening of the season last year, a large number of people emigrated from the old Province of Canada to the new Province and found themselves in a position of very great difficulty.
The officer administering the Government of that province declined to take any measures whatever to enable these people—who had gone under circumstances of great hardship and difficulty to settle there—to secure land; but affirmed his determination of securing to those for whom these reserves were intended the first choice in locations, even though the emigrants had taken possession of and settled upon the land. He had letters in his possession showing that many of these people were driven from the ground which they had improved by some of these Half-breeds, who claim the land merely by virtue of walking round it, or asserting that it was to be given to them and to their friends.
They did not desire that any preference should be shown to any person, whether an emigrant from the late Province of Canada or a resident of Manitoba, but thought that those who had taken up their locations should be confirmed in their possession. Many of them had been obliged from the position in which they were placed to cross the border and settle in the United States. Other had been advised by himself and his friends to take the land, and if Governor Archibald under instructions from Ottawa should refuse to them the right that they had to take possession, they should dare him to remove a British subject from the soil. (Laughter.)
Hon. Sir JOHN A. MACDONALD in reply said that there would not be the slightest objection to the motion of the hon. gentleman being adopted by the House. The papers would be sent down. He would, however, say with reference to the remarks of the hon. gentleman, that the Government think they have taken every step possible for them to take for the purpose of expediting the survey and settlement of that country. It would be remembered that before Canada had obtained possession of the North West, and while it was still under the sovereignty of the Hudson’s Bay Co., the Canadian Government had asked the Company to permit them to send in surveyors for the purpose of laying out townships, etc., so that everything would be ready for the large immigration expected there, and that those surveys had made considerable progress when they were stopped by the inhabitants of the country.
It would also be recollected by the House that the first thing done
COMMONS DEBATES
16
April 16, 1872
by the Government after the union of the North West with the Dominion, was to send in as many surveyors as could be procured for the purpose of preparing a country for settlement. These surveys could not be done in a moment, they required both time and skill. Meanwhile, as settlers were going in, and in order that they might at once take up lands, an Order in Council was passed, providing that any person going there and taking possession of land should, under certain regulations, be supported in that possession. This Order in Council was afterwards put in the form of a notice which runs thus:—
‘‘Parties found upon the lands at the time of survey, having settled upon and improved the same in good faith, as settlers under the land regulations, will be protected in the enjoyment thereof, whether the same be pre-emption or homestead right, provided they respectively enter for such right with the land officer, and otherwise carry out the provisions of the said regulations in that behalf, within three months after the survey shall have been made.’’
Every man therefore going to that country had a right to select his own location and on the conditions named in the notice being fulfilled his right would be maintained. In order that there might be no mistake instructions were also given as to the mode of running the base lines so that they would not be afterwards disturbed in their improvements. The instructions were as follows:
‘‘In settling on the lands parties will require to bear in mind the system of survey adopted, by which the lines run due East and West, and North and South, and the 160 acres or quarter section is an exact square of half a mile each way, under which system alone pre-emption or Homestead rights, based upon settlement previous to survey, will be recognized.’’
Under these orders every emigrant had a right to go into possession.
The hon. gentleman had said that some of these persons had been disturbed. That might be the case and if any such outrages had taken place they were greatly to be regretted. But it must be remembered that the country had been in a very troubled state. One portion of the population had been against the other, and an armed resistance had been offered to the authority of Ruperts Land. The troubles rising out of this state of things could not be expected to disappear at once. Such outrages however if they did occur were not likely to occur again.
He had every reason to believe that every man entering into peaceable possession of the soil would be protected by the law and by the Government and would be free from disturbance of any kind. Upon the opening of navigation at least fifty surveyors would be sent into the country. The whole of the Province of Manitoba (except that portion of it near the boundary line between the United States and the Province, which line has not yet been fixed) would be surveyed in the course of the present year, as would also at least 100 townships outside the Province, in that portion of the country where treaties have been made with the Indians.
Hon. Mr. MACKENZIE asked whether Governor Archibald’s Proclamation of June 9th, 1870, was issued with the consent of the Government; if not, whether his attention was called to the violation of law and order in that proclamation.
Hon. Sir JOHN A. MACDONALD replied that if the hon. gentleman would give notice of his question, he would get a full answer.
* * *
PACIFIC RAILWAY
Hon. Mr. MACKENZIE in moving for copies of all tenders or proposals for the construction of the Pacific Railway, and for copies of Orders in Council relating thereto, said that it was of the greatest importance that any such tenders or proposals received by the Government should be laid before the House as soon as possible. He had a precedent for this in the case of the Intercolonial Railway, when a similar motion was made, and the papers were brought down. He thought it was very unfortunate that some of them were not accepted, instead of adopting the course the Government did.
Hon. Sir JOHN A. MACDONALD would say that there were no such propositions in the strict sense of the word. A letter had, however, been addressed to himself, which, as it was marked private, might be considered as a quasi-official document. This letter was signed by Sir Hugh Allan on behalf of himself and certain other gentlemen, and contained a proposition for the construction of the railway, but as he had understood from the gentleman that he was desirous of substituting another proposition, he (Hon. Sir John A. Macdonald) would not like to bring down the letter without the writer’s consent.
Hon. Mr. MACKENZIE asked whether there were any other quasi-official proposals.
Hon. Sir JOHN A. MACDONALD replied that there were not and there were no Orders in Council on the subject.
The motion was then withdrawn.
* * *
FENIAN INVASION OF MANITOBA
Hon. Mr. MACKENZIE moved for the correspondence regarding the Fenian invasion of Manitoba and the intercourse of Lieutenant Governor Archibald with Louis Riel, the leader of the Rebellion in the Territory, and said it had been stated in the papers coming from that province at the time of the invasion of the country, by one of Riel’s former associates, O’Donoghue, that Riel himself was one of the parties who had promoted the invasion of the Fenians, and in a letter from Mr. McMicken, published in the papers, it was stated that he (Riel) had induced a number of his friends to abstain from responding to the call of the Governor upon the people to assist in expelling the invaders. It was also stated that
COMMONS DEBATES
April 16, 1872
17
this personage presented himself with a number of his followers, close to the residence of the Lieut. Governor, and that he (the Lieut.-Governor) had received and embraced him for whose arrest it was said he had previously issued a warrant. He would probably call the attention of the House to the matter again and in another way. He based his motion on the statements made in the newspapers and Mr. McMicken’s letter, and would reserve further remarks until the papers were brought down.
He (Hon. Mr. Mackenzie) would however ask whether it was not due to the House that the circumstances connected with the withdrawal of Lt. Governor Archibald should not be stated to the House. It was the first instance of the kind that had been before the House, and he desired to know whether that retirement had been produced by any correspondence from the Dominion Government, or whether it was the effect of the public events in the Province upon the Lt. Governor’s mind.
Hon. Sir JOHN A. MACDONALD said that the papers would be brought down. He would say, however, that it would have been better if the hon. gentleman had reserved all his remarks. He had said just enough to show the animus which dictated the motion. He (Hon. Sir John A. Macdonald) would not be drawn prematurely into showing anything like a contrary animus, but would allow the matter to stand until the papers were before the House. As to the resignation of Governor Archibald, he would say that he, (Hon. Mr. Mackenzie) was very unguarded in his mode of expression, in his allusion to the withdrawal of Governor Archibald. There had been no withdrawal by the Government. The resignation by Mr. Archibald was an act of his own, without suggestion or indication from the Government. Mr. Archibald was appointed during his (Hon. Sir John A. Macdonald) illness, but he afterward fully recognized the wisdom of the appointment and still did so. Under the circumstances of the case of having to go into the country with an army at his back, it was not an enviable appointment and he went there purely from a sense of duty and at the strong instance of the Government.
At the time of his going he made it a condition that he should return at the end of a year, and in December last he (Hon. Sir John A. Macdonald) received a letter from Mr. Archibald stating that the year had more than passed, and that he desired to be relieved and enclosed his resignation. He (Hon. Sir John A. Macdonald) did not consider it advisable to recommend its acceptance, but since then Mr. Archibald has pressed for it in such a manner that no option was left to His Excellency’s advisers, but to advise the acceptance of the resignation.
* * *
ST. CLAIR FLATS CANAL
Hon. Mr. MACKENZIE moved for copies of papers relating to the location of the Canal across the St. Clair Flats. He alluded to certain events that took place at Washington in connection with the Treaty, which showed that the Canadian Government had tacitly
acknowledged that the United States held dominion over that portion of the lake. Every person acquainted with the navigation of the Lake and River St. Clair, knows that the Canal is built on Canadian property, and he therefore desired information on which the action of the Government was based. The result will be that if this canal is recognized as being upon American ground, there will be no possibility of a Canadian vessel finding its way from Lake Huron to Lake Erie if the Americans choose to close the Canal against us.
The motion was carried.
* * *
RESIDENCE OF JUDGES
Mr. FOURNIER moved an address praying for the correspondence inspecting the refusal of Judge Bosse to comply with the order to reside at Montmagny.
Hon. Sir GEORGE-E. CARTIER said the correspondence would be brought down.
Mr. BEAUBIEN admitted that the district was injured by the non-residence in it by Judge Bosse, but thought that Mr. Fournier’s remarks were prompted by party spirit. He thought it only right that the Judge should be made to reside at Montmagny.
Hon. Mr. HOLTON said that the object of the motion was not merely to obtain the correspondence in the matter but to elicit some statement from the Government as to what they intended to do in the matter, and he thought it only fair that the Government should state distinctly the real position of the question. He had heard the matter discussed elsewhere, and he believed the Judge was requested by the Quebec Government to take up his residence according to law within the limits of his District, but that he had hitherto refrained from doing so. He (Hon. Mr. Holton) was not able to say whether the Judge had actually refused to do so, but what the member for Bellechasse desired to ascertain was, what the Minister of Justice proposed to do and what redress would be afforded to the District which had suffered from the failure of the Judge to perform the duties required by law? There was a difference of opinion as to which Government had control of the Judges in such matters, but while the Local Government had undoubtedly power to assign the duties of the Judges and their Districts whenever there was a failure in discharging the duties, redress could only be sought through the Government in which the power to impeach Judges rested, namely, the Dominion Government, and the appeal therefore lay primarily to the Minister of Justice, and ultimately to the House. He thought the real point had not been met by hon. gentlemen opposite, who had merely assented to a formal motion without meeting its real features.
Hon. Sir GEORGE-E. CARTIER said the motion was simply for any correspondence on the subject, and the Government were not called upon to answer any further question. If, when the papers were brought down the mover desired to obtain any statement from
COMMONS DEBATES
18
April 16, 1872
the government on the subject, they would then meet him in the matter.
The motion was then carried.
* * *
CONTROVERTED ELECTIONS
Hon. Mr. BLAKE asked whether it was the intention of the Government to introduce during the present session a measure providing for the trial of controverted elections; and if so, whether they intended to provide that these trials should take place before judges.
Hon. Sir JOHN A. MACDONALD replied that a measure
would be introduced for the trial of controverted elections in Manitoba and British Columbia only, and with regard to the latter part of the question, the trials would be conducted in the same manner as in Ontario and Quebec.
Hon. Mr. BLAKE then gave notice that he should move that the trials should take place before judges.
In reply to Hon. Mr. Mackenzie,
Hon. Sir JOHN A. MACDONALD stated that the papers respecting the Washington Treaty would be laid before the House to-morrow.
The House then adjourned at 4.20.
COMMONS DEBATES
April 17, 1872
19
HOUSE OF COMMONS
Wednesday, April 17, 1872
