DOMINION OF CANADA
HOUSE OF COMMONS DEBATES
OFFICIAL REPORT
FOURTH SESSION—TWENTY-FIRST PARLIAMENT
15 GEORGE VI, 1951
BEING THE 92ND SESSION FOR THE PERIOD 1867-1951
VOLUME I, 1951
COMPRISING THE PERIOD FROM THE THIRTIETH DAY OF JANUARY, 1951, TO THE SEVENTH DAY OF MARCH, 1951, INCLUSIVE
INDEX ISSUED IN A SEPARATE VOLUME
OTTAWA
EDMOND CLOUTIER, C.M.G., O.A., D.S.P. PRINTER TO THE KING’S MOST EXCELLENT MAJESTY CONTROLLER OF STATIONERY
1951
CANADA
House of Commons debates
OFFICIAL REPORT
Speaker: The Honourable W. Ross Macdonald
Tuesday, January 30, 1951
FOURTH SESSION—TWENTY-FIRST PARLIAMENT-OPENING
The parliament which had been prorogued on the twenty-ninth day of January, 1951, met this day at Ottawa for the dispatch of business.
