OFFICIAL REPO FT
OF THE
DEBATES
OF THE
HOUSE OF COMMONS
OF THE
DOMINION OF CANADA
FOURTH SESSION—NINTH PARLIAMENT
4 EDWA.RD V11., 1904
VOL LXVIII
COMPRISING THE PERIOD FROM THE FIRST DAY OF AUGUST TO THE TENTH DAY OF AUGUST, INCLUSIVE
OTTAWA
PRINTED P.Y S. E. DAWSON, PRINTER TO THE KING’S MOST EXCELLENT MAJESTY
1904
\
ERRATA
VOL. V.
Col. 8315, 12th line from bottom for :—‘ two millions’ read ‘two hundred millions,’
House oi Commons debates
FOURTH SESSION-NINTH PARLIAMENT
VOL. V.
COMPRISING THE PERIOD PROM THE FIRST DAY OF AUGUST TO THE TENTH DAY OF AUGUST, INCLUSIVE. CONTAINING GENERAL INDEX FOR THE FIVE VOLUMES.
HOUSE OF COMMONS.
Monday, August 1, 1904.
