 at 7.50 p.m.
Mr. WORKMAN moved to introduce a Bill to incorporate the
Exchange Bank of Canada. The Bill was referred to the Committee on Banking and Commerce.
* * *
LARCENY OF STAMPS
On the motion for the third Reading of An Act for the avoidance of doubts respecting Larceny of Stamps,
Mr. JONES (Halifax) urged that the Government should abolish the Stamp Act. His own opinion was that it should be abolished and he at the same time expressed the opinion of the mercantile community of Halifax. Such a tax had only been resorted to by countries under the necessity of raising a large revenue, and he hoped the Government would accede to the well understood wish of the country in the matter and abolish the duty.
Hon. Mr. MORRIS explained that the remarks of the member for Halifax (Mr. Jones) had no relation to the Bill before the House. The object was to meet a difficulty which had occurred and had already been explained to the House.
The Bill was then read a third time.
* * *
INSOLVENCY LAWS
The adjourned debate on the second reading of Mr. Colby’s Bill, for the repeal of the Insolvency Laws was resumed:
Hon. Mr. CAMERON (Peel) thought the Bill should be referred to the Committee on Banking and Commerce before the House was committed to its principle. When the present Law had been devised it had received the greatest possible consideration, and the Government and the House had used every effort to make the Bill as nearly perfect as possible. The law had now been in operation for some time, and certain difficulties had arisen, but if proper amendments were made, the country would not desire its abolition. It ought to be considered what the position would be if the whole law were repealed without anything being substituted. He thought the Government ought to express their views on a matter of such great importance.
He moved that the bill be not now read a second time but that it be referred to the Committee on Banking and Commerce, in order that they might report thereon. If after the matter had been considered by the Committee it should be found that the interests of the country required its repeal, it could then be done. There were, no doubt, many objections, one of which was the system of voluntary assignments, and then again there ought to be a greater length of time between the claiming and granting of certificates, and, there should be an absolute refusal in any case where the expenditure had been reckless. So long as a system of credit existed
COMMONS DEBATES
April 24, 1872
59
there must be insolvent laws and any one who desired to repeal those laws entirely ought to be prepared to repeal credit also. The experience of old countries should be taken into account, and a measure framed which would avoid the objections and yet meet the necessities of the matter.
On Hon. Mr. HOLTON suggesting that the motion was scarcely in order, it was altered as follows: “That the Bill be not now read a second time, but that the Committee on Banking and Commerce be instructed to inquire into the subject of the Insolvency Law and report thereon to the House by Bill or otherwise.”
Hon. Mr. BLAKE thought the proposition would simply defeat the Bill by preventing it from coming before the House again this Session; but perhaps that was the object of the hon. gentleman. He believed that the Insolvency Law was a good thing, and he was prepared to sustain that opinion. If government determined not to repeal the law he should support them. The matter had now been before the House two sessions, and the member for Stanstead (Mr. Colby) had procured a very large vote in favor of his views, and had stated his intention of pressing the matter this Session, and the question now was not whether there should be amendments, but whether there should be an Insolvency Law or not—and it would be better to get the sense of the House on that question.
Some gentlemen seemed to think that there should be an insolvency law from time to time, as particular crises arose. He could conceive nothing more unfortunate than such a state of things, nothing more unfortunate than that the laws regulating the relation of debtor and creditor should not be permanent. There should rather be a permanent law on such a footing that it should do justice in times of crises and not injustice in ordinary seasons. Although the machinery of the present law might be clumsy, it had the merit of putting the estate very considerably into the hands of the creditors, and the real difficulty was that the creditors having the estate in their hands did not take proper care in the management.
He would call the attention of the House to the difficulties which would result from the entire repeal of the laws. If he rightly understood the law in Quebec there was a quasi-Insolvent law under which goods sold under executions ensured to the benefit of all the creditors. This gave to the people of Quebec a great many of the benefits without the evils of an Insolvent law.
This however was not the case in Ontario, nor he believed was it the case in Nova Scotia or New Brunswick. There the law was of that unjust character that the first execution creditor swept away the whole property. This was a most unjust and calamitous principle, and yet it would be the law if the present Act were repealed. With reference to the power given to creditors by the Insolvent law, of handing over the assets to an assignee, and to the consequences of that, the discharge of the debtor it had always seemed to him, that the discharge of an honest debtor was a wholesome provision which might be defended upon general principles. He believed the interest of both debtor and creditor would be best served by a careful wording and working of the law, but the former was of no use without the latter; but while the creditors had ample control of the
whole matter, they had themselves to blame if the results of the administration of the estate were not satisfactory.
He believed it would be most unfortunate that the law should be repealed and re-enacted in times of crises, and he only opposed the reference of the matter to a Committee, because he thought the House ought to come to a direct decision.
Hon. Mr. IRVINE thought it was much to be regretted that a matter of such great importance should be discussed in so thin a House, and especially in the absence of the first law officer of the Crown, and also that the views of the Government should be expressed in the matter. He thought they were entitled to know what course the Government was prepared to take, if the majority of the House decided to repeal the laws.
He had no hesitation in saying he was entirely opposed to the repeal, and if he supported the motion of the hon. member for Peel (Hon. Mr. Cameron), it was not because he differed from the views of the hon. member for Durham West (Hon. Mr. Blake), but because he felt that there was in the minds of a great number of the members of the House very considerable dissatisfaction with the working of the law. Because there were objections in detail, however, he did not think there should be an entire abrogation of the system, nevertheless, it was most desirable that the first opportunity should be taken to remove those objections.
He believed an insolvent law to be absolutely necessary. They had heard of the necessity for it in Ontario, and to him it was almost inconceivable how such a law as that allowing the first execution creditor to absorb the whole estate could have remained unrepealed so long. In the interest of the creditor it was absolutely necessary that there should be an insolvency system, and though in Quebec there was no preferential right in the first creditor, they had no means of collecting debts due to an insolvent, and devoting them to the benefit of creditors without an assignment.
Another great reason why the law should be continued was that without it, it would be impossible to punish the frauds which were constantly practiced. It might be remembered that when the measure was first brought up, many urged upon the House the passing of more stringent measures for punishing fraudulent debtors, but without success, and he believed the want of those measures had been the cause of very much of the discontent respecting the Act. He held also that where a debtor had been unfortunate, but where there had been no frauds, he was entitled to be discharged. It might be said that where the debtor was honest, the creditors would never refuse his discharge, but he could not agree with that view, for there might be dishonest creditors and those who had had to deal with these matters knew well that it was common for creditors to try to obtain advantages over each other. He held there ought to be some independent tribunal which should have the right to discharge the honest debtor.
From what had been said he thought it must be plain to all that a repeal of the law without any provision for winding up estates already insolvent would be almost impossible, and he believed that
COMMONS DEBATES
60
April 24, 1872
in a country such as this where credit existed to so great an extent, and where cases of insolvency were so frequent, some measure was absolutely necessary.
Mr. WORKMAN agreed with the hon. gentleman who had just sat down that on such an important matter the Government ought to have indicated their policy. It is a question which affects so greatly the interests of the whole mercantile community that it ought to receive from them a decided expression of opinion.
Hon. Sir FRANCIS HINCKS: We have not had a chance.
Mr. WORKMAN had a good deal of experience in the working of the law. Since the amendments of 1869 the Act had been better understood. When a failure took place an assignment was made, and the creditors met and took charge of the estate, and the matter was managed with a great deal more economy and dispatch than under any other system. The Boards of Trade of the Dominion and of Montreal had petitioned against the repeal of the law, and their views ought to receive consideration, as they represent the views of the mercantile community.
We were told that bad debts were much more prevalent than before the Act was passed. That had not been his experience, and he might safely say that the percentage of bad debts was not more than one-half of what it was before the law came into force. The amount recovered, also, was greater by from 25 to 50 per cent than formerly. Then an insolvent was independent of his creditors and could make any settlement he pleased and fraud was the result. This could not occur now as the creditors had the power of taking possession of the estate themselves, and sifting it thoroughly.
We were told by the mover of the present Bill that the law tends to promote immorality. He believed that there was less demoralization of commercial credit than there was before the law came into force. He knew there were some instances where men attempted to defraud their creditors but we had every means of detecting and punishing them. There were defects in the Bill which the Committee might remedy. There was no satisfactory power to the Judge for the punishment of really dishonest debtors. He had never found that where an honest statement was made the greatest consideration and kindness had not been shown and a discharge given. Therefore, debtors had nothing to fear from any increased severity in the law.
It had been alleged that the expenses under the Act were so great that they swallowed up the estate. This had not been his experience. The law costs were not, in his opinion, one-tenth as great as before. He had merely stated his experience as a merchant and so hoped that the law would be continued on the statute book.
Mr. SCATCHERD said the member for Montreal Centre (Mr. Workman) had spoken under the authority of the Board of Trade of Montreal, and he (Mr. Scatcherd) agreed that that gentleman could from their standpoint, and from his standpoint as a merchant, speak in favor of the law. They could look with indifference at the loss they had caused in the rural districts by selling off the goods of an insolvent at so cheap a rate that the buyers could still undersell
honest and solvent dealers, thus causing their stock to be left on their hands to the injury of trade.
He contended that the Insolvency Law had been in force long enough. He believed that it opened the way to fraud and that it was a matter of calculation with a man whether he should not take the benefit of the Act rather than pay his debt, and he had never known a man to be punished for fraudulent practices under the Law. He thought it would tend to check such frauds if his debts were allowed to hang over him, and a discharge refused. He hoped the law would be repealed.
Mr. FERGUSON was not surprised at the view taken by the member for Montreal Centre (Mr. Workman). The Law no doubt suited merchants and manufacturers, as they have the advantage over all other creditors, as they took good care to get the best security for their goods. If this Bill should be continued he thought a clause ought to be inserted, providing that in the investigation of an estate the whole of the securities should be taken into account, and all creditors equally dealt with. He believed that there was a great deal of fraud owing to the existence of this law, and the honest dealers in the country suffered in consequence. He had stated when the Bill came before the Legislature in 1861 that it was for the purpose of allowing men to avoid the payment of their honest debts.
He did not believe that any amendments would prove of service—the only remedy was to dispose of it at once and for ever. It robbed the public and disgraced those who had anything to do with it, and he hoped it would be struck off the statute book. He had confidence in the skill of the Ministers of Justice and Finance, and was quite sure that if the House declared the law a nuisance and an enemy to the country at large, they would before the session terminated, be prepared to bring down a Bill acceptable to all.
Hon. Mr. MORRIS did not rise to protract the debate, though he thought the course suggested by the member for Peel (Hon. Mr. Cameron) the correct one. When the bill was passed the best commercial and legal talent in the House was engaged in its preparation, and it would therefore be extremely impolitic in the present state of the House, when so many members were absent, to ask the House to pronounce an opinion upon so grave and important a question. One reason for the absence of so many members arose from the fact that a great orator (Mr. Punshon) was lecturing in the city, and it was not to be wondered at that they had been tempted away from their seats. He would suggest that the debate should be postponed and that it should be made a special order of the day for some day next week. The House would then be full and the subject would receive the consideration which its importance demands.
Mr. COLBY suggested that it should be made a special order for an earlier day, if possible, tomorrow. (Cries of “no, no, go on’’.)
Mr. RYAN (Montreal West) said that when the matter was before the House last year he had voted in favor of the repeal of the law but he had since changed his opinion. He did not find that any petitions had been presented asking for the repeal, but on the contrary the Board of Trade of Montreal and the Dominion were in
COMMONS DEBATES
April 24, 1872
61
favor of its continuance with amendments and had forwarded petitions to that effect.
The member for Stanstead (Mr. Colby) had alluded to the petition of the Montreal Board of Trade and had tried to make the House believe that that Board did not represent the opinions of the commercial community of the city. He differed from him entirely. In Toronto also the Board of Trade had called a special meeting to discuss the question, and there was but one opinion, that they did not consider it desirable that the law should be repealed although amendments were necessary. In view of these facts he felt justified in changing his vote on the question and out of deference to those Boards he had much pleasure in supporting the motion of the hon. member for Peel.
Mr. CAMERON (Huron South) regretted that the Government had not pronounced their opinion on the question. He had listened to the arguments of the three legal gentlemen who had spoken, and though they all admitted that amendments were necessary, they differed in their views as to what those amendments should be, and this only confirmed his belief that the only course was an entire repeal of the Law.
The Act of 1864 might have served a good purpose but he contended that no Insolvency Law should have a permanent place on the Statute Book, as it was only intended to meet exceptional cases when men through no fault of their own became insolvent, and in cases of that kind it might be judicious to provide some measure of relief. He believed the circumstances that had made necessary the Law of 1864 had ceased to exist. He thought at the time of the passing of the Act of 1869 that it would have worked well, and that the provision for the punishment of fraudulent debtors would have given general satisfaction, but after 4 years’ experience he considered it a total failure. The machinery was complicated, troublesome and expensive, and the creditors instead of deriving the benefit, found the estate absorbed between Sheriffs,
Assignees, Inspectors, and other officials, called into existence by the law. The objection of the Solicitor General of Quebec, that there was no sufficient tribunal for the trial of insolvent cases was well founded, and it was one of the practical difficulties met with in Western Canada.
Viewing the matter from every standpoint and looking at its working in the country, he was prepared to announce that the Bill was exceedingly derogatory to the commercial morality of the country. It was a scandal to the statute book, and he should vote for its repeal. If circumstances should arise and difficulties present themselves requiring a re-enactment of the law, the Legislature was always in existence to deal with the question. They heard on all sides that the country was prosperous, and such being the case, there was no present necessity for the law.
He should vote against the motion of the hon. member for Peel (Hon. Mr. Cameron), and would like a fair vote of the House on the question. If the House did not declare against the continuance of the law, he did not believe that many members who should vote in favour of that continuance would return after the elections.
Mr. ROSS (Dundas) said the effect of the insolvency Law had been to demoralize an important class of the community—the retail dealer. He thought it had been the means of inducing many men who had good intentions to do business honestly, to involve themselves, and then take advantage of the Law. If any measure should be introduced to meet the circumstances he would support it, but should not support his hon. friend from Stanstead (Mr. Colby).
Hon. Mr. SMITH (Westmorland) hoped a division would not be taken tonight, as many members were out of their seats. He therefore moved, seconded by Mr. YOUNG, that the debate be adjourned.—Carried.
The House adjourned at 10 o’clock.
COMMONS DEBATES
April 25, 1872
63
HOUSE OF COMMONS
Thursday, April 25, 1872
