CANADA
HOUSE OF COMMONS DEBATES
OFFICIAL REPORT
THIRD SESSION—TWENTY-SECOND PARLIAMENT
4-5 ELIZABETH II
VOLUME III, 1956
COMPRISING THE PERIOD FROM THE SIXTEENTH DAY OF MARCH, 1956, TO THE TWENTY-FIFTH DAY OF APRIL, 1956, INCLUSIVE
INDEX ISSUED IN A SEPARATE VOLUME
EDMOND CLOUTIER, C.M.G., O.A., D.S.P.
queen's printer and controller of stationery OTTAWA, 1956
2203
HOUSE OF COMMONS
Friday, March 16, 1956
