CANADA
HOUSE OF COMMONS DEBATES
OFFICIAL REPORT
FIRST SESSION—TWENTY-FOURTH PARLIAMENT
7 ELIZABETH II
VOLUME II, 1958
COMPRISING THE PERIOD FROM THE ELEVENTH DAY OF JUNE, 1958, TO THE FIFTEENTH DAY OF JULY, 1958, INCLUSIVE
INDEX ISSUED IN A SEPARATE VOLUME
EDMOND CLOUTIER, C.M.G., O.A., D.S.P.
queen’s printer and controller of stationery OTTAWA, 1958
1033
HOUSE OF COMMONS
Wednesday, June 11, 1958
