
CANADA
HOUSE OF COMMONS DEBATES
OFFICIAL REPORT
FIFTH SESSION—TWENTY-FOURTH PARLIAMENT
10-11 ELIZABETH II
VOLUME II, 1962
COMPRISING THE PERIOD FROM THE TWENTIETH DAY OF FEBRUARY, 1962, TO THE TWENTY FIRST DAY OF MARCH, 1962, INCLUSIVE
26207-1—66J
ROGER DUHAMEL, F.R.S.C.
QUEEN’S PRINTER AND CONTROLLER OF STATIONERY
OTTAWA, 1962
1035
HOUSE OF COMMONS
Tuesday, February 20, 1962
