CANADA
HOUSE OF COMMONS DEBATES
OFFICIAL REPORT
FIRST SESSION—TWENTY SIXTH PARLIAMENT
12 ELIZABETH II
VOLUME VI, 1963
COMPRISING THE PERIOD FROM THE TWENTY NINTH DAY OF NOVEMBER, 1963, TO THE TWENTY FIRST DAY OF DECEMBER, 1963, INCLUSIVE
INDEX ISSUED IN A SEPARATE VOLUME
28902-5—334J
ROGER DUHAMEL, F.R.S.C.
queen’s printer and controller of stationery
OTTAWA, 1963
5241
HOUSE OF COMMONS
Friday, November 29, 1963
