CANADA
HOUSE OF COMMONS DEBATES
OFFICIAL REPORT
SECOND SESSION—TWENTY SIXTH PARLIAMENT
13 ELIZABETH II
VOLUME IX
COMPRISING THE PERIOD FROM THE SIXTEENTH DAY OF OCTOBER, 1964, TO THE EIGHTEENTH DAY OF NOVEMBER, 1964, INCLUSIVE
INDEX ISSUED IN A SEPARATE VOLUME
20220—577i
ROGEB DUHAMEL, F.R.S.C.
QUEEN’S PRINTER AND CONTROLLER OF STATIONERY OTTAWA, 1964
9115
HOUSE OF COMMONS
Friday, October 16, 1964
