CANADA
HOUSE OF COMMONS DEBATES
OFFICIAL REPORT
THIRD SESSION—TWENTY SIXTH PARLIAMENT
13 ELIZABETH II
VOLUME II
COMPRISING THE PERIOD FROM THE TENTH DAY OF MAY, 1965, TO THE EIGHTH DAY OF JUNE. 1965, INCLUSIVE
INDEX ISSUED IN A SEPARATE VOLUME
22620—'10h
ROGER DUHAMEL, F.R.S.C.
queen’s printer and controller op stationery OTTAWA, 1965
1079
HOUSE OF COMMONS
Monday, May 10, 1965
