OFFICIAL REPORT
OF THE
DEBATES
OF THE
HOUSE OF COMMONS
OP THE
DOMINION OF CANADA
FIRST SESSION-ELEVENTH PARLIAMENT
9 EDWARD VII., 1909
VOL XCI
COMPRISING THE PERIOD P.ROM THE SIXTH DAT OF APRIL TO THE SIXTH
EAT OF MAT, INCLUSIVE.
OTTAWA
PRINTED BY C. H. PARMELEE, PRINTER TO THE KING’S MOST EXCELLENT MAJESTY
1909
House of Commons Hebates
FIRST SESSION—ELEVENTH PARLIAMENT
HOUSE OF COMMONS.
Tuesday, April 6, 1909.
