CANADA
HOUSE OF COMMONS DEBATES
OFFICIAL REPORT
FIRST SESSION—TWENTY SEVENTH PARLIAMENT
16 ELIZABETH II
VOLUME XIV, 1967
COMPRISING THE PERIOD FROM THE THIRD DAY OF APRIL, 1967 TO THE EIGHTH DAY OF MAY, 1967, INCLUSIVE.
INDEX ISSUED IN A SEPARATE VOLUME
Roger Duhamel, f.r.s.c.
queen’s printer and controller of stationery OTTAWA, 1967
23033—911*
14409
HOUSE OF COMMONS
Monday, April 3, 1967
