CANADA
HOUSE OF COMMONS DEBATES
OFFICIAL REPORT
SECOND SESSION—TWENTY SEVENTH PARLIAMENT
16 ELIZABETH II
VOLUME 1, 1967
COMPRISING THE PERIOD FROM THE EIGHTH DAY OF MAY, 1967, TO THE FIFTH DAY OF JUNE, 1967, INCLUSIVE
INDEX ISSUED IN A SEPARATE VOLUME
27053—11
ROGER DUHAMEL, F.R.S.C.
queen’s PRINTER AND CONTROLLER OF STATIONERY OTTAWA, 1967
1
HOUSE OF COMMONS
•	(4:00 p.m.)
Monday, May 8, 1967
SECOND SESSION—TWENTY SEVENTH PARLIAMENT—OPENING
The parliament which had been prorogued on the eighth day of May, 1967, met later this day at Ottawa for the dispatch of business.
