 at four o’clock, the Speaker in the chair.
Mr. Speaker read a communication from the Secretary to the Governor General, announcing that His Excellency the Governor General would proceed to the Senate chamber at four o’clock on this day, for the purpose of formally opening the session of the dominion parliament.
A message was delivered by Major C. R. Lamoureux, Gentleman Usher of the Black
Rod, as follows:
Mr. Speaker, His Excellency the Governor General desires the immediate attendance of this honourable house in the chamber of the honourable the Senate.
Accordingly, Mr. Speaker with the house went up to the Senate chamber.
•	(5:20 p.m.)
And the house being returned to the Commons chamber:
OATHS OF OFFICE
Right Hon. L. B. Pearson (Prime Minister)
moved for leave to introduce Bill No. C-l, respecting the administration of oaths of office.
Motion agreed to and bill read the first time.
SPEECH FROM THE THRONE
Mr. Speaker: I have the honour to inform the house that when the house did attend His Excellency the Governor General this day in the Senate chamber, His Excellency was pleased to make a speech to both houses of parliament. To prevent mistakes, I have obtained a copy, which is as follows:
Honourable Members of the Senate:
Members of the House of Commons:
As my words are being broadcast throughout Canada I should like to begin on a personal note. I
want to say that I am deeply conscious of the possibilities for good for Canada of my new office and duty—that which brings me here today to open the Centennial Session of Parliament. May I renew my pledge at the ceremony of Installation: that my sole purpose and effort will be to merit the confidence which had been reposed in me by Her Majesty our Queen on the advice of her Canadian Ministers and by the countless Canadians from every region who have so freely offered their good wishes. My wife and I are deeply grateful for such messages and greatly encouraged by them.
On this occasion we feel again the sadness of our loss in the recent death of His Excellency General Georges Vanier, my much beloved predecessor. His courageous and lifelong devotion to all that is good and honourable sets an example to inspire all Canadians.
The careers of my two distinguished Canadian predecessors have added to the traditional and constitutional functions of the Governor General as the representative of Her Majesty the Queen of Canada, that of representing the Canadian people in a broad range of their activities and attitudes. In this role I shall try to encourage the best features of our national life, in all its diversity, and to symbolize the unity and continuity of the Canadian people as expressed in their federal institutions.
With you, I look forward this summer to the visit of Her Majesty the Queen and other members of the Royal Family. The presence of our Sovereign and the Heads of State of other countries will bring added joy and festivity to our land as it celebrates the centennial of its Confederation.
This Centennial Session of Parliament provides an opportunity to begin to give effect to our aspirations for the second century of Confederation.
The weak colonies joined together in 1867 have grown today into a prosperous and dynamic country. That so much could have been accomplished in the face of great difficulties is a tribute to the courage, determination and faith in human progress of countless Canadian men and women of all origins. It is also a tribute to the wisdom and foresight of the Fathers of Confederation who created the constitutional framework without which much of this progress would have been impossible.
Our country was not founded in 1867. It is far more deeply rooted in time than that. But, one hundred years ago, our predecessors—men of many races, creeds and tongues—embarked upon a great exercise in statecraft of which we, today, are the trustees. They laid the foundations. They anchored them in a fundamental sense of unity that generations of conflict had taught was vital to the common weal. With this realization they erected a structure of government for the freedom, welfare, and prosperity of all who might come in time to inhabit this land. They built according to a federal plan because they knew that unity, with cultural and regional diversity could be harnessed to a positive and enriching role in no other way.
2
COMMONS DEBATES
May 8, 1967
Speech jrom the Throne
The concept of Confederation was a call to Canadians to occupy and develop half a continent. In terms of physical effort, it demanded constructive work of a magnitude and in the face of obstacles never before tackled anywhere in the world. In terms of intellectual endeavour, it required the revolutionary application of federal arrangements to a parliamentary system in a sparsely populated country of enormous area.
The path of Confederation has been beset with great difficulties—some natural, some inevitable and some of our own making. Succeeding generations of men and women, however, had the courage to overcome these difficulties and make possible the material and social progress we today enjoy. They had the conviction of their forefathers that a sense of basic unity alone would secure the preservation of both the individuality and the diversity which they cherished. They knew that, while Confederation could never be perfect, it was in the last analysis the mainstay of their various interests and that, while there would inevitably be occasional failures in the tolerance and understanding essential to our political system, a fundamental friendship between our people remained and could be relied upon. They Irnew, above all, that there was no difference of opinion so great, no misunderstanding so deep, that could prevent men of good will from repairing the particular in order to preserve the whole.
During the past one hundred years the world has changed beyond the recognition of anything within the experience of those who laid the foundations of Confederation. That our constitutional structure has endured and served so well the progress of our country is a measure of the basic soundness of its principles as well as the willingness of those concerned to adapt their application to changing needs and changing conditions.
It is in this spirit that the government has in recent years actively promoted the reform of detailed federal-provincial arrangements which, with the fundamental law, compose the constitutional structure of our country. Such reform includes improving procedures for federal-provincial consultation and coordination that are increasingly vital to the effective operation of modern government.
The government is aware of its unique responsibility to ensure that our fundamental law is readily adaptable to our changing social needs. It is also conscious that the advantages and disadvantages of the present constitutional structure are deeply intertwined. While orderly reform may well be the best way of preserving and strengthening our heritage, the most careful consideration must be given to what we do. Studies to obtain the best advice on this important matter are now underway with a view to subsequent consideration of the whole problem by Parliament.
It was possible to think, in 1867, of the public responsibility primarily in terms of state responsibility. The new challenges, which we must and will meet, require the involvement of the whole society and the efforts of all our people. In this time of fast-changing dimensions, the central concern of Canadian society must be the well-being of each individual, so that, regardless of his place or station at birth, he will have an equal chance to realize his full potential in the economic, social, political and cultural sense. A country is a home; it must be built and furnished for the good life of its people.
[Mr. Speaker.]
With our forefathers, the fight was against the immense odds of nature on our half of this continent. Today the main struggle is against social injustice, against cultural mediocrity, against spiritual stagnation and against all forms of intolerance.
During the first one hundred years of our Confederation we have been evolving, out of our bilingual and bicultural beginnings, an ideal of statehood that promises a new dimension of democracy: the dimension of social and cultural diversity within a political unity. Out of the two great cultural streams of our beginnings, we have evolved in Canada an independent statehood which has welcomed and been enriched by people of many other cultures. As we enter our second century of Confederation, we can take pride in a sense of purpose that, while taking account of our own national needs, also includes a unique capacity to contribute to the whole world community of man.
Today relations among industry, labour and governments at all levels are taking on a new significance. To maintain and improve Canada’s economic strength it is necessary to exercise wisdom and restraint in our demands upon one another; to show a high degree of cooperation and a sense of responsibility in dealing with each other and with our respective institutions, including all levels of government.
The government is conducting a fundamental review of the many significant factors involved in the relationship between industry, labour and government. From this review, it will secure the best advice available in shaping new policies and determining the most effective day-to-day role for the federal government.
Honourable Members of the Senate,
Members of the House of Commons,
As our Centennial Session opens, more Canadians are employed than ever before in our history. To ensure that jobs keep pace with the labour force, the capacity, quality and productivity of Canadian manufacturing industries must be increased. The government will take further appropriate measures to promote an environment in which industries can develop in the broad interests of the country, and promote increasing employment opportunities.
The government will also take special measures in particular designated areas where human resources are not adequately utilized. While efforts by the government in this regard during recent years have met with a large measure of success, they are to be made even more effective. Parliament, therefore, will be invited to broaden the scope of the Area Development Incentive program and to provide increased funds for it. Continuing encouragement will be given to the work of the Atlantic Development Board in promoting industrial development in the Atlantic Region.
Our strong and dynamic economy has made possible a broad program of social security which is available to all Canadians. Social legislation in Canada has been advanced to a remarkable degree in recent years. This does not mean to imply that all our programs are complete. Improvements will be required, such as the amendment of the Unemployment Insurance Act, which Parliament will be invited to consider.
May 8, 1967
COMMONS DEBATES
3
Parliament will also be asked to enact a measure further to assist Canadians when moving from their homes in order to obtain employment. This will be accompanied by administrative action to increase the effectiveness of Canadian manpower centres. A full service will be developed for counselling individuals looking for work and for helping all workers to take advantage of employment opportunities. At the same time the adult retraining program will be strengthened and, in consultation with the provinces, a number of pilot training projects will lay concrete plans for new approaches in manpower development.
While the government is conscious of the desirability of a greater degree of domestic control of our resources and our key industries it is also aware of the continuing importance of inflows of foreign investment in order to ensure an optimum development of the economy. To enable Canadians to gain a clearer understanding of these issues, a White Paper on this subject will be laid before Parliament.
The government attaches great importance to opening up new ways for the participation of our people in the ownership of our industrial institutions. You will therefore be asked to consider a bill to establish a Canada Development Corporation in order to further the industrial development and trade of this country by reinforcing the supply of Canadian equity capital ready to share the risks as well as the rewards of investment in Canadian business.
Federal-provincial cooperation through the Fund for Rural Economic Development will permit a major effort for regional planning for particular areas in Canada. Implementation of development projects in Northeastern New Brunswick, at Mactaquac in New Brunswick and the Interlake area of Manitoba will provide the Federal Government with tools of knowledge and experience for the benefit of other regions throughout the country. You will also be invited to approve the establishment, with the Government of Nova Scotia, of a Crown Corporation to phase out the uneconomic coal mining operations in Cape Breton, while creating alternative industrial employment.
Greater emphasis and encouragement, consistent with federal responsibilities, will be given to community development programs throughout Canada. In no case is the need for these more fully demonstrated than in the case of the Indians and Eskimos of Canada who face grave problems in their attempts to share the benefits and opportunities of our society. The government will therefore put before the Centennial Session amendments to the Indian Act and it will take other administrative measures to encourage the process of community development, for the benefit of the Indian and Eskimo people.
In foreign affairs Canada has put its major effort Into the pursuit of peace. Our diplomacy aims at strengthening Canada’s position in the councils of nations so as to work towards that world peace and stability that is the agreed objective of all sectors of public opinion in this country.
The most serious situation in the world today remains that in Vietnam. The government continues to attach the highest priority to initiatives designed to bring about a peaceful settlement of this conflict and we will continue to exert every effort to this end through diplomatic and other peaceful means. The government is prepared to
Speech from the Throne cooperate in the establishment of an international presence in Vietnam to provide the assurances and guarantees which may have to form part of any settlement. We are also prepared to assist in the economic reconstruction and rehabilitation in that area once peace has been restored.
The government will also continue to press vigorously for effective international action in the field of disarmament. It regards curbing the nuclear arms race as a first and essential step on the road to general disarmament.
With these objectives in mind, Canada is joining with its NATO partners in a review of the future tasks of the alliance. Besides the changing requirements of collective defence, we will have in mind the progressively important political role which NATO has undertaken in the pursuit of a peaceful settlement in Europe.
The United Nations remains for Canada a major consideration in foreign policy. Until the end of 1968 Canada will have the responsibility of membership on the Security Council, and in that role the government will strive to strengthen the capacity of the United Nations fully to discharge its proper functions.
It is also expected that the “Kennedy Round” of International Trade and Tariff Negotiations will soon be completed in Geneva. In the light of its conclusions, you will be asked to approve changes in tariffs and related laws necessary to implement the undertakings Canada will give in order to gain improved access for Canadian products in export markets.
The government also intends to play an active part in the forthcoming meeting of the United Nations Conference on Trade and Development, as it attaches great importance to the trade problems of less-developed countries.
Unless there is a concerted international endeavour to promote economic, technical and social advances in the developing countries, the world will soon face a major crisis. The advances painfully won by the nations of Asia, Africa and the Americas must not be lost through the lack of aid or through impediments to trade. Steps will be taken further to develop Canada’s special relations with the Commonwealth countries of the Caribbean.
The government also intends to seek approval for a substantial increase in the external aid program, as a further step towards the aid target of one per cent of national income.
External aid, trade and the activities of a host of international agencies today bind the peoples of the world more closely together than ever before in human history. There is an international flavour to modern life that was unknown to all but a select few in years past, but which will become commonplace for people generally in the years ahead.
All this is dramatically demonstrated by Expo 67 which recently opened in Montreal and by the Pan American Games to take place in Winnipeg this summer. These are features of our Centennial party, to which the whole world has been invited. Expo provides an extraordinary opportunity to extend hospitality to those who join with us in celebrating the one hundredth anniversary of Confederation. It is attracting visitors to Canada in greater numbers than ever before, and provides us with an unprecedented opportunity to display our achievements to the rest of mankind. Our country will also be receiving an increasing flow of people who will remain with us, to add to the variety and
4
COMMONS DEBATES
May 8, 1967
Speech from the Throne
strength of our country. You will be asked to consider a complete revision of our immigration legislation.
If the century that has passed can be characterized by the development of the resources of our land, it is likely that the century to come must be marked by an increasing concentration upon the development of the resources of the mind and the spirit.
The government has already embarked upon a number of programs to increase substantially the level of scientific innovation, but much information of potential use in upgrading the technological capability of our country is not being fully utilized. The government has therefore initiated a study which will lead to a program to provide for the efficient dissemination of the latest scientific and technological information throughout Canada. The government also intends to recommend substantial expansion in its assistance to science and technology in their broadest senses and to develop a climate conducive to more expenditure in this area by Canadian industry. Particular attention will be given to developing a climate of cooperation among governments, universities, and industries, that will provide effective solutions for the great problems associated with our environment: with health, transportation, energy, communications, housing and urban renewal, food production and many others that have particular relevance to this country.
The arts, humanities and social sciences also have an importance to our future that needs no elaboration. In recent years the government has taken vigorous action to ensure unprecedented support for those branches of learning essential to the enrichment of the spirit and to the government of men. More remains to be done so that there will be provided a host of challenging opportunities to Canadians of all ages: opportunities of the kind that will excite the interests of our best minds; opportunities that, accepted with spirit and vigour, can lead to progress of exceptional significance in the social and economic life of Canada.
Recognizing that broadcasting is an important cultural instrument the government supports a comprehensive and balanced national broadcasting service for Canadians of all ages, interests and tastes. Toward these ends a measure will be put before this Session for better regulation and use of broadcasting privileges and responsibilities. Legislation will also be placed before Parliament concerning the provision of broadcasting facilities for educational purposes.
The government is profoundly aware of the economic, social and cultural issues concerned in the development of satellite communications. Studies of this important matter are now underway and will be pressed to completion so that you may be thoroughly informed on all aspects when grave decisions as to use, ownership, regulation and control must be reached. A committee of Parliament will be invited to study the issues involved in this new means of communication.
In one form or another science is already reaching into the very heart of the community to transform the lives of each of us. It is essential that the control and development of our environment keeps apace. We have built towns and cities, canals and railroads, highways and other great works of construction at an unprecedented pace. But we have too often in the past made beauty the poor sister of material gain and careless workmanship the
[Mr. Speaker.]
price of easy profit. We must lose no more time in making ugliness in our environment as unwelcome as financial losses in our balance sheets.
One of the great challenges of the century will be our capacity to plan our urban development so that Canadians in the future will continue to enjoy the benefits of living in health and harmony with their surroundings. To this end, the government intends to propose to the provinces that a special study of urban development be undertaken in close consultation with all the authorities concerned, which would be available to the federal, provincial and municipal governments and to the public generally; so that all Canadians will be aware of problems which lie ahead and so that governments at all levels, will have the best possible advice to assist them in their own planning and in their respective contributions to this great problem.
You will be invited to consider new housing programs which, while recognizing the primary responsibility of the individual and the other levels of government in the provision of housing, will help to fill requirements that clearly lie ahead.
The impact of science, industrialization and urbanization and the changing conditions in Canada and abroad also demand that our agricultural goals and policies should be kept under continuous examination. The government, confident that Canada can look forward in its second century to continuing as one of the great agricultural countries of the world, proposes to establish a Special Task Force under the Minister of Agriculture. It will be charged with projecting agricultural goals for the future and recommending policies to meet these goals. A firm basis should thus be provided for the development, in full cooperation with the provinces, of a national agricultural policy. This national policy will be designed to bring greater returns to the efficient farmers of this country consistent with those of other segments of our economy and consistent with the contribution to our well-being that is made by the agricultural segment. At the same time plans will be developed that will permit the retraining of those who wish to leave the agricultural field.
The changing needs of rural communities also deserve special attention. During the present Session, you will be asked to approve legislation to provide long-term loans to agricultural and fisheries associations and corporations to permit them to develop facilities commensurate with the needs of such communities. The pattern of agriculture is changing and with the change there is increased need for capital to permit the development and maintenance of a competitive agricultural structure. Therefore you will also be asked to broaden the scope of the Farm Credit Act, in particular to enable young men and farmers’ sons to develop or acquire efficient and viable production units.
The great natural resources that we take into our second century will be vital to us in meeting our needs and in maintaining our position as a major world trader. Measures will be introduced by the government at the present Session arising out of the need to conserve and preserve the great wealth with which Canada has been so richly endowed. Water itself is becoming a more and more valuable resource. Efforts to combat pollution are taking on an economic as well as a social significance and the federal government intends to press forward in cooperation with the provinces. In keeping with this objective, you will be asked to approve a new
May 8, 1967
COMMONS DEBATES
5
Canada Water Act which will provide a framework for the improvement and implementation of Canadian water policy.
At the same time, the search for new resources hastens the opening of the North. Substantial progress has been made in recent years in the government of the Northwest Territories and the Yukon, and the government intends to undertake new incentives for industry and regional economic planning intended to strengthen the economy of the North.
The encouragement of scientific and intellectual endeavour, and the development of natural resources, will be of no great benefit to Canadian society in its second century of Confederation unless a concerted effort is made to bring about a better relationship between the individual and his government. The government therefore attaches great importance to administrative and law reform so as to assure the citizen an understanding and sense of identification with what is going on, the better to assure his support of and participation in the social institutions of our country. You will be asked to examine legal procedures and administration, not only with a view to their efficiency, but also as regards their simplicity and efficacy in so far as the individual citizen is concerned. Canada must set itself the task of developing a society in which every citizen can become an informed and real participant and plan a role to the measure of his wishes and abilities.
The Standing Committee of the House on Privileges and Elections will be asked to continue its study of the Report from the Committee on Election Expenses. When this study has been completed, the government will put forward proposals for your consideration.
You will be asked to consider reforms in our laws governing divorce. The government will also put forward a proposal concerning capital punishment. In all of these matters where decisions depend so much on personal judgement and belief, careful consideration will be given to procedures for handling them in Parliament. Early action will also be taken to seek other amendments to the Criminal Code.
In the highly complex society of today, the interests of the consumer must be taken fully into account in the formulation of government policy. It is abundantly clear that in the whole area of matters affecting the investor and the consumer, the federal government has special obligations arising out of its general responsibility for the economic well-being of the nation as a whole.
The rights of the consumer can be advanced through corporate and individual responsibility but they also impose an obligation on governments at all levels. At this Session government measures recommended for the promotion of consumer interests will include the designation of a department of corporate and consumer affairs. Within this department there will be created an organization responsible for developing new policies and coordinating programs undertaken within the federal government to assist the consumer and protect the small investor. It will also maintain liaison with the provinces in these fields.
The government also attaches great importance to the encouragement of more efficient allocation of capital resources and to the creation of a situation in which any Canadian can invest in companies 27053—2
Speech from the Throne operating in Canada on the basis of comprehensive and accurate information. To this end, you will be asked to approve amendments to the Canada Corporations Act. They will ensure that federally incorporated companies are obliged to respect modern and high standards of financial disclosure and that their affairs are conducted in a way which will encourage a favourable investment climate.
Related to this is the improvement of the efficiency and stability of financial markets and institutions. Important changes were brought about in the last Session of Parliament with respect to banking legislation and the control of other financial institutions. The objective of the government is to encourage development of efficient financial institutions, with full regard for the public interest including the provision of adequate safeguards for depositors and investors. The government is prepared to exercise its responsibility in fields where it has jurisdiction. In these fields as well as in areas where jurisdiction is divided, it will seek to cooperate with all provincial governments.
Another matter of fundamental importance in our highly industrialized society is safety. The government proposes to review the whole area of its jurisdiction with respect to the setting and enforcement of safety standards in all the areas where they are required if the day-to-day life of the average citizen is to be adequately safeguarded.
As we observe this year the beginning of a new century of Confederation, we who find ourselves in positions of authority must always remember that it is our responsibility and our opportunity to serve the needs and aspirations of the Canadian people. Ours is a proud past. Together we in Canada have a future as promising as that of any other country in the world. But, above all, we are a people of the present. It is well that in giving thought to the goals of the second century of Confederation, we be aware that, as our success and promise of today rest on the actions of the past, so what we have tomorrow will depend on what we do today.
Members of the House of Commons,
The legislative program that the government proposes is large, and many of the issues it contains are complex. This has consistently been the case in recent years. It is a natural result of the growth and development of our country, the involvement of government in many matters, and the increasing technicality of modem society and the methods of its regulation. Parliament today requires virtually the full-time attention of its members, and this has been appropriately recognized. Likewise, you have recognized that the rules and methods of parliamentary government must be revised. In the last Session you established a Committee on the Rules of the House which made valuable progress in this regard. In this Session you will be asked to continue and expand that Committee’s work. Canada in embarking upon its second century of federal government, must provide its Parliament with every facility to ensure that efficiency and thoroughness of deliberation which, in the consideration of every item of public business, is alone the sure protection of the liberty and well-being of our people.
You will be asked to appropriate the funds required for the services and payments authorized by Parliament.
6
May 8, 1967
COMMONS DEBATES
Congratulations on Canadian Centennial Honourable Members of the Senate,
Members of the House of Commons,
It is our honour and privilege to be responsible for the government of our country in this one hundredth year of confederation. It is our duty to govern well.
In addition to the measures already specified, you will be asked to consider a number of other legislative proposals.
In conclusion, I would end today, as the first Governor General of our country did one hundred years ago:
“Within our borders peace, security and prosperity prevail, and I fervently pray that your aspirations may be directed to such high and patriotic objects, and that you may be endowed with such a spirit of moderation and wisdom as will cause you to render the great work of union which has been achieved, a blessing to yourselves and your posterity, and a fresh starting point in the moral, political and material advancement of the people of Canada.”
May Divine Providence guide you in your deliberations.
• (5:30 p.m.)
Right Hon. L. B. Pearson (Prime Minister)
moved:
That the speech of His Excellency, delivered this day from the throne to both houses of parliament, be taken into consideration later this day.
Motion agreed to.
CANADIAN CENTENNIAL
RESOLUTION OF CONGRATULATIONS AND BEST WISHES FROM U.K. PARLIAMENT
Mr. Speaker: I have the honour to inform the house that a message has been received from the Right Hon. Horace Maybray King, Speaker of the House of Commons of the United Kingdom, conveying the text of a resolution of that house, as follows:
The Prime Minister Mr. Edward Heath Mr. Jeremy Thorpe
Centenary of the Canadian Parliament: Resolved, nemine contradicente. That this House, mindful of its debates in February and March 1867, which led to the passage of the British North America Act and to the establishment of the Parliament and Dominion of Canada and recalling the hopes then expressed that the foundation had thereby been laid for the development of strong and selfreliant parliamentary institutions in that country; notes that these hopes have been amply fulfilled in the continuing vigour and vitality of the parliamentary system in Canada and sends most friendly greetings and warm congratulations to the Canadian House of Commons on the centenary of its establishment, and all good wishes for the second century of its existence.
Right Hon. L. B. Pearson (Prime Minister):
Mr. Speaker, the resolution of congratulations which you have just read and which, as you have said, was moved in the British House of
[Mr. Speaker.]
Commons by the Prime Minister of the United Kingdom, was passed unanimously by that ancient and illustrious body which two years ago celebrated its seven hundredth anniversary in the same hall at Westminster where it first met.
Very generous remarks were made when this resolution was being considered at Westminster by the Prime Minister, Right Hon. Harold Wilson, by the Leader of the Opposition, Mr. Heath, and by the leader of the Liberal party, Mr. Thorpe. I am sure all members of this house share my appreciation of this generous and friendly gesture, and I am sure that all members would wish this appreciation to be suitably expressed and recorded, for transmission to Westminster.
As has been the case with many countries, we inherited our own parliamentary institutions from Britain, the home of the mother of parliaments. Indeed, one of the bonds holding together that unique organization, the Commonwealth of Nations, is this shared parliamentary heritage.
In Canada, parliamentary institutions have played a vital part in the development of our Confederation. They have served us faithfully and well in war and peace, in bad times and in good. They have enabled our country to grow with a maximum degree of freedom for our people, and with a maximum of consideration for discussion and dissent in the solution of our problems. It is difficult to imagine a more stable or suitable governmental foundation for future progress as we contemplate our second century of confederation. The capacity of our parliamentary system to adjust itself in response to the requirements of the moment, without sacrificing its basic characteristics, has been demonstrated in the past. We must hope that the subtle, durable mechanism, of which this house forms such an important part, will successfully meet the even more difficult and important challenges of the present by adapting itself to the new conditions we face.
We often forget that it was the combined genius of Anglo-Saxon and Norman French that brought about the birth and development of the parliamentary system in Britain. In Canada there has been a similarly enriching association of these two races in our parliamentary evolution. In working out our federal system of government, parliamentary institutions have enabled English speaking and French speaking Canadians to settle their problems and find acceptable accommodations for their difficulties in a framework
May 8, 1967	COMMONS
of rational discussion and intelligent cooperation.
I feel confident that we can look forward to continued steady parliamentary progress, and that we shall not betray the great achievements of the last hundred years or prove unworthy of the generous sentiments that the resolution of the British House of Commons so graciously emphasizes.
In introducing this resolution into the House of Commons at Westminster, the Prime Minister of the United Kingdom quoted the words of Lord Carnarvon, the Colonial Secretary of the day, when he moved second reading of the British North America Act in 1867. He said then:
We are laying the foundation of a great state—-perhaps one which, at a future day, may even overshadow this country. But, come what may, we shall rejoice that we have shown neither indifference to their wishes nor jealousy of their aspirations, but that we honestly and sincerely, to the utmost of our power and energy, fostered their growth, recognizing in it the conditions of our own greatness.
It is good to know that the British House of Commons, 100 years later, continues to have these same generous and warm feelings about our country.
It is my pleasure and my honour to move, seconded by the right hon. Leader of the Opposition, the following resolution:
That this house, acknowledging the Resolution of the British House of Commons, conveying most friendly greetings and warm congratulations on the centenary of the establishment of the Canadian House of Commons, and all good wishes for the second century of its existence;
Recalling the unfailing good will extended to it by the British House of Commons at the time of confederation, and throughout the century that has followed;
Mindful that parliamentary institutions, our heritage from the mother of parliaments, have served Canada well during the past hundred years;
Requests Mr. Speaker to express to the British House of Commons sincere and grateful appreciation for its kind greetings and congratulations.
• (5:40 p.m.)
Right Hon. J. G. Diefenbaker (Leader of the Opposition): I join the Prime Minister in the sentiments he has expressed on this unique occasion. The message from the parliament of Westminster re-emphasizes, as the Prime Minister has said, it was in Westminster that the system was developed which we in our country, subject to but few changes, have applied to the operations of our parliament. Indeed, the cradle of freedom at Westminster gave us parliamentary democracy and the rule of law. From it we obtained the common law, trial by jury and habeas
27053—24
DEBATES	7
Congratulations on Canadian Centennial corpus. These are the monuments of freedom around which Canadians stand with pride.
In the dark days from June, 1940, until December, 1941, the parliaments of the United Kingdom and Canada together with the other dominions in the commonwealth stood alone for freedom. In 1941 the nazis attempted, by destroying the physical structure at Westminster, to at the same time undermine the moral determination and power of our people standing together for freedom. They destroyed the buildings, but the soul was unimpaired.
We recall it was here in this chamber in December, 1941, that Right Hon. Winston Churchill, with winged words of power and determination, mobilized the thinking, the aspirations and hopes of free men everywhere.
These are the things that come to one in reflecting on the history of our country’s institutions. It is well to recall the contribution made by that parliament in Westminster to the Canada of today. The Prime Minister mentioned it was a result of the co-operation between Anglo-Saxons and Normans that the parliamentary system, which we hold as of right and not of grace, was achieved and established.
It is well to remember the parliament of the United Kingdom gave to Canada of that day, in 1774, freedom of religion for Roman Catholics many years before it was attained in the United Kingdom itself. It was the United Kingdom parliament which made possible the abolition of slavery in Canada in 1793. It was in that parliament the eloquence of Fox, Pitt, Sheridan and Burke brought into being the beginning of representative government in Canada. Fox enunciated the dictum that the only way of retaining distant colonies with advantage was by enabling them to govern themselves.
Here in Canada—sometimes we forget it—a French Canadian gave leadership which brought about responsible government in our nation. Louis Hippolyte Lafontaine joined with Robert Baldwin in bringing this about. He maintained that parliamentary government without the crown cannot and will not be envisaged. These are some historical episodes which come to mind.
The British parliament consistently and generously protected minorities, their religion and their language. The Prime Minister quoted the words of Lord Carnarvon as the British statesman concluded the introduction of the B.N.A. bill in the House of Lords in 1867. Strange as it may seem today, it was the
8
May 8, 1967
COMMONS DEBATES
Congratulations on Canadian Centennial Quebec Act of 1774 allowing religious freedom and preserving those rights which were guaranteed in 1760, which in large measure was the cause of the 13 colonies revolting in 1776; they took strong objection to what had been done in Canada.
These are things we do not forget. These are things of the spirit, golden threads in the tapestry of our parliamentary system. It is with deep appreciation of what the British parliament has done for our country in preserving the freedoms we hold so dear, freedom of religion, freedom of speech and free, responsible government, that I speak today. For all these things we are debtors to that parliament at Westminster. So long as it lives, freedom will live.
It is my honour to join with the Prime Minister in seconding a resolution of appreciation for a message which touches the hearts of all of us.
Mr. T. C. Douglas (Burnaby-Coquitlam):
My colleagues and I desire to support most enthusiastically the motion which has been moved by the Prime Minister and seconded by the Leader of the Opposition. We deeply appreciate the congratulations and good wishes which have been received from the parliament at Westminster.
As has been pointed out, the British parliament gave birth to confederation. While we very naturally think with pride of the Canadian fathers of confederation, it is true that the work they did could not possibly have come to fruition had they not had the co-operation of the statesmen in Great Britain, and had they not been helped tremendously by the foresight of British leaders like Lord Durham. Therefore we are greatly indebted to the British parliament, to the men who have sat in it over the years, for the help they gave in laying the foundations of Canada.
• (5:50 p.m.)
With the passage of time we have become more and more independent and we have insisted increasingly, generation by generation, on being masters in our own house. I do not think for a moment that this has caused any displeasure in the British parliament or among the British people. As a matter of fact, when they launched Canada on its way it was part of their hopes and their aspirations that Canada would become a great sovereign power and an equal partner with Great Britain. It must be a source of satisfaction to them now to see Canada, as an independent, sovereign nation, working closely with Great Britain in
[Mr. Diefenbaker.l
the Commonwealth of Nations, in the United Nations, and in the affairs of the world.
We, Mr. Speaker, in this house, and in this country have a deep affection for Great Britain. Part of it comes from our ties of blood, but I suppose roughly two thirds of the Canadian people do not have ethnic relationships with Great Britain. However, we do have ties of common appreciation for the parliamentary system, for the British system of justice, and for the concepts of freedom and liberty which Great Britain gave to the world and which we, in our turn, have accepted and seek to perpetuate.
William Pitt once said in one of his famous speeches, when the Napoleonic wars were at their height, that Britain had saved herself by her exertions and Europe by her example. I think it can be said with equal truth today that Great Britain, in spite of innumerable difficulties, is saving herself by her exertions and the world by her example. I hope that we here in Canada as we enter into our second century will continue to march in step with Great Britain, and that we, with Britain and the other members of the commonwealth, may play an important part in promoting peace, stability and prosperity throughout the earth.
[Translation]
Mr. C. A. Gauthier (Hoberval):	Mr.
Speaker, in the name of the Ralliement Credi-tiste, I should like to join the right hon. Prime Minister (Mr. Pearson) in thanking the British House of Commons for the resolution which it kindly sent our government on the occasion of our centennial. We appreciate all the kind words and good wishes contained in the message of the London government. Other countries will certainly send Canada their congratulations this year. It should nevertheless be remembered in listening to these congratulations—we are overwhelmed with congratulations—that tomorrow is another day and that all those kind words are not necessarily true.
We sincerely thank the British government for their good wishes on the occasion of the centennial of confederation. In fact, it is quite an event for Canada to have survived during these hundred years after the agreement reached in 1867, if we consider the government of the time and particularly the two great men who, in 1867, laid the basis upon which Canada developed and expanded.
Have we now reached the ideal suggested by these two great men? I have always found that no ideal can be fully attained. Never-
May 8, 1967
COMMONS DEBATES
theless, it can be said that we are on the way toward such an ideal and that living under this agreement has been a fortunate experience for all Canadians in general.
Just to simplify my reassuming, let me say that I have always seen in the agreement of the 1867 confederation something similar to a contract between husband and wife.
Mr. Speaker imagine a couple receiving congratulations from everywhere on their hundredth wedding anniversary. While the husband is being complimented on his achievements, on his progeny especially, the wife harbours other thoughts which she dares not express. That is all very well as far as the husband is concerned, but often the wife thinks to herself: That is not altogether true.
Well, we French Canadians, with regard to the English speaking element within the context of confederation, are somewhat like the husband and wife to whom I have just referred.
In 1867, our ancestors took up the challenge. They tried to play their part and I think that if something went wrong, in short if we have to complain about something as French Canadians, it is not so much about the letter itself of the British North America Act as about its application. But, on this anniversary, in order not to cast any gloom over the occasion, we will act somewhat like the woman who is party to the marriage contract: we will let those who want to celebrate fully do so, even if we cannot keep pace with them. We congratulate our predecessors just the same for having made the necessary efforts to attain the ideal which the two men mostly responsible for confederation undoubtedly had in mind.
We are asking ourselves what confederation gave us after a hundred years. To answer that question, I think that we should analyse the situation and ask ourselves whether our present system of government is as sound as it was 100 years ago as well as the foundation of present system, which I approve of because I have always been in favour of a democratic system.
I believe that the years to come will give us the answer to that question and we hope wholeheartedly that our democracy will grow not only in words but in action, in short that it will become an accomplished fact in Canada.
That is the wish of the French Canadian people in general who live in Canada as it must be also the wish of the citizens of all the other ethnic groups which make up our great country.
9
Internal Economy Commission
I think that our democracy is far better than other forms of government which have been launched or tried out in other countries, but we must reflect upon the accomplished fact and be satisfied with the work done, even with the effort attempted although that effort, in my opinion, was not fully successful.
Mr. Speaker I hope the new century which lies ahead will be the century of understanding, the century of justice and the century of peace.
[English]
• (6:00 p.m.)
Mr. A. B. Patterson (Fraser Valley): Mr.
Speaker, if I may be permitted just a few moments, I should like to assure the members of this house that we in the Social Credit party are in full support of the resolution which has been moved by the right hon. Prime Minister and seconded by the right hon. Leader of the Opposition.
It is always good to receive greetings on special occasions and, on the one hundredth anniversary of Canada’s existence, it is doubly gratifying to receive greetings from the mother of parliaments. I have just read the message which was sent and I notice that reference is made to the debates which led to the passage of the British North America Act and the establishment of the parliament of the Dominion of Canada. I believe this message expresses a hope which is greater than the expressions of opinion which were made at the time of Canada’s formation by those on that side of the Atlantic who predicted the early demise of this country as an independent sovereign nation.
Canada is but a baby, so far as the nations of the world are concerned, but I believe her place in the roll call of nations will move on the maturity, and that she will make her contribution to the world in general.
Motion agreed to.
INTERNAL ECONOMY COMMISSION
Right Hon. L. B. Pearson (Prime Minister)
presented the following message from His Excellency the Governor General:
The Governor General transmits to the House of Commons a certified copy of an order in council appointing the Honourable George James Mcllraith, the Honourable Allan Joseph MacEachen, the Honourable Maurice Sauv6 and the Honourable Edgar John Benson, to act with the Speaker of the House of Commons as commissioners for the purposes and under the provisions of the one hundred and forty-third chapter of the Revised Statutes of Canada, 1952, intituled: An Act respecting the House of Commons.
10
COMMONS DEBATES
May 8, 1967
Business of the House STANDING COMMITTEES Right Hon. L. B. Pearson (Prime Minister)
moved:
That a special committee be appointed to prepare and report, with all convenient speed, lists of members to compose the standing committees of this house; the said committee to be composed of Messrs. Knowles, Laprise, Leboe, MacEachen, Pilon, Rapp and Starr.
Motion agreed to.
HOUSE OF COMMONS
APPOINTMENT OF DEPUTY CHAIRMAN OF COMMITTEES OF THE WHOLE
Right Hon. L. B. Pearson (Prime Minister)
moved:
That Maurice Rinfret, Esquire, member for the electoral district of Saint-Jacques, be appointed deputy chairman of committees of the whole house.
Motion agreed to.
APPOINTMENT OF COMMITTEE TO CONSIDER CHANGES IN PROCEDURE
Right Hon. L. B. Pearson (Prime Minister)
moved:
That a special committee consisting of Messrs. As-selin (Richmond-Wolfe), Baldwin, Brand, Caouette, Faulkner, Knowles, MacEachen, Nugent, Olson,
Richard and Stewart, be appointed to consider and, from time to time, to report upon the advisability of making permanent, with or without amendment, any or all the several changes in the procedure of this house as adopted for the second session of the twenty-seventh parliament on April 26, 1967, and, in particular, to consider ways and means for giving to the opposition during the second session of the twenty-seventh parliament an opportunity to select the order in which departmental esimates will be discussed, and such other changes as the committee may deem suitable to promote the more expeditious dispatch of the business of the house.
Motion agreed to.
BUSINESS OF THE HOUSE
Mr. Speaker: It is my understanding that there is a wish to have the order made earlier this day, that the address of His Excellency the Governor General be considered later this day, amended so that the address may be considered tomorrow.
Some hon. Members: Agreed.
On motion of Mr. Pearson the house adjourned at 6.10 p.m.
11
HOUSE OF COMMONS
Tuesday, May 9, 1967
