CANADA
HOUSE OF COMMONS DEBATES
OFFICIAL REPORT
SECOND SESSION—TWENTY SEVENTH PARLIAMENT
16 ELIZABETH II
VOLUME II, 1967
COMPRISING THE PERIOD FROM THE SIXTH DAY OF JUNE, 1967, TO THE SEVENTH DAY OF JULY, 1967, INCLUSIVE.
INDEX ISSUED IN A SEPARATE VOLUME
27053—762
ROGER DUHAMEL, F.R.S.C.
QUEEN'S PRINTER AND CONTROLLER OF STATIONERY OTTAWA, 1967
1185
HOUSE OF COMMONS
Tuesday, June 6, 1967
