 at 3.30 p.m.
Prayers
The SPEAKER laid before the House two returns (Sessional Papers No. 8 and No. 15). Members presented several petitions, and routine reports from the Committee on Immigration and Colonization, and the Joint Committee on Printing, were received.
* * *
BILLS INTRODUCED
Mr. HARRISON introduced a Bill to extend the law as to carrying dangerous weapons. The Bill was given first reading.
Mr. DREW introduced a Bill respecting County Court Judges.
Mr. MACKENZIE asked for explanations.
Mr. DREW said that under the Common Law Procedure Act of Ontario there was a provision that Superior Courts could refer matters of account to the Common Court Judges to decide by summary procedure. The object of the Bill was to declare that they had no right in cases of that kind to make any charge, as they sometimes did at present.
Hon. Mr. McDOUGALL (Lanark North) said if that was the object of his hon. friend’s bill, there was no necessity to introduce it. If there was no right to make such charges, there was no necessity for legislation in that direction. If a County Court Judge should make an illegal charge, and anyone should be foolish enough to pay it, that was a matter that could easily be disposed of.
Hon. Sir GEORGE-E. CARTIER said that the hon. member would bear in mind that the Judges were paid by the Dominion, and must be dealt with by this Parliament. If the Judges received anything beyond their salaries, it must be either legally or illegally. There would be no harm in discussing the matter and it might be as well to allow the hon. member to introduce his measure.
The Bill was read a first time; second reading, on Thursday.
Mr. OLIVER introduced an Act to amend the Patent Act of 1869.
The Bill was given first reading.
* * *
EAST HASTINGS
Hon. Sir GEORGE-E. CARTIER moved that a new writ be issued for an election in the East Riding of Hastings, to return a
member in place of the Hon. Robert Read, who has been summoned to the Senate.
* * *
HON. MR. GRAY’S REPORT
Hon. Sir GEORGE-E. CARTIER laid before the House the preliminary report of Mr. Gray with regard to the manner in which to carry out as much as possible the provisions of the British North America Act, by which it was provided that the property and civil rights laws in the Provinces of Quebec, Nova Scotia, and New Brunswick might be assimilated. The report submitted to the House, he said, was merely preliminary—to precede the appointment of a Commission with the object, if it should be thought proper, that the proceeding should be hereafter adopted. He might say at the outset, that this report must necessarily be productive of great good, it mattered not whether the assimilation took place or not.
Mr. MACKENZIE hoped the hon. member would not proceed with the discussion before the document was laid before the House. He did not believe it would be productive of the slightest good. He believed it was a vile job from beginning to end. (Cries of “Order.’’)
Hon. Sir GEORGE-E. CARTIER was sorry that his hon. friend had interrupted him. He was simply explaining the object of the report, nothing more. It was his duty to do so.
Mr. MACKENZIE: Oh, yes; I have no objection to that, but I do object to the hon. member characterizing it as an excellent report.
Hon. Sir GEORGE-E. CARTIER: I have a perfect right to say so.
Mr. MACKENZIE: Then I raise a point of order.
Hon. Mr. HOLTON: If the hon. member on the other side of the House has a right to make a speech, so have I.
Mr. MACKENZIE: I doubt very much if he has ever read it. (Laughter.)
The report was laid on the table, and the discussion was dropped.
* * *
CORRECTION
Mr. FORTIN wished to correct a mistake in the report of his speech on the fisheries question, which appeared in the Times. The printers had made him to say, ‘‘And, therefore, if any of our fishery rights are to be given up, a policy I am now prepared to
COMMONS DEBATES
52
February 27, 1871
recommend.’’ (Laughter.) It should be, ‘‘I am not prepared to recommend.’’ (Renewed laughter.)
Mr. MILLS: It is too bad to cheat the hon. member out of his T. (Laughter.)
* * *
DEATH OF E. GOULET
Mr. MASSON (Soulanges) asked whether the Government is aware that one Elzear Goulet, a Metis of the Province of Manitoba, met his death in the month of September last in consequence of assault or threats of assault, on the part of certain volunteers or soldiers forming part of the Military Expedition to the North West, and if so whether the Government had been put in possession of any documents, or other papers relating to an investigation, or to any other proceedings with a view to the discovery, trial or conviction, of the person or persons suspect of having been the cause of the death of the said Goulet.
Hon. Sir GEORGE-E. CARTIER replied that the papers on the subject would form part of those moved for in connection with the North West Territory.
* * *
NEW BRUNSWICK ELECTORAL DISTRICTS
Mr. BOLTON asked whether it is the intention of the Government to introduce this Session a measure for the readjustment of the Electoral Divisions or districts in the Province of New Brunswick, the present division having only been claimed as temporary, and being at complete variance with the principle of representation by population.
Hon. Sir GEORGE-E. CARTIER said it was not the intention of the Government to alter the electoral divisions. After the census there would have to be a reappointment of the representation.
* * *
ARBITRATION
Mr. GODIN asked whether it is the intention of the Government to treat the decision of the Hon. Messrs. Gray and McPherson, bearing date the 3rd September, 1870, in their capacity as Arbitrators appointed under Section 142 of the British North America Act, 1867, as a legal decision of the Arbitration Commission appointed in conformity with the said section, and in case the Government should treat the same decision as null and illegal, whether it is their intention to take steps to secure the consent of the Provinces of Quebec and Ontario, for the appointment of a new Arbitration Commission, and failing such consent whether it is the intention of the Government to take legal means to create a new Arbitration Commission.
Hon. Sir GEORGE-E. CARTIER said the Government intended to inform the House by Wednesday or Thursday of its purpose in relation to the Arbitration question. (Cheers.)
INTERCOLONIAL TERMINUS
Mr. FOURNIER asked whether it is the intention of the Government to make the terminus of the Intercolonial Railway at Levis, so as to avoid the useless circuit it would be necessary to make in order to reach it by using the line of the Grand Trunk.
Hon. Mr. LANGEVIN replied the subject had been submitted to the Department of Public Works at different periods; but the Government had come to no decision about it. A correspondence took place between the town of Levis and the Government two or three years ago on the subject, which had been laid before the House.
* * *
DOMINION-PROVINCIAL ACCOUNTS
Mr. DREW asked: Have the Government made out an approximate statement of the result of the accounts between Canada and each province, on Feb. 1st, 1871, adjusted on the footing of the award?
Hon. Sir GEORGE-E. CARTIER: The Government had made no such statement.
* * *
SALE OF STAMPS
Mr. OLIVER moved for a return of the amount paid, etc., for the sale of postage stamps for the year ending June 30th, 1870.
Hon. Mr. MORRIS asked what information the mover wanted. Was it merely as regards postage stamps or those and others?
Mr. OLIVER: Postage Stamps.
Motion carried.
* * *
NEW BRUNSWICK CLAIMS
Hon. Mr. CONNELL moved for correspondence between the Dominion Government and that of New Brunswick relative to its unadjusted claims. He stated that a very great deal of dissatisfaction existed in New Brunswick in consequence of the non settlement of that account. Whether the Dominion or the Local Government was to blame he could not say. So strong was the popular feelings on this subject that at the last elections, some of the Members lost their seats, and others were placed near the foot of the poll. While Quebec and Ontario had their claims settled, those of New Brunswick had been delayed from time to time. He wanted to know
COMMONS DEBATES
February 27, 1871
53
the cause of the trouble and bickering on this subject. If necessary the House had power to alter the Union Act, and meet this case fairly and equitably. No doubt it would be agreed to by the British Government. He recommended broad, liberal legislation, to render justice to all parts of the Dominion and abolish sectionalism.
Hon. Mr. TILLEY had no objection to lay the papers before the House. If, in the language of the member for Carleton, they would enable us to know ourselves, we should be under great obligations to the hon. member for having moved them.
* * *
DOMINION OFFICIALS HIRED BY PROVINCES
Mr. GODIN moved for the names of persons employed by the Local Governments in connection with the Commission of Arbitration on the subject of the public debt of Quebec and Ontario. He said he understood an officer of the Dominion Government had accepted payment, $1,000, from the Ontario Government for statements or calculations furnished for use in the arbitration.
Hon. Sir GEORGE-E. CARTIER said the Government knew nothing of it—at least, he did not. He recommended the withdrawal of the motion, as there was little information to furnish, and no objection to give such as they possessed.
Mr. MACKENZIE said it seemed to him to have been a very unfortunate and indecent proceeding for one of the chief officials of the Ottawa Government to allow himself to be placed in the opposition of the paid officer of a Government contesting matters of account in relation to the arbitrators. It had a tendency with other incidents connected with the arbitration to bring it into contempt when we found one of the chief officials of the Dominion making himself a party to a case in this way. He thought the House ought to interject its opinion against such an intermission of duty for the future, and to ascertain whether Ministers were disposed to defend such conduct. The Minister of Militia pleaded ignorance of the matter: but everyone knew the Ontario Government acknowledged having paid this sum of $1,000. This state of affairs ought not to be allowed to continue. As a member representing to some extent the public opinion of Ontario, he felt bound to protest against such conduct on the part of Dominion officers. (Cheers.)
Hon. Sir GEORGE-E. CARTIER again protested he knew nothing of the matter. He had never read the budget speech of the Finance Minister of Ontario, because it was too long. (Laughter.) Every day we learned something new, and today such had been his experience.
Hon. Mr. CHAUVEAU said if any of the employees of the Government of the Dominion were required before this arbitration, when they pretended they were approached by that capacity, they should not have acted without the permission of that government; and if they had thought such officials should have gone—an
opinion he thought they should not have held—they should have paid them themselves. The officials should not have been paid by the Ontario Government. (Hear, hear.)
Hon. Sir A.T. GALT said that he thought there could be no question that gentlemen in the public service had no right to give their services at the request of any other parties whatever, and that any information desired by the Local Governments at the hands of the Government of the Dominion ought to form the subject of an official communication, and he thought that the proceeding in question, if it had occurred, was extremely irregular.
Hon. Mr. GRAY said no officer of the Dominion Government had been examined before the arbitrators except the Auditor General.
Hon. Sir A.T. GALT said no officer of the Government had a right to give his services at the request of any party, whether Government or individual.
Mr. BLAKE thought there was a peculiar impropriety in an officer of the Dominion Government acting in connection with the Arbitration question, and even in any service whatever on account of the Local Governments, and he was surprised that such a service should have been performed by Mr. Simpson, and still more so that it should now be stated that the head of the Department was not aware of his having done so, and of his having received payments for having done so.
The motion was carried.
* * *
FORMS OF RAILWAY RETURNS
Mr. BLAKE then moved an address to His Excellency for copies of orders or directions made at any time under the Railway Act as to forms in which returns thereby required should be made
up.
The motion, seconded by Mr. MACKENZIE, was put and carried.
* * *
RAILWAY RETURNS
Mr. BLAKE then moved an address to His Excellency for copies of returns made by each Railway Company under the Railway Act of the late Province of Canada and the Railway Act of 1868, by which it is provided that each of the Companies affected thereby shall in January and July in each year make a true and particular return of accidents and casualties, whether to life or property. He said that many accounts had lately been heard of the unfortunate condition of one of the Railways in this country. On the one hand reports were made as to the very great irregularity which had occurred, and as to the very great number of accidents which had taken place, and as to the great amount of damage done, while on the other hand the most decided statements were made the other
COMMONS DEBATES
54
February 27, 1871
way. It was, however, certain that the public mind had been alarmed. It had been alleged that such reports were calculated to divert traffic from the Railway and injure it, and that such had already been the result, and he thought that it was very important that the truth of the matter should be ascertained by the production of the returns for which he had moved, so that the public mind might be soothed and the matter placed in a proper light.
The motion was carried.
* * *
HALIFAX PROVINCIAL BUILDING
Mr. YOUNG said that he understood some correspondence had taken place between the Dominion Government and that of Nova Scotia in regard to the Provincial Building at Halifax, and, in fact, that there had been a very spicy dispute between the two Governments on the subject, and he thought it very desirable that the papers should be laid before the House, especially as one of the leading organs of the Government had alluded to the matter in defence of the position taken by the Dominion Government. He therefore moved an address to His Excellency for copies of all correspondence on the subject.
Mr. SAVARY desired to call attention to the fact that he had on the notice paper a motion on the same subject, which, he thought, would meet the matter more fully than that moved by Mr. Young. It was well known that a dispute existed between the two Governments on the subject, and, in fact, a statement of the matter had been printed and largely distributed throughout Nova Scotia. As far as he understood the matter, the Local Government charged that of the Dominion with unjustly retaining the sum of about sixty or seventy thousand dollars, and whatever might be the facts of the case, there was no doubt that the Local Government was making a great deal of it, and it was therefore a proper subject for discussion in that House, in order that some conclusion might be arrived at— and that it might be ascertained to what extent the Local Government was correct. He would therefore ask Mr. Young to withdraw his motion in order that he might make a more comprehensive one which would place the matter more fully before the House. He would move for the production of all papers connected with the matter including a statement of all monies paid on account of the building in question.
Mr. YOUNG said he had no objection to Mr. Savary making an addition to his motion so as to include the information he desired but he thought it would be better that his (Mr. Young’s) motion remain, when Mr. Savary’s should come up in proper course.
Hon. Sir FRANCIS HINCKS said that on the part of the Government there could be no possible objection to let the motion pass. He thought the whole question lay in a nutshell as by an Act passed on the 22nd of June, 1869, which, however, the Government of Nova Scotia considered unconstitutional, it was provided, by clause 3, that Nova Scotia should from the date of the completion of the new Province Building be debited in account with Canada at the
rate of 5 per cent per annum until it should be placed at the disposal of the Dominion and he, as Minister of Finance, had been obliged to see that that provision was carried out. The Government of Nova Scotia, however, refused to make over the building except on certain conditions, which could not be entertained as there was a further clause in the Act, which had emanated from the hon. and learned gentleman from West Durham and had been assented to by the House, stating that the provisions made by that act should be taken in full settlement of all demands of Nova Scotia on Canada, and he might add that the Government had been most careful not to commit itself in the matter, and they had not the least objection to the production of the papers.
Mr. MACKENZIE said he supposed the hon. gentleman meant to say that the Government had been most careful not to commit themselves by taking shelter under the provision moved by his friend from West Durham, so that when any election or anything of that sort comes, they could say that they had not committed themselves, and so make an attempt to gain popularity.
Hon. Sir FRANCIS HINCKS did not think it was possible to treat the matter as a matter of account, but he thought it would be quite competent for the Government to come down to the House and ask them to vote the amount if legally due to the Province of Nova Scotia.
Mr. SAVARY then said that he would move an amendment of Mr. Young’s motion, for all papers in connection with the matter, and for a statement of all monies expended on the construction and completion of the building, and of all monies paid to the Government of Nova Scotia under 32, 33, Vic., Cap. 2. He was not aware that the Government of Nova Scotia claimed that the statute to which the Finance Minister had referred was unconstitutional, but they claimed that the third section had no reference to money expended by the Local Government on the completion of Provincial buildings since July 1st, 1867, and that the money so expended should be reimbursed by them. He did not charge the Dominion Government with any intention of keeping back anything to which the Local Government was entitled, but he thought the subject was a fair one for the consideration of the House as it had been much agitated in Nova Scotia, and it was very important, therefore, that it should be considered and decided by the Dominion Parliament. The Local Government claims, in fact, that the Dominion Government has paid to the Province similar claims and demands, and that as the money had been expended subsequently to the lst July, 1867, they had a just claim to reimbursement—and indeed he had been informed that a distinguished member of the Opposition in that House had given a strong opinion that the Local Government was entitled to the amount.
Hon. Sir A.T. GALT thought it was necessary that the House should have the papers before it, before it could pronounce intelligently on the matter, but from the statements of the mover of the amendment, the Nova Scotia Government seemed to have a fair claim to re-imbursement of money expended since Confederation, and it seemed a case in which, though the terms of the Act seemed
COMMONS DEBATES
February 27, 1871
55
to prevent the payment, the Government might find it necessary to change the terms of the Act.
Hon. Mr. HOWE thought that when the papers were brought down the matter ought to be discussed fully and settled finally, but he deprecated any discussion under the present circumstances.
Hon. Mr. DORION had no recollection that anything had been said respecting this claim on the occasion of the discussion on the subsidy to be paid to Nova Scotia.
Hon. Mr. TUPPER agreed with his hon. friend the Secretary of State for the Provinces that the more appropriate time for discussing the question would be when the papers had been brought down, but he thought the member for Digby had fallen into the fallacy which had misled the Local Government, and as the late Finance Minister had sanctioned that fallacy by his opinion, he thought it right to state the grounds on which the Government had acted in the matter. The claim of the Local Government to the payment of the $66,000 was founded on the fact that they state that after July 1st, 1867, they paid out of their revenue that $66,000 towards the completion of the building, and that it was therefore unjust to include that amount in their debt, or to charge them with interest. The Minister of Finance had already stated that when the Act was passed voting a large additional amount to Nova Scotia, that Act was burdened by a clause that until the building was surrendered, the Government should charge five per cent on the cost of the building. He held that there was no discussion between the $122,000 paid on the building before Confederation and the $66,000 after Confederation, and he would be delighted if his hon. friend from Sherbrooke would by the weight of his great financial knowledge, support the view that all contracts made by the old Governments were the property of the Government making the contracts, for every one would remember that at the time of Confederation they were building a railroad from Truro to Pictou, and that large sums of money were paid after the 1st of July, 1867, by the Dominion Government in the same way that money had been paid on the completion of the building at Halifax.
Hon. Sir A.T. GALT said that in one case the money had been paid by the Dominion Government and the other by the Provincial Government.
Hon. Mr. TUPPER said that he need not tell the House that he would be the very last to stand in the way of a payment to Nova Scotia, but he thought the House should understand this matter. Under the Union Act every contract that was made by any of the Provinces in relation to Public Works became the property of the Dominion on the 1st July, 1867, but was it to be charged to the Dominion under the Act? The Act provided that while the Dominion should be responsible for the payment, every dollar should be charged to the debt of the Province that contracted the work. The Union Act provided also that every officer holding office under the Local Government on the 1st July, 1867, became, in relation of every matter that came under the control of the Dominion Government, the officers of the Dominion, and therefore the Commissioners to build the Provincial Building at Halifax became in reality the Commissioners of the Dominion, and he held
that in reality the building became the property of the Dominion Government at Confederation, but Nova Scotia having declared its intention to complete the buildings its debt is $66,000 less than if the money had come out of the Dominion purse. As the matter had thus been brought before the House, he thought it right to state what had been the difficulty placed in the way of the Dominion Government; but, he should only be too glad, for the sake of Nova Scotia, if the opinion of his hon. friend from Sherbrooke should obtain.
Hon. Sir A.T. GALT said that after what had been said by the hon. gentlemen from Cumberland, he thought they should certainly wait until they got the correspondence.
Mr. SAVARY’S amendment was then put and carried.
* * *
HUDSON BAY COMPANY
Mr. YOUNG moved for an address to His Excellency for correspondence between Hudson’s Bay Company and Government of Canada touching non-payment of purchase money for extinguishment of claims on North West Territory, &c. He thought it was advisable that all the correspondence in relation to the Hudson’s Bay Company, and their losses at Red River, should be brought down.
Hon. Sir GEORGE-E. CARTIER replied all would be laid before the House with the papers, as well as a claim from the Hudson’s Bay Company, in accordance with a motion of the hon. member for South Oxford the other day.
Mr. YOUNG said that the motion had no reference to the general correspondence with the Hudson’s Bay Company, which he wanted produced.
Hon. Sir FRANCIS HINCKS said that all the paper would be brought down.
Mr. YOUNG then withdrew his motion.
* * *
INDEPENDENCE OF PARLIAMENT
Mr. BLAKE seconded by Hon. Mr. HOLTON, moved the following resolution: ‘‘That in the opinion of this House it is inexpedient that any member of this House should for the future be engaged in the service of the Government of Canada in any paid employment, such as that in respect of which the Hon. Mr. Gray, member for the city and County of St. John, in 1868, entered into the receipt of three hundred dollars a month of the public monies.’’ He said the events connected with the transaction to which he referred were fresh in the public mind, and it had become the general impression that greater stringency was required to secure the independence of Parliament, without which members hold their
COMMONS DEBATES
56
February 27, 1871
seats, not for the purpose of representing the people but of enabling some few persons to govern them in spite of their wishes. Shortly after the first session of this present Parliament, the Act, miscalled a Bill, to establish the independence of Parliament, was introduced, and in spite of the protest of the Opposition it became law in its present objectionable shape. It was passed in the shape, that while it acknowledged the independence of members of this House, was likely to be sapped by a yearly salary, fee or emolument from the Government, it would not in the least be interfered with, only if the fee or salary was not annual. That was the distinction, that the independence of a member who was employed by the year at a yearly salary would be interfered with, but the independence of the member who was employed for two years at a two years’ salary or by the month at a monthly salary, would not be interfered with in the least. He agreed with the hon. members opposite that there was a distinction between them, but it had always appeared to him that the distinction was in favour of the man who was employed yearly, for then he might maintain his independence, but if employed by the month, he would be the more submissive servant.
The Opposition had endeavored to prevent the law from passing in that shape, but were defeated. On subsequent occasions, when appointments were made which they considered objectionable, they protested against them but were defeated, and now, when this Parliament was about to close, and there had been ample evidence afforded of how badly the act worked, he ventured to appeal to the House to reconsider the question and to determine, guided not merely by reason, but by experience, that it was not expedient in future that a person in receipt of such emolument should have a seat in this chamber. There were instances of the fact that a man need not have a long engagement, and yet remain a long time employed. The case to which he desired to apply a remedy was one in which a man held office for nearly if not quite two years. The hon. gentleman received large sums—sums which he thought would stagger the House when their attention should be called to them. For about two years the hon. member for St. John, while holding a seat in this House, received from the public funds as Commissioner, or in the employ of the Minister of Justice in the codification of the laws; or in some work for the Government, $3,600; no, not that, only $300 a month, which was equivalent to that amount per year, realizing for the two years a total of $7,200. Then as arbitrator $4,400 was paid him. He received what each member got, a sessional allowance of $600 per year; $1,200 for the two years. And there was the mileage too, the earned mileage amounting to $584. The hon. gentleman received from the Government, then, in various ways, a total sum of $14,484, while a private member of Parliament.
He (Mr. Blake) would contrast this with the salary of a Crown Minister. The yearly salary of a Cabinet Minister was $5,000, which with mileage amounted to less in two years than the amount received by the hon. member for St. John within the same time. It was time that there should be an end of this system. The House should solemnly declare that it had not conduced to the independence or the dignity of this Chamber, that its members should have been in the pay of the Ministry of the day, whether that pay were weekly, monthly or yearly. It did seem to him that there
were plenty of gentlemen quite competent for the purpose of the Government, and to such men it should be left, or that hon. members who wished to pick up these crumbs from the public table should resign their seats in the House. It seemed to him that the Act recognized, but in the wrong way, that the distinction between monthly and yearly hire had produced injurious results and should be amended for the future. He had no desire to make personal attacks on any hon. gentleman, but when the hon. member from St. John sat in this House holding an office of emolument under the Government, he should expect such criticism. He had no objection that the hon. member should be employed. He understood today that the hon. member had ceased to be employed. He (Mr. Blake) was glad of it, for it now left the House clear of this case, and for his own part he could say sincerely that he desired if the hon. member wished to be employed in the public service, that he should receive such share of the patronage of the House as he was fit to earn—always on condition that the hon. member ceased to hold a seat in this House while so employed. Long might his gallant bosom swell, long might his waistcoat pocket fill with the streams from the treasury benches, but not while he represented the people here. (Laughter.) He (Mr. Blake) submitted his motion on which he proposed to found a Bill to carry out the great reform which was so much needed.
Hon. Sir GEORGE-E. CARTIER said it ought to be fresh in the memory of every hon. member in the House, the circumstances under which the present Bill was passed. The old Parliament of Canada had had ample experience of the Independence of Parliament Act to which the hon. member for Durham West had alluded. It had been amended from time to time till it had reached a state of perfection which commended it to the inhabitants of the late Province of Canada. He thought that Act worked well. On several occasions the members of the successive Governments which held office before the Confederation had often felt it too stringent when the services of the hon. members were required for special purposes for which they were fitted. It had only been adopted after a long discussion, and it was afterwards deemed expedient to strike out the word ‘‘temporary’’ in order that the Government should not be deprived of the advantage which might be derived from employing hon. members in such cases. If his memory served him right, there was no division on that amendment in this House. Its necessity was felt by all. Quite recently, under Mr. Gladstone’s government, Sir Stafford Northcote had been asked to act as Commissioner at Washington, and the Parliament were not opposed to it. It was not considered by any member that such a proceeding was like bribery which might be calculated to degrade a member of the House. There was a circumstance which came to his (Hon. Sir George-E. Cartier) knowledge when he was in England in 1858. The Government called on Mr. Gladstone, who was in the Opposition, to investigate matters which took place at the Ionian Islands. He would tell the hon. member for Durham West and the House that when the Independence Act was passed in this House in 1868, there was no intention on the part of this Government to obtain any privilege which had not been already enjoyed by the English Government. We had the same privilege given by Parliament. Government is not to be deprived of the temporary services of hon. members of the House who may be peculiarly fitted for certain
COMMONS DEBATES
February 27, 1871
57
services under the law of the land, and he wanted the country to understand that he had not acted in regard to these appointments in the way the motion of the hon. member for Durham West seemed to point out. He would tell that hon. member that the Government had considered the question, and that they were going to bring down a measure with regard to the Act passed in 1868 in reference to the independence of Parliament to amend it in such a way as to bring it in as it was formerly under the legislative system in the late Province of Canada. (Hear, hear.) He hoped his hon. friend would not press his motion; if he did so, he (Hon. Sir George-E. Cartier) would introduce an amendment that would carry out his views on the matter.
Mr. MACKENZIE said it was somewhat remarkable, after the experience the hon. gentleman had, that he should so have gone against the motion; and that he proposed the cheap expedient, in other words, he proposed to do exactly what his hon. friend from Durham West wanted; and yet at the same time he wanted to strangle him. If he would say that he was open to pursue the wrong system, and he (Mr. Mackenzie) would allow that fact—yet he objects to the motion of the hon. member for Durham West. In relation to what passed when this Act was under discussion, if the Hon. Minister of Militia would remember he would find there was a division. He did not like to make a motion that was painful to any member, or to mention the name of the member for St. John,—but that motion was opposed by the Government, and at the last session only eight votes defeated it. So the hon. gentleman could not say he had large portions supporting him from the opposite side of the House. At the same time the system which had been adopted was a disgrace to this Legislature.
Mr. SAVARY said he was about to move all the words in the resolution after ‘‘employment’’ be struck out. He could not see, whatever feeling the hon. member for Durham West might have in the matter, now that the term of employment of the hon. member for St. John had ceased, why that gentleman should be referred to in particular, or why an ungracious allusion to any hon. member in this House, should be allowed to go on the journals in such a manner. He thought the views of the hon. member for Durham West would be met, and the resolution would have a wider and more effectual scope if amended as he (Mr. Savary) proposed. He was not opposed to the principle which the hon. member desired to lay down where the employment of any hon. gentlemen was similar to that alluded to. He could not see why the House should limit the resolution to one case. He should prefer to apply it to all cases. He therefore moved that all the words in the original resolution after the word ‘‘employment’’ be struck out.
Mr. BLAKE said that is the same thing; make it six or eight months at once.
Mr. BOWELL said the motion now in hand was a correct one, and he was glad to hear the Minister of Militia say it was intended to alter the Independence of Parliament Act so as to exclude this class of employees. If the member for Durham West withdrew his motion, he had no objection to withdraw his amendment.
Hon. Sir GEORGE-E. CARTIER after examining the Votes and Proceedings for 1868, said the amendment proposed by the Opposition had escaped his memory. The amendment had not encountered stern opposition from the Government owing to the temper in which it was proposed, and the tone of the debate. He was sorry the member for Durham West had not agreed to withdraw his motion after the Government promised to amend the Act. They kept their word. He might take credit for forestalling the Government but they had considered the matter before.
He moved, in amendment to the said proposed amendment, seconded by the Hon. Mr. Tilley, That all the words after ‘‘That’’ in the amendment, be expunged and the following substituted, ‘‘all the words after ‘That’ in the main motion be left out, and the following substituted ‘this House will give its best consideration to any measure that may be introduced, having for its object the further securing the independence of Parliament,’’ inserted instead thereof.
Mr. MILLS said the main motion was important. The reasons existing for the exclusion of the parties mentioned in the Act of 1868 were as strong against the employment of parties not thereby excluded as to the English Act securing the Independence of Parliament; what was necessary there would not suffice for the same object in Canada. The members in this country were of different circumstances from those of the English members, who were a plutocracy. Our position being different from that of the English people, in this respect, demands different safeguards. Our Governments should not be able to employ members of Parliament. It was no longer possible to influence English as it was Canadian members. What has happened within the last two years to give the Government information it did not before possess? Was there any Commission or event apart from the Intercolonial Commission or the Arbitration within this period to instance in support of a new policy apart from those mentioned in the motion. The Government’s course was not unselfish. They had lost influence, and having a prospect of some being kicked out of office, did not like their successors to possess the advantages in the way of patronage have possessed by themselves. He argued there was no good reason against the motion.
Hon. Mr. CAMERON (Peel) contended the Act did not apply to the member for St. John, and that the Government had power to appoint him on the Commission. If his case had come within the Act a motion might have proposed to make him vacate his seat. He did not clearly understand the object of the motion. If it was intended to change the whole character of the Act, and restore it to its old condition that was one thing, or if it was intended merely to embrace a particular case, that was another. Neither did the Minister of Militia clearly explain what course the Government intended. No doubt a large sum had been disbursed under the arrangements aimed at by the resolution. Yet, in England larger sums still had been paid by Governments to Commissioners like the member for St. John, and even to gentlemen selected out of opposite parties. Dr. Bowring received for a period of service not longer than that of this hon. gentleman, upwards of eleven thousand pounds sterling. Franklin Lewis and Mr. Blackburn, when chairman of like
COMMONS DEBATES
58
February 27, 1871
Commissions, received large sums, and Mr. Cobden was paid a good deal of money for his labours in connection with the French treaty.
At this moment there were more than forty members of the English House of Commons receiving emoluments for services. When Mr. Gladstone went to the Ionian Islands his expenses reached within a fraction of 2,000 pounds. Sir Stafford Northcote had been appointed a member of the Joint High Commission by the Government of the party opposed to his own. It might be said these appointments in Canada were daring attempts to corrupt members; but they had the usage of the Imperial Parliament for a course adopted by the Liberals as well as the Conservatives. If the act here was to be changed, Parliament ought to be informed in what way, and whether it would affect parties receiving monthly salaries so far as the hon. member particularly affected by this motion was concerned. The item paid him came down and received the sanction of Parliament, and that having been done, if a change had been made at all, it must have been made without the slightest reference to him. We had now from the Minister of Militia a promise that the Act was to be amended, but how it was to be amended, we were not told.
It being six o’clock, the House rose.
AFTER RECESS
Mr. MASSON (Soulanges) always understood that the intention of the law was to prevent sitting members from accepting salaries for services. It was argued that the law applied only to parties receiving yearly salaries. He believed, however, the Act ought to be amended so as to prevent the acceptance of salaries or payments by members for services rendered. But as the law stood, he thought the Government had acted regularly. As the Government promised to amend the statute, he would vote against the amendment of the member for West Durham.
Hon. Mr. WOOD said it was quite true that members of Parliament in England were often selected for service on comissions, and paid for their labours, and that Ministers frequently chose political opponents without its being considered that their subsequent votes were thereby likely to be influenced. It would appear, however, from the position of parties in this country that such may not be the case; and if it were true that it was necessary to the independence of Parliament that persons who had a yearly salary by virtue of a Commission from the Crown were incapacitated from the supposition that they might be under the influence of the Government of the day—if it were necessary to have such a provision to protect the independence of the members of the House—a fortiori—it must be necessary to protect that of members employed casually and paid from day to day or month to month. There were on two occasions he had cited in support of the view that it was contrary to the spirit of the Independence Act that
persons should occupy that position. He voted, however, against the proposition of the member for Durham West, which went far beyond the substance of the proposition contained in the present main motion.
He had included in his former motion many persons not holding office under the Crown in Canada, but holding office under the Crown in any portion of Her Majesty’s Dominions. Certainly, persons in the different provinces, like himself, holding office under the Local Government were included in the motion. He could not vote for the present motion. He thought he detected as its motive a spirit of malevolence, not creditable to any hon. gentleman whether in or out of this House. He saw no difficulty in the mover attaining his end in a way different from the present, without attempting to fix upon the journals an imputation of infamy in connection with an hon. gentleman. Far better to have introduced a motion affirming an abstract principle of universal application, such as, that it was inadvisable a sitting member should be appointed to a position of emolument by the Government of the day. He would vote against the motion and for the amendment of Hon. Sir George-E. Cartier. The other amendment was faulty with reference to monthly payments and employments. The principle desirable should prevent the Government from employing any one in any service in which he got pay.
Mr. BLAKE after replying to some personal allusions in the speech of Mr. Wood, noticed that it would have been better to have proposed an abstract principle without the illustration. He said he would have been delighted if he thought he could have carried it without the illustration. His opinion, and he thought this might have proved it, that the best way of carrying an abstract principle was to impress on the House the importance of it by embodying in the resolution the illustration of its importance. If his motion had been framed in any different way, he would not have been met by the proposition of the Government to concede the sense of his motion, against which they had voted three sessions. He was not disposed, holding he had put on the journals an admirable resolution, which could not be amended either in matter or manner, to prevent the House from pronouncing on the principle of it as it stood, in favour of the milk and water amendment of Hon. Sir George-E. Cartier. It did not commit the House or Government to the passage of any measure but merely promised to consider any measure brought down. He declined altogether to exchange his straightforward, plain resolution, affirming an indisputable principle, for the amendment of the Hon. Minister of Militia, which meant nothing at all. He would ask that the votes of the House be recorded.
A division on the amendment of Hon. Sir George-E. Cartier: YEAS
Messieurs
Archambault
Ault
COMMONS DEBATES
February 27, 1871	
Barthe	Beaty
Beaubien	Bellerose
Benoit	Bertrand
Blanchet	Bown
Brousseau	Burpee
Cameron (Inverness)	Cameron (Peel)
Caron	Cartier (Sir George-E.)
Cayley	Chauveau
Chipman	Coffin
Colby	Costigan
Dobbie	Drew
Dunkin	Ferguson
Fortin	Gaucher
Gaudet	Gendron
Gibbs	Grant
Grover	Harrison
Hincks (Sir Francis)	Holmes
Howe	Hurdon
Irvine	Jackson
Keeler	Killam
Lacerte	Langevin
Lapum	Lawson
Little	McDonald (Antigonish)
McDonald (Middlesex West)	Masson (Soulanges)
Masson (Terrebonne)	McDougall (Trois-Rivieres)
McMillan	Morris
Morrison (Niagara)	Perry
Pickard	Pinsonneault
Pouliot	Ray
Renaud	Robitaille
Ross (Champlain)	Ross (Dundas)
Ross (Victoria)	Ryan (Montreal West)
Savary	Shanly
Simard	Simpson
Smith	Stephenson
Street	Sylvain
Tilley	Tourangeau
Tupper	Walsh
Webb	Willson
Wood	Workman
Wright (Ottawa County)—(83)	NAYS
	Messieurs
Bechard	Blake
Bodwell	Bowell
Bowman	Cameron (Huron South)
Carmichael	Cartwright
Cheval	Cimon
Connell	Coupal
Crawford (Brockville)	Delorme
Dorion	Dufresne
Ferris	Fortier
Fournier	Galt (Sir A.T.)
Geoffrion	Godin
Hagar	Holton
Joly	Jones (Leeds North and Grenville North)
Kempt	Macdonald (Glengarry)
59
MacFarlane	Mackenzie
Magill	McCallum
McConkey	McDougall (Lanark North)
McMonies	Mills
Moffatt	Morison (Victoria North)
Munroe	Oliver
Paquet	Pelletier
Pozer	Redford
Ross (Wellington Centre)	Rymal
Scatcherd	Scriver
Snider	Stirton
Thompson (Haldimand)	Thompson (Ontario North)
Tremblay	Wells
White	Whitehead
Wright (York West)	Young—(58)
The vote on the amendment to the original question, as amended, was carried by the same division; and the main question, as now amended, was carried, again on the same division.
* * *
DISALLOWANCE
Mr. BLAKE moved an address to His Excellency for copies of correspondence between the Imperial and Canadian Governments and between the Governments of Canada and any of the Provinces touching any Acts of the Legislature of Canada or any of the Provincial Legislatures. He explained that the object was to ascertain which of the Acts of any of the Legislatures had become the subject of comment on the part of the Imperial authorities with regard to disallowance or amendment.
The motion was carried.
* * *
FENIAN RAID CLAIMS
Mr. MACKENZIE then moved an address for copies of correspondence of the Canadian with the Imperial Government concerning the claims of Canada against the United States, arising from the Fenian raids, together with copies of all Orders in Council and documents relating to the same. The House had been informed a few days ago, that there was such correspondence, that a certain account had been sent to the Imperial Government, and he moved for the papers so that the House might see the exact position of the matter.
Hon. Sir GEORGE-E. CARTIER said that he thought when the hon. gentleman, considered the delicacy of the matter, the fact that the correspondence was not entirely closed, he would see the propriety of his motion, and on behalf of the Government he must state that they did not feel justified in bringing down the papers asked for, as they did not think it would be conducive to the public interests.
COMMONS DEBATES
60
February 27, 1871
Mr. MACKENZIE very much regretted that the Minister of Militia had taken the grounds he had taken, as the House had been distinctly led to believe that at least a portion of the correspondence would be brought down.
Hon. Sir FRANCIS HINCKS: Certainly not. No one did.
Mr. MACKENZIE: The hon. gentleman ought not to be too positive in contradicting statements. He had certainly understood that some of the papers would be brought down, and when it had been said that the statement in question had been made and sent in, he had given notice that he should ask for the papers, and now when he made the motion he was told by the Minister of Militia that it would not be conducive to the public interests that the statement should be brought down. Of course, as the Ministry had assumed the responsibility of making that statement he should not divide the House, but he must protest against every request being met with such an answer. Part of the proceedings had already been published, and if they waited a few days they might find the remainder in an Imperial Blue Book. Surely it was not a matter of no consequence that the people should know what the claims of Canada were, and the way in which the Government had urged them.
Hon. Sir FRANCIS HINCKS said he was very much astonished at the notion of the member for Lambton, and he would venture to say that the hon. gentleman could not point out a single instance in Imperial practice where papers relating to negotiations with foreign Governments had been laid before the House, and it must be seen that nothing could possibly be more injurious than such a proceeding in the present instance.
Mr. MACKENZIE said that on the contrary he would show the hon. gentleman on the morrow numerous instances in Imperial practice of papers in such cases being brought down. He might mention that in the case of the present High Commission the English Government had even furnished the newspapers beforehand, the basis on which the Commission was to proceed, and he was certainly amused to hear the hon. gentleman make such an extraordinary statement.
Mr. JONES (Leeds North and Grenville North) was equally surprised to hear such a statement from the member for Lambton, and he had good reasons for entertaining that surprise. He thought he understood something of constitutional practice in England, and could fully corroborate the statement of the Hon. Finance Minister, and wherever it had been stated that the production of any papers would be detrimental to the public interest, such production was never urged.
Mr. BLAKE said Lord Kimberley had required the Canadian Government to send a statement of the claims of Canada in respect of the Fenian raids for transmission to the American Government, and couched in such terms as would render it fit for transmission to that Government. The Canadian Government had transmitted that statement, when, he did not know, but they were told that it had been transmitted. It had been framed expressly for the purpose of
being communicated to the United States, following on that the Commission had been arranged, and was about to sit, and as there could be nothing in the statement unfit for the American Government, as it had been framed expressly for them, surely there could be nothing in it unfit to be submitted to the people of Canada. And yet they were to be left in entire ignorance of the way in which their claims had been set forth and urged, as such a proceeding ‘‘would be injurious to the public interests.’’ There was nothing confidential about the paper, nothing secret, nothing private. It was intended to be presented by the American Government to that of the United States, and he certainly thought the hon. gentlemen could not refuse to produce it on the ground of expediency in the public interests. Such a reason might apply were the whole of the papers asked for, but if the hon. gentlemen persevered in refusing the particular document asked for, he thought they were bound to give some special explanation of their reasons for doing so.
Hon. Mr. CAMERON (Peel) thought that the hon. gentlemen who had just spoken has answered his own argument. He had admitted the general principle that Ministers were justified in refusing papers, the production of which they considered would be deterimental to the public interests, and he had stated no reasons why that principle should be departed from in the present instance. It was not simply one particular document that was asked for, but the whole of the correspondence, and after the Minister of Militia had stated that their production ‘‘would be injurious to the public interest,’’ by what possible right could the House urge the matter further. They on that side of the House, took the statements of the Government, and believed them, and when the Government declared that the production of the papers would, in their judgment, be prejudicial to the interests of the country, he thought the House was bound to believe and accept the statement.
Hon. Mr. McDOUGALL (Lanark North) quite agreed with the hon. gentleman who had just spoken, that as a general rule the Ministers should judge as to the propriety of submitting correspondence, but he thought it was hardly fair to ask the House on every occasion to submit to a simple statement as ‘‘public interests’’ without a word of explanation.
It was notorious that claims did exist, there was no secret as far as that was concerned, and he thought there could be no reason for withholding particulars of the account which had been preferred, and the mode in which it had been urged. The statement might have been a very inadequate one. If he remembered aright the Premier had told them that the matter of these claims was not among those to be submitted to the High Commission. If however, the Government could tell the House that these claims would be considered by the House, by the Commission, then he could understand the propriety of withholding the papers, but under the present circumstances of the case, the members of that House as representatives of the people had a right to express their opinion as to the manner in which the claims of the people had been put forward. There might be some papers which it would be inexpedient to submit, and those might be withheld, but they certainly ought to have the statement, and though admitting the propriety of submitting to the decision of Ministers in such matters,
COMMONS DEBATES
February 27, 1871
61
as a general rule he was not one to submit to a simple statement repeated on every occasion without comment or explanation.
Hon. Mr. CONNELL thought that many additions might have to be made in the claim, and then the particular paper in question should be submitted.
Hon. Mr. WOOD said he could concur in many reasons why it might be injudicious to bring the matter before the House, although it might not be that the subject of compensation for the Fenian raids would be brought before the High Commission, yet it might be very inadvisable to make public statements which might tend to influence the minds of the people of the United States, and so very much embarrass the action of the Commission, and he was certainly astonished that men of the great experience of the members for Lanark, Durham West, and Lambton, should so earnestly press the Government to produce papers which they must see it would be most unadvisable to bring down, at the present time. Under any and all circumstances.
Mr. MACKENZIE said that not being gifted with the unusual reasoning powers and good judgment of the member who had just spoken (Hon. Mr. Wood—That’s a fact, (Laughter.) they ought to have some forbearance for him, but if the hon. gentleman was to be their political schoolmaster he feared the House would not improve in manners, judgment, or good sense.) He did not intend to divide the House on his motion, but he felt bound to protest against the course taken by the Government. As to what the last speaker had said about inflaming the minds of the people of the United States, that was beneath contempt. It was well known that the American Government had published full minutiae of the Alabama claims, and who had ever thought of its having any effect on the Canadian mind. The claims on account of the Fenian raids would have to be adjudicated on, and why should Canadians be afraid of letting the United States know what their claims were. He would, however, defer to the judgment of the hon. gentleman opposite and withdraw his motion.
Motion accordingly withdrawn.
* * *
CHAPLAIN WITH RED RIVER EXPEDITION
Mr. MAGILL said you are all aware that during the past season the people of this country had been called upon to restore law and order in the North West. Too much praise could not be awarded them for the readiness with which they had undertaken this duty. Willingly they had come forward to offer their lives a sacrifice on the altar of their country. It was well known that the Wesleyan Methodists formed one of the most numerous and respectable church bodies in this country and great discontent and dissatisfaction arose when it was reported that that body had not been treated with due respect by the Government. He hoped there was no Jonahs in the camp. He thought this was a proper time to bring this subject before the House that a prompt opportunity might be afforded the Hon. Minister of Militia to set the matter at rest. We
had no church and state in this country, and the very fact that this great advantage had been obtained by us, by hard fought battles, made us jealous of our rights. There was no such thing as any one class being put over the other. All were pleased with an equality. When the expedition was sent to the Red River last summer, some of the members of the Wesleyan body joined the expedition. It was proposed that one of the missionaries of the Wesleyan body should be sent with the forces as a chaplain. A communication was sent to the Hon. Minister of Militia asking to be allowed that privilege. The Rev. Mr. Punshon was the gentleman who, on behalf of the body, made the application. A gentleman well known as an eminent Divine, not only in this Dominion but the British Empire. The answer of the Hon. Minister of Militia, to that reverend gentleman, was said to be very uncourteous—this he could not from his knowledge of that hon. gentleman believe. The matter had however obtained so much notoriety as to be brought before the conference at Toronto. He did not stand up here as a vindicator of the Methodist body; he would do the same for any other denomination. He would move an address to His Excellency, asking for a correspondence between Dominion Government and Rev. W.M. Punshon and others, in reference to appointment of chaplain to accompany Military Expedition to Manitoba.
Hon. Sir GEORGE-E. CARTIER said he was delighted that the hon. gentleman had brought his motion before the House. Unfortunately, a member of the Government—a Minister of the Crown—was obliged to do his duty, and be silent often when assailed even in the most unexpected place. He recollected about the 17th of June last, he (Hon. Sir George-E. Cartier) made an appointment to meet the Hon. Sir A.T. Galt in Montreal, who then apprized him that the Methodist conference was sitting in Toronto; and that some extraordinary statement had been made about the appointment of a chaplain to the Red River Expedition. He was not able to find out what amount of trouble there was with regard to the chaplain for that force from his friend, Hon. Sir A.T. Galt (who was always a friend of his). The news was merely telegraphic and came from Toronto to Montreal. It was to the effect that a statement had been made in Toronto by a rev. gentleman that Hon. Sir George-E. Cartier had appropriated 1,000,000 acres for the priests and clergy of Manitoba, that he would not listen to a petition sent on behalf of the Methodist clergy, for the appointment of a Methodist chaplain to accompany the volunteers from Ontario, and, besides, he had sent twelve priests to accompany the expedition, while the poor Methodist clergyman could not obtain leave to go.
Mr. MILLS: Who said that?
Hon. Sir GEORGE-E. CARTIER said he would explain all that. He felt more surprised than any one could imagine when he learned these things, that such a large appropriation had been made, that he had sent an army of priests to accompany the expedition and had refused permission for a Methodist clergyman to go with them, and, above all, that a Methodist deputation had been discourteously received. He could do nothing more than telegraph to a colleague of his, who happened to be in Toronto at the time, to ask if it was really so, and requesting him to send a true explanation of the affair.
COMMONS DEBATES
62
February 27, 1871
He (Hon. Sir George-E Cartier) might say he felt uneasy about these false statements which had been made against him. He felt uneasy that the people of Lower Canada and the Roman Catholic clergy, who were renowned for their liberality, should imagine that he had inflicted an injustice on a body of Protestants. He felt uneasy, too, lest the Protestants of Canada should fancy that he had abused his position as a Minister of the Crown to serve the interests of a particular party or creed. As a Minister of the Crown, he knew neither Protestants nor Catholic, Upper Canada or Lower Canada. He held the position to deal impartially towards all. He might add, too, that there was no Protestant denomination amongst whom he had so many personal friends as the Methodists, in Montreal especially. Those who knew him would not believe that he could be guilty of dealing unjustly with so respectable a denomination. He was not in a position at the time to justify himself, and he was decried right and left. On his way to Ottawa he fell in with a copy of the Globe in which he saw a little article dedicated to him on the subject. It referred to a letter from Rev. W. Punshon. Until then he had no idea to what extent he (Hon. Sir George-E. Cartier) had been slandered in Toronto.
The Globe stated that no insult had been offered in the correspondence, to Rev. W. Punshon. He (Hon. Sir George-E. Cartier) then read the letter of the rev. gentleman himself, and he should have been pleased to have made the personal acquaintance of one whose letter showed him to be, not only a good Christian, but a true gentleman. In that communication, the Rev. W. Punshon had replied to some previous remark of the Globe, that the complaint against the Hon. Minister of Militia was not as stated. He continued ‘‘Our grievance against him is this: We sent in our application and received a letter of acknowledgment. Our complaint is, that, after we had received that letter, we never read another communication to tell us if our petition had been considered by the Government.’’ He (Hon. Sir George-E. Cartier) did not often keep the Globe, but he kept that copy, and determined to himself that when the discussion should be out of the newspapers, he would take it on himself to write to the Rev. W. Punshon privately, explaining the circumstances of the appointment of the Chaplain, and the reason why the correspondence which he expected had not been sent to him. The correspondence was, of course, private, and he was not at liberty to say what it contained, but he would take this opportunity to explain to the House the circumstances attending the appointment of the two Chaplains to the Volunteer Force.
By an Order in Council, passed several weeks before the departure of the troops, the number of non-combatant officers to accompany the two battalions was determined. This was gazetted. There were several applications from rev. gentlemen, both by letter and personally for the position of chaplains of the Battalions. The two gentlemen selected were Rev. Mr. Patterson and Father Ouillett. Their appointments were gazetted and anyone who wished to know who had obtained the positions could have seen it in the Canada Gazette. Subsequent to this he read a resolution which was passed at a Methodist conference in Toronto and reported by the Globe and Telegraph of that city, which were very hostile to him, he knew not why. He was, as it were a scapegoat, and they
represented him as black as they possibly could. He saw in the report of the Conference that a resolution had been actually drafted by a rev. gentleman, endorsing the most unwarrantable statements against him (Hon. Sir George-E. Cartier). In that resolution it was said that he had appropriated 1,400,000 acres to support the priests at Red River. He did not remember whether this statement had been made in the resolution itself or in the speech of the rev. mover, but at all events he (Hon. Sir George-E. Cartier) had been slandered right and left. He stated in his letter to Rev. W. Punshon that he repudiated these charges entirely, and he hoped an opportunity would be afforded him to repeat them in Parliament. This was a delicate matter, but if hon. members opposite wished to appoint a committee and investigate it thoroughly he would be glad of it. He would like too, that certain gentlemen who had made such statements should be brought before that committee and state on what authority they preferred such charges. He was well known to a large number of Methodists, and he was satisfied that they knew too well his liberality, fairness and honesty to think that he could be guilty of anything derogatory either to them or any other Protestant denomination.
Mr. MACKENZIE said he understood rather differently. During the discussion on the resolution, he had the pleasure to be present at the Methodist conference, and he understood by the remarks of the Rev. Dr. Ryerson, that in moving this resolution they only wished to express their disapproval of the mode of appointing the chaplains. They had asked permission to send a chaplain of their own faith to accompany the expedition, only requesting the Government to furnish coveyance for him and his baggage, and the indignation was directed against the refusal of the Hon. Minister of Militia to allow them to send a chaplain at their own cost.
Hon. Sir GEORGE-E. CARTIER said if anyone ought to be conversant with military affairs it was the gallant Major Mackenzie, the hon. member for Lambton. The Canadian battalions once organized and officered were placed under the command of General Lindsay, the Commander of the expedition, and the Government had nothing further to do with them, and could not grant the request.
Hon. Mr. McDOUGALL (Lanark North) said, like the hon. member for Lambton, he had heard a discussion very interesting to him was about to take place at the Methodist conference, an assembly of 500, among the most respectable men in the country. He was present in the gallery during that discussion, and he could not say there were such statements made as had been asserted in the House tonight. He had listened very attentively to the very able speech of Dr. Ryerson on that occasion. He had heard the remarks respecting the Hon. Minister of Militia, and he did not hear such statements made as the hon. gentleman complained of. He had heard nothing said that was not perfectly justifiable in view of the events which had since then transpired in connection with Manitoba. Then, with regard to the appointment of the chaplains, the Hon. Minister of Militia had sheltered himself under the Order in Council, but who determined that only two chaplains should be sent? Who determined that there should be but two chaplains, one
COMMONS DEBATES
February 27, 1871
63
from the Church of Rome, and the other from the Church of England? The objection was made, that such a decision had been arrived at. The objection was that they were not prepared to assert that this large and influential body having ministers of their own residing in that country, having a large number professing their own religion among the volunteers, should not be allowed to send a chaplain with the expedition to minister to their spiritual wants. It was against the discourtesy of the reply merely, refusing to permit them to send a chaplain at their own expense. He must do justice to the Rev. Dr. Ryerson; it is true that gentleman was not named, but there was no doubt that he was the rev. gentleman referred to by the Hon. Minister of Militia. Dr. Ryerson was too well acquainted with public life not to know, that such grave statements should only be made on sufficient grounds. It had been reported that he said twelve Roman Catholic priests had been sent with the expedition. He (Dr. Ryerson) made no such statement. What he did say was that twelve Roman Catholic chaplains had been attached to the Volunteer force of the country.
Hon. Sir GEORGE-E. CARTIER: That’s not the case!
Hon. Mr. McDOUGALL (Lanark North): It might be true or not, but that was the statement made by the rev. gentleman. Then the Hon. Minister of Militia had said a great deal about the statement that 1,400,000 acres of land had been appropriated for the benefit of the Roman Catholic Clergy in Manitoba. He did not believe that any such statement was made. (Here the hon. gentleman referred to a file of the Globe, from which he read the resolutions referred to.) The statement in these resolutions was that the Hon. Minister of Militia had set apart 1,400,000 acres of land, chiefly for the priests and his co-religionists, and this statement could be borne out by facts (cries of oh! oh! from the Hon. Sir George-E. Cartier and the French members), and all the facts developed in that country since the resolutions were moved in the conference confirmed the correctness of the statement. Was it not true that the reserves which the Manitoba Bill directed should be made under this Government in that province, were under the control of the priesthood, and that it was chiefly for the benefit and support of the hon. member’s co-religionists? It was a fact and could not be disputed. (Hon. Sir George-E. Cartier—No! No!)
The hon. gentleman said no, no, but were not his co-religionists in the majority there? They had the control of the Government, the Bishop of St. Boniface was the actual ruler of that Government, and his influence was supreme. (Cries of Oh! and No! No! from various members.) Those associated with him, and who were under his direction, were the people who ruled. He knew by letters recently received from that country written by officers of the Volunteer Force and by private members of that force, that it was so. It was clear that the influence of the Bishop was predominant—that nothing could be done with the Government without his assent; that no man could get employment from the Government unless he first went to the Bishop of St. Boniface, and got him to use his influence in his favour. That was said as a fact on the best authority. The Hon. Minister of Militia might laugh and attempt to deny it, but he (Hon. Mr. McDougall) knew better what he heard stated by a member of
this House! What he had heard by letters from Manitoba! What he saw in the papers every day corroborated the statements made in the resolution. The hon. gentleman had charged that it was a misrepresentation of facts, and that the conference was not justified in coming to the conclusion it did. He admitted, if the influence of the Bishop was not predominant; if the clergy of his church were not interfering in the control of public affairs of Manitoba, there might be some blame attached to the members of the conference, but under the circumstances he contended that the conference, in supporting Dr. Ryerson, in view of the events that have since occurred, were fully justified in stating that these reserves were made for the co-religionists of the Hon. Minister of Militia. All the facts went to show that there was no ground for charging the conference with misrepresentation of facts. The House had been told that the correspondence had been private. The hon. gentleman had chosen, though writing upon matters of public importance, to mark his communications ‘‘Private’’ and hence they were not to be submitted to the House. They could not tell what explanations had been made, or what inducement had been held out to Rev. W. Punshon to repeal the resolutions. There would be no doubt some curious revelations if those letters were furnished to the House, but they were told the communications were private, and they would be no wiser for the motion of his hon. friend to have the correspondence brought down.
Hon. Sir GEORGE-E. CARTIER said he had not intended to enter into a discussion upon the proceedings of that conference, nor had he intended to mention the name of Dr. Ryerson. It was not he who had introduced that gentleman’s name into the discussion. He had written privately to Mr. Punshon in reply to the letter of that rev. gentleman, because it was a communication from a Christian and a gentleman, and he congratulated the Methodist denomination on having such a man amongst their number. What he (Hon. Sir George-E. Cartier) complained of, was, that unwarrantable statements had been made in a resolution by one of the rev. gentlemen at the conference. He knew that if only Dr. Ryerson had heard what his hon. friend had said he would have at once made use of the proverb: ‘‘Save me from my friends.’’
Mr. FERGUSON said the matter was one which had been discussed throughout the country, and he therefore desired to make a few remarks on it. He thought there was no doubt that Dr. Ryerson, however sincere, had led his people astray on this matter very considerably, and he was quite sure that if anything offensive had emanated from the Department of the Minister of Militia, it had been sent without his consent or knowledge. It had no doubt been considered that the expedition should be accompanied by two chaplains, one Protestant and the other Roman Catholic, and he was quite sure that the Wesleyans were now satisfied that no offence had been intended. Very much had been said as to land being appropriated for the benefit of the priests and co-religionists of the Minister of Militia, but nothing of the kind had been done. The priests and co-religionists of the Minister of Militia had been treated in no way differently from other classes of the people. He then read the clauses of the Manitoba Act respecting the land appropriation, shewing that it was in no way for the Roman Catholics but for the half-breeds, and said he did not think there was now a single
COMMONS DEBATES
64
February 27, 1871
Methodist minister who did not believe that the priests had no control whatever over the lands of Manitoba. Every land grant had to be published in the Canada Gazette, and therefore nothing could be done privately or in an underhand way,—and in fact he did not hesitate to say that no Government that gave one party preference over another could stand for one moment. As to the predominance of the Roman Catholics in Manitoba, he had it on the authority of Drs. Schultz and Lynch, that out of every ten, six were Protestant of one denomination or another, and out of the twenty-four members elected to the Local Legislature, thirteen were Protestant and eleven Catholic.
He (Mr. Ferguson) felt satisfied that if his hon. friend from Hamilton agreed to the suggestion of the Hon. Minister of Militia for a Committee of Enquiry, it would meet the approval of the public, and justice would be accorded to all parties, it placed this honourable House in a position to approve or condemn—the action of the Government in the premises as they deserved—and to this end he would suggest to the Hon. Minister of Militia, the propriety of obtaining permission from the Rev. Dr. Punshon to produce the private letters which passed between himself and the reverend gentleman on this important subject. He was satisfied that if his friend agreed to the suggestion of the Hon. Minister of Militia for a Commission, and witnesses were brought before it, justice could be done.
Hon. Mr. HOWE would have much preferred the hon. gentleman had waited till the papers were brought down, when all the matters connected with this subject could have been discussed. Already we had had two or three discussions on this subject in the absence of the papers. He and the Government had been denounced for their course in regard to the North West, and he himself, by a wretched rag of a paper in this city, as the murderer of Scott. He had long and patiently listened to sectional appeals and harangues, and had even been accused of conspiring with the Roman Catholics to oppress the Protestants. He had laboured for over thirty years in the cause of religious liberty, and had succeeded in removing disabilities from Methodists and other denominations in Nova Scotia. He had sat for two years at the Government Council table, and had never seen a minister mean, prejudiced and foolish enough to propose the discussion of any question upon the ground of religious preferences. He proceeded to ridicule the idea of Roman Catholic domination, in face of the fact that only three of the thirteen ministers were of that faith. Ten Protestants ruled or lead by so small a minority! He was sorry that Dr. Ryerson had misunderstood and condemned the conduct of the Government in relation to the appointment of a chaplain to the Red River expedition. He defended the appointments made on the ground of adequacy and appropriateness. His Protestant colleagues had decided as to the Protestant chaplain but all denominations could not be satisfied in the matter. He believed and was certain all in the House were convinced that Hon. Sir George-E. Cartier was incapable of injustice towards, or of insulting any Christian minister. The non-acknowledgment of the Methodist application was a result of the official system, out of which no offence to the denomination could reasonably be construed. As to Manitoba there was no doubt now. The elections were now taken, and they and
other events had justified the course of the Government and the provisions of the Bill. What position would they have occupied today but for that Bill? They would have been trying to maintain a little family compact there, after the fall of the family compacts in all the other provinces. The land was not given to the priests, but to every man, woman and child in the province, whether French or English. In protecting the rights of the original population, the wisest, most liberal provision had been made for all the population, whether volunteers, natives, or old residents. Reference had been made to Bishop Tache’s influence. Why should he not have it, a man who had lived and laboured and sacrificed so much for the improvement and elevation of the population of the plains. Let the member for Lanark (Hon. Mr. McDougall) go up there as a missionary (laughter), and he would earn popularity too, perhaps.
Hon. Mr. McDOUGALL (Lanark North): I would not like to follow the hon. gentleman’s example. (Laughter.)
Hon. Mr. HOWE: If he had he might have avoided many of the scrapes into which he has got. (Loud laughter.) He believed the House would approve the conduct of the Government, and that neither Protestantism nor the Dominion had anything to fear from the Manitoba Bill.
Hon. Sir A.T. GALT expressed his conviction that the Minister of Militia was not open to blame for the omission that had appeared in the matter of this chaplaincy. Through some mistake or accident the application had been overlooked; he was satisfied not intentionally, knowing the importance and claims of this denomination he took an early opportunity of calling the attention of the Minister of Militia to this default. Aware of the liberality and fairness of dealing towards those of a different faith, always displayed by the Minister of Militia, he was perfectly certain the charge made against him must have arisen from some misapprehension. He (Hon. Sir A.T. Galt) was sure no slight was intended, and had desired an early opportunity of dispelling the wrong impression created.
Mr. GIBBS expressed his conviction as to the innocence of the Minister of Militia of all design to insult or overlook the Methodists in this chaplaincy affair. He was glad the present discussion arose, so as to relieve the minds of the public of all unpleasant suspicions on this subject.
Hon. Sir FRANCIS HINCKS followed in the same strain, coinciding with the preceding speakers as to Hon. Sir George-E. Cartier’s liberality of disposition, and repugnance to anything like prejudice or ill-will towards any denomination.
Mr. POPE depreciated the dragging in of questions of creeds, religions or sections like the present. He thought they should drop such subjects. (Hear, hear.) He paid a compliment to the character of the Minister of Militia.
Mr. MACKENZIE justified the consideration of this religious question, which afforded a public functionary an opportunity of justifying himself in regard to a charge preferred against him in the
COMMONS DEBATES
February 27, 1871
65
ministerial convention of one of the largest and most influential denominations of the country. The Methodists did not complain of the Government not sending up a chaplain, but of the refusal to allow them to despatch one at their own expense. They claimed to have the largest number of men in the battalion, and were entitled to the privilege solicited. He thought the request could have been obtained, had the Minister of Militia used his influence with the Commander in Chief.
Hon. Sir GEORGE-E. CARTIER said his answer to those remarks was just this,—the authority of the Canadian Government touching the battalion of Volunteers ceased the moment it was fully organized, since it passed under the authority of the General and Colonel Wolseley; and the military chiefs were not only opposed to the presence of two Chaplains, but to any Chaplains at all with the military. (Hear, hear, and laughter.)
Mr. MAGILL said it was the duty of the House to take hold of every subject and legislate on it, and thought it was well it should go abroad to the country, that there was no insult offered to so large
and influential a body as the Wesleyan Methodists of the Dominion.
* * *
WELLINGTON STREET BRIDGE
Hon. Mr. HOLTON moved for Report of Engineer of Department of Public Works, on application to erect Railway Bridge across Lachine Canal on the line of Wellington Street. He said there was a considerable amount of feeling existing on the subject, and there had been a favourable report made by the Engineer on the work. He thought the production of the report would tend to a considerable extent to allay the feelings existing with respect to it.
Hon. Mr. LANGEVIN said the report would be produced in a few days.
The House then adjourned at 11 o’clock.
COMMONS DEBATES
February 28, 1871
67
HOUSE OF COMMONS
Tuesday, February 28, 1871
