 at 3.25 p.m.
Prayers
IMPERIAL DESPATCH
The SPEAKER presented a message from his Excellency the Governor General transmitting a despatch from the Colonial Secretary acknowledging the receipt of an address from the Parliament of Canada, congratulating Her Majesty upon the recovery of the Prince of Wales, and thanking it for the warm expressions of loyalty and sympathy contained in said address.
* * *
SUPPLEMENTARY ESTIMATES
The SPEAKER also submitted a message from the Governor General transmitting Supplementary Estimates of sums required for the public services for the year ending 30th June, 1873.
* * *
COMMITTEE OF SUPPLY
On motion of Hon. Sir FRANCIS HINCKS the House again went into committee of supply, Mr. STEPHENSON in the chair.
Upon the item of $3,950 for a statistical office at Halifax,
Hon. Mr. ANGLIN asked if Mr. Cosgrave, who was employed as census commissioner at Halifax, was the gentleman of the same name who, he saw by the public accounts, had drawn a salary as clerk in one of the departments at Ottawa.
Hon. Mr. POPE did not know, but would make enquiry.
The item was passed.
On the item $1,850 for salaries of deputy registrars in Nova Scotia, and for getting marriages returns,
Hon. Mr. MACKENZIE asked if it was the intention of the Government to submit any general plan this session for obtaining vital statistics.
Hon. Mr. POPE said it was not, but a general plan was under consideration.
Hon. Mr. MACKENZIE also asked if the Nova Scotia returns were to be printed in the report of the Department.
Hon. Mr. POPE said they would be in a separate report made by Mr. Cosgrave.
Hon. Mr. MACKENZIE said no one ever saw that report, as it was not laid before Parliament. The returns should be embodied in the departmental reports.
Hon. Mr. POPE thought the suggestion a good one, and, if possible, it would be acted upon.
Hon. Mr. WOOD said that for two years successively when this item had come before the House, the Government had announced that it would take the matter of statistics into consideration, and come down with a general scheme. Two years ago the excuse had been offered that there had not been time to prepare a plan, and last session it had been announced that this partial state of things—returns being collected in Nova Scotia and nowhere else—could not be allowed to continue. The Minister of Justice had made that statement, and had added that the Government had then under consideration a scheme which would be applicable to all the Provinces.
It was of the first importance that a proper system of collecting statistics should be adopted. Canada in this respect was behind all other countries, particularly in regard to the collection of vital statistics. He would like to know whether the Government would be prepared next session to come down with a scheme as had been promised.
Hon. Sir JOHN A. MACDONALD said he certainly had made no promise last session, for he was not present when the supplies were voted.
Hon. Mr. WOOD said it must then have been the session before, for he remembered the very words the hon. gentleman had used—“that this partial state of things cannot be allowed to continue, and the Government will be prepared with a general scheme.”
COMMONS DEBATES
428
June 4, 1872
Hon. Sir JOHN A. MACDONALD said he remembered the discussion, and his remarks might have been in that sense; though he did not recollect the exact words. There was no doubt that the state of affairs with regard to the collection of statistics was unsatisfactory; but he did not see how a satisfactory system could be devised, except at great expense, without some understanding between the Local and General Governments.
It was true the General Parliament had power to command the services of all provincial officers, and order them to make returns; but he thought it would be extremely inexpedient to use that power except under an extraordinary necessity. As a rule, officers appointed by the Local Governments should render all their services to those Governments, and the General Government should employ officers on its own to perform whatever duties it required to be executed. That was the case in the United States, and he thought the rule a good one in its general application.
The difficulty then in the case was that the general Government had no officers for the collection of statistics throughout the Dominion; and at the time he had spoken, as referred to by the hon. member for Brant South (Hon. Mr. Wood), there had been on his mind the idea that there should be some arrangement between the Dominion and Provincial Governments, by which there would be a general plan for that purpose, as the hon. gentleman had suggested. The Government would perhaps be able in the next Parliament to do something of that kind.
Hon. Mr. HOLTON hoped there was no such fate in store for the country.
Hon. Sir JOHN A. MACDONALD was afraid the hon. gentleman would have to submit to it.
The item was passed.
On the item of $190,000 for the census,
Hon. Mr. MACKENZIE asked for information.
Hon. Mr. POPE said there had been expended in 1870-71, out of the vote of $310,000, the sum of $150,000. The amount so far expended in the current year had been $250,000. It was estimated that the needs of the remainder of the current year would be about $7,000 more. This latter sum would be applied to the payment of expenses for compiling and printing the reports, and for taking the census in the North-west. This item of $190,000 was a re-vote of the unexpended balance of last year.
Hon. Mr. ANGLIN asked the total expenditure connected with the census.
Hon. Mr. POPE said it would be about $410,000. Up to this time one-third of the compilation had taken place, and it was expected that in about three months the first volume of the report would be in the printer’s hands, if not printed.
The item was agreed to.
On the item of $18,212 for salaries of emigration agents and employees,
Mr. BOLTON hoped the emigration office in London would be placed in a state of greater efficiency.
Hon. Mr. POPE said the agent in London had been instructed to furnish emigrants with all the information he could, regarding the different Provinces of Canada, and while in this country recently he had been supplied with everything that could be procured upon the subject. His salary had been increased, and a more liberal allowance made with regard to expenses. He had also been instructed, if he could do so at a reasonable rate, to furnish a better and more convenient office, which would be more accessible to emigrants, and to which Canadians could resort when in London.
Mr. YOUNG thought full information should be given with regard to the expenditure in this department, for it had lately jumped from a small to a very large amount. The House ought to know how all this money was to be applied, and what benefit the country might be expected to receive from it.
Hon. Mr. POPE explained that they were all special agents appointed for a short period—most of them for six months. The hon. gentleman had said that item was large. He (Hon. Mr. Pope) admitted that but it had been found that agents of the United States were scattered all over the Old Country, circulating unfavourable reports from Canada, and it was necessary to take steps to set Canada in her true light. (Hear, hear.) This could not be done by merely appointing agents to reside in cities and towns, as it was believed they did not reach those people who were desirous of emigrating.
While the Government expected a large emigration, it was known that labour was in much greater demand in the old country of late, and that employers of the latter were trying to prevent emigration. These had to be competed with, and the Government had therefore felt that they required a larger vote and more men to do the work which the people of the country demanded of them.
Mr. YOUNG had not intended to find fault. He merely asked for information. He was of the opinion that negligence had been shown in the past, and felt inclined to encourage any efforts tending to induce a large emigration. He presumed the policy of the Government was experimental, and he for one felt inclined to allow it to be tried. (Hear, hear.) But he would expect important results from such an increase in the expenditure. He asked to what countries agents had been sent.
Hon. Mr. POPE replied that agents had been sent to all the rural districts of England, three to Scotland, and agents to Germany, Belgium, Alsace and Lorraine, Ireland, and the Scandinavian provinces. He might say that, while he had anticipated a smaller emigration this year, he had been informed by his agents that it was to be much larger, and that the emigrants would be of a better class.
COMMONS DEBATES
June 4, 1872
429
Agents had been instructed to secure a better class. There had already been an increase over last year. He did not expect the results of this additional expenditure this year. The people had to be educated up to the advantages of the country before any great results could be expected.
Mr. WRIGHT (Ottawa County) said the Society which had been formed in Ottawa had been the means of bringing out a better class of emigrants. It had been alluded to as a “coolie arrangement”. All he could say was that, if the coolie arrangement was like this one, it was a very good arrangement. The course adopted by the Minister of Agriculture, in aiding these societies, would be advantageous to the country, and he hoped it would continue.
Mr. BODWELL had no doubt that the steps taken would induce a large emigration. He thought that German emigrants made good settlers or citizens. He had been informed that some fifty or sixty thousands Germans, now at Riga, in Russia, were desirous of coming to Canada, and he asked whether any steps had been taken by the Government to secure them.
Mr. RYAN (Montreal West) said the Government deserved credit for their action in the matter of emigration. He believed that, in view of the great public works to be constructed, greater inducements should be held out to emigrants to remain in the country.
Hon. Mr. HOLTON said there could be no doubt that the reason the past efforts of the Government had been unsuccessful was from the loose and desultory manner in which those efforts had been made. He approved of the course of the Minister of Agriculture (Hon. Mr. Pope) in asking for a large appropriation, in order to test the possibility of inducing a flow of emigrants into this country. He was not sanguine as to the result; but it was better to make a bold effort. He would only say that getting this large appropriation, he the Minister of Agriculture (Hon. Mr. Pope) would be held to very rigid account for the results.
Mr. CURRIER with reference to the society which had been formed in Ottawa, and of which he was President, said that the results of their efforts had been that a large number of emigrants had already arrived. Money was still being sent for the purpose of assisting emigrants, and an agreement was made that the amount advanced should be repaid by instalments.
Hon. Mr. POPE, in answer to the hon. member for Bothwell (Mr. Mills), said that the Government had been in correspondence with the Colonial Secretary on the subject of the sixty or eighty thousand Mennonites who wished to emigrate to this country. The Government had informed them that, in order to satisfy themselves, if they would send out one or two of their number to see the country, the Government would pay their expenses. Every information had also been conveyed to them, and in answer to a question from them they
had been informed that they would be exempt from military duty.
Hon. Mr. ANGLIN in making the remark about the coolie system the other day, had no intention of reflecting upon the system adopted by the society organized in Ottawa. He thought that society a good one and regretted there were not more of them. He had stated his opinion that, under the bill brought down by the Minister of Agriculture (Hon. Mr. Pope), providing for advances to be made to emigrants under agreement to work off those advances in this country, it would place them in an exceptional position as regards the rest of the community. He had described the bill very properly as establishing a coolie system.
Hon. Mr. POPE denied that it was anything of the kind. The bill merely provided that a man could be engaged abroad for certain work, and an advance be made to him on certain conditions, and when he arrived he would be in no worse position than a man hired here. He would be under the protection of the same laws and it was absurd to call it a coolie system. All the agents had reported that it was necessary some means should be devised of assisting emigrants. This was one mode of doing so, and in his opinion a very proper one.
Mr. CURRIER said that when men were engaged here for lumbering operations they were bound to carry out the agreement made, and he did not see why a similar system should not be adopted with regard to emigrants coming from the old country.
The item was then passed.
On the item for quarantine at St. John, New Brunswick,
Hon. Mr. MACKENZIE asked why there was a difference in the salaries of the physicians at St. John and Halifax.
Hon. Mr. POPE was not aware of the reason, but would find out.
Hon. Mr. ANGLIN said that at St. John it was necessary for the physician to reside on the Island, and no one could be got to do the work for a smaller salary.
Hon. Mr. MACKENZIE did not see the necessity for his residing on the Island. The physician at Halifax did not do so.
Hon. Mr. ANGLIN said the quarantine establishment was there, and it was necessary. He, however, considered the allowance for boat service excessive. It did not cost one-third of the amount, and was only an excuse for supplementing the salary.
Hon. Mr. GRAY maintained that residence on the Island was necessary. As to the boat service, the amount was not excessive, as owing to the rapidity of trade, it was necessary to have more persons employed than at ordinary places.
COMMONS DEBATES
430
June 4, 1872
Hon. Mr. TILLEY said it was rather a luxury to have a discussion arise showing that New Brunswick received more than Nova Scotia. The reverse was usually the case. (Laughter.) The salary was not excessive, and he did not think that the amount for boat service was too large. It was necessary, he thought, to employ two boatmen, and they had frequently to go out three or four miles to board vessels.
The item was carried.
On the item to meet expenses of further precautionary measures for the public health,
Hon. Mr. POPE said, in view of the possibility of cholera, this amount had been put in the Estimates; but if the money was not wanted not a dollar would be used.—Carried.
On the item for grants in aid of the Provinces towards encouraging emigrants,
Mr. YOUNG wished to know how the amount was to be divided among the different Provinces.
Hon. Sir FRANCIS HINCKS said this matter had been determined at a conference held at Ottawa, at which all the Provinces of the Dominion were represented, and it was determined to divide the $70,000 as follows: —$25,000 to Ontario; $20,000 to Quebec; $10,000 each to Nova Scotia and New Brunswick; and $5,000 to Manitoba.
Hon. Mr. ANGLIN charged the Government of New Brunswick with using the money voted to aid emigration for political purposes, in that they made overtures to Mr. Gough, the Leader of the Opposition, to accept the emigration agency, telling him he was the best man they could get, and he having declined, the agency was offered to his father-in-law, Mr. Macpherson, a gentleman in reduced circumstances, who was compelled to accept the office, and went to England, but, to the surprise of many, he returned in time to take his seat in the Legislature. His expenses were of course paid by the Province, but no one could say that he had done any good by his mission.
Hon. Sir FRANCIS HINCKS said it was understood that the Government of New Brunswick should receive $10,000 on condition that they would give an equal sum to promote emigration.
Hon. Mr. SMITH (Westmorland) thought it ungenerous and unkind of the hon. gentleman to make charges against the Local Government when none of them were in the House to defend themselves. Mr. Macpherson, to whom reference had been made, was not a man capable of being bought off, nor was he reduced to poverty as stated. He (Hon. Mr. Smith) had no doubt that he went to England for the remuneration; but he was a public man, and had represented the people for many years, and returned to his country and voted in the Legislature
against the Government that had sent him there. Surely it could not be said that that man had been bought.
Hon. Sir FRANCIS HINCKS was sure that the Emigration Conference had benefited the best interests of each and every Province in respect of emigration.
Mr. BOLTON agreed with the remarks of the member for Westmorland (Hon. Mr. Smith). He happened to be in the Legislature when the emigration agent returned, and a member of the Government challenged him to state, if he could, that he had been influenced by the Government and in his place in the House. He (Mr. Macpherson) stated that he had not been influenced or approached in any way by any member of the Government.
Hon. Mr. ANGLIN called the attention of the House to a speech made by him last session, in which he denounced the appointment of a member of the Legislature as a census commissioner, the appointment being cancelled before the meeting of the Local House.
Hon. Mr. CHAUVEAU corroborated the statement of the Minister of Finance (Hon. Sir Francis Hincks) that the emigration conference had been beneficial to the Provinces. It was agreed that a subsidy should be placed at their disposal by the Federal Government to enable them to enter with more energy into the matter. He thought the little squabble just indulged in by the members from New Brunswick was excusable after the fight by Ontario the previous night; but he warned the House that if provincial matters were to be so generally discussed Quebec would claim a debate, which he promised them should last three evenings and be conducted wholly in French.
Hon. Mr. WOOD argued from a constitutional point of view, maintaining that the Legislatures of the Provinces would be reduced to mere County Councils if the present course were continued, and advocating leaving the question of emigration to be dealt with by each Province.
Mr. YOUNG said the vote was practically increasing the subsidies to the Provinces, and might be made a precedent which might be abused in the future. He hoped such a vote would not be asked another year.
Mr. MILLS concurred in the remarks of the member for Brant South (Hon. Mr. Wood) in regard to the constitution and the rights of the Provinces.
Mr. PICKARD regretted that the matter had been brought up. As regards Mr. Gough, he had settled that matter by a letter over his own signature, to the satisfaction of nineteen-twentieths of the whole population of New Brunswick, and his last letter still remained unanswered. He believed then, and believed now, that a better man for an emigrant agent than Mr.
COMMONS DEBATES
June 4, 1872
431
Gough was not to be found in the Dominion. He knew Mr. Macpherson well, and knew him to be above being bribed.
The item was then carried.
On the item for assisting in meeting expenses of emigrants,
Hon. Mr. ANGLIN asked for some explanations.
Hon. Mr. POPE said there was considerable expenditure in this country for railway fares and food, and then the cost of advertisements and printing and distributing information was heavy, and he had estimated $30,000 under that heading. Passenger companies in Great Britain were in the habit of receiving commissions from the Grand Trunk and American railway companies, to induce emigrants to go as far as they can over their roads, and he hoped to counteract that, at least to a certain extent, for which he had estimated $10,000. The balance was to assist emigrants in paying their passages and other expenses.
He felt the responsibility, and would not spend the money if it were not required. There were strong influences against emigration from home this year; but still they were told that something could be done if they would assist pecuniarily.
Hon. Mr. MACKENZIE said the House would support no item more cheerfully than this. There were many difficulties in the matter, and he did not desire to be too exacting in pressing for particulars as to how the money would be spent. He hoped that, from the expenditure proposed by the Provincial and Dominion Governments, a large emigration would result. He gave his earnest support of the item.
Mr. CARTWRIGHT asked Mr. Pope whether he had given attention to emigration from Norway and Germany. A very valuable emigration for the North-west might be attracted from these countries.
Hon. Mr. POPE said there were agents there and there would be a large number of emigrants from these countries. The fares from them would be reduced as from Ireland, and emigrants would receive free land grants in the Northwest.
Mr. BOLTON thought the emigration office at London inefficient, and asked whether the local or Dominion governments supplied information to that office. A short time ago he was in London and found that the office was altogether without proper information respecting Canada. He was also told that it was understood the Deputy Minister of Agriculture was averse to emigration, and if it was not correct the impression ought to be removed. He thought it very important that proper information should be supplied.
Hon. Mr. POPE said the office had been supplied with some millions of pamphlets. There was a special pamphlet for Manitoba, and another would shortly be sent for the North-
West, and the London agent had instructions to distribute those pamphlets as far and widely as possible.
Mr. OLIVER asked whether the Minister of Agriculture intended to assist Miss Rye and Miss Macpherson.
Hon. Mr. POPE said the Local Government were doing so.
The item was passed.
On the items connected with the Intercolonial Railway,
Hon. Mr. LANGEVIN said it was intended to have a branch line to Father Point, where there would be piers constructed, so that steamships from Europe might there land their passengers and baggage, and emigrants and mails, so that they could there be distributed east and west. Engineers had carefully examined the different places on the lower St. Lawrence, and reported that Father Point was by far the best for the purpose. There was deeper water, and less work would be necessary in making piers and basins.
Mr. JOLY hoped the government would ascertain definitely the best point. A great amount had already been spent on different points on the lower St. Lawrence, amounting to over $1,000,000, while the revenue was comparatively small. The wharves were built in the best possible manner, but could scarcely be used at low water, and therefore, recognizing the necessity of the matter, he hoped the only subject would be to choose the best point for the purpose.
Hon. Mr. LANGEVIN said the intended work was for summer navigation and not for winter accommodation. The Government was paying every attention to the matter, and fully recognized the necessity of having the best point for a harbour, which, if possible, could be reached all the year round. They had not sufficient information to enable them to decide.
Mr. THOMPSON (Haldimand) referred to the item for engines, and asked whether it was for new or second-hand engines.
Hon. Mr. LANGEVIN said it was for new engines.
Hon. Mr. ANGLIN asked whether rails were being supplied as rapidly as required.
Hon. Mr. LANGEVIN replied in the affirmative, and said the standing of the contractors was such that they would not fail to carry out their undertaking.
The Committee rose and reported the resolutions adopted.
It being six o’clock the House rose.
COMMONS DEBATES
432
June 4, 1872
AFTER RECESS
CANAL IMPROVEMENT
Hon. Mr. LANGEVIN rose to move the House into committee on certain resolutions in relation to the enlargement of the Dominion Canals.
1.	Resolved, That in the Resolutions adopted by the eighth Provincial Parliament of Canada, on which is founded the Address to Her Majesty praying for the Union of the British North American Provinces, it was affirmed that the improvements required for the development of the trade of the Great West with the sea-board were of the highest importance, and it was declared that they should be prosecuted at the earliest possible period that the state of the finances would permit.
2.	Resolved, That the time is now arrived when the financial and material conditions of the Dominion require and warrant a thorough and comprehensive improvement of the Canal System of Canada, sufficient to accommodate the growing trade and commerce of the Country, and to give greater facilities for through traffic and the carrying trade of the Dominion.
3.	Resolved, That this House is of opinion that the Government of Canada should at once proceed with the improvement and enlargement of the Dominion Canals, to the dimensions and capacity recommended in the Report of the Canal Commission laid before the House during last Session.
4.	Resolved, That taking into consideration the value and volume of the trade between the Inland and Maritime Provinces of the Dominion, this House is further of opinion that the construction of a canal by which sea-going vessels may pass from the Gulf of St. Lawrence to the Bay of Fundy, without breaking bulk or making a long and often dangerous voyage round the coast of Nova Scotia, is of national importance and should be proceeded with without delay.
He said that, when Confederation was initiated, it was agreed among the four Provinces that, when the finances permitted, the Government would propose canal enlargement. The Government thought that the time had arrived, and that Parliament might be asked to undertake these large works. The position of the country required that these works should be undertaken. The population of Canada, which in 1851 was 2,320,000, had now reached 3,500,000. This large increase had been accompanied by a corresponding increase in the trade of the country. The exports, which during the first year of Confederation, 1867-68, were $55,500,000, had, in the following year, increased to $60,000,000; in 1869, to $73,000,000, and were now $74,173,000. On the other hand the imports, which in the first year of Confederation were $73,500,000, had increased in 1871 to $96,000,000. The revenue of the country too, which in the first year of Confederation was $13,687,000, in the second year, $18,200,000, and in the third year, $15,500,000, had increased in 1870-71 to $19,300,000. This large increase in the imports and
exports, and in the revenue of the country, showed the progress that had been made since the union five years ago.
Besides, the territory comprised in the limits of the Confederation of 1867, had now been extended so as not only to embrace the Province of Manitoba and the North West, but also a country reaching the shores of the Pacific. This large territory, he confidently expected, would by its wealth and the richness of a large portion of its soil, and immense resources, attract a large emigration, and thus largely contribute to the revenue of the Dominion. The population thus created would necessarily cause a great trade to spring up, a large portion of which must flow to the east, and thus form another reason for the enlargement of our canals.
If we turned our eyes in another way, and looked at the manufacturing resources of the country, we should see that, on all sides, there was prosperity; that all the Provinces were rapidly developing their resources, and that new lines of railway were extending in every direction and opening up new territory. But we had beyond our own border what was called the Far West, the trade of which must, to a great extent, find its outlet through the Dominion to the Atlantic Ocean. The Canal Commissioners last year, speaking in their report on which subject, had said: “In the year 1841, just thirty years ago, the gross value of the trade of the lakes was estimated at $65,000,000. Ten years later it had more than quadrupled, for it was put down in 1851 at $300,000,000, employing 74,000 tons of steam and 138,000 tons of sailing vessels; whilst at the present time the aggregate value of this same commerce cannot be less than $700,000,000. The tonnage of the lakes in 1851 was, as already stated, not above 212,000, whereas in 1861 it had risen to 450,000 tons, of which above 80,000 tons was Canadian. In 1864 the tonnage was about 547,267, valued at $17,537,440 in American currency.”
He read this paragraph to show the immense trade of the lakes, even if we confined ourselves only to the States of Ohio, Michigan, Indiana, Illinois, Iowa, Wisconsin and Minnesota. The quantity of wheat grown in these States had risen between the years 1850 and 1869 from 43,000,000 bushels to 150,000,000; of corn from
220.000.	000 to 526,000,000 bushels, and of oats from 420,000 to
146.000.	000 bushels. These figures showed what an immense produce there was to be moved to the seaboard. What an immense trade there would be if we only did our share to direct it through this country.
It was necessary to secure that trade if we wished to maintain our position, if we wished to maintain our importance as a state on this continent, and if we wished to obtain the same advantages from it that the United States had been reaping for a number of years. It was true that the St. Lawrence was a magnificent river, but that river could not carry the trade of the West unless we improved our canals. We knew full well that these canals were too small to allow the passage of large vessels. We knew also that in the Erie Canal, in the Mississippi, and in the railways of the United States we had powerful rivals to the traffic and unless we did what nature required
COMMONS DEBATES
June 4, 1872
433
us to do we must see trade, which should pass through this country, continue in channels which were not natural channels of trade.
What the Americans were doing with regard to the Erie Canal showed how anxious they were to keep the trade of the West. Not longer than two years ago they had reduced the tolls fifty per cent, and it was only quite recently that the Legislature of the State of New York had offered a premium of $10,000 for the best mode that could be suggested for steam power on that canal, in order thereby to facilitate the transshipment of goods. The dimensions of the locks on the Erie Canal were 110 feet by 18 feet, the depth of water being 7 feet. If these figures were compared with the dimensions of the proposed locks on our canals, 270 feet by 45 feet, with an extra depth of water of 12 feet, it would be seen that the improvement would revolutionize trade, and make the St. Lawrence what the father of one of his hon. colleagues had said it was destined to be—the great highway of this continent.
Perhaps they would bear with him if he laid before them a few facts showing the magnitude and growth of the trade on the lakes. He had caused a number of statistics to be compiled for this purpose, and he had consulted the best authorities in order that he might be able to lay before the House reliable figures. At the five western lake ports of Chicago, Milwaukee, Toledo, Detroit, and Cleveland, in 1871, the receipts of flour, reduced to grain, were 141,000,000 bushels; the receipts by lake, not by railway, at Buffalo were in 1871, 67,000,000; whilst the quantity that had passed through at Port Colborne was 225,000,000. These figures showed the magnitude of the trade.
Let them now look at the growth of the trade at Buffalo, Oswego, and Montreal. At Buffalo the receipts were, in 1860,
47.000.	000 bushels; in 1865, 51,000,000; in 1869 it was
45.000.	000 bushels; and in 1871, 63,000,000. At Oswego the receipts were: — in 1860, 70,000,000; in 1865, 12,000,000; in 1869, 30,000,000; and in 1871, 14,250,000. At Montreal the receipts were: — in 1860, 6,750,000; in 1865, 8,000,000; in 1869, 12,300,000; in 1871, 16,000,000. These figures show that the trade at Montreal had been constantly increasing, the proportion of increase being much larger than at Buffalo. He did not take Oswego in the comparison, because at that port there had been a large decrease.
They showed too that the St. Lawrence was, year by year, more appreciated, and that the trade of the West had only to be fostered and encouraged by giving to large lake vessels the means of transferring grain to ships at Montreal, in order to divert a large portion of the trade into this route. The receipts of grain at the five lake ports he had mentioned, for the last four years were as follows:—in 1868, 109,000,000 bushels; in 1869, 118,000,000; in 1870, 111,000,000, and in 1871,
141.000.	000, making an increase in three years of about forty per cent. After showing the magnitude of the trade, it was proper that he should point out the profits earned by the
carriers. The total receipts for freights on the New York canals for the last thirty-five years amounted to $227,000,000; the total freight to carriers for the same period amounted to $122,000,000, showing a balance of profit in favour of the State of $105,000,000. The total tolls and freights on the State canals in 1871 were $10,750,000, of which not less than $7,600,000 went into the pockets of the carriers.
These figures told their own tale; but the effect would be more striking when the revenue was compared with the cost of constructing the canals. The Erie Canal had not only repaid its first cost and all the subsequent outlay upon it, but it had nearly paid for all the other State canals beside those which New York had now, about 900 miles, costing over $100,000,000.
One reason why the Erie Canal had an advantage over us was that the large vessels employed on the Lakes could carry a much larger cargo to the western terminus of the canal, where rapid means of trans-shipment made up for loss of time caused by the length of the canal. These large vessels, which were admitted on all hands to be able to carry four times as much as the smaller vessels that passed through our canals, did not cost for their maintenance anything like a sum proportionate to their size, and they required hardly more to run than the smaller vessels, and the cost being so little, and divided on a smaller cargo, the trade must necessarily be carried on with a larger profit. A single inducement was, therefore, given to carry the trade through the American route instead of the Welland Canal and the St. Lawrence. Let us enlarge our canals and the result would be quite different.
He wished now to read a few short extracts to show the American opinion on this subject of the enlargement of our canals. They fully appreciated its importance and the effect it would have upon their trade. The House would remember that a ship canal around Niagara Falls to be a rival of the Welland Canal had been spoken of more than once, but it had never been realized, and if he could put faith in public documents published in the United States the reason of the failure of that great undertaking was that they believed that the building of the canal would necessarily deviate the trade from the American canals into the St. Lawrence by way of Montreal.
He read extracts upon this point from the “memorial as to the proposed Niagara Ship Canal, the course of commerce on the lake, &c.,” in which the danger to the trade of the New York canals was dwelt upon in case the Niagara Ship Canal should be built, or the Canadian canals enlarged.
He then proceeded to give some particulars respecting the trade of the Welland Canal. In 1870 the tonnage of steamers passing through the canal was 264,000 tons, and in 1871,
396.000	tons; and the tonnage of sailing vessels in 1870,
408.000	tons and in 1871, 355,000. This showed that the tendency was to replace sailing vessels by steamers. In the
COMMONS DEBATES
434
June 4, 1872
total tonnage, however, it would be seen that in 1871 there were 80,000 tons more than in the year previous. Taking the tonnage of vessels and goods together he found that in 1849 it amounted to 820,000 tons; in 1863, twenty years later, it was
2,500,000	tons, while in the same space of time the trade increased twenty per cent. Confining themselves to the trade from the West, the number of tons in 1870 was 876,000, and in 1871, 962,000, showing an increase of 100,000 tons.
At the same time he desired to correct an erroneous impression which existed about the tonnage of American vessels as compared with that of Canadian vessels going through the Welland Canal. It had been stated that the average Canadian tonnage was 424 tons, and the average American 392 tons. He referred to steamers only. During the last four years the number of vessels that had passed through the Welland canal had been as follows:—in 1868, 6,157; 1869, 6,159; 1870, 6,740; 1871, 7,729. During these years the tonnage was:—in 1868, 1,148,000; 1869, 1,267,000; 1870, 1,367,000; 1871, 1,554,000. It would be seen that the trade was increasing rapidly; but the canal was too narrow, not deep enough, and too small in every way, and it must be enlarged.
The motion he had to propose and which was in the hands of the hon. members applied to the Welland Canal, the St. Lawrence Canal and the Baie Verte Canal. The intention was to give the Welland Canal the dimensions recommended by the Canal Commissioners; the locks would be 270 feet in length, forty-five feet in depth, with twelve feet of water on the sills. As to the St. Lawrence Canal, the Government intended to give them the same dimensions, but there might be difficulties in the matter, and he could not say positively that twelve feet of water could be obtained without a much larger expenditure than the House might wish; but the question was being enquired into, and in any case ten and a half feet would be obtained and he hoped proper examination would show that the St. Lawrence Canals could have the same dimensions as the Welland.
The dimensions of the Baie Verte Canal would not be the same. It was proposed that in the case of that canal the locks should be 270 feet by forty, with fifteen feet of water. Questions as to the different canals would come up separately when the votes were asked and he had no doubt the House should be satisfied from the explanations he would be able to give, that the undertaking would be prosecuted with vigour without loss of time, and without endangering the finances of the country. He then moved the House into Committee to consider the resolutions, and stated that he had His Excellency’s consent to his doing so. The hon. gentleman was cheered on taking his seat.
Hon. Mr. MACKENZIE asked whether it was the intention to provide for the trade being conducted by barges towed from the western lakes through to Montreal.
Hon. Mr. LANGEVIN repeated that the Welland Canal would be enlarged to the dimensions recommended by the Canal Commissioners and that the Government intended to do the same
for the St. Lawrence Canals; but they could not pledge themselves to give immediately the full amount of twelve feet of water in the St. Lawrence Canals, because they were not sure that such a depth could be obtained without a larger expenditure than the House would sanction, but they would promise that ten and a half feet would be obtained.
Hon. Mr. MACKENZIE said the conclusion had been growing in his mind that it was next to impossible to make it a profitable business to take large vessels down the St. Lawrence, and more so to take them up. It was very fine to speak of bringing ships from Europe to the farthest end of the lakes; but while it might be possible to do so, he did not think it would pay.
He thought the proper course would be to make the Welland Canal available for large barges, in which the great bulk of the trade would be done in the future, with a trans-shipment at Kingston and another at Montreal. He believed the business would be done more cheaply in that way, and the grain would be benefited by the transshipment. He believed it would be very difficult to get twelve feet of water in the St. Lawrence; it would be almost impossible to obtain that depth of water in the lake harbours until the Government undertook the very serious business of incurring a large expenditure in order to obtain that depth of water.
He could not but think that the width proposed for the locks, forty-five feet, was rather small, and that it should be made fifty-five feet. He referred to the American canal at Sault Ste. Marie, the breadth of the locks there being seventy feet, and said it afforded great facilities to have the locks of such dimensions; and it was a question whether it was not desirable to make the Welland Canal where they might have locks of such a breadth as to allow more than one vessel to pass at a time; for if that could be done a larger business could be done at a smaller cost. He did not pretend to have studied the matter technically, but the question ought to be very carefully considered.
The works would be profitable, not so much from the amount of tolls as from the inducement to merchants to invest largely in vessels engaged in the carrying trade in bulk from Chicago to Montreal, and as promoting a vast traffic by the St. Lawrence that would enable them not only to carry a vast proportion of the trade of the West to the Atlantic, but also to carry a great portion of the merchandise for Chicago and other western cities from Europe. In order to accomplish these objects effectually and in order to avoid the blunders that were committed in earlier days when Canada did not anticipate the traffic of the West, it would be a pity indeed that they should again commence the enlargement of canals, and do it on a scale not commensurate with the trade proposed to be accommodated for many years to come.
With regard to the St. Lawrence, he had been informed that in some parts of the rapids there was only a depth of five or six feet. That water was, no doubt, unusually low, but if his information was correct in that respect, and also in respect of the nature of the entrance to the Beauharnois Canal, an immense amount of
COMMONS DEBATES
June 4, 1872
435
submarine blasting would be necessary to obtain even 11.5 feet. He scarcely thought it either advisable or possible to obtain the same depth of water and the same accommodation for large vessels in the St. Lawrence Canals as would be obtained in the western waters, but the matter could be fully discussed, and with the opinion of the engineers of the department and other scientific men, they would be able to come to some conclusion that would enable them to adopt such measures as would prevent anything like regrets in the future.
He was disposed to give every assistance in regard to these great national works, believing that the prosperity of the country very much depended on them; but they must remember that they were doing it to accommodate the trade of the Americans, and to give them facilities in reaching the sea that they had not and could not have on their own territory. They could, of course, have a canal round the Niagara Falls, but there was no fear of their making it as long as the State of New York was interested in the canal from Buffalo to Albany.
Mr. SHANLY considered it to be of the highest importance to make the Welland Canal sufficiently large to accommodate large vessels, and to remove the only barrier that lay between the two lakes. He was not, however, in favour of the proposed enlargement of the St. Lawrence Canal. Trans-shipment would always take place at some point at the foot of Lake Ontario, as it would be found that the river work could be done more cheaply by barges than by steamers. He was fully satisfied that the St. Lawrence canals, as they now were, could do in time the barge work that they had hitherto done.
He believed that those who advocated the deepening of those canals to twelve feet had no idea of the cost of such a project. We would not only have to enlarge those canals but large stretches of the river would have to be deepened and the cost would be larger than most persons had any idea of. He, therefore, thought that the enlargement of the Welland Canal should be first proceeded with, deferring the St. Lawrence canals until we saw how much trade it would bring through them.
With regard to the dimensions of the locks recommended by the Canal Commission, he also agreed with the member for Lambton (Hon. Mr. Mackenzie) to a certain extent, only he thought that a width of fifty feet would be sufficient. He did not approve of the system of locking two vessels at the same time; he would rather look forward to the time when double locks could be constructed to accommodate vessels ascending and descending on the same plan as on the Erie Canal in New York.
He concurred in the general features of the report. He would go as far as to say that the Welland Canal ought to be deepened to 13 feet; at all events it ought to be placed in a position to receive the largest vessels that leave the harbour of Chicago. He believed that the present low state of water in the St. Lawrence was exceptional, and that a depth of nine feet in the canals could generally be relied upon.
Mr. JONES (Leeds North and Grenville North) said this question had long occupied the attention of the people of this country, and various attempts had been made to arrange some satisfactory system. Attempts had been made to secure reciprocity from the United States with regard to the enlargement of the Canals, but they had failed. The enlargement would be of some advantage to the commercial and business men of the country, but would be of no advantage to the great agricultural classes. It would be chiefly for the benefit of the western states, and while we were shut out from the American market the produce of the western states would be brought into competition with the products of our own farmers in the European market, the only market open to them. We ought to pause, therefore, before incurring a large expenditure for enlarging the canals chiefly for the benefit of the people of the United States. Our canals were quite sufficient for our own people.
Mr. WORKMAN said although he would have desired that this measure had been brought up earlier, he was glad to find that the Government had adopted large and extensive views. At the same time he agreed to a considerable extent with the remarks of the hon. member for Grenville South (Mr. Shanly). He believed that the enlargement of the Welland Canal should first engage the attention of the Government. The St. Lawrence canals were sufficient for all the business done upon them. The trade was now done principally in barges drawing about eight feet of water, and one small steamer could take four or six of these barges at once. The trans-shipment of grain into these barges at Kingston and other ports greatly improved it. Our route had a great advantage in this respect over the river route, as from the length of the latter route and the warmth of the water in the canal, the grain was injured. The trans-shipment of the grain and its passage through our cool waters, kept it in good condition.
By the enlargement of the Welland Canal he thought we should secure the whole carrying trade of the North-West. As to the Baie Verte Canal, he had been informed that its construction would involve an expenditure of ten or twelve millions of dollars, and that it was almost an engineering impossibility. It was an important work, and he would not object to its construction if it were feasible and could be done for a reasonable amount, but if it was only throwing so much money into a mud-hole, the expenditure could not be justified, and he thought the Government should be very cautious and not rush into it without due consideration.
Mr. GRANT spoke of the great importance of the question, and referred to the high position of Great Britain as being in consequence, partly, of the magnitude of her harbours bringing her in contact with the outside world. He spoke of the growth of New York, Quebec, Montreal and Ottawa as being attributable to their position on rivers. He believed that those who occupied seats on the Ministerial benches had the advancement of the country at heart and the placing of the
COMMONS DEBATES
436
June 4, 1872
canals on such a basis as would ensure the commercial prosperity of the country. He referred to the Treaty of Washington, and said he believed all barriers and restrictions on trade would be broken down. He referred to the increase of population throughout the provinces, and hoped that Nova Scotia would be able to send up her coal and fish, and take down fabrics and grain in return. The canal system of the Dominion only dated back for some fifty years and what had been accomplished was creditable to the country. He scarcely believed in opinions that had been eloquently expressed that vessels would come from Europe and be able to ascend to the lakes, as the barge system had now been introduced.
He regretted that the river Ottawa had not received a greater share of attention at the hands of the Canal Commissioners, as he was quite sure it would ultimately become a great source of revenue from trade, and every value be reduced to meet the growing requirements of the country. As to the Baie Verte Canal, he believed its construction would be of the greatest possible advantage in building up commercial connection between the different provinces. He thought they should endeavour by every means to develop the resources of the several Provinces. The enlargement of the Welland Canal would no doubt be a great advantage to the Americans, and he trusted they would look at it in that way, and that there would soon be reciprocity again. He believed the Washington Treaty had got in the small end of the wedge, and he believed the men who had accomplished the Treaty would also accomplish reciprocity.
Mr. STREET said the Minister of Public Works (Hon. Mr. Langevin) had not made any specific proposition but merely asked the House if it was desirable that the canals should be enlarged. They had already had various opinions as to the best mode of carrying their produce to the sea, but he had no doubt the Government would be fully advised before proceeding with the work. All agreed that the waters of Lake Erie and Lake Ontario should be united, and in order to accomplish that the Welland Canal should be enlarged. It had been said that the enlargement of the Canadian canals would be to the benefit of Americans and enable them to compete in the English market, but the object should be to make the canals valuable and profitable. The Americans could get their produce to Liverpool without the use of our canals, and so long as Liverpool was the best market, they would send their produce there whether through Canada or not.
A most important matter was the size of the locks, and he hoped the government would give that matter their most earnest consideration. He was glad to find that they had taken the substantial step of coming down to the House and asking if it was desirable that the canals should be enlarged. He would leave the matter in the hands of the Government to proceed with on obtaining competent engineering advice.
Mr. MERRITT congratulated the Ministry on being in a position to announce their policy in reference to the canals. If
the Welland Canal were enlarged to admit vessels now trading to Buffalo a large portion of the trade now done at that place would pass through the Welland Canal to Montreal. He instanced a case of a vessel built by himself, which would only carry 3,500 barrels of flour, whereas if the canals were deepened two feet the same vessel would carry 7,000 barrels. He thought the Government had wisely decided as to the size of the locks, and hoped they would push the work forward.
Mr. MASSON (Soulanges) had been one of the first to advocate the enlargement of canals, and was pleased with the manner in which the Government had taken the matter in hand. He referred especially to the report of the Canal Commissioners in regard to the Beauharnois Canal, and argued that it would be cheaper to build a new canal on the north shore than to enlarge the canal, owing to the engineering difficulties to be encountered.
Mr. ROSS (Dundas) said, as it was generally conceded that the Welland Canal should be enlarged so as to accommodate the trade of the West, it became necessary for us to make perfect facilities for the conduct of that trade to the seaboard. He had been informed by forwarders that our locks had sufficient width, but lacked length; what they desired was a capacity of lock sufficient to take a vessel with 40,000 bushels of grain. He thought that a depth of ten feet would be sufficient, with a length of 270 feet.
Mr. RYAN (Montreal West) desired to correct the statement of the hon. member for Lincoln (Mr. Merritt), when he said he was at a loss to know why the member for Montreal opposed the deepening of the canals. He was not opposed to it. The trade of the West was increasing; and if we afforded the necessary facilities there would be no limit to it. The Government deserved great credit for their scheme, which he was sure would meet with the approval of the people both east and west. If the scheme were carried out, he thought the trade would increase to fifty millions of bushels in ten years. As to the Baie Verte Canal, if the Government found that it was practicable he was sure they would receive the support of the country in constructing a work of so much importance to the Dominion.
Mr. McCALLUM thought that the width of 45 feet to the locks would be found amply sufficient. At the same time if the Government thought proper to make them wider it would add but little to the expense but to construct them so as to lock three or four vessels at a time, would not be beneficial. A depth of ten feet, he contended, would accommodate any vessel navigating the inland waters of this country. He advocated the construction of additional elevators at Kingston. The want of such additional accommodation and the lowness of the water last year had materially reduced the business of the Welland Canal. He was glad that the hon. member for Lincoln (Mr. Merritt) agreed with him that steam vessels were superseding sailing vessels on the lakes. He (Mr. McCallum) had no doubt that in a few years the trade would be conducted altogether by steam vessels with
COMMONS DEBATES
June 4, 1872
437
barges in tow.
As to the Welland Canal, there would be no difficulty in getting twelve feet of water. He took exception to the report of the officer who was sent by the Board of Works; contending that the cost of the rock cutting at Port Colborne harbour would be much greater, and the time required to perform the work much longer than as stated in the reports. He pointed out that it would save both time and money if instead of enlarging the Port Colborne end of the Canal the feeder to Port Maitland were made use of as the main channel. He trusted the Government would take this matter into consideration and have further surveys made before a final conclusion was determined upon.
The same engineer, whose report he held in his hand, had recommended the construction of a breakwater at the east side of Port Colborne harbour, 2,000 feet long. The prevailing winds, however, were from the west during the season of navigation, and instead of a breakwater at that point being of any real service, it would seem to be a catch water, and would destroy the harbour. If the Government should undertake to make a large expenditure for the improvement of Port Colborne harbour, even if a million were spent on the work, he believed it would be money in a great measure thrown away. He hoped the Government would not, therefore, act in this matter without making further inquiry, for the result of making a large expenditure on that point would be only to show that a serious mistake had been made. He warned the Government now in time, and trusted heed would be given to the warning.
The House then went into committee, Mr. SCATCHERD in the chair. The resolutions were adopted without amendment, and the committee rose and reported.
Hon. Mr. MACKENZIE hoped the hon. gentleman intended to give some further information in regard to the Baie Verte Canal before proceeding further with his resolutions.
Hon. Mr. LANGEVIN said that it would be more convenient to the House if he gave full details when the item of Supply came up for consideration.
Hon. Mr. MACKENZIE assented.
The resolutions were then read a first and second time.
* * *
SUPPLY
On the motion of Hon. Sir GEORGE-E. CARTIER the House again went into Committee of Supply upon the understanding that if the House was thin no items should be pressed, to which there was no objection—Mr. STEPHENSON in the chair.
On the item of $14,000 to aid in the construction of a branch railway from the Acadian Iron Mines, Londonderry, Nova Scotia, to the Intercolonial Railway,
Hon. Mr. LANGEVIN read an Order in Council that had been passed upon the subject, showing that the Government had imposed very stringent conditions on the Mining Company which was to construct the foundation of the road, the Government providing the rails, ballast and spikes, and undertaking to work the road when completed.
The item was passed.
On the item of $200,000 for improvement of the River St. Lawrence between Montreal and Quebec,
Hon. Mr. MACKENZIE asked if it was the intention, as he saw by a notice in the papers, to levy a tax to meet that expenditure.
Hon. Mr. LANGEVIN said the Minister of Finance had given notice to that effect.
The item was passed.
On the item of $110,000 for the North Shore Railway,
Mr. BOLTON said it was extraordinary this road should cost $100,000 every year over and above its earnings. The working expenses amounted to 99 per cent of the receipts, a percentage unexampled on any railway in the world. Its gross earnings were $400,000 and yet all that had been spent and $100,000 more.
Mr. COFFIN did not understand how these railways should cost more every year to run and keep them in order than the receipts. From the fact that it had so greatly discouraged railway enterprise in Nova Scotia, he believed the Government should increase the tariff of charges in order to bring the income up to the expenditure.
Mr. BODWELL thought it would be better to sell them for what they would fetch altogether to any company that would buy them.
Hon. Mr. LANGEVIN said that the line from Halifax to Truro was a portion of the Intercolonial, and he did not suppose the hon. gentleman would propose to sell that. There was no doubt that when the Intercolonial was finished the Government would have to take into consideration the administration of these railways or hand them over to an independent company. It must be remembered, however, that the experience of private railway corporations in Nova Scotia had not been very promising. The chief reason why the roads had lost so much was that they had been in a very bad state of repair when they passed into the possession of the Government, and between Halifax and Truro there were curves which greatly increased working expenses.
As regarded the tolls charged, he had compared them with the tolls on the New Brunswick Railways and found there was very little difference between them. It was necessary to put the road in good repair in view of the increased traffic which would pass over it when the Intercolonial Railway was completed, and this was the reason why the sum in the Estimates was required. The traffic was increasing and upon the year there would probably be a total increase of $15,000. The item then passed.
COMMONS DEBATES
438
June 4, 1872
On item $99,250 for the European and North American Railway,
Hon. Mr. ANGLIN asked if the sum of $49,750 included in this vote was sufficient to provide rolling stock for the additional traffic done on the road.
Hon. Mr. LANGEVIN said the amount was what the Superintendent of Railways had asked. There was a great want of rolling stock which item had not passed the House; he had advertised for tenders, and if the vote was passed tonight he would give the order at once for what was necessary. The item passed.
On the vote of $70,000 in aid of the temporary water supply of the Welland Canal,
Hon. Mr. LANGEVIN explained that the Canal would have to be deepened. Item carried.
On the vote of $10,000 for Temiscouata, Matapedia, and Huntingdon and Port Lewis military roads,
Hon. Mr. MACKENZIE demurred to the proportion for the first-named road, as it was not a military road. Item carried.
On the vote of $165,000 for planks and working expenses of the Red River road,
Hon. Mr. MACKENZIE objected to the plan adopted by the Government for the construction of the road. He thought it would have been built cheaper by a company. Item carried.
On the item of $644,000 for public buildings,
Hon. Mr. MACKENZIE said that was no answer to his question. What he desired to know was, what was the policy of Government in this matter? If it was their intention to erect $12,000 buildings wherever $5,000 was collected, he wished to know why, if such was the case, the town where he (Hon. Mr. Mackenzie) came from, for instance, where eight or ten times the revenue of Trois-Rivieres was collected, should be neglected.
Hon. Mr. TILLEY said in the case of Pictou the revenue derived justified the expenditure; the policy of the Government was to give buildings in towns where the revenue was considerable, and the population was from 10,000 upwards.
Mr. CARMICHAEL said the buildings in Pictou were totally unfit for the public service.
Hon. Mr. MACKENZIE said the revenue of Pictou amounted to some $34,000, which was no doubt pretty large, but the revenue of Sarnia on customs alone amounted to nearly as much. There should be some system in this matter.
Hon. Mr. ANGLIN said if they entered upon this system of putting up public buildings in small places, it might be extended indefinitely, and a very extravagant system of expenditure would be inaugurated.
Hon. Mr. MACKENZIE said they could not really let those items pass without further explanations.
Mr. BOLTON referred to the vote of $12,000 for the buildings at Trois-Rivieres, which the Minister of Public Works (Hon. Mr. Langevin) defended as an economy in saving rent, etc. He (Mr. Bolton) observed the total cost of collecting $5,000 of revenue last year was $870, which was less than the interest on the expenditure on the building would amount to. He agreed with the Member for Lambton (Hon. Mr. Mackenzie) that some system should be adopted.
Hon. Sir GEORGE-E. CARTIER said the revenue from Levis in Excise was immense. (Laughter.) Last year it amounted to $13,000. (Hear, hear, and Laughter.)
Hon. Mr. MACKENZIE said he did not consider $13,000 an increase.
Hon. Sir GEORGE-E. CARTIER: I do.
Mr. STIRTON said in Guelph they collected $52,500 of customs revenue, and the business was all done in one corner of the Great Western freight shed. There were no complaints, but if this system was adopted of erecting buildings in small places it would have to be extended all over the country.
The items passed on the understanding that a full discussion would be allowed on concurrence.
The Committee then rose and reported, and the House adjourned at 1 o’clock.
COMMONS DEBATES
June 5, 1872
439
HOUSE OF COMMONS
Wednesday, June 5, 1872
