CANADA
HOUSE OF COMMONS DEBATES
OFFICIAL REPORT
SECOND SESSION—TWENTY SEVENTH PARLIAMENT
16 ELIZABETH II
VOLUME V, 1967
COMPRISING THE PERIOD FROM THE TWENTY THIRD DAY OF NOVEMBER, 1967, TO THE TWENTY FIRST DAY OF DECEMBER, 1967, INCLUSIVE
INDEX ISSUED IN A SEPARATE VOLUME
ROGER DUHAMEL, F.R.S.C.
queen’s PRINTER AND CONTROLLER OF STATIONERY OTTAWA. 1967
27053—290 £
4595
HOUSE OF COMMONS
Thursday, November 23, 1967
