 at 3 o’clock p.m.
Prayers
After routine,
EXTENDING ACTS
Hon. Mr. TUPPER moved the House into Committee, Mr. McDONALD (Middlesex West) in the chair on the following resolutions:—That it is expedient to extend to the Provinces of British Columbia the following Acts:—The Act 31, Vic., Cap. 58, respecting the navigation of Canadian waters; the Act 51 Vic., Cap.59, relating to lighthouses, buoys, and beacons; the Act 31 Vic., Cap. 64, respecting the treatment and relief of sick and distressed mariners; and the Act 31 Vic., Cap. 65, respecting the inspection of steamboats, and for the greater safety of passengers by them, and to authorize the imposing of the like tonnage rates and fees as are imposed by the said two last-mentioned Acts for the purpose of paying the expenses and remunerating the services required in carrying out their provisions.
The resolution was reported, without amendment, and Hon. Mr. TUPPER introduced a bill founded thereon, which was read a first time.
* * *
ADDRESS TO THE GOVERNOR GENERAL
Hon. Sir JOHN A. MACDONALD rose to move an Address to His Excellency Lord Lisgar, expressive of the regret of the House at his departure. He said that the course of the nobleman had been such during his stay in Canada as to command and to retain the good feeling of everyone in the country during the whole of his administration. He (Hon. Sir John A. Macdonald) believed the House would agree with him in saying that he had performed the duties of his position, as the representative of Our Most Gracious Queen, in a manner that demanded the respect and esteem of all classes of our people, and especially of the representatives of the people in Parliament. (Hear, hear.) It was not surprising that Lord Lisgar should have pursued a constitutional course in the performance of his duties, as long experience in public life in England, as an officer of the Imperial Government, as a member of Parliament, and in several other high positions, had fully qualified him to understand and to carry out the principles of responsible
government, as they obtain in this colony and most of the colonies of the empire. He (Hon. Sir John A. Macdonald) thought, therefore, that everyone would agree with him that it was fitting, as it was usual in such cases, that Parliament should express its real feelings with respect to the Governor-General, on his retiring from office. Personally he regretted exceedingly that the intercourse which, during the whole time Lord Lisgar had been in office, had been pleasantly conducted between that nobleman and himself and the other members of the Government, should now end. In every respect Lord Lisgar had been an exemplary governor. (Hear, hear.) For reasons personal to himself he had found it proper to give up the government of Canada, and, while we have every reason to believe, and to know that he will be succeeded by a countryman of his own equally worthy of our good feeling, yet those who knew him would regret his departure. Without further remark he (Hon. Sir John A. Macdonald) moved, seconded by the hon. member for Lambton, that an humble address be presented to his Excellency conveying an expression of that regret.
Hon. Mr. MACKENZIE in seconding the motion, observed that under our system of Government, alike in England and her colonies, all that we had to expect from the head of the State was that he would preserve that impartial position between political parties that was absolutely necessary on the part of the Chief of the Executive. Of late years they had always been able to give due credit to their Governors for the performance of those duties which devolve upon the representative of a Constitutional Sovereign, and it must afford the greatest pleasure to the members of that Parliament to have witnessed the care that had been taken of late years by Her Majesty’s representatives in this country, and not less by Lord Lisgar than by his predecessors, and how they had observed that dignified neutrality that became their position, as a former Governor of Canada had characterized the proper position of an Administrator here. He had great pleasure in seconding the motion of the Premier for an address to his Excellency, believing that it was due to him that the House should manifest its regard for his administration of the affairs of the country in that respect. Were the address to ask the endorsation of the Administration, as a phrase in it seemed almost to imply, of course he could not agree to it. That, of course, was simply to be understood so far as his Excellency was concerned, and could not in any respect cover the acts of his Ministers, to which he (Hon. Mr. Mackenzie) had the strongest possible objection. (Laughter.) But he was bound to say that he had no reason whatever to identify his Excellency with those things upon which they differed in that House. Lord Lisgar had endeavoured to maintain that due balance between parties that was always required of Her Majesty’s Representative in this country; he had on all occasions shown himself most accessible to all classes of the Canadian people, and had endeavoured so to discharge all duties
COMMONS DEBATES
490
June 11, 1872
devolving upon him as Govemor-in-Chief of the principal British Colony, that all classes must give their cordial approval to his course. As he (Hon. Mr. Mackenzie) had stated, when seconding a similar address to his predecessor, they appreciated his impartial conduct all the more because on former occasions they had suffered, as hon. gentlemen opposite happened to know, from a different course being pursued by another gentleman in that high position. He seconded the address with the greatest of cordiality and good feeling personally towards his Excellency, and he spoke the sentiments of many gentlemen, if not all, on his side of the House, in saying that his Excellency’s conduct of government had met the general approval of the people of this country; and that he would leave this country, not only with the good feeling but with the regrets of the people that he had taken his departure before the usual time allotted to Her Majesty’s representatives in this Colony. He was sure that the good wishes of this country would go with his Excellency, and if anything they could say in his favour would commend him to any special marks of his Sovereign’s regards, it would be received very gratefully by the people of this country.
Hon. Mr. McDOUGALL (Lanark North) said that as he was one, if not the only one, of those outside the Government who had enjoyed confidential relations with His Excellency, he desired not to content himself simply with a formal approval of the resolution before the House, but to add one word in corroboration of the sentiments which had fallen from both sides of the House. It was true that Lord Lisgar’s administration had fallen upon happy times. There had been no ministerial crisis, no great occasion for the display of those high qualities which the member for Lambton (Hon. Mr. Mackenzie) had spoken of with so much propriety; but he (Hon. Mr. McDougall) was sure, and he believed all others who had had official relations with Lord Lisgar, must feel equally confident, that, if any such occasion had presented itself, he would have held the scales of office evenly and justly in any constitutional crisis. He was a man of great knowledge and experience, and he (Hon. Mr. McDougall) felt sure that, on leaving his present charge and taking his place among the public men of England, his associations with the public men of this country, his knowledge of its great resources, and conviction of the brilliant future that is in store for it, will enable him to confer great benefit on this country. We must all feel his loss, even though we have the happiness of knowing—and he spoke from private as well as public information—that his successor, Lord Dufferin, is a man of great qualities and a large experience, and will, we all believe, fill his office with as much distinction and impartiality as the noble Lord who is now leaving us. (Hear, hear.)
The motion was then carried and a select committee appointed to draft an address. The committee reported the following which was adopted and sent to the Senate for concurrence:—
“To His Excellency the Right Hon. John Young, Baron Lisgar, G.C.B., G.G.M.G., Governor-General of Canada, &c.
“We, Her Majesty’s loyal and dutiful subjects, the House of Commons in Parliament assembled, beg leave to express to Your
Excellency our sincere regret that the termination of your official connection with Canada now approaches.
“To the able and distinguished discharge of the trusts confided by our Gracious Sovereign to Your Excellency in other portions of Her Majesty’s dominion, has been happily added that of the government of Canada. In expressing our regret at your Lordship’s approaching retirement from the high office of Governor-General, we venture to add our congratulations that Your Excellency’s administration of that office has been characterized by the great development of the dominion, and its marked prosperity, as well as by the extension of its boundaries from the Atlantic to the Pacific Oceans.
“Your Excellency will bear from our shores our high respect and esteem. We trust that Your Excellency will long enjoy the honours conferred on you by Her Majesty, and that you may be spared for many years to give, as one of the grand council of the nation, the benefit of Your Lordship’s experience and tried ability in maintaining the welfare and integrity of the British Empire.”
* * *
CENTRAL BANK OF NEW BRUNSWICK
Mr. PICKARD moved the second reading of the bill to authorize the winding up of the Central Bank of New Brunswick. —Carried.
The House went into Committee on the bill, reported it, and it was read a third time and passed.
* * *
TEA AND COFFEE DUTIES
Hon. Sir FRANCIS HINCKS moved the House into committee on the resolution for the repeal of the tea and coffee duties. He explained that the resolution he now proposed was to the effect that all tea and coffee imported from any country, other than the United States, should come in duty free; but that a similar duty should be charged on those articles imported from the United States as the Americans imposed on tea and coffee imported from places other than the countries of its production.
Hon. Mr. MACKENZIE said it appeared to him that this was a violation of the Treaty obligations with the United States, by which we were bound not to make any discriminating duties. In any case he did not believe in retaliatory legislation and did not think we should impose a burden on our people, because another country imposed burdens on theirs.
Hon. Sir FRANCIS HINCKS thought that the proposed measure would not interfere with our trade obligations with the United States.
Mr. JONES (Leeds North and Grenville North) objected to these cries of retaliation and free trade being raised whenever any tariff question was discussed. The people of the United States
COMMONS DEBATES
June 11, 1872
491
legislated for the benefit of their own people, and did not consider whether it was retaliatory or not; and we should adopt the same course.
Hon. Mr. HOLTON said this was another step in the reactionary course adopted by the Minister of Finance since his return to the country, and he trusted there was independence enough in the House to refuse to do the bidding of the Finance Minister, who had been recreant to his principles in the matter of free trade. He did not think the House should be asked to follow the example of Yankee protectionists, and impose onerous burdens on our own people to benefit only a few importing houses.
Hon. Sir FRANCIS HINCKS denied the imputation that he had been recreant to his principles in the matter, and reminded the hon. gentlemen of a policy similar to that under discussion, which he adopted some twenty years ago. It was not adopted in order that the neighbouring country might not place us at disadvantage; and some of his friends in Montreal, strong free traders, had approved of the proposition. The question raised by the member for Lambton as to our treaty obligations, was important; but he felt sure that the resolution did not interfere with those obligations. He then referred to McCulloch’s Commercial Treaties, and quoted a clause which confirmed his opinion.
Mr. WORKMAN approved of the proposition of the Finance Minister, and thought it would give general satisfaction to the trading community.
Hon. Mr. HOLTON asked whether it would be approved by the consumers of tea and coffee.
Hon. Sir FRANCIS HINCKS said it would not affect them.
Hon. Mr. HOLTON contended that it would affect them more than under a free trade policy. He denied that, because a few importing houses in Montreal approved of this measure, it was therefore a good one. If the Finance Minister had said that the duties were necessary for fiscal reasons, it would have been another thing; but, in the absence of that fact, the public should have the benefit of absolute free trade in these, the primary necessaries of life.
Hon. Mr. MACKENZIE observed that in one of the statements that had lately been published, that the merchants of Chicago and Detroit would be able in future to bring in tea four or five cents per pound cheaper by railway than by sea. The result of this increased facility for importing would be that merchants in the western part of the country, in Manitoba and other parts, would be able to bring tea from the United States cheaper than it would be possible to bring it from Montreal. The course which the hon. gentleman proposed, however, would be discriminating against the introduction of tea from that quarter in favour of its importation by Montreal. The hon. gentleman had no right to propose that, for it was a vicious kind of legislation.
Hon. Sir FRANCIS HINCKS said there were merchants in Toronto, and he dared say there were merchants in other western cities also, who imported direct from China. They were entirely satisfied with this arrangement, and under it they could import direct from China, by way of San Francisco, free of duty; so that they could bring tea in quite as cheaply as it could be obtained from American merchants.
Hon. Mr. MACKENZIE was aware that they could import direct by rail by bonding at San Francisco; but that would involve the employment of an agent or the opening of a branch house in that city. It was no argument for the measure that the merchants were in favour of it. The House was not legislating for the tea dealers, but for the public; and he believed that the proposition would have a more or less injurious effect.
Hon. Mr. CONNELL said the proposed arrangement would have the effect of compelling merchants in the Lower Provinces to import from England, or direct from China, instead of from the United States as now. He did not think that would be fair. Let the United States take their own course; and he did not see why, because they did, that our merchants should be deprived of the advantage of buying in the United States or wherever else they could buy cheapest. The principle upon which the measure was founded was wrong, and the effect of it would be to injure small dealers and throw the trade into the hands of a few.
Hon. Mr. TILLEY said it was only yesterday the Government had received a telegraphic communication from a Halifax merchant, whom he knew imported direct from China, asking whether, under this arrangement, teas imported direct from China through the United States would be admitted free of duty. That would be the case under the proposition before the House; there was no doubt of it. It was true the general effect of the arrangement would be to stimulate importations, either from England or direct from China; but importations to Canadian merchants through the United States would come in free of duty.
Hon. Mr. CONNELL said that was all very well, but the plan would nevertheless work unfairly, by throwing the business into the hands of a few individuals who were able to engage in the direct trade. He did not see why it should not be free.
Hon. Mr. JONES (Leeds North and Grenville North) said scarcely any hon. gentleman got up to speak upon any question connected with the tariff who did not mention the subject of free trade. Now, what was free trade? He would like to know what hon. gentlemen really meant by it. Was England a free trade country, where $30,000,000 were raised by taxes levied upon the productions of foreign countries? Why, in the country everything imported from abroad was taxed except a few raw materials, which were necessary to carry on the manufacturing enterprises of England. Was that free trade in the meaning of hon. gentlemen who used the phrase so frequently? (Hear, hear.) Why it was necessary for this country to raise revenue by means of duties on imports, and if these duties were not levied on tea and tobacco and other articles,
COMMONS DEBATES
492
June 11, 1872
the production of foreign countries, they must be placed on articles which the people of this country produced. When gentlemen spoke of free trade he would like them to say plainly what they meant by it; what articles they would wish to see taxed; or, if none, where the revenue was to come from. (Hear, hear.)
Mr. BOLTON said under this arrangement New York merchants might send teas to Canada, and by simply making a declaration that they were imported directly from China, get them admitted free of duty. He did not see, therefore, that the law would be effectual in securing what it professed to secure.
Hon. Mr. TILLEY could not understand how it could be held to be a direct importation if an American merchant imported to New York and then from New York to Canada. There would be no privilege of free admission in that case. It would be different if a Halifax merchant, for instance, ordered 1,000 chests of tea from China, and they were landed in New York on their way to the Dominion, they would be allowed to enter free of duty.
Mr. BOLTON did not see how it would be possible to discriminate between the two cases.
Hon. Sir FRANCIS HINCKS said it would be very simple. The invoices would show whether the shipments were made in China to a New York or a Canadian merchant.
The motion was then carried and the committee rose and reported.
Upon the question of concurrence,
Hon. Mr. HOLTON said it was useless to continue the discussion upon the subject, or to offer any amendment. He would confine himself to a verbal protest against this reactionary policy, this re-imposition of duties not required for the purposes of revenue upon a primary necessary of life. He believed that the measure would be fully understood by the country, and that any effect which might be produced by prolonged discussion would be equally caused by a simple statement of the proposition of the hon. gentleman. He (Hon. Mr. Holton) did not intend to raise any point of form against concurrence in the resolution, nor did he propose to divide the House upon it.
The resolution was then concurred in, and Sir Francis Hincks introduced a bill founded upon it.
* * *
CANADA SHIPPING COMPANY
Hon. Mr. ABBOTT moved concurrence in the amendment made by the Senate to the bill to incorporate the Canada Shipping and Forwarding Company.—Carried.
THE INTERCOLONIAL RAILWAY
Hon. Sir FRANCIS HINCKS moved concurrence in the resolution adopted in Committee of Supply, for granting $5,400,000 for the Intercolonial Railway.
Hon. Mr. MACKENZIE asked for explanations respecting the Miramichi Bridge. He had been informed upon high engineering authority that the decision arrived at by the Government, namely, to continue the original plan of construction, was one which was almost certain to prove unfavourable, in other words, that if it was attempted to raise the structure upon the bed of hardpan that lay between the surface of the earth and the rock, instead of penetrating to the rock itself for a foundation, the weight which would rest upon the hardpan would be too great, and the inevitable result would be that the bridge would sink, and thus destroy the connection of the railway at that place. The statement that had been made to himself upon this point was very strong and conclusive. It was a very grave matter if the principal bridge on the road was built upon an unsuitable foundation, and he thought it was a subject in regard to which the House might legitimately call for explanations.
Mr. WALSH said the whole correspondence on the subject had been before the House for some time past. The question of the sufficiency of the stratum forming the foundation only arose with regard to the North-West branch of the river, and the bridge on the South-West branch was being proceeded with according to the original plan. When the question came up it was deemed to be of sufficient importance to require the opinions of engineers not connected with the regular staff; accordingly, Messrs. Keefer and Gzowski were called in, and though they recommended a different course of construction, they agreed with Mr. Fleming as to the sufficiency of the foundation to sustain the bridge. He was not aware that there was now any doubt on the subject.
On the further consideration of the vote for public buildings,
Hon. Mr. MACKENZIE referring to votes for custom houses, said he had previously suggested that the Government should have some defined plan about the construction of these buildings, and the places entitled to them should be designated in some way that would prevent the Government from asking votes open to the objection of being considered simply for political purposes. He then quoted the amount of revenue, Customs and Excise, collected at Three Rivers and Pictou, the places where the custom houses were to be erected, and the number of vessels entering at and clearing from each port, and maintained that there could be no excuse for the erection of buildings at those comparatively small ports. He then referred to the proposed custom house for Newcastle and Chatham, N. B. Those places, he believed, were some five miles apart, but, as latterly the expenditure of public money had taken the Newcastle direction, he supposed that the building would be placed there instead of the more important port of Chatham. He also quoted the revenue collected at those ports, and the number of vessels entered, maintaining that there was no necessity for buildings at these places either, and he believed the adoption of such a practice would
COMMONS DEBATES
June 11, 1872
493
inevitably produce abuse. There was an established order in the Customs Department regulating the salaries in accordance with the revenue collected, and he advocated the adoption of a similar principle to regulate the erection of custom houses. He then showed the amount of work done at the ports of Guelph and Sarnia, neither of which places had custom houses. He had intended to propose an amendment which would embody the principle he advocated, but at the present stage it would be useless to do so, and he should therefore content himself with calling the attention of the House and the country to the practice introduced by the Government of erecting buildings where they were not necessary, and with no other object than the spending of a sum of public money in certain localities, either to gratify political adherents or to accomplish some political purpose. There were other items which he considered wrong, but those he had mentioned embraced the objectionable features of the matter. He considered the votes a wanton waste of money, and a gross injustice to other places where such edifices might be erected, with some regard to public expenditure and with some relation to the amount of revenue collected.
The resolution was then carried.
* * *
COMMITTEE OF SUPPLY
It was then moved to receive the report of the Committee of Supply. In the course of receiving the report,
Hon. Mr. MACKENZIE referred to the item of $10,000 for arbitrations and awards. He said that the arbitrators had only had twelve cases before them since Confederation, and not one since February, 1870, while the cost, up to the present time, had been $14,987.24 for salaries and expenses of the Arbitrators, and a large amount in addition had been paid by the Government in the shape of professional fees to gentlemen appointed to act as counsel. It was quite clear that the Arbitrators were totally incompetent to discharge their duties, and that they were not professionally or technically capable of acting as Arbitrators, and the Government showed that they admitted this in entrusting the settlement of disputes to professional gentlemen outside the public service or in conjunction with the departments. Two cases had been settled by the Chief Engineer of the Public Works Department, and he quite approved of that course, and when it was inconvenient to entrust the whole question to an officer of departments, he believed some professional gentleman should be called in for the occasion. It might not be pleasant for the Government to announce such a decision to the arbirators, but the House ought to announce its belief in the unsoundness of the present practice. With a view of placing his views on record he moved, “that the resolution be not concurred in, but that it be provided that no portion of the money so voted shall be applied towards the payments of salaries to the Dominion Arbitrators, inasmuch as arbitrators on awards respecting contracts for public works require technical and professional knowledge, and
inasmuch as the Department of Public Works was obliged to commit the settlement of disputes to the arbitrament of an expert from the Department, thus absolving the arbitrators from the discharge of any duties for the past two years.”
Hon. Sir JOHN A. MACDONALD believed the board was useful and did good service, and had done good service in protecting the revenue of the country, and at the same time doing substantial justice to contractors. In cases of dispute between the Government and individuals, there must be some mode of settlement, for there could not be a total denial of justice, and the Crown could not settle despotically what amount should be allowed and no more; and the member for Lambton would scarcely advocate such a practice as that. He believed this more particularly, because the member for Durham West pressed and forced upon the Government the insertion of the arbitration clauses of the Penitentiary Act. The experience of Canada and also of the United States had shown the necessity of such a tribunal as this, and that necessity could not be disputed. If such matters were sent to a jury it was quite sure that their sympathies would always be enlisted on the side of the individual, or it was always the case in suits in which any large corporations were concerned. Years ago, therefore, this tribunal was formed and it was perfectly successful, and the fact that there only had been few calls for their services was no argument against their usefulness. Of late there had been but few public works, and consequently few references to the arbitrators; but it was most undesirable, just as large public works of every kind were being commenced, and many disputes might arise to break up the board and leave contractors to the tender mercies of the Minister of Public Works, or send cases to be tried by a jury. Special arbitrators would be found exceedingly expensive, as was evident by the case of the construction of the Parliament buildings. The present arbitrators were only allowed a fixed salary of $1,000 a year and their actual travelling expenses, and were liable to be sent to any part of the Dominion to examine witnesses on the spot. The gentlemen now on the board were men of strong common sense, understanding the value of evidence, good business men, and having all the elements of a jury and much more, and it would be extremely unfortunate, particularly at the present time, to break up the tribunal. It might possibly be prudent to have only one legal gentleman on the Board to arrange and organize the evidence, but not more than one.
Hon. Mr. HOLTON: And an engineer.
Hon. Sir JOHN A. MACDONALD did not think there need be an engineer, as the members ought to be sufficiently men of business to appreciate the evidence of engineers in the same way as Judges were able to appreciate the evidence of experts of all kinds. It would be impossible to get a body acquainted with every branch of public interest, but a body of the present kind, moderately paid with a fixed salary, and liable to be sent to every part of the country, men of integrity, and men of business,
COMMONS DEBATES
494
June 11, 1872
was just the kind of tribunal wanted, and he would be very sorry to have the motion carried.
Hon. Mr. CAMERON (Peel) objected that the member for Lambton (Hon. Mr. Mackenzie) suggested no remedy for the evil he complained of.
Hon. Mr. MACKENZIE said he had shown that the government themselves passed over the arbitrators, and had for some time past entrusted all matters of arbitration to professional gentlemen. He showed that in three cases the arbitrators had reduced the amount of claims by $203, while their own expenses amount to over $11,000, and he believed that many appeals to arbitration arose very greatly from the desire of contractors to take advantage of the want of professional knowledge on the part of the arbitrators. In one case a claim was made for $49,000, and, after long proceedings, the arbitrators awarded more than double the amount of the original estimate of the Government officers. He thought such cases should be submitted to professional men of known standing, or to the Chief Engineer of the Public Works Department. He of course believed the arbitrators to be personally above suspicion, but he objected to the entire system as at present carried out.
Hon. Mr. CAMERON (Peel) referring to the case mentioned by Hon. Mr. Mackenzie, believed that the award was not really so large as in justice to the contractors it should have been. There could be no question of the necessity of the tribunal in question, and if the present gentlemen were not efficient, new ones could be appointed. He, however, maintained that they were in every way eminently fitted for their positions; but, in any case, until the law was changed, it should not be endeavoured, by a side wind, to place the Board on a different footing from that provided by the Statute law.
Hon. Mr. HOLTON said the gentlemen opposite had entirely misconstrued the remarks of the member for Lambton (Hon. Mr. Mackenzie) for he did not say there should be no arbitration, but that the present system possessed the confidence neither of the country nor of the Government. He advocated a board composed, not of farmers and artizans, but entirely of professional men.
Hon. Mr. CAMERON (Peel) replied, maintaining that the arbitrators were appointed by law, and that the proposition was not a proper way of disposing of the matter.
Mr. JONES (Leeds North and Grenville North) could not agree with the suggestion that the Board should be composed of lawyers as they were quite as liable to differ as farmers and artizans, who were quite as capable of coming to a proper decision in matters submitted to them as were lawyers.
Hon. Mr. MACKENZIE’s motion was declared lost on a division and the item was concurred in.
Mr. CUMBERLAND desired, before passing away from the Public Works item, to express his regret that the government had
not included some vote for the construction of the Sault Ste. Marie Canal, especially considering the great liberality which had been shown with respect to other canals. It was most desirable that the canal should be constructed, and he need only refer to the report of the Canal Commissioners to show the economy and feasibility of the undertaking. Having regard to the rapid increase of the trade of Lake Superior, he hoped the Government would keep a watchful eye on the work, and would very shortly take it in hand.
Hon. Mr. LANGEVIN said that last year the Government obtained a vote for a complete survey of the canal; but it was impossible to undertake all the works at once, and the Government therefore decided to take up the most pressing works first, such as the Welland and St. Lawrence canals; but the Sault Ste. Marie Canal would not be lost sight of.
Hon. Mr. MACKENZIE agreed as to the necessity of the work on commercial grounds, and in addition he would not suffer such a humiliation as Canada had to undergo last year for twice the amount necessary to construct the work.
On the item of mail subsidies,
Mr. BOLTON proposed a resolution making it incumbent on owners of all vessels running between ports in the Dominion, and receiving subsidies, to furnish detailed statements of all voyages of such vessels.
On the suggestion of Hon. Sir JOHN A. MACDONALD the
resolution was allowed to stand over as a separate motion.
On the militia estimates,
Mr. FOURNIER moved that the House do not concur, but that it be resolved that nothing in the present circumstances of the Dominion justifies the expenditure of so large a sum as $1,549,400 in the maintenance of a militia force, and that the House resolve itself into Committee of the Whole to take into consideration the propriety of largely reducing the amount.
The members were called in and the motion rejected: —Yeas, 27; Nays, 75.
(Division No. 48)
YEAS
Members
Blake Cheval
Crawford (Brockville)
Forbes Fournier Godin Kempt
Macdonald (Glengarry)
Metcalfe Paquet
Ross (Wellington Centre)
Bechard
Bourassa
Coupal
Delorme (Saint-Hyacinthe)
Fortier
Geoffrion
Holton
Killam
Mackenzie
Mills
Pozer
COMMONS DEBATES
June 11, 1872
Rymal	Snider
Stirton	Whitehead
Young-27	NAYS
	Members
Ault	Bellerose
Benoit	Blanchet
Bolton	Bowell
Cameron (Peel)	Campbell
Carling	Carter
Cartier (Sir George-E.)	Cayley
Chauveau	Cimon
Coffin	Colby
Cumberland	Currier
De Cosmos	Drew
Ferguson	Fortin
Gaucher	Gaudet
Gendron	Grant
Gray	Grover
Heath	Hincks (Sir Francis)
Jones (Leeds North and Grenville North)	Keeler
Lacerte	Langevin
Lapum	Lawson
Little	Macdonald (Sir John A.)
McDonald (Lunenburg)	Magill
Masson (Soulanges)	Masson (Terrebonne)
McCallum	McConkey
McDougall (Lanark North)	McDougall (Renfrew South)
McDougall (Trois-Rivieres)	Merritt
Morris	Morrison (Niagara)
Nathan	O’Connor
Pope	Ray
Redford	Ross (Champlain)
Ross (Prince Edward)	Ross (Victoria, N. S.)
Ryan (King’s, N. B.)	Ryan (Montreal West)
Scatcherd	Schultz
Scriver	Shanly
Smith (Selkirk)	Street
Thompson (Haldimand)	Tilley
Tourangeau	Tupper
Walsh	White (Halton)
White (Hastings East) Wright (Ottawa County)-75	Willson
Concurrence was taken on various items, and it being six o’clock the House rose.
AFTER RECESS
EXPLANATION
Hon. Mr. CHAUVEAU wished to call the attention of the House to a statement which had been made by the member for Lambton (Hon. Mr. Mackenzie) and circulated through most of the newspapers. He was not in his seat when the statement was made, or he would then have taken the opportunity of putting himself and the Government right on that very important matter. The statement was that the resolution which he moved on the New Brunswick School Bill had been placed in his hands by the Government. He wished to deny that assertion. The resolution was initiated and prepared by several other members and himself, and not by the Government.
495
THE RECENT ABDUCTION AT LONDON
Hon. Mr. BLAKE asked the Government to convey to the House any information in their possession in reference to the statement contained in the press, to the effect that a person has been seized in open day in the City of London, Ontario, and carried to the American side; and whether communication had been had with the United States or Imperial Government in the matter.
Hon. Sir JOHN A. MACDONALD replied that a few days ago the Government was informed by telegraph of the arrest of the party in the manner mentioned in the newspapers, and instructions were at once given to send down the depositions, and a statement of facts and evidence. Those papers were received yesterday, and upon them a report had been prepared and submitted to Her Majesty’s Minister at Washington, in order that representations in the matter might be made to the United States Government, and a similar report had been prepared for the Imperial Government.
* * *
MESSRS. BLAKE AND WOOD
Mr. FERGUSON rose to make a personal explanation. He said that in the course of the debate he had stated, among other things, that a note had been passed across the floor of the House at Toronto from the member for Durham West (Hon. Mr. Blake) to the member for South Brant (Hon. Mr. Wood) and that the hon. member for South Brant had contradicted that statement.
Hon. Mr. MACKENZIE rose to a point of order on the ground that they had no right to discuss an action which had taken place in the local legislature. The hon. gentleman should have brought the matter up when the member for Brant (Hon. Mr. Wood) was in his seat.
Mr. FERGUSON said the member for Brant (Hon. Mr. Wood) knew that he (Mr. Ferguson) intended to bring the matter up, as he had informed that gentleman of his intention to do so. He desired now simply to say that he held the note in his hand, and it was as follows: “You had better speak now—Edward Blake”. He had been charged with having made an untruthful statement, but it had been his desire, and he had always endeavoured to speak the truth in any statement he had made on the floor of the House. He would hand the note to the hon. member for Durham West (Hon. Mr. Blake) and if that gentleman would say that it was not in his handwriting he (Mr. Ferguson) would very willingly withdraw it.
Hon. Mr. BLAKE said that in the absence of the hon. member for South Brant (Hon. Mr. Wood) not on his own account, the hon. gentleman having delayed to make the statement he had just offered until the hon. member for Brant was absent, he (Hon. Mr. Blake) would perhaps be allowed to say a word or two which would be unnecessary if the hon. member for Brant were here. The hon. gentleman (Mr. Ferguson) was not correct in saying that, when he was interrupted he was making observations in course of debate in the ordinary sense. Somebody else was speaking upon a question
COMMONS DEBATES
496
June 11, 1872
before the House when the member for Cardwell (Mr. Ferguson) after a fashion which was peculiar to him, carried on a running commentary on the debate in a very loud and disorderly tone, and in the course of that running commentary a controversy had arisen between the hon. member for South Brant, which considerably disturbed the propriety of debate, without, however, the Speaker calling the hon. gentleman to order. There was certainly some conversation between the two hon. members; but it could not be said that the hon. gentleman’s remarks were observations made in the course of debate. He (Hon. Mr. Blake) did not know what the hon. member for Cardwell (Mr. Ferguson) had said, nor had he knowledge of the language used by the hon. member for Brant (Hon. Mr. Wood) with reference to the piece of paper which the hon. gentleman had produced.
Mr. FERGUSON: Here it is if you want to see it (handing it towards Hon. Mr. Blake).
Hon. Mr. BLAKE said he did not want to see it, inasmuch as he was quite aware of the general imputations that were made in regard to it. (Laughter.) He perfectly well recollected having written that paper. He understood that, after it had passed into the possession of the hon. member for Brant (Hon. Mr. Wood) it had been torn in two, and that the pieces having been pasted together, it appeared in the rehabilitated shape in which it was now presented before the world. He (Hon. Mr. Blake) supposed that the hon. member for Brant, after receiving and reading it, had torn it, thrown it upon the floor, and that subsequently the hon. member for Cardwell (Mr. Ferguson) or some other person had picked it up, joined the fragments together, and kept it until the opportunity presented itself for using it in this House. He (Hon. Mr. Blake) had some papers on the floor around him, which he had torn up to-day, and he trusted that the Speaker would issue instructions that they should be carefully removed and destroyed, so that the hon. member for Cardwell (Mr. Ferguson) would not have access to them in order to make use of them to the prejudice of others. That was all he (Hon. Mr. Blake) had to say in reference to that. Now, with regard to the debate, in respect to which a controversy had arisen between the hon. member for Cardwell, and the hon. member for Brant, that debate had been upon a motion of the hon. member for West Middlesex in that House, and for Lambton in this. That debate had been going on Friday and during the course of the debate the hon. member for South Brant had resigned. The debate terminated late on Friday by the carrying of an address in the sense of a vote of want of confidence. On Monday following the Government had come down with an answer to the address which answer was deemed unsatisfactory to himself (Hon. Mr. Blake) and his friends, and they proposed on the Monday following— the hon. member for South Brant having resigned on Friday—another address to His Excellency representing the unsatisfactory character of the preceding address. In the course of the debate which followed, he (Hon. Mr. Blake) had met the hon. member for South Brant in the lobby. The hon. member had told him that certain imputations had been cast upon him in the interval between the Friday and Monday for having resigned his office in the Government, and that he intended to speak in the course of the debate in reply to those imputations. The hon. member had asked him (Hon. Mr. Blake) how long it was probable the debate would last, and he had told him that it would be late that evening
before a division would be taken, and that it was even doubtful whether it would not continue till the following day. Later in the evening he (Hon. Mr. Blake) had observed signs that the debate was lagging, and that there was a probability of its coming to a close, and having erroneously informed the hon. member for South Brant that it would continue till late at night, and probably till next day, he (Hon. Mr. Blake) had committed the heinous crime of sending a line across the House to the hon. member for South Brant (Hon. Mr. Wood) to correct the error, and give him an intimation that now was the time to speak if he intended to speak at all in reply to the imputation to which he had previously referred. Shortly afterwards the hon. member for South Brant had told him that he had met Mr. Sandfield Macdonald in the lobby and that the latter had asked him not to take any notice of the imputations, and that at his instance he (Hon. Mr. Wood) had determined not to speak. That was the history of this piece of paper. (Hear, hear.)
Mr. BOWELL said he knew nothing of the piece of paper, and had no desire to interfere in the discussion in regard to it; but in justice to hon. member for Cardwell (Mr. Ferguson) he felt bound to say that the hon. member for Durham West (Hon. Mr. Blake) was not strictly correct with regard to what had occurred in this House between the hon. member for Cardwell and the hon. member for South Brant. The hon. member for Durham West had stated that the hon. member for Cardwell had made a running commentary on the remarks of some other hon. member who was speaking. Now the fact was that the interruption of the hon. member for South Brant had taken place while the hon. member for Cardwell was addressing the House.
Hon. Mr. HOLTON called attention to the fact that there was no question before the House and that, therefore, the discussion was out of order.
Hon. Sir JOHN A. MACDONALD said the gentleman was quite in order, and there was a question of fact before the House, and it was certainly strange if the House would refuse to do justice to an hon. member, whose statement had been impugned without sufficient cause.
Mr. BOWELL desired to state distinctly that the interruption had taken place while the hon. member for Cardwell was speaking. The hon. member for Durham West had also accused the hon. member for Cardwell with having chosen a time to bring this matter up when the honourable member for South Brant was absent. Now he (Mr. Bowell) knew that the hon. member for Cardwell had, on two different occasions, given notice to the hon. member for South Brant that he intended to refer to this matter in the House, and yet the hon. member for South Brant had not chosen to attend to give him an opportunity.
Hon. Mr. ANGLIN could not see what this House had to do with a matter that had occurred in another House at Toronto.
The SPEAKER stated that he had allowed the hon. member for Cardwell to make a personal explanation, but that debates upon an explanation were not in order.
The subject then dropped.
COMMONS DEBATES
June 11, 1872
497
SUPPLY
In receiving the report of the Committee of Supply on the item for salaries of Harbour Masters of Quebec, Gaspe and Amherst,
Hon. Mr. MACKENZIE said he saw no reason why these officers should not be placed in the same position as at other ports, where they were paid by fees. He would therefore move, seconded by Hon. Mr. HOLToN,—“That this House is of opinion that the payment of salaries of the Harbour Masters of Quebec, Amherst, and Gaspe should be made from local sources, not from the funds of the Dominion.”
Hon. Mr. TUPPER said the hon. member for Lambton had stated that these Trinity Boards had no duties to perform. The hon. gentleman was mistaken. In the large ports of Quebec and Montreal their duties were of a very important nature.
Hon. Mr. MACKENZIE said his present motion did not deal with the Trinity Board. It referred only to Harbour Masters.
Hon. Mr. TUPPER said that the Harbour Master was a member of that Board at Quebec, if not at Montreal, and the motion would therefore affect that Board. The attention of the Government had been called a few days ago to a serious state of things existing in the Port of Quebec, from which it was seen that the office of a member of that Board was no sinecure. The Board had the management of the commerce and trade of the ports and control of sailors, &c. The trade was, of course, very large at these ports, nearly the whole of the commerce of Ontario going through them. The constitution of these Boards had engaged the attention of the Government, and the expenses at Quebec had been reduced by about fifty per cent. He considered the ports of Montreal and Quebec and the Trinity Boards at those places were not analogous to any other in the Dominion, as the great bulk of the commerce of Canada proper has to come through those ports. Every one knew that the charges connected with shipping at Montreal were very onerous, and much felt by the shipping interest. The effect of the resolution would be to levy an additional tax on everything that came to those ports.
Mr. WORKMAN said that the salary of the harbour master, $1,600, would only amount to a tax of 10 cents on each ship.
Hon. Sir JOHN A. MACDONALD contended that it was necessary that the harbour master should be a Government officer. The water police there were under that officer’s management, and the Government had recently been attacked for not increasing that force.
Hon. Mr. ANGLIN saw no reason why an exception should be made at Quebec. At Halifax and St. John, the harbour master was paid by fees, and the shipping trade at those ports was just as important as at any other.
Mr. SCATCHERD contended that the police force at Quebec should be supported by the local authorities, as their duties were purely of a local nature.
The amendment was put and lost on the following division: Yeas, 42; Nays, 66.
(Division No. 49)
YEAS
Members
Anglin	Bechard
Blake	Bolton
Bourassa	Bowman
Cameron (Huron South)	Cartwright
Cheval	Coffin
Connell	Coupal
Fortier	Godin
Holton	Kempt
Little	Mackenzie
Magill	McConkey
McDougall (Renfrew South)	Metcalfe
Mills	Morison (Victoria North)
Munroe	Oliver
Paquet	Redford
Ross (Prince Edward)	Ross (Victoria, N. S.)
Ross (Wellington Centre)	Rymal
Scatcherd	Snider
Stirton	Thompson (Haldimand)
Thompson (Ontario North)	Wells
White (Hastings East)	Whitehead
Workman	Young-42 NAYS Members
Abott	Archambault
Baker	Barthe
Bellerose	Benoit
Bowell	Bown
Brousseau	Cameron (Peel)
Campbell	Carling
Caron	Carter
Cartier (Sir George-E.)	Colby
Crawford (Brockville)	Cumberland
Daoust	De Cosmos
Dobbie	Dugas
Ferguson	Gaucher
Gaudet	Gendron
Harrison	Hincks (Sir Francis)
Keeler	Killam
Lacerte	Langevin
Langlois	Lapum
Lawson	Macdonald (Sir John A.)
McDonald (Lunenburg)	McDonald (Middlesex West)
Masson (Soulanges)	Masson (Terrebonne)
McCallum	McDougall (Lanark North)
Merritt	Morris
Morison (Niagara)	Nathan
O’Connor	Perry
Pope	Pouliot
Pozer	Robitaille
Ross (Champlain)	Ryan (King’s, N. B.)
Ryan (Montreal West)	Schultz
Shanly	Stephenson
Street	Thompson (Cariboo)
Tilley	Tourangeau
Tupper	Walsh
Webb	Wright (Ottawa County)-66
COMMONS DEBATES
498
June 11, 1872
On the item of $4,000 for salaries, &c., of Indian Commissioners for the Northwest,
Hon. Mr. MACKENZIE asked for the details of this, the Finance Minister having promised to furnish them.
Hon. Sir FRANCIS HINCKS did not remember having made such a promise. The amount was so small that he really did not think it necessary to furnish details.
Hon. Mr. MACKENZIE thought it very strange if they could not know for instance the salary of the Commissioner.
Hon. Sir FRANCIS HINCKS: The salary is $2,000.
The item was concurred in.
On the item of $20,000 for expenses connected with Indians in British Columbia,
Hon. Mr. MACKENZIE asked what was to be done with this money. He did not see why the Indians required protection.
Hon. Sir JOHN A. MACDONALD owing to the absence of the Minister charged with this matter, said an explanation could not be given just now. He believed it was to carry out an arrangement entered into with the Indians by the Local Government of British Columbia.
The item was concurred in.
On the item of $50,000 for cost connected with surveys of the boundary line between Canada and the United States in the North
West,
Hon. Mr. MACKENZIE asked what was the position of this matter.
Hon. Sir JOHN A. MACDONALD said that arrangements had been made with the Government of the United States more than a year ago, but the matter had been delayed from some mistake in voting the amount in Congress. The matter had since however, been rectified, and correspondence was going on as to the formation of the Commission.
Hon. Mr. MACKENZIE had seen it stated that the American Government were assuming their view of the boundary, and directing their surveys accordingly.
Hon. Sir JOHN A. MACDONALD said the line had been taken merely as a matter of convenience. It would be subject to the report of the Commission.
On the item for contingencies, &c., Welland Canal,
Hon. Mr. MACKENZIE quoted from a newspaper to the effect that the contract for the supply of timber on the canal had been given to one John Macdonald, of Thorold, whose tender was much higher than those of others. He asked if there was any truth in this statement.
Hon. Mr. LANGEVIN said the hon. gentleman should have given him notice of his question, as from the numerous works connected with his department, he could not remember every item. He would say, however, that the whole transaction would be found to be perfectly clear, and that the first tender had been accepted. He would give further information to-morrow.
Mr. STREET said the paper quoted by the member for Lambton (Hon. Mr. Mackenzie) had accused him (Mr. Street) of using his influence in connection with this contract, and he would take this occasion to deny publicly that there was any truth in the accusation.
The item was concurred in.
On the item of $17,000, balance on Nova Scotia buildings,
Hon. Mr. MACKENZIE asked whether this was intended to cover interest upon the sum, and whether it was the intention to allow to Nova Scotia the sum withheld on account of interest due on those buildings.
Hon. Sir FRANCIS HINCKS said the amount proposed was exactly the award of the arbitrators. The arbitrators had not awarded that the amount that had been withheld should be repaid, and the Government did not intend to repay it.
The item was passed.
On the item of $20,000 additional for working expenses on the European and North American Railway, in reply to Hon. Mr. Anglin,
Hon. Mr. LANGEVIN said that this was on account of the very severe winter.
The item was concurred in.
On the item for archives, in reply to Hon. Mr. Mackenzie,
Hon. Mr. POPE explained that this had been put in at the suggestion of the Committee, which had met here last year. It was for the purpose of providing for the protection of old historical documents, which it was important should be preserved.
The item was concurred in.
On the item of $10,000 improvements to Kingston harbour,
Hon. Mr. ANGLIN asked if an estimate had been made, and how the money was proposed to be expended.
Hon. Mr. MACKENZIE asked if the local authorities were to expend an equal sum as was the case at Collingwood.
Hon. Mr. LANGEVIN explained that at Collingwood the Northern Railway Company expended an equal sum to that expended by the Government, but Kingston harbour was regarded as a part of the canal system, in consequence of vessels passing through the canals being transhipped at that port.
COMMONS DEBATES
June 11, 1872
499
On the item of $20,000, towards the enlargement of Carillon and Chute a Blondeau canals, with dam and slides for the passage of lumber,
Hon. Mr. MACKENZIE asked for some explanation of this item, in reply to which
Mr. CURRIER reviewed the Ottawa canal system and the object of the proposed expenditure.
Hon. Mr. MACKENZIE said it would appear that the Government were in the habit of imparting information to some members which they withheld from others, and asked if they were to accept the statement of the hon. gentleman as correct.
Hon. Mr. LANGEVIN replied that the member for Ottawa had been one of a deputation which waited on the Government in reference to the improvement of the navigation of the Ottawa River, and he had no doubt his hon. friend had correctly stated the circumstances, but he had not been able to hear his remarks. He would state, however, that the proposed work had been recommended by the Engineer of the Department of Public Works some years previously, and it had been urged that that work had been carried out instead of enlarging the Chute a Blondeau and Carillon Canals. If a dam and lock were built, the Carillon and Chute a Blondeau rapids would be flooded, and the present Carillon and Chute a Blondeau canals would not be used; but the locks in the new works on the Ontario side would be used by the steamboats and other craft on the Ottawa and the slide at that place would be used for the cribs which would benefit and be more satisfactory to both the navigation and lumber interests, at the same time reducing the present expenditure, and doing away with a large annual cost to keep the canals in repair.
Mr. WRIGHT (Ottawa County) had been one of a deputation to the Government, and considered that the work was regarded as a link in the great chain of Ottawa navigation, which had been favoured by both sides of the House, and he thought the item should be allowed to pass without further discussion.
Hon. Mr. MACKENZIE asked if the Government had decided upon a policy as to the depth of canal navigation.
Hon. Mr. LANGEVIN replied that they had adopted the recommendation of the Canal Commissioners in regard to the canals of the Ottawa, viz., to have the locks 200 feet by 45 feet. Beyond that the Government had decided nothing. Some persons had made the remark that a depth of nine feet was too great; but the Government had decided that at all events between Ottawa and Montreal, that should be the depth of the locks.
Mr. SHANLY said the construction of a lock built for Grenville this year would, of course, guide the navigation of the Ottawa, and he entirely differed from the Canal Commissioners in the nine foot navigation. It would lose but little more to make it one foot deeper, and, judging from the low water of past years, he thought the Government should take warning and make all locks ten feet on the
sills, no matter what the depth of the canals might be. He considered the vote asked a very small one in view of the large works undertaken, and he would like to see a sum voted annually for the next few years, until navigation from Ottawa to Montreal was completed. The vote asked would carry out the greatest possible improvement. The work contemplated would have about twenty-six feet of locking, as compared with the present system, and although he had previously opposed the construction of dams to improve navigation, he believed that in this case the dam could be built with the greatest success. He would again urge that, at the Grenville Canal locks were to be nine feet, the sills of all other locks to be constructed should be absolutely ten feet below the level of the Ottawa.
On the item of $5,000 for damages arising out of the construction of the dam at the head of Beauharnois Canal,
Hon. Mr. MACKENZIE said it seemed as if these damages would never cease, and asked what the damages were. It would be better to buy the land altogether.
Hon. Mr. LANGEVIN said the damages had to be paid for, but in the proposed enlargements of canals, care would be taken that in future the deeds taken should cover all damages.
Hon. Mr. MACKENZIE repeated his enquiry what the damages were, and whether they had not been paid for already?
Hon. Mr. LANGEVIN said they had not.
Mr. MASSON (Soulanges) maintained the just nature of the claims for damages.
Mr. CAYLEY spoke in French.
The item was concurred in.
* * *
CANAL CONSTRUCTION
On item of $3,490,000 for construction of canals,
Mr. McCONKEY said he regretted that no assistance had been proposed for the construction of the Georgian Bay Canal. They did not want any money; a company was prepared to build it if they only got a grant of lands. He thought the time had come when something should be done with reference to this important subject.
Hon. Sir FRANCIS HINCKS objected that he was out of order.
Mr. McCONKEY in order to obtain an opportunity of speaking on the subject, moved an amendment. He then went into the steps that had been taken in the matter, and repeated his regret that the Government had taken no notice of such a great national undertaking. He moved that the item be referred back to Committee of the Whole, to consider the propriety of subsidizing, by grants of lands or otherwise, the projected Georgian Bay Canal; a work in the
COMMONS DEBATES
500
June 11, 1872
opinion of this House, of great national importance to this Dominion, and calculated to develop its vast resources.”
Hon. Sir JOHN A. MACDONALD said the hon. member had no doubt attained his object, and it would no doubt be the painful duty of the Speaker to rule the amendment out of order.
The motion was ruled out of order.
Mr. FERGUSON said when the vote was first asked he was glad to find the prosperity of the country so great as had been shown by the remarks of the Minister of Public Works. He congratulated the Minister of Finance on the position of the country, and was very glad to find that promises made at Confederation were about to be completed. The Intercolonial was far advanced at a less expenditure than had been mentioned; the Inter-Oceanic Railway was to be undertaken, and now the most important matter of all, the enlargement of the canals, was to be commenced. The present canal system had occasioned an outlay of some twenty million dollars, and the returns had been very large, and consequently any future expenditure should be undertaken with care. He referred to Baie Verte canal as likely to cause a very large expenditure, and suggested whether the local Government of New Brunswick should not be called upon to contribute to the expenses by land grants. As to the Pacific railway he believed it could be constructed for the grant made; but thought that in this, as in other public works, it would be better to make larger land grants and not grant so much money. He regretted the opposition evidenced in the House to the Georgian Bay Canal. Some years ago that project was recommended by a Committee of the House, obtained by the member for Simcoe; and again in 1869, by a Committee obtained by the member for West Toronto, and the names of the members of that committee, which he read out, would show that the matter ought not to be dealt with slightingly. The report stated that the difference effected by the canal between the Upper Lakes and Liverpool would be 800 miles, and pointed out many advantages to be gained by the construction of the canal. He quoted from the report at length to show that the President of the Council had strongly supported the scheme, and he (Mr. Ferguson) advocated the project in a forcible and elaborate speech.
Mr. LITTLE followed, saying that people of his country were united on the matter, and trusted the Government would give it their favourable consideration.
Concurrence was then taken in the report of the Committee of Supply.
Hon. Sir FRANCIS HINCKS moved the House to go into Committee of Ways and Means, and the resolution granting supplies to Her Majesty was adopted and concurred in, and the bill was then introduced and read a first time.
THE CANADIAN PACIFIC RAILWAY
The Pacific bill was received from the Senate with amendments, which were passed.
* * *
TONNAGE DUES ON THE ST. LAWRENCE
Hon. Sir FRANCIS HINCKS moved the second reading of the Act to raise tonnage dues and wharfage rates for improvements in the navigation of the river St. Lawrence, between Montreal and Quebec.—Carried.
The bill passed the Committee, was read a third time, and passed.
* * *
JUDGES’ SALARIES
Mr. BODWELL moved the second reading of the bill respecting Judges’ salaries.—Carried. The bill was passed through committee, read a third time and passed.
Hon. Sir JOHN A. MACDONALD moved the second reading of the act to amend the act relating to Judges’ travelling allowances to the whole Dominion.—Carried. The bill was passed through committee, read a third time and passed.
* * *
COPYRIGHT
Hon. Sir FRANCIS HINCKS moved the House into committee on the act to amend the act respecting copyright.
The bill was reported with amendments, and read a first and second time.
* * *
RAILWAY MAP
Hon. Sir GEORGE-E. CARTIER moved the adoption of the report of the railway committee, recommending an appropriation to complete a map for the Railway Committee Room, and that the same be paid out of the contingencies of the House.—Carried.
* * *
TRADES’ UNIONS
Hon. Sir JOHN A. MACDONALD moved the second reading of the Act respecting Trades’ Unions.
COMMONS DEBATES
June 11, 1872
501
Mr. MASSON (Terrebonne) regretted that this important bill should have been delayed till this late hour of the session. He hoped the House would unite in appealing to the Government to withdraw it.
Hon. Sir JOHN A. MACDONALD said there was nothing in the bill which could do injustice to either employers or employees. Its object was to repeal a harsh Act, under which mechanics could be indicted for every association they might form. The amendment had been adopted in the British Parliament without a dissenting voice, because it was felt that the old law was too oppressive to be endorsed by free men. Recent events in Toronto had shown the necessity of adopting some amendment here.
Hon. Mr. MACKENZIE said he saw no reason for the objections urged by the member for Terrebonne (Mr. Masson). He (Hon. Mr. Mackenzie) had only one objection to it, that it placed restrictions on workingmen, requiring them to register their Unions. He could not see the necessity for that clause.
After further discussion the motion for the second reading was carried on a division. The bill was passed through Committee of the Whole. On motion for third reading,
Hon. Mr. MACKENZIE suggested that the clause relating to the representation of Trades’ Unions was beyond the jurisdiction of this House. It was a matter for the Local Legislatures and not for this Parliament to deal with.
Mr. MASSON (Terrebonne) renewed his request that the bill be withdrawn for this session.
Hon. Sir JOHN A. MACDONALD said it could not be done without injury to the Dominion, for if workingmen should learn that the old law remained unchanged, they would not come to settle in Canada.
After further discussion the bill was read a third time and passed.
THE CRIMINAL LAW
The Act to amend the Criminal Law relating to violence, threats and molestation, was read a second and third time and passed.
The House adjourned at 12:45 a.m.
COMMONS DEBATES
June 12, 1872
503
HOUSE OF COMMONS
Wednesday, June 12, 1872
