CANADA
HOUSE OF COMMONS DEBATES
OFFICIAL REPORT
SECOND SESSION—1TWENTY-EIGHTH PARLIAMENT
19 ELIZABETH II
VOLUME VI, 1970
COMPRISING THE PERIOD FROM THE SIXTH DAY OF APRIL, 1970, TO THE FIFTH DAY OF MAY, 1970, INCLUSIVE.
INDEX ISSUED IN A SEPARATE VOLUME
22210—11
Queen’s Printer for Canada, Ottawa, 1970
5485
HOUSE OF COMMONS
Monday, April 6, 1970
