OFFICIAL REPORT
OF THE
DEBATES
OF THE
HOUSE OF COMMONS
OF THE
DOMINION OF CANADA
SECOND SESSION-ELEVENTH PARLIAMENT
9-10 EDWARD VII., 190910
VOL. XCVI
COMPRISING THE PERIOD FROM THE THIRTIETH DAY OF MARCH TO THE EIGHTEENTH DAY OF APRIL, INCLUSIVE.
OTTAWA
PRINTED BY C. H. PARMELEE, PRINTER TO THE KING’S MOST EXCELLENT MAJESTY 1909-10
Mouse of Commons debates
SECOND SESSION—ELEVENTH PARLIAMENT
HOUSE OF COMMONS.
Wednesday, March 30, 1910.
