CANADA
HOUSE OF COMMONS
DEBATES
OFFICIAL REPORT
FOURTH SESSION—TWENTY-EIGHTH PARLIAMENT
21 Elizabeth II
VOLUME IV, 1972
COMPRISING THE PERIOD FROM THE EIGHTH DAY OF JUNE, 1972, TO THE 1st DAY OF SEPTEMBER, 1972, INCLUSIVE
INDEX ISSUED IN A SEPARATE VOLUME
Published under the authority of the Speaker of the House of Commons by the Queen's Printer for Canada
Available from Information Canada, Ottawa, Canada
HOUSE OF COMMONS
Thursday. June 8, 1972
2955
