CANADA
HOUSE OF COMMONS
DEBATES
OFFICIAL REPORT
FIRST SESSION—TWENTY-NINTH PARLIAMENT 22 Elizabeth II
VOLUME V, 1973
COMPRISING THE PERIOD FROM THE ELEVENTH DAY OF JUNE, 1973, TO THE EIGHTEENTH DAY OF JULY, 1973, INCLUSIVE
INDEX ISSUED IN A SEPARATE VOLUME
Published under the authority of the Speaker of the House of Commons by the Queens Printer for Canada Available from Information Canada, Ottawa, Canada
26446—1J
4603
HOUSE OF COMMONS
Monday, June 11, 1973
