CANADA
HOUSE OF COMMONS
DEBATES
OFFICIAL REPORT
FIRST SESSION—TWENTY-NINTH PARLIAMENT
22 Elizabeth II
VOLUME VI, 1973
COMPRISING THE PERIOD FROM THE NINETEENTH DAY OF JULY, 1973, TO THE TWENTY-FIRST DAY OF SEPTEMBER, 1973, INCLUSIVE
INDEX ISSUED IN A SEPARATE VOLUME
Published under the authority of the Speaker of the House of Commons by the Queen's Printer for Canada
Available from Information Canada, Ottawa, Canada
HOUSE OF COMMONS
Thursday, July 19, 1973
5775
