CANADA
HOUSE OF COMMONS
DEBATES
OFFICIAL REPORT
SECOND SESSION—THIRTIETH PARLIAMENT 26 Elizabeth II
VOLUME VIII, 1977
COMPRISING THE PERIOD FROM THE SIXTH DAY OF JULY, 1977, TO THE SEVENTEENTH DAY OF OCTOBER, 1977, INCLUSIVE
INDEX ISSUED IN A SEPARATE VOLUME
Published under the authority of the Speaker of the House of Commons by the Queen’s Printer for Canada Available from Printing and Publishing, Supply and Services, Hull, Quebec, Canada K1A 0S9
80020-1 Vi
HOUSE OF COMMONS
Wednesday, July 6, 1977
7353
